From the logfile:
INFO: Time is '01/19/2020 22:49:13'. Temperature is 6.062 degrees Celsius and lights are off.
Switching pin 5 to state 0 (off state).
INFO: Time is '01/19/2020 22:49:24'. Temperature is 6.062 degrees Celsius and lights are off.
Switching pin 5 to state 0 (off state).
INFO: Time is '01/19/2020 22:49:35'. Temperature is 239.937 degrees Celsius and lights are off.
Switching pin 5 to state 0 (off state).
INFO: Time is '01/19/2020 22:49:46'. Temperature is 6.062 degrees Celsius and lights are off.
Switching pin 5 to state 0 (off state).
INFO: Time is '01/19/2020 22:49:57'. Temperature is 6.062 degrees Celsius and lights are off.
Switching pin 5 to state 0 (off state).

From the database (matches with the backup):
 id    | time_seconds      |   inside_temperature_celsius  |   outside_temperature_celsius   |   lights_state
203689 | 1579502975.14056  |                               |   239.937                       |   0
