TIME,INSIDE_TEMPERATURE,OUTSIDE_TEMPERATURE,LIGHTS_STATE

04/09/2017 12:35:25,19.687,16.562,off
04/09/2017 12:35:36,19.75,16.562,off
04/09/2017 12:35:48,19.75,16.562,off
04/09/2017 12:36:00,19.75,16.562,off
