TIME,INSIDE_TEMPERATURE,OUTSIDE_TEMPERATURE,LIGHTS_STATE

10/26/2016 12:19:25,33.937,36.187,off
10/26/2016 12:19:37,33.937,36.125,off
10/26/2016 12:19:49,33.937,36.187,off
10/26/2016 12:20:00,33.937,36.312,off
