TIME,INSIDE_TEMPERATURE,OUTSIDE_TEMPERATURE,LIGHTS_STATE

03/16/2018 12:40:25,17.437,12.812,off
03/16/2018 12:40:37,17.437,12.812,off
03/16/2018 12:40:49,17.437,12.812,off
03/16/2018 12:41:01,17.437,12.75,off
