TIME,INSIDE_TEMPERATURE,OUTSIDE_TEMPERATURE,LIGHTS_STATE

10/24/2017 12:58:25,36.125,42.437,off
10/24/2017 12:58:37,36.125,42.687,off
10/24/2017 12:58:48,36.187,42.875,off
10/24/2017 12:59:00,36.125,42.937,off
