TIME,INSIDE_TEMPERATURE,OUTSIDE_TEMPERATURE,LIGHTS_STATE

02/22/2018 12:27:25,21.875,27.812,off
02/22/2018 12:27:37,21.875,28.25,off
02/22/2018 12:27:48,21.812,28.312,off
02/22/2018 12:28:00,21.875,28.062,off
