TIME,INSIDE_TEMPERATURE,OUTSIDE_TEMPERATURE,LIGHTS_STATE

12/25/2017 12:02:25,19.562,15.125,off
12/25/2017 12:02:37,19.562,15.062,off
12/25/2017 12:02:48,19.562,15.062,off
12/25/2017 12:03:00,19.562,15.062,off
