TIME,INSIDE_TEMPERATURE,OUTSIDE_TEMPERATURE,LIGHTS_STATE

09/24/2017 12:46:25,29.375,27.0,off
09/24/2017 12:46:37,29.375,27.0,off
09/24/2017 12:46:49,29.437,27.0,off
09/24/2017 12:47:02,29.5,27.0,off
