TIME,INSIDE_TEMPERATURE,OUTSIDE_TEMPERATURE,LIGHTS_STATE

08/23/2017 12:47:25,30.437,28.125,off
08/23/2017 12:47:37,30.437,28.125,off
08/23/2017 12:47:48,30.437,28.125,off
08/23/2017 12:48:00,30.437,28.125,off
