TIME,INSIDE_TEMPERATURE,OUTSIDE_TEMPERATURE,LIGHTS_STATE

01/03/2018 12:31:25,17.0,12.812,off
01/03/2018 12:31:37,17.0,12.75,off
01/03/2018 12:31:49,17.0,12.812,off
01/03/2018 12:32:00,17.0,12.75,off
