TIME,INSIDE_TEMPERATURE,OUTSIDE_TEMPERATURE,LIGHTS_STATE

11/20/2016 12:10:25,21.562,16.75,off
11/20/2016 12:10:37,21.562,16.75,off
11/20/2016 12:10:48,21.562,16.75,off
11/20/2016 12:11:00,21.562,16.812,off
