TIME,INSIDE_TEMPERATURE,OUTSIDE_TEMPERATURE,LIGHTS_STATE

12/13/2016 12:53:25,18.062,13.875,off
12/13/2016 12:53:36,18.062,13.875,off
12/13/2016 12:53:49,18.062,13.937,off
12/13/2016 12:54:00,18.062,13.875,off
