TIME,INSIDE_TEMPERATURE,OUTSIDE_TEMPERATURE,LIGHTS_STATE

06/24/2017 12:08:25,29.812,27.312,off
06/24/2017 12:08:37,29.812,27.312,off
06/24/2017 12:08:49,29.812,27.25,off
06/24/2017 12:09:01,29.812,27.25,off
