TIME,INSIDE_TEMPERATURE,OUTSIDE_TEMPERATURE,LIGHTS_STATE

06/25/2017 12:38:25,27.812,25.25,off
06/25/2017 12:38:37,27.875,25.187,off
06/25/2017 12:38:48,27.812,25.187,off
06/25/2017 12:39:00,27.812,25.125,off
