TIME,INSIDE_TEMPERATURE,OUTSIDE_TEMPERATURE,LIGHTS_STATE

03/23/2017 12:26:25,20.875,17.937,off
03/23/2017 12:26:37,20.875,17.875,off
03/23/2017 12:26:49,20.875,17.875,off
03/23/2017 12:27:00,20.812,17.812,off
