TIME,INSIDE_TEMPERATURE,OUTSIDE_TEMPERATURE,LIGHTS_STATE

04/23/2017 12:51:25,22.312,19.125,off
04/23/2017 12:51:36,22.312,19.187,off
04/23/2017 12:51:48,22.312,19.25,off
04/23/2017 12:52:00,22.312,19.312,off
