TIME,INSIDE_TEMPERATURE,OUTSIDE_TEMPERATURE,LIGHTS_STATE

07/06/2016 12:40:25,24.687,24.375,off
07/06/2016 12:40:36,24.75,24.437,off
07/06/2016 12:40:48,24.75,24.437,off
07/06/2016 12:41:00,24.75,24.437,off
