TIME,INSIDE_TEMPERATURE,OUTSIDE_TEMPERATURE,LIGHTS_STATE

03/08/2018 12:10:26,26.562,23.25,off
03/08/2018 12:10:38,26.562,23.187,off
03/08/2018 12:10:49,26.625,23.062,off
03/08/2018 12:11:01,26.562,23.062,off
