TIME,INSIDE_TEMPERATURE,OUTSIDE_TEMPERATURE,LIGHTS_STATE

10/24/2016 12:44:25,22.375,19.187,off
10/24/2016 12:44:37,22.375,19.187,off
10/24/2016 12:44:48,22.375,19.187,off
10/24/2016 12:45:00,22.375,19.187,off
