TIME,INSIDE_TEMPERATURE,OUTSIDE_TEMPERATURE,LIGHTS_STATE

08/17/2017 12:26:25,30.687,28.562,off
08/17/2017 12:26:37,30.687,28.625,off
08/17/2017 12:26:48,30.687,28.687,off
08/17/2017 12:27:00,30.75,28.625,off
