TIME,INSIDE_TEMPERATURE,OUTSIDE_TEMPERATURE,LIGHTS_STATE

03/29/2017 12:16:25,25.312,22.5,off
03/29/2017 12:16:37,25.312,22.5,off
03/29/2017 12:16:48,25.312,22.5,off
03/29/2017 12:17:00,25.312,22.562,off
