TIME,INSIDE_TEMPERATURE,OUTSIDE_TEMPERATURE,LIGHTS_STATE

12/29/2016 12:35:25,20.187,16.5,off
12/29/2016 12:35:37,20.187,16.437,off
12/29/2016 12:35:49,20.25,16.437,off
12/29/2016 12:36:02,20.25,16.5,off
