TIME,INSIDE_TEMPERATURE,OUTSIDE_TEMPERATURE,LIGHTS_STATE

01/22/2018 12:34:25,22.125,16.062,off
01/22/2018 12:34:37,22.125,16.062,off
01/22/2018 12:34:49,22.125,16.062,off
01/22/2018 12:35:01,22.125,16.062,off
