TIME,INSIDE_TEMPERATURE,OUTSIDE_TEMPERATURE,LIGHTS_STATE

08/29/2017 12:27:25,30.625,28.437,off
08/29/2017 12:27:37,30.625,28.5,off
08/29/2017 12:27:49,30.625,28.5,off
08/29/2017 12:28:01,30.625,28.562,off
