TIME,INSIDE_TEMPERATURE,OUTSIDE_TEMPERATURE,LIGHTS_STATE

08/20/2017 12:07:25,29.375,27.5,off
08/20/2017 12:07:37,29.437,27.5,off
08/20/2017 12:07:48,29.437,27.5,off
08/20/2017 12:08:00,29.5,27.437,off
