TIME,INSIDE_TEMPERATURE,OUTSIDE_TEMPERATURE,LIGHTS_STATE

09/20/2017 12:45:25,24.625,21.125,off
09/20/2017 12:45:37,24.625,21.25,off
09/20/2017 12:45:49,24.625,21.312,off
09/20/2017 12:46:01,24.687,21.25,off
