TIME,INSIDE_TEMPERATURE,OUTSIDE_TEMPERATURE,LIGHTS_STATE

03/03/2017 12:13:25,26.437,27.687,off
03/03/2017 12:13:37,26.437,27.75,off
03/03/2017 12:13:49,26.437,27.812,off
03/03/2017 12:14:00,26.437,27.875,off
