TIME,INSIDE_TEMPERATURE,OUTSIDE_TEMPERATURE,LIGHTS_STATE

02/10/2018 12:28:25,27.062,25.125,off
02/10/2018 12:28:37,27.125,25.187,off
02/10/2018 12:28:49,27.062,25.25,off
02/10/2018 12:29:00,27.125,25.312,off
