TIME,INSIDE_TEMPERATURE,OUTSIDE_TEMPERATURE,LIGHTS_STATE

04/05/2017 12:17:25,27.375,25.0,off
04/05/2017 12:17:37,27.375,25.0,off
04/05/2017 12:17:48,27.375,24.937,off
04/05/2017 12:18:00,27.375,25.0,off
