TIME,INSIDE_TEMPERATURE,OUTSIDE_TEMPERATURE,LIGHTS_STATE

04/20/2017 12:02:26,23.437,19.687,off
04/20/2017 12:02:37,23.437,19.625,off
04/20/2017 12:02:49,23.437,19.625,off
04/20/2017 12:03:01,23.437,19.625,off
