TIME,INSIDE_TEMPERATURE,OUTSIDE_TEMPERATURE,LIGHTS_STATE

07/06/2016 12:49:26,24.812,24.562,off
07/06/2016 12:49:37,24.875,24.562,off
07/06/2016 12:49:49,24.875,24.5,off
07/06/2016 12:50:01,24.875,24.5,off
