TIME,INSIDE_TEMPERATURE,OUTSIDE_TEMPERATURE,LIGHTS_STATE

02/05/2018 12:42:25,30.25,38.0,off
02/05/2018 12:42:37,30.25,38.25,off
02/05/2018 12:42:49,30.25,38.375,off
02/05/2018 12:43:00,30.25,38.5,off
