TIME,INSIDE_TEMPERATURE,OUTSIDE_TEMPERATURE,LIGHTS_STATE

12/29/2016 12:43:25,20.0,16.0,off
12/29/2016 12:43:36,19.937,15.937,off
12/29/2016 12:43:48,20.0,15.875,off
12/29/2016 12:44:00,19.937,15.875,off
