TIME,INSIDE_TEMPERATURE,OUTSIDE_TEMPERATURE,LIGHTS_STATE

12/09/2016 12:11:25,21.375,17.625,off
12/09/2016 12:11:37,21.375,17.625,off
12/09/2016 12:11:48,21.375,17.625,off
12/09/2016 12:12:00,21.375,17.687,off
