TIME,INSIDE_TEMPERATURE,OUTSIDE_TEMPERATURE,LIGHTS_STATE

07/06/2017 12:25:25,33.437,30.0,off
07/06/2017 12:25:37,33.437,30.0,off
07/06/2017 12:25:49,33.437,30.0,off
07/06/2017 12:26:01,33.5,29.937,off
