TIME,INSIDE_TEMPERATURE,OUTSIDE_TEMPERATURE,LIGHTS_STATE

02/07/2017 12:24:25,20.937,16.625,off
02/07/2017 12:24:37,20.937,16.625,off
02/07/2017 12:24:49,20.937,16.687,off
02/07/2017 12:25:00,20.937,16.687,off
