TIME,INSIDE_TEMPERATURE,OUTSIDE_TEMPERATURE,LIGHTS_STATE

02/04/2017 12:09:25,25.5,24.75,off
02/04/2017 12:09:37,25.5,24.687,off
02/04/2017 12:09:49,25.437,24.5,off
02/04/2017 12:10:00,25.437,24.625,off
