TIME,INSIDE_TEMPERATURE,OUTSIDE_TEMPERATURE,LIGHTS_STATE

10/05/2017 12:09:25,29.75,26.875,off
10/05/2017 12:09:37,29.75,26.937,off
10/05/2017 12:09:49,29.75,26.937,off
10/05/2017 12:10:01,29.75,26.937,off
