TIME,INSIDE_TEMPERATURE,OUTSIDE_TEMPERATURE,LIGHTS_STATE

07/31/2016 12:29:25,28.812,28.875,off
07/31/2016 12:29:36,28.812,28.875,off
07/31/2016 12:29:48,28.812,28.875,off
07/31/2016 12:30:00,28.812,28.875,off
