TIME,INSIDE_TEMPERATURE,OUTSIDE_TEMPERATURE,LIGHTS_STATE

09/18/2016 12:08:27,31.437,33.937,off
09/18/2016 12:08:38,31.437,33.812,off
09/18/2016 12:08:50,31.437,33.687,off
09/18/2016 12:09:02,31.437,33.687,off
