TIME,INSIDE_TEMPERATURE,OUTSIDE_TEMPERATURE,LIGHTS_STATE

04/11/2017 12:57:26,26.812,23.0,off
04/11/2017 12:57:37,26.812,22.937,off
04/11/2017 12:57:49,26.875,22.937,off
04/11/2017 12:58:01,26.875,22.937,off
