TIME,INSIDE_TEMPERATURE,OUTSIDE_TEMPERATURE,LIGHTS_STATE

03/14/2017 12:20:26,27.187,24.375,off
03/14/2017 12:20:37,27.312,24.437,off
03/14/2017 12:20:49,27.375,24.437,off
03/14/2017 12:21:01,27.437,24.5,off
