TIME,INSIDE_TEMPERATURE,OUTSIDE_TEMPERATURE,LIGHTS_STATE

06/20/2017 12:26:25,35.812,32.812,off
06/20/2017 12:26:37,35.812,32.812,off
06/20/2017 12:26:49,35.812,32.812,off
06/20/2017 12:27:00,35.812,32.75,off
