TIME,INSIDE_TEMPERATURE,OUTSIDE_TEMPERATURE,LIGHTS_STATE

04/18/2017 12:56:26,23.437,19.125,off
04/18/2017 12:56:37,23.437,19.125,off
04/18/2017 12:56:49,23.437,19.125,off
04/18/2017 12:57:01,23.437,19.187,off
