TIME,INSIDE_TEMPERATURE,OUTSIDE_TEMPERATURE,LIGHTS_STATE

04/13/2017 12:00:25,21.125,16.75,off
04/13/2017 12:00:37,21.125,16.875,off
04/13/2017 12:00:49,21.187,16.937,off
04/13/2017 12:01:00,21.187,16.875,off
