TIME,INSIDE_TEMPERATURE,OUTSIDE_TEMPERATURE,LIGHTS_STATE

10/29/2017 12:33:25,24.0,21.187,off
10/29/2017 12:33:36,24.0,21.187,off
10/29/2017 12:33:48,24.0,21.25,off
10/29/2017 12:34:00,24.0,21.125,off
