TIME,INSIDE_TEMPERATURE,OUTSIDE_TEMPERATURE,LIGHTS_STATE

06/17/2017 12:31:25,34.437,29.5,off
06/17/2017 12:31:37,34.437,29.5,off
06/17/2017 12:31:49,34.437,29.5,off
06/17/2017 12:32:00,34.437,29.5,off
