TIME,INSIDE_TEMPERATURE,OUTSIDE_TEMPERATURE,LIGHTS_STATE

01/12/2018 12:20:25,20.5,19.5,off
01/12/2018 12:20:37,20.5,19.5,off
01/12/2018 12:20:49,20.5,19.625,off
01/12/2018 12:21:01,20.562,19.875,off
