TIME,INSIDE_TEMPERATURE,OUTSIDE_TEMPERATURE,LIGHTS_STATE

01/19/2017 12:15:25,21.0,18.125,off
01/19/2017 12:15:36,21.062,18.437,off
01/19/2017 12:15:48,21.125,18.562,off
01/19/2017 12:16:00,21.125,18.812,off
