TIME,INSIDE_TEMPERATURE,OUTSIDE_TEMPERATURE,LIGHTS_STATE

01/06/2018 12:36:25,24.25,23.125,off
01/06/2018 12:36:37,24.25,22.75,off
01/06/2018 12:36:49,24.25,22.375,off
01/06/2018 12:37:00,24.25,22.187,off
