TIME,INSIDE_TEMPERATURE,OUTSIDE_TEMPERATURE,LIGHTS_STATE

10/31/2016 12:57:25,25.437,27.937,off
10/31/2016 12:57:37,25.437,27.875,off
10/31/2016 12:57:48,25.437,28.0,off
10/31/2016 12:58:00,25.437,28.062,off
