TIME,INSIDE_TEMPERATURE,OUTSIDE_TEMPERATURE,LIGHTS_STATE

05/02/2017 12:32:26,31.5,29.625,off
05/02/2017 12:32:37,31.5,29.562,off
05/02/2017 12:32:49,31.5,29.562,off
05/02/2017 12:33:01,31.5,29.562,off
