TIME,INSIDE_TEMPERATURE,OUTSIDE_TEMPERATURE,LIGHTS_STATE

10/24/2016 12:26:25,22.437,19.312,off
10/24/2016 12:26:36,22.437,19.312,off
10/24/2016 12:26:48,22.437,19.375,off
10/24/2016 12:27:00,22.437,19.375,off
