TIME,INSIDE_TEMPERATURE,OUTSIDE_TEMPERATURE,LIGHTS_STATE

09/14/2016 12:15:26,25.875,26.375,off
09/14/2016 12:15:37,25.937,26.562,off
09/14/2016 12:15:49,25.875,26.812,off
09/14/2016 12:16:01,25.937,26.937,off
