TIME,INSIDE_TEMPERATURE,OUTSIDE_TEMPERATURE,LIGHTS_STATE

06/12/2017 12:08:26,23.125,18.687,off
06/12/2017 12:08:37,23.125,18.625,off
06/12/2017 12:08:49,23.125,18.562,off
06/12/2017 12:09:01,23.187,18.437,off
