TIME,INSIDE_TEMPERATURE,OUTSIDE_TEMPERATURE,LIGHTS_STATE

07/11/2017 12:10:25,32.437,29.187,off
07/11/2017 12:10:37,32.437,29.187,off
07/11/2017 12:10:49,32.437,29.187,off
07/11/2017 12:11:01,32.437,29.187,off
