TIME,INSIDE_TEMPERATURE,OUTSIDE_TEMPERATURE,LIGHTS_STATE

07/08/2016 12:53:25,24.375,24.312,off
07/08/2016 12:53:37,24.375,24.312,off
07/08/2016 12:53:48,24.437,24.375,off
07/08/2016 12:54:00,24.437,24.375,off
