TIME,INSIDE_TEMPERATURE,OUTSIDE_TEMPERATURE,LIGHTS_STATE

03/24/2017 12:41:25,16.5,10.937,off
03/24/2017 12:41:37,16.562,11.0,off
03/24/2017 12:41:48,16.562,11.0,off
03/24/2017 12:42:00,16.562,11.0,off
