TIME,INSIDE_TEMPERATURE,OUTSIDE_TEMPERATURE,LIGHTS_STATE

04/27/2017 12:54:25,23.625,20.875,off
04/27/2017 12:54:36,23.625,20.937,off
04/27/2017 12:54:48,23.625,20.937,off
04/27/2017 12:55:00,23.625,20.937,off
