TIME,INSIDE_TEMPERATURE,OUTSIDE_TEMPERATURE,LIGHTS_STATE

07/26/2017 12:49:26,29.812,26.625,off
07/26/2017 12:49:37,29.812,26.625,off
07/26/2017 12:49:49,29.812,26.625,off
07/26/2017 12:50:01,29.875,26.625,off
