TIME,INSIDE_TEMPERATURE,OUTSIDE_TEMPERATURE,LIGHTS_STATE

01/12/2018 12:25:25,20.625,18.062,off
01/12/2018 12:25:37,20.625,17.812,off
01/12/2018 12:25:49,20.687,17.687,off
01/12/2018 12:26:01,20.687,17.5,off
