TIME,INSIDE_TEMPERATURE,OUTSIDE_TEMPERATURE,LIGHTS_STATE

02/11/2017 12:00:25,27.437,21.75,off
02/11/2017 12:00:37,27.375,21.562,off
02/11/2017 12:00:49,27.375,21.25,off
02/11/2017 12:01:00,27.312,20.937,off
