TIME,INSIDE_TEMPERATURE,OUTSIDE_TEMPERATURE,LIGHTS_STATE

08/31/2017 12:23:25,34.0,33.812,off
08/31/2017 12:23:37,34.062,33.75,off
08/31/2017 12:23:49,34.062,33.75,off
08/31/2017 12:24:00,34.062,33.812,off
