TIME,INSIDE_TEMPERATURE,OUTSIDE_TEMPERATURE,LIGHTS_STATE

03/20/2018 12:18:25,17.062,10.75,off
03/20/2018 12:18:37,17.0,10.75,off
03/20/2018 12:18:48,17.0,10.812,off
03/20/2018 12:19:00,17.0,10.812,off
