TIME,INSIDE_TEMPERATURE,OUTSIDE_TEMPERATURE,LIGHTS_STATE

08/03/2017 12:51:26,39.0,38.0,off
08/03/2017 12:51:37,39.0,38.062,off
08/03/2017 12:51:49,39.0,38.125,off
08/03/2017 12:52:01,39.0,38.125,off
