TIME,INSIDE_TEMPERATURE,OUTSIDE_TEMPERATURE,LIGHTS_STATE

12/08/2016 12:55:25,17.375,15.625,off
12/08/2016 12:55:36,17.437,15.687,off
12/08/2016 12:55:48,17.437,15.625,off
12/08/2016 12:56:00,17.437,15.687,off
