TIME,INSIDE_TEMPERATURE,OUTSIDE_TEMPERATURE,LIGHTS_STATE

03/16/2017 12:20:26,25.687,21.937,off
03/16/2017 12:20:37,25.75,22.0,off
03/16/2017 12:20:49,25.687,22.0,off
03/16/2017 12:21:02,25.687,22.062,off
