TIME,INSIDE_TEMPERATURE,OUTSIDE_TEMPERATURE,LIGHTS_STATE

02/21/2017 12:17:25,23.875,20.125,off
02/21/2017 12:17:37,23.875,20.125,off
02/21/2017 12:17:49,23.875,20.125,off
02/21/2017 12:18:00,23.812,20.125,off
