TIME,INSIDE_TEMPERATURE,OUTSIDE_TEMPERATURE,LIGHTS_STATE

10/16/2017 12:41:25,34.625,35.812,off
10/16/2017 12:41:37,34.625,35.687,off
10/16/2017 12:41:49,34.625,35.437,off
10/16/2017 12:42:01,34.625,35.25,off
