TIME,INSIDE_TEMPERATURE,OUTSIDE_TEMPERATURE,LIGHTS_STATE

12/27/2017 12:09:26,22.812,24.375,off
12/27/2017 12:09:37,22.875,24.25,off
12/27/2017 12:09:49,22.875,24.312,off
12/27/2017 12:10:01,22.875,24.437,off
