TIME,INSIDE_TEMPERATURE,OUTSIDE_TEMPERATURE,LIGHTS_STATE

07/07/2017 12:49:25,37.625,32.75,off
07/07/2017 12:49:37,37.625,32.75,off
07/07/2017 12:49:49,37.625,32.75,off
07/07/2017 12:50:00,37.625,32.75,off
