TIME,INSIDE_TEMPERATURE,OUTSIDE_TEMPERATURE,LIGHTS_STATE

12/25/2016 12:06:25,18.875,14.375,off
12/25/2016 12:06:37,18.937,14.437,off
12/25/2016 12:06:48,18.875,14.312,off
12/25/2016 12:07:00,18.937,14.25,off
