TIME,INSIDE_TEMPERATURE,OUTSIDE_TEMPERATURE,LIGHTS_STATE

11/04/2016 12:47:25,30.5,33.625,off
11/04/2016 12:47:36,30.5,33.625,off
11/04/2016 12:47:48,30.5,33.437,off
11/04/2016 12:48:00,30.5,33.562,off
