TIME,INSIDE_TEMPERATURE,OUTSIDE_TEMPERATURE,LIGHTS_STATE

10/12/2017 12:04:25,27.937,28.75,off
10/12/2017 12:04:37,28.0,28.875,off
10/12/2017 12:04:49,28.0,28.812,off
10/12/2017 12:05:00,28.0,28.75,off
