TIME,INSIDE_TEMPERATURE,OUTSIDE_TEMPERATURE,LIGHTS_STATE

08/11/2017 12:03:25,28.062,25.812,off
08/11/2017 12:03:37,28.125,25.75,off
08/11/2017 12:03:48,28.125,25.75,off
08/11/2017 12:04:00,28.125,25.75,off
