TIME,INSIDE_TEMPERATURE,OUTSIDE_TEMPERATURE,LIGHTS_STATE

04/29/2017 12:50:25,25.75,23.625,off
04/29/2017 12:50:37,25.75,23.625,off
04/29/2017 12:50:48,25.75,23.687,off
04/29/2017 12:51:00,25.75,23.75,off
