TIME,INSIDE_TEMPERATURE,OUTSIDE_TEMPERATURE,LIGHTS_STATE

07/17/2017 12:58:25,37.437,34.375,off
07/17/2017 12:58:37,37.437,34.312,off
07/17/2017 12:58:49,37.437,34.25,off
07/17/2017 12:59:00,37.437,34.25,off
