TIME,INSIDE_TEMPERATURE,OUTSIDE_TEMPERATURE,LIGHTS_STATE

09/08/2017 12:32:26,28.687,26.562,off
09/08/2017 12:32:37,28.687,26.625,off
09/08/2017 12:32:49,28.687,26.625,off
09/08/2017 12:33:01,28.75,26.687,off
