TIME,INSIDE_TEMPERATURE,OUTSIDE_TEMPERATURE,LIGHTS_STATE

03/28/2018 12:30:26,24.875,19.562,off
03/28/2018 12:30:37,24.937,19.562,off
03/28/2018 12:30:49,24.875,19.5,off
03/28/2018 12:31:01,24.937,19.5,off
