TIME,INSIDE_TEMPERATURE,OUTSIDE_TEMPERATURE,LIGHTS_STATE

04/10/2017 12:31:25,22.375,19.437,off
04/10/2017 12:31:37,22.375,19.5,off
04/10/2017 12:31:49,22.437,19.5,off
04/10/2017 12:32:00,22.437,19.5,off
