TIME,INSIDE_TEMPERATURE,OUTSIDE_TEMPERATURE,LIGHTS_STATE

12/30/2017 12:18:25,21.625,23.875,off
12/30/2017 12:18:37,21.625,23.812,off
12/30/2017 12:18:49,21.625,23.875,off
12/30/2017 12:19:01,21.625,24.0,off
