TIME,INSIDE_TEMPERATURE,OUTSIDE_TEMPERATURE,LIGHTS_STATE

12/24/2016 12:41:25,19.687,16.25,off
12/24/2016 12:41:37,19.687,16.125,off
12/24/2016 12:41:48,19.687,15.937,off
12/24/2016 12:42:01,19.687,15.812,off
