TIME,INSIDE_TEMPERATURE,OUTSIDE_TEMPERATURE,LIGHTS_STATE

11/18/2016 12:46:25,24.625,21.625,off
11/18/2016 12:46:37,24.625,21.625,off
11/18/2016 12:46:49,24.625,21.75,off
11/18/2016 12:47:00,24.625,21.812,off
