TIME,INSIDE_TEMPERATURE,OUTSIDE_TEMPERATURE,LIGHTS_STATE

01/05/2018 12:08:25,20.625,16.25,off
01/05/2018 12:08:37,20.625,16.25,off
01/05/2018 12:08:49,20.687,16.312,off
01/05/2018 12:09:00,20.625,16.25,off
