TIME,INSIDE_TEMPERATURE,OUTSIDE_TEMPERATURE,LIGHTS_STATE

02/13/2018 12:58:25,23.375,23.0,off
02/13/2018 12:58:37,23.375,22.937,off
02/13/2018 12:58:49,23.375,22.812,off
02/13/2018 12:59:01,23.375,22.687,off
