TIME,INSIDE_TEMPERATURE,OUTSIDE_TEMPERATURE,LIGHTS_STATE

09/30/2017 12:18:25,28.75,26.125,off
09/30/2017 12:18:37,28.75,26.125,off
09/30/2017 12:18:48,28.75,26.187,off
09/30/2017 12:19:00,28.812,26.125,off
