TIME,INSIDE_TEMPERATURE,OUTSIDE_TEMPERATURE,LIGHTS_STATE

03/19/2017 12:28:25,23.437,20.625,off
03/19/2017 12:28:37,23.437,20.625,off
03/19/2017 12:28:48,23.437,20.562,off
03/19/2017 12:29:00,23.437,20.5,off
