TIME,INSIDE_TEMPERATURE,OUTSIDE_TEMPERATURE,LIGHTS_STATE

01/05/2017 12:23:25,20.5,14.375,off
01/05/2017 12:23:37,20.437,14.375,off
01/05/2017 12:23:48,20.437,14.375,off
01/05/2017 12:24:00,20.437,14.5,off
