TIME,INSIDE_TEMPERATURE,OUTSIDE_TEMPERATURE,LIGHTS_STATE

03/15/2018 12:38:26,18.187,12.25,off
03/15/2018 12:38:37,18.187,12.312,off
03/15/2018 12:38:49,18.187,12.312,off
03/15/2018 12:39:01,18.187,12.312,off
