TIME,INSIDE_TEMPERATURE,OUTSIDE_TEMPERATURE,LIGHTS_STATE

03/06/2017 12:37:26,20.5,16.187,off
03/06/2017 12:37:37,20.5,16.062,off
03/06/2017 12:37:49,20.5,16.062,off
03/06/2017 12:38:01,20.5,16.125,off
