TIME,INSIDE_TEMPERATURE,OUTSIDE_TEMPERATURE,LIGHTS_STATE

10/17/2017 12:11:25,30.187,29.375,off
10/17/2017 12:11:37,30.187,29.375,off
10/17/2017 12:11:48,30.187,29.187,off
10/17/2017 12:12:00,30.187,29.125,off
