TIME,INSIDE_TEMPERATURE,OUTSIDE_TEMPERATURE,LIGHTS_STATE

04/25/2017 12:02:25,23.0,18.687,off
04/25/2017 12:02:37,23.0,18.75,off
04/25/2017 12:02:48,23.0,18.625,off
04/25/2017 12:03:00,23.0,18.687,off
