TIME,INSIDE_TEMPERATURE,OUTSIDE_TEMPERATURE,LIGHTS_STATE

03/17/2017 12:25:25,24.25,22.562,off
03/17/2017 12:25:38,24.25,22.625,off
03/17/2017 12:25:49,24.25,22.625,off
03/17/2017 12:26:01,24.25,22.687,off
