TIME,INSIDE_TEMPERATURE,OUTSIDE_TEMPERATURE,LIGHTS_STATE

05/14/2017 12:36:25,21.562,18.562,off
05/14/2017 12:36:37,21.562,18.562,off
05/14/2017 12:36:49,21.562,18.562,off
05/14/2017 12:37:00,21.562,18.562,off
