TIME,INSIDE_TEMPERATURE,OUTSIDE_TEMPERATURE,LIGHTS_STATE

03/12/2018 12:18:25,26.625,32.062,off
03/12/2018 12:18:37,26.625,32.187,off
03/12/2018 12:18:49,26.625,32.5,off
03/12/2018 12:19:01,26.625,32.562,off
