TIME,INSIDE_TEMPERATURE,OUTSIDE_TEMPERATURE,LIGHTS_STATE

02/09/2017 12:08:25,20.187,15.375,off
02/09/2017 12:08:37,20.187,15.375,off
02/09/2017 12:08:49,20.187,15.375,off
02/09/2017 12:09:00,20.187,15.375,off
