TIME,INSIDE_TEMPERATURE,OUTSIDE_TEMPERATURE,LIGHTS_STATE

01/19/2018 12:18:25,25.125,20.312,off
01/19/2018 12:18:37,25.125,20.437,off
01/19/2018 12:18:48,25.125,20.562,off
01/19/2018 12:19:00,25.125,20.75,off
