TIME,INSIDE_TEMPERATURE,OUTSIDE_TEMPERATURE,LIGHTS_STATE

03/13/2018 12:42:25,20.625,14.062,off
03/13/2018 12:42:37,20.625,14.062,off
03/13/2018 12:42:49,20.625,14.125,off
03/13/2018 12:43:01,20.625,14.125,off
