TIME,INSIDE_TEMPERATURE,OUTSIDE_TEMPERATURE,LIGHTS_STATE

08/31/2017 12:25:25,33.937,33.687,off
08/31/2017 12:25:37,33.75,33.625,off
08/31/2017 12:25:49,33.875,33.625,off
08/31/2017 12:26:00,33.937,33.625,off
