TIME,INSIDE_TEMPERATURE,OUTSIDE_TEMPERATURE,LIGHTS_STATE

06/25/2016 12:13:25,30.562,32.0,off
06/25/2016 12:13:37,30.562,32.0,off
06/25/2016 12:13:49,30.562,31.937,off
06/25/2016 12:14:00,30.562,31.937,off
