TIME,INSIDE_TEMPERATURE,OUTSIDE_TEMPERATURE,LIGHTS_STATE

01/01/2018 12:20:25,23.625,19.625,off
01/01/2018 12:20:37,23.625,19.625,off
01/01/2018 12:20:48,23.687,19.625,off
01/01/2018 12:21:00,23.687,19.625,off
