TIME,INSIDE_TEMPERATURE,OUTSIDE_TEMPERATURE,LIGHTS_STATE

02/10/2018 12:46:25,28.187,25.812,off
02/10/2018 12:46:37,28.187,25.75,off
02/10/2018 12:46:49,28.187,25.687,off
02/10/2018 12:47:01,28.187,25.625,off
