TIME,INSIDE_TEMPERATURE,OUTSIDE_TEMPERATURE,LIGHTS_STATE

12/29/2016 12:22:25,20.375,15.875,off
12/29/2016 12:22:36,20.375,15.875,off
12/29/2016 12:22:48,20.375,16.062,off
12/29/2016 12:23:00,20.312,16.125,off
