TIME,INSIDE_TEMPERATURE,OUTSIDE_TEMPERATURE,LIGHTS_STATE

09/26/2017 12:10:25,31.187,28.625,off
09/26/2017 12:10:37,31.25,28.687,off
09/26/2017 12:10:48,31.25,28.75,off
09/26/2017 12:11:00,31.25,28.812,off
