TIME,INSIDE_TEMPERATURE,OUTSIDE_TEMPERATURE,LIGHTS_STATE

12/30/2017 12:32:25,21.875,20.812,off
12/30/2017 12:32:37,21.875,20.875,off
12/30/2017 12:32:49,21.875,20.875,off
12/30/2017 12:33:01,21.875,20.75,off
