TIME,INSIDE_TEMPERATURE,OUTSIDE_TEMPERATURE,LIGHTS_STATE

02/16/2017 12:05:25,28.062,22.0,off
02/16/2017 12:05:36,28.062,22.0,off
02/16/2017 12:05:48,28.062,21.937,off
02/16/2017 12:06:00,28.125,22.0,off
