TIME,INSIDE_TEMPERATURE,OUTSIDE_TEMPERATURE,LIGHTS_STATE

12/14/2016 12:45:25,22.0,19.312,off
12/14/2016 12:45:37,22.0,19.25,off
12/14/2016 12:45:48,22.0,19.125,off
12/14/2016 12:46:00,22.0,19.062,off
