TIME,INSIDE_TEMPERATURE,OUTSIDE_TEMPERATURE,LIGHTS_STATE

05/17/2017 12:04:25,22.187,19.937,off
05/17/2017 12:04:37,22.187,19.937,off
05/17/2017 12:04:49,22.187,19.937,off
05/17/2017 12:05:00,22.187,20.0,off
