TIME,INSIDE_TEMPERATURE,OUTSIDE_TEMPERATURE,LIGHTS_STATE

07/17/2016 12:40:25,26.312,26.312,off
07/17/2016 12:40:37,26.375,26.312,off
07/17/2016 12:40:49,26.375,26.312,off
07/17/2016 12:41:00,26.375,26.312,off
