TIME,INSIDE_TEMPERATURE,OUTSIDE_TEMPERATURE,LIGHTS_STATE

03/12/2018 12:31:25,27.125,39.312,off
03/12/2018 12:31:37,27.125,39.562,off
03/12/2018 12:31:49,27.125,39.687,off
03/12/2018 12:32:00,27.125,39.812,off
