TIME,INSIDE_TEMPERATURE,OUTSIDE_TEMPERATURE,LIGHTS_STATE

09/21/2016 12:46:26,28.687,25.437,off
09/21/2016 12:46:38,28.687,25.375,off
09/21/2016 12:46:49,28.687,25.375,off
09/21/2016 12:47:02,28.687,25.312,off
