TIME,INSIDE_TEMPERATURE,OUTSIDE_TEMPERATURE,LIGHTS_STATE

01/25/2018 12:25:25,18.687,12.375,off
01/25/2018 12:25:37,18.687,12.375,off
01/25/2018 12:25:49,18.687,12.312,off
01/25/2018 12:26:02,18.687,12.312,off
