TIME,INSIDE_TEMPERATURE,OUTSIDE_TEMPERATURE,LIGHTS_STATE

11/10/2016 12:45:24,30.562,27.562,off
11/10/2016 12:45:36,30.562,27.562,off
11/10/2016 12:45:48,30.562,27.562,off
11/10/2016 12:45:59,30.562,27.5,off
