TIME,INSIDE_TEMPERATURE,OUTSIDE_TEMPERATURE,LIGHTS_STATE

02/16/2017 12:06:25,28.187,21.937,off
02/16/2017 12:06:37,28.25,22.062,off
02/16/2017 12:06:49,28.25,22.125,off
02/16/2017 12:07:00,28.25,22.125,off
