TIME,INSIDE_TEMPERATURE,OUTSIDE_TEMPERATURE,LIGHTS_STATE

07/01/2017 12:31:25,25.812,22.25,off
07/01/2017 12:31:37,25.812,22.25,off
07/01/2017 12:31:49,25.812,22.25,off
07/01/2017 12:32:00,25.812,22.25,off
