TIME,INSIDE_TEMPERATURE,OUTSIDE_TEMPERATURE,LIGHTS_STATE

09/24/2017 12:22:25,28.437,26.062,off
09/24/2017 12:22:37,28.437,26.062,off
09/24/2017 12:22:49,28.437,26.0,off
09/24/2017 12:23:00,28.437,26.0,off
