TIME,INSIDE_TEMPERATURE,OUTSIDE_TEMPERATURE,LIGHTS_STATE

04/18/2017 12:35:25,23.062,18.187,off
04/18/2017 12:35:36,23.062,18.25,off
04/18/2017 12:35:48,23.062,18.25,off
04/18/2017 12:36:00,23.062,18.312,off
