TIME,INSIDE_TEMPERATURE,OUTSIDE_TEMPERATURE,LIGHTS_STATE

08/22/2017 12:30:25,30.937,28.875,off
08/22/2017 12:30:37,31.0,28.875,off
08/22/2017 12:30:49,31.0,28.875,off
08/22/2017 12:31:00,31.0,28.875,off
