TIME,INSIDE_TEMPERATURE,OUTSIDE_TEMPERATURE,LIGHTS_STATE

03/11/2018 12:13:25,22.062,28.562,off
03/11/2018 12:13:37,22.125,28.75,off
03/11/2018 12:13:49,22.125,29.0,off
03/11/2018 12:14:01,22.125,29.312,off
