TIME,INSIDE_TEMPERATURE,OUTSIDE_TEMPERATURE,LIGHTS_STATE

03/18/2018 12:15:25,17.125,14.5,off
03/18/2018 12:15:36,17.187,14.5,off
03/18/2018 12:15:48,17.187,14.5,off
03/18/2018 12:16:00,17.187,14.5,off
