TIME,INSIDE_TEMPERATURE,OUTSIDE_TEMPERATURE,LIGHTS_STATE

03/17/2017 12:08:26,23.375,21.25,off
03/17/2017 12:08:37,23.375,21.25,off
03/17/2017 12:08:49,23.375,21.312,off
03/17/2017 12:09:01,23.375,21.25,off
