TIME,INSIDE_TEMPERATURE,OUTSIDE_TEMPERATURE,LIGHTS_STATE

12/31/2016 12:22:24,13.625,10.25,off
12/31/2016 12:22:36,13.625,10.187,off
12/31/2016 12:22:48,13.625,10.25,off
12/31/2016 12:22:59,13.625,10.187,off
