TIME,INSIDE_TEMPERATURE,OUTSIDE_TEMPERATURE,LIGHTS_STATE

05/08/2017 12:22:25,25.562,23.875,off
05/08/2017 12:22:36,25.562,23.875,off
05/08/2017 12:22:48,25.562,23.875,off
05/08/2017 12:23:00,25.625,23.875,off
