TIME,INSIDE_TEMPERATURE,OUTSIDE_TEMPERATURE,LIGHTS_STATE

09/05/2017 12:31:25,34.375,31.812,off
09/05/2017 12:31:38,34.437,31.875,off
09/05/2017 12:31:50,34.375,31.812,off
09/05/2017 12:32:01,34.437,31.812,off
