TIME,INSIDE_TEMPERATURE,OUTSIDE_TEMPERATURE,LIGHTS_STATE

01/17/2018 12:19:26,20.75,15.625,off
01/17/2018 12:19:37,20.75,15.562,off
01/17/2018 12:19:49,20.75,15.562,off
01/17/2018 12:20:01,20.75,15.562,off
