TIME,INSIDE_TEMPERATURE,OUTSIDE_TEMPERATURE,LIGHTS_STATE

02/27/2018 12:43:25,20.937,23.812,off
02/27/2018 12:43:37,20.937,23.812,off
02/27/2018 12:43:49,20.937,23.75,off
02/27/2018 12:44:01,20.937,23.687,off
