TIME,INSIDE_TEMPERATURE,OUTSIDE_TEMPERATURE,LIGHTS_STATE

03/12/2017 12:38:25,29.562,25.062,off
03/12/2017 12:38:37,29.562,25.062,off
03/12/2017 12:38:49,29.562,24.937,off
03/12/2017 12:39:00,29.5,24.812,off
