TIME,INSIDE_TEMPERATURE,OUTSIDE_TEMPERATURE,LIGHTS_STATE

01/29/2018 12:39:25,19.687,15.687,off
01/29/2018 12:39:37,19.687,15.687,off
01/29/2018 12:39:49,19.687,15.687,off
01/29/2018 12:40:00,19.687,15.75,off
