TIME,INSIDE_TEMPERATURE,OUTSIDE_TEMPERATURE,LIGHTS_STATE

09/09/2017 12:33:25,30.312,28.437,off
09/09/2017 12:33:37,30.312,28.375,off
09/09/2017 12:33:49,30.375,28.375,off
09/09/2017 12:34:01,30.312,28.312,off
