TIME,INSIDE_TEMPERATURE,OUTSIDE_TEMPERATURE,LIGHTS_STATE

06/26/2016 12:50:25,32.625,32.687,off
06/26/2016 12:50:37,32.687,32.687,off
06/26/2016 12:50:48,32.625,32.687,off
06/26/2016 12:51:00,32.687,32.75,off
