TIME,INSIDE_TEMPERATURE,OUTSIDE_TEMPERATURE,LIGHTS_STATE

01/15/2017 12:28:25,11.375,7.687,off
01/15/2017 12:28:36,11.375,7.687,off
01/15/2017 12:28:48,11.375,7.687,off
01/15/2017 12:29:00,11.375,7.687,off
