TIME,INSIDE_TEMPERATURE,OUTSIDE_TEMPERATURE,LIGHTS_STATE

11/01/2016 12:36:25,28.812,31.0,off
11/01/2016 12:36:37,28.812,31.0,off
11/01/2016 12:36:48,28.812,30.937,off
11/01/2016 12:37:00,28.812,30.875,off
