TIME,INSIDE_TEMPERATURE,OUTSIDE_TEMPERATURE,LIGHTS_STATE

09/29/2017 12:25:26,29.625,28.25,off
09/29/2017 12:25:38,29.625,28.25,off
09/29/2017 12:25:49,29.625,28.25,off
09/29/2017 12:26:01,29.687,28.312,off
