TIME,INSIDE_TEMPERATURE,OUTSIDE_TEMPERATURE,LIGHTS_STATE

08/10/2017 12:35:25,27.125,24.375,off
08/10/2017 12:35:37,27.187,24.437,off
08/10/2017 12:35:49,27.187,24.437,off
08/10/2017 12:36:01,27.187,24.437,off
