TIME,INSIDE_TEMPERATURE,OUTSIDE_TEMPERATURE,LIGHTS_STATE

08/30/2017 12:45:25,30.562,28.562,off
08/30/2017 12:45:37,30.625,28.5,off
08/30/2017 12:45:48,30.625,28.562,off
08/30/2017 12:46:00,30.625,28.562,off
