TIME,INSIDE_TEMPERATURE,OUTSIDE_TEMPERATURE,LIGHTS_STATE

11/02/2017 12:23:26,27.375,26.937,off
11/02/2017 12:23:37,27.375,26.812,off
11/02/2017 12:23:49,27.375,26.812,off
11/02/2017 12:24:01,27.375,27.062,off
