TIME,INSIDE_TEMPERATURE,OUTSIDE_TEMPERATURE,LIGHTS_STATE

11/17/2016 12:11:25,24.0,25.437,off
11/17/2016 12:11:37,24.0,25.75,off
11/17/2016 12:11:48,23.937,25.937,off
11/17/2016 12:12:00,24.0,26.062,off
