TIME,INSIDE_TEMPERATURE,OUTSIDE_TEMPERATURE,LIGHTS_STATE

02/09/2018 12:25:25,31.125,34.187,off
02/09/2018 12:25:37,31.125,34.25,off
02/09/2018 12:25:48,31.125,34.312,off
02/09/2018 12:26:00,31.125,34.375,off
