TIME,INSIDE_TEMPERATURE,OUTSIDE_TEMPERATURE,LIGHTS_STATE

07/24/2017 12:00:25,30.437,27.812,off
07/24/2017 12:00:37,30.437,27.812,off
07/24/2017 12:00:49,30.5,27.812,off
07/24/2017 12:01:00,30.5,27.75,off
