TIME,INSIDE_TEMPERATURE,OUTSIDE_TEMPERATURE,LIGHTS_STATE

12/24/2017 12:22:25,16.937,12.312,off
12/24/2017 12:22:37,16.875,12.25,off
12/24/2017 12:22:48,16.875,12.25,off
12/24/2017 12:23:00,16.937,12.187,off
