TIME,INSIDE_TEMPERATURE,OUTSIDE_TEMPERATURE,LIGHTS_STATE

09/15/2016 12:12:25,27.25,27.687,off
09/15/2016 12:12:37,27.312,27.375,off
09/15/2016 12:12:49,27.312,27.187,off
09/15/2016 12:13:00,27.312,26.937,off
