TIME,INSIDE_TEMPERATURE,OUTSIDE_TEMPERATURE,LIGHTS_STATE

02/12/2018 12:46:25,23.562,24.312,off
02/12/2018 12:46:37,23.562,24.125,off
02/12/2018 12:46:49,23.562,24.062,off
02/12/2018 12:47:01,23.562,23.937,off
