TIME,INSIDE_TEMPERATURE,OUTSIDE_TEMPERATURE,LIGHTS_STATE

06/30/2017 12:11:25,26.562,23.062,off
06/30/2017 12:11:37,26.625,23.125,off
06/30/2017 12:11:48,26.625,23.062,off
06/30/2017 12:12:00,26.625,23.0,off
