TIME,INSIDE_TEMPERATURE,OUTSIDE_TEMPERATURE,LIGHTS_STATE

03/09/2017 12:36:25,28.375,28.937,off
03/09/2017 12:36:37,28.375,29.0,off
03/09/2017 12:36:48,28.437,29.125,off
03/09/2017 12:37:00,28.375,29.187,off
