TIME,INSIDE_TEMPERATURE,OUTSIDE_TEMPERATURE,LIGHTS_STATE

07/07/2017 12:03:26,36.125,31.687,off
07/07/2017 12:03:37,36.125,31.687,off
07/07/2017 12:03:49,36.125,31.687,off
07/07/2017 12:04:01,36.125,31.687,off
