TIME,INSIDE_TEMPERATURE,OUTSIDE_TEMPERATURE,LIGHTS_STATE

07/22/2017 12:20:25,32.687,28.75,off
07/22/2017 12:20:37,32.687,28.75,off
07/22/2017 12:20:49,32.687,28.75,off
07/22/2017 12:21:01,32.687,28.75,off
