TIME,INSIDE_TEMPERATURE,OUTSIDE_TEMPERATURE,LIGHTS_STATE

04/03/2017 12:08:25,23.187,21.187,off
04/03/2017 12:08:37,23.125,21.25,off
04/03/2017 12:08:48,23.125,21.25,off
04/03/2017 12:09:00,23.125,21.312,off
