TIME,INSIDE_TEMPERATURE,OUTSIDE_TEMPERATURE,LIGHTS_STATE

09/23/2017 12:10:25,25.625,24.125,off
09/23/2017 12:10:37,25.75,24.125,off
09/23/2017 12:10:48,25.812,24.062,off
09/23/2017 12:11:00,25.625,24.0,off
