TIME,INSIDE_TEMPERATURE,OUTSIDE_TEMPERATURE,LIGHTS_STATE

02/21/2018 12:09:26,21.125,20.187,off
02/21/2018 12:09:37,21.125,20.125,off
02/21/2018 12:09:49,21.187,20.062,off
02/21/2018 12:10:01,21.187,20.062,off
