TIME,INSIDE_TEMPERATURE,OUTSIDE_TEMPERATURE,LIGHTS_STATE

10/10/2017 12:10:26,31.125,30.125,off
10/10/2017 12:10:38,31.187,30.062,off
10/10/2017 12:10:49,31.125,29.937,off
10/10/2017 12:11:01,31.187,29.812,off
