TIME,INSIDE_TEMPERATURE,OUTSIDE_TEMPERATURE,LIGHTS_STATE

10/30/2017 12:39:25,26.75,24.312,off
10/30/2017 12:39:37,26.75,24.687,off
10/30/2017 12:39:49,26.75,25.0,off
10/30/2017 12:40:01,26.75,25.437,off
