TIME,INSIDE_TEMPERATURE,OUTSIDE_TEMPERATURE,LIGHTS_STATE

12/27/2016 12:37:25,20.312,16.812,off
12/27/2016 12:37:37,20.312,16.75,off
12/27/2016 12:37:49,20.312,16.75,off
12/27/2016 12:38:00,20.25,16.562,off
