TIME,INSIDE_TEMPERATURE,OUTSIDE_TEMPERATURE,LIGHTS_STATE

03/18/2017 12:26:25,20.125,17.25,off
03/18/2017 12:26:36,20.125,17.25,off
03/18/2017 12:26:48,20.125,17.25,off
03/18/2017 12:27:00,20.187,17.25,off
