TIME,INSIDE_TEMPERATURE,OUTSIDE_TEMPERATURE,LIGHTS_STATE

03/22/2017 12:40:25,20.562,16.062,off
03/22/2017 12:40:36,20.625,16.125,off
03/22/2017 12:40:48,20.625,16.125,off
03/22/2017 12:41:00,20.625,16.187,off
