TIME,INSIDE_TEMPERATURE,OUTSIDE_TEMPERATURE,LIGHTS_STATE

06/18/2017 12:40:26,38.562,33.562,off
06/18/2017 12:40:37,38.5,33.562,off
06/18/2017 12:40:49,38.562,33.562,off
06/18/2017 12:41:01,38.5,33.562,off
