TIME,INSIDE_TEMPERATURE,OUTSIDE_TEMPERATURE,LIGHTS_STATE

09/08/2017 12:33:25,28.75,26.75,off
09/08/2017 12:33:37,28.75,26.812,off
09/08/2017 12:33:49,28.75,26.812,off
09/08/2017 12:34:00,28.812,26.812,off
