TIME,INSIDE_TEMPERATURE,OUTSIDE_TEMPERATURE,LIGHTS_STATE

02/03/2018 12:49:26,29.125,39.062,off
02/03/2018 12:49:37,29.187,39.25,off
02/03/2018 12:49:49,29.187,39.312,off
02/03/2018 12:50:01,28.812,39.375,off
