TIME,INSIDE_TEMPERATURE,OUTSIDE_TEMPERATURE,LIGHTS_STATE

12/28/2017 12:10:25,24.5,27.312,off
12/28/2017 12:10:37,24.5,27.375,off
12/28/2017 12:10:48,24.562,27.437,off
12/28/2017 12:11:00,24.5,27.5,off
