TIME,INSIDE_TEMPERATURE,OUTSIDE_TEMPERATURE,LIGHTS_STATE

12/02/2016 12:29:25,22.312,19.0,off
12/02/2016 12:29:37,22.312,18.875,off
12/02/2016 12:29:48,22.312,18.812,off
12/02/2016 12:30:02,22.312,18.937,off
