TIME,INSIDE_TEMPERATURE,OUTSIDE_TEMPERATURE,LIGHTS_STATE

09/02/2017 12:25:25,40.375,38.812,off
09/02/2017 12:25:37,40.375,38.812,off
09/02/2017 12:25:49,40.375,38.812,off
09/02/2017 12:26:01,40.375,38.812,off
