TIME,INSIDE_TEMPERATURE,OUTSIDE_TEMPERATURE,LIGHTS_STATE

01/05/2017 12:28:25,20.437,14.937,off
01/05/2017 12:28:37,20.437,14.875,off
01/05/2017 12:28:48,20.437,14.875,off
01/05/2017 12:29:00,20.437,14.937,off
