TIME,INSIDE_TEMPERATURE,OUTSIDE_TEMPERATURE,LIGHTS_STATE

08/25/2017 12:02:25,29.312,27.375,off
08/25/2017 12:02:37,29.312,27.375,off
08/25/2017 12:02:49,29.312,27.375,off
08/25/2017 12:03:01,29.312,27.375,off
