TIME,INSIDE_TEMPERATURE,OUTSIDE_TEMPERATURE,LIGHTS_STATE

04/29/2017 12:19:25,25.187,23.312,off
04/29/2017 12:19:37,25.187,23.25,off
04/29/2017 12:19:49,25.187,23.25,off
04/29/2017 12:20:00,25.187,23.25,off
