TIME,INSIDE_TEMPERATURE,OUTSIDE_TEMPERATURE,LIGHTS_STATE

07/15/2016 12:33:25,29.25,29.437,off
07/15/2016 12:33:37,29.312,29.437,off
07/15/2016 12:33:48,29.312,29.437,off
07/15/2016 12:34:00,29.312,29.375,off
