TIME,INSIDE_TEMPERATURE,OUTSIDE_TEMPERATURE,LIGHTS_STATE

03/21/2017 12:20:25,22.187,18.562,off
03/21/2017 12:20:37,22.187,18.687,off
03/21/2017 12:20:49,22.187,18.75,off
03/21/2017 12:21:00,22.187,18.937,off
