TIME,INSIDE_TEMPERATURE,OUTSIDE_TEMPERATURE,LIGHTS_STATE

02/18/2017 12:39:26,16.937,12.812,off
02/18/2017 12:39:38,16.937,12.812,off
02/18/2017 12:39:49,16.937,12.812,off
02/18/2017 12:40:01,16.937,12.812,off
