TIME,INSIDE_TEMPERATURE,OUTSIDE_TEMPERATURE,LIGHTS_STATE

03/05/2018 12:01:26,19.687,22.687,off
03/05/2018 12:01:37,19.687,22.812,off
03/05/2018 12:01:49,19.75,22.937,off
03/05/2018 12:02:01,19.687,23.312,off
