TIME,INSIDE_TEMPERATURE,OUTSIDE_TEMPERATURE,LIGHTS_STATE

05/11/2017 12:23:25,23.375,19.625,off
05/11/2017 12:23:36,23.375,19.625,off
05/11/2017 12:23:48,23.312,19.562,off
05/11/2017 12:24:00,23.312,19.562,off
