TIME,INSIDE_TEMPERATURE,OUTSIDE_TEMPERATURE,LIGHTS_STATE

09/09/2016 12:41:25,28.312,29.875,off
09/09/2016 12:41:37,28.312,29.875,off
09/09/2016 12:41:49,28.375,29.812,off
09/09/2016 12:42:00,28.375,29.812,off
