TIME,INSIDE_TEMPERATURE,OUTSIDE_TEMPERATURE,LIGHTS_STATE

08/05/2016 12:30:26,24.812,24.437,off
08/05/2016 12:30:38,24.812,24.5,off
08/05/2016 12:30:49,24.875,24.562,off
08/05/2016 12:31:01,24.937,24.625,off
