TIME,INSIDE_TEMPERATURE,OUTSIDE_TEMPERATURE,LIGHTS_STATE

12/22/2017 12:22:25,19.437,19.687,off
12/22/2017 12:22:37,19.437,19.75,off
12/22/2017 12:22:48,19.5,19.937,off
12/22/2017 12:23:00,19.437,20.062,off
