TIME,INSIDE_TEMPERATURE,OUTSIDE_TEMPERATURE,LIGHTS_STATE

01/18/2017 12:32:25,12.0,8.937,off
01/18/2017 12:32:36,11.937,8.875,off
01/18/2017 12:32:48,12.0,8.875,off
01/18/2017 12:33:00,12.0,8.937,off
