TIME,INSIDE_TEMPERATURE,OUTSIDE_TEMPERATURE,LIGHTS_STATE

03/02/2017 12:01:25,24.937,26.625,off
03/02/2017 12:01:37,24.937,26.875,off
03/02/2017 12:01:49,24.937,27.0,off
03/02/2017 12:02:00,24.937,27.125,off
