TIME,INSIDE_TEMPERATURE,OUTSIDE_TEMPERATURE,LIGHTS_STATE

08/28/2017 12:09:25,37.25,35.625,off
08/28/2017 12:09:37,37.25,35.625,off
08/28/2017 12:09:49,37.25,35.625,off
08/28/2017 12:10:01,37.25,35.625,off
