TIME,INSIDE_TEMPERATURE,OUTSIDE_TEMPERATURE,LIGHTS_STATE

01/07/2018 12:38:25,18.687,13.187,off
01/07/2018 12:38:37,18.75,13.187,off
01/07/2018 12:38:49,18.687,13.187,off
01/07/2018 12:39:00,18.75,13.125,off
