TIME,INSIDE_TEMPERATURE,OUTSIDE_TEMPERATURE,LIGHTS_STATE

07/05/2016 12:17:25,25.625,25.375,off
07/05/2016 12:17:36,25.625,25.375,off
07/05/2016 12:17:49,25.687,25.437,off
07/05/2016 12:18:01,25.687,25.5,off
