TIME,INSIDE_TEMPERATURE,OUTSIDE_TEMPERATURE,LIGHTS_STATE

07/12/2016 12:24:25,25.0,24.687,off
07/12/2016 12:24:37,25.062,24.687,off
07/12/2016 12:24:49,25.062,24.687,off
07/12/2016 12:25:00,25.0,24.625,off
