TIME,INSIDE_TEMPERATURE,OUTSIDE_TEMPERATURE,LIGHTS_STATE

03/29/2018 12:50:25,26.5,24.687,off
03/29/2018 12:50:37,26.5,24.687,off
03/29/2018 12:50:49,26.562,24.687,off
03/29/2018 12:51:01,26.562,24.687,off
