TIME,INSIDE_TEMPERATURE,OUTSIDE_TEMPERATURE,LIGHTS_STATE

04/08/2017 12:31:26,17.0,12.062,off
04/08/2017 12:31:37,17.062,12.125,off
04/08/2017 12:31:49,17.0,12.125,off
04/08/2017 12:32:01,17.062,12.125,off
