TIME,INSIDE_TEMPERATURE,OUTSIDE_TEMPERATURE,LIGHTS_STATE

04/10/2017 12:49:26,22.875,19.062,off
04/10/2017 12:49:38,22.875,19.125,off
04/10/2017 12:49:50,22.875,19.125,off
04/10/2017 12:50:01,22.812,19.187,off
