TIME,INSIDE_TEMPERATURE,OUTSIDE_TEMPERATURE,LIGHTS_STATE

12/19/2016 12:29:25,18.687,14.187,off
12/19/2016 12:29:36,18.687,14.187,off
12/19/2016 12:29:49,18.687,14.125,off
12/19/2016 12:30:01,18.687,14.0,off
