TIME,INSIDE_TEMPERATURE,OUTSIDE_TEMPERATURE,LIGHTS_STATE

05/04/2017 12:57:26,31.875,29.375,off
05/04/2017 12:57:37,31.875,29.375,off
05/04/2017 12:57:49,31.937,29.375,off
05/04/2017 12:58:01,31.937,29.312,off
