TIME,INSIDE_TEMPERATURE,OUTSIDE_TEMPERATURE,LIGHTS_STATE

09/18/2016 12:21:25,32.062,33.875,off
09/18/2016 12:21:37,32.062,33.875,off
09/18/2016 12:21:49,32.125,33.875,off
09/18/2016 12:22:00,32.125,33.937,off
