TIME,INSIDE_TEMPERATURE,OUTSIDE_TEMPERATURE,LIGHTS_STATE

02/07/2017 12:39:25,20.625,16.187,off
02/07/2017 12:39:37,20.625,16.187,off
02/07/2017 12:39:49,20.625,16.25,off
02/07/2017 12:40:00,20.625,16.25,off
