TIME,INSIDE_TEMPERATURE,OUTSIDE_TEMPERATURE,LIGHTS_STATE

03/25/2018 12:32:25,16.937,13.812,off
03/25/2018 12:32:37,16.937,13.75,off
03/25/2018 12:32:48,16.937,13.75,off
03/25/2018 12:33:00,17.0,13.75,off
