TIME,INSIDE_TEMPERATURE,OUTSIDE_TEMPERATURE,LIGHTS_STATE

01/12/2018 12:51:25,21.25,22.0,off
01/12/2018 12:51:37,21.25,22.0,off
01/12/2018 12:51:49,21.25,22.0,off
01/12/2018 12:52:01,21.25,22.062,off
