TIME,INSIDE_TEMPERATURE,OUTSIDE_TEMPERATURE,LIGHTS_STATE

12/26/2016 12:21:25,16.75,12.5,off
12/26/2016 12:21:36,16.75,12.625,off
12/26/2016 12:21:48,16.75,12.625,off
12/26/2016 12:22:00,16.75,12.625,off
