TIME,INSIDE_TEMPERATURE,OUTSIDE_TEMPERATURE,LIGHTS_STATE

10/04/2017 12:11:25,28.375,25.062,off
10/04/2017 12:11:37,28.375,25.187,off
10/04/2017 12:11:49,28.375,25.187,off
10/04/2017 12:12:01,28.375,25.25,off
