TIME,INSIDE_TEMPERATURE,OUTSIDE_TEMPERATURE,LIGHTS_STATE

03/02/2017 12:54:26,23.875,24.687,off
03/02/2017 12:54:38,23.875,24.75,off
03/02/2017 12:54:49,23.875,24.812,off
03/02/2017 12:55:01,23.875,24.937,off
