TIME,INSIDE_TEMPERATURE,OUTSIDE_TEMPERATURE,LIGHTS_STATE

03/17/2018 12:37:25,19.187,14.062,off
03/17/2018 12:37:37,19.187,14.0,off
03/17/2018 12:37:49,19.187,14.0,off
03/17/2018 12:38:01,19.187,14.0,off
