TIME,INSIDE_TEMPERATURE,OUTSIDE_TEMPERATURE,LIGHTS_STATE

03/04/2018 12:32:25,20.687,35.562,off
03/04/2018 12:32:37,20.687,35.562,off
03/04/2018 12:32:49,20.687,35.187,off
03/04/2018 12:33:01,20.625,35.187,off
