TIME,INSIDE_TEMPERATURE,OUTSIDE_TEMPERATURE,LIGHTS_STATE

01/08/2017 12:53:24,18.75,15.312,off
01/08/2017 12:53:36,18.812,15.312,off
01/08/2017 12:53:48,18.812,15.312,off
01/08/2017 12:53:59,18.75,15.312,off
