TIME,INSIDE_TEMPERATURE,OUTSIDE_TEMPERATURE,LIGHTS_STATE

07/24/2017 12:37:25,31.0,28.25,off
07/24/2017 12:37:37,31.0,28.187,off
07/24/2017 12:37:49,30.875,28.187,off
07/24/2017 12:38:00,30.937,28.187,off
