TIME,INSIDE_TEMPERATURE,OUTSIDE_TEMPERATURE,LIGHTS_STATE

10/28/2016 12:32:25,24.5,22.937,off
10/28/2016 12:32:36,24.5,23.0,off
10/28/2016 12:32:48,24.5,23.125,off
10/28/2016 12:33:00,24.562,23.062,off
