TIME,INSIDE_TEMPERATURE,OUTSIDE_TEMPERATURE,LIGHTS_STATE

07/26/2016 12:29:25,34.5,33.375,off
07/26/2016 12:29:37,34.5,33.375,off
07/26/2016 12:29:49,34.5,33.375,off
07/26/2016 12:30:02,34.562,33.375,off
