TIME,INSIDE_TEMPERATURE,OUTSIDE_TEMPERATURE,LIGHTS_STATE

02/09/2018 12:01:25,30.75,30.687,off
02/09/2018 12:01:37,30.75,30.5,off
02/09/2018 12:01:49,30.75,30.375,off
02/09/2018 12:02:00,30.75,30.375,off
