TIME,INSIDE_TEMPERATURE,OUTSIDE_TEMPERATURE,LIGHTS_STATE

10/27/2017 12:48:25,35.875,45.937,off
10/27/2017 12:48:37,35.937,45.875,off
10/27/2017 12:48:49,35.937,45.812,off
10/27/2017 12:49:01,35.937,45.75,off
