TIME,INSIDE_TEMPERATURE,OUTSIDE_TEMPERATURE,LIGHTS_STATE

02/18/2017 12:36:25,17.0,12.937,off
02/18/2017 12:36:37,17.0,12.937,off
02/18/2017 12:36:49,16.937,12.937,off
02/18/2017 12:37:00,17.0,12.937,off
