TIME,INSIDE_TEMPERATURE,OUTSIDE_TEMPERATURE,LIGHTS_STATE

02/11/2018 12:40:25,22.187,17.25,off
02/11/2018 12:40:37,22.187,17.312,off
02/11/2018 12:40:48,22.187,17.375,off
02/11/2018 12:41:00,22.187,17.375,off
