TIME,INSIDE_TEMPERATURE,OUTSIDE_TEMPERATURE,LIGHTS_STATE

12/16/2016 12:05:25,17.25,12.437,off
12/16/2016 12:05:36,17.25,12.375,off
12/16/2016 12:05:48,17.25,12.312,off
12/16/2016 12:06:00,17.312,12.437,off
