TIME,INSIDE_TEMPERATURE,OUTSIDE_TEMPERATURE,LIGHTS_STATE

07/06/2017 12:02:26,32.687,29.687,off
07/06/2017 12:02:37,32.687,29.625,off
07/06/2017 12:02:49,32.687,29.625,off
07/06/2017 12:03:01,32.687,29.625,off
