TIME,INSIDE_TEMPERATURE,OUTSIDE_TEMPERATURE,LIGHTS_STATE

04/04/2017 12:38:25,24.312,22.187,off
04/04/2017 12:38:37,24.375,22.187,off
04/04/2017 12:38:48,24.437,22.25,off
04/04/2017 12:39:00,24.437,22.312,off
