TIME,INSIDE_TEMPERATURE,OUTSIDE_TEMPERATURE,LIGHTS_STATE

03/06/2017 12:54:26,20.437,15.375,off
03/06/2017 12:54:37,20.437,15.375,off
03/06/2017 12:54:49,20.437,15.312,off
03/06/2017 12:55:01,20.437,15.25,off
