TIME,INSIDE_TEMPERATURE,OUTSIDE_TEMPERATURE,LIGHTS_STATE

04/25/2017 12:28:25,23.375,20.062,off
04/25/2017 12:28:36,23.375,20.0,off
04/25/2017 12:28:48,23.375,19.937,off
04/25/2017 12:29:00,23.375,19.937,off
