TIME,INSIDE_TEMPERATURE,OUTSIDE_TEMPERATURE,LIGHTS_STATE

07/29/2017 12:28:26,31.375,28.375,off
07/29/2017 12:28:37,31.312,28.375,off
07/29/2017 12:28:49,31.375,28.375,off
07/29/2017 12:29:01,31.312,28.375,off
