TIME,INSIDE_TEMPERATURE,OUTSIDE_TEMPERATURE,LIGHTS_STATE

12/16/2016 12:20:25,17.625,14.437,off
12/16/2016 12:20:37,17.625,14.437,off
12/16/2016 12:20:48,17.625,14.375,off
12/16/2016 12:21:00,17.687,14.375,off
