TIME,INSIDE_TEMPERATURE,OUTSIDE_TEMPERATURE,LIGHTS_STATE

10/25/2017 12:06:25,35.375,34.687,off
10/25/2017 12:06:37,35.437,34.812,off
10/25/2017 12:06:49,35.437,34.875,off
10/25/2017 12:07:01,35.437,34.687,off
