TIME,INSIDE_TEMPERATURE,OUTSIDE_TEMPERATURE,LIGHTS_STATE

11/14/2016 12:12:25,29.125,30.25,off
11/14/2016 12:12:37,29.125,30.437,off
11/14/2016 12:12:48,29.062,30.437,off
11/14/2016 12:13:00,29.062,30.625,off
