TIME,INSIDE_TEMPERATURE,OUTSIDE_TEMPERATURE,LIGHTS_STATE

08/23/2017 12:22:26,29.687,27.125,off
08/23/2017 12:22:37,29.687,27.125,off
08/23/2017 12:22:49,29.687,27.125,off
08/23/2017 12:23:01,29.75,27.125,off
