TIME,INSIDE_TEMPERATURE,OUTSIDE_TEMPERATURE,LIGHTS_STATE

02/28/2018 12:24:25,20.5,24.562,off
02/28/2018 12:24:37,20.5,24.687,off
02/28/2018 12:24:49,20.562,24.875,off
02/28/2018 12:25:00,20.562,25.062,off
