TIME,INSIDE_TEMPERATURE,OUTSIDE_TEMPERATURE,LIGHTS_STATE

10/03/2017 12:21:25,26.937,24.437,off
10/03/2017 12:21:37,26.937,24.437,off
10/03/2017 12:21:49,26.937,24.375,off
10/03/2017 12:22:00,26.937,24.5,off
