TIME,INSIDE_TEMPERATURE,OUTSIDE_TEMPERATURE,LIGHTS_STATE

02/25/2018 12:21:26,22.062,27.0,off
02/25/2018 12:21:38,22.125,27.0,off
02/25/2018 12:21:49,22.125,27.0,off
02/25/2018 12:22:01,22.125,26.875,off
