TIME,INSIDE_TEMPERATURE,OUTSIDE_TEMPERATURE,LIGHTS_STATE

12/31/2016 12:05:25,12.812,9.75,off
12/31/2016 12:05:36,12.812,9.75,off
12/31/2016 12:05:48,12.875,9.75,off
12/31/2016 12:06:00,12.875,9.812,off
