TIME,INSIDE_TEMPERATURE,OUTSIDE_TEMPERATURE,LIGHTS_STATE

07/12/2016 12:48:25,25.75,25.5,off
07/12/2016 12:48:37,25.75,25.562,off
07/12/2016 12:48:49,25.812,25.562,off
07/12/2016 12:49:00,25.812,25.5,off
