TIME,INSIDE_TEMPERATURE,OUTSIDE_TEMPERATURE,LIGHTS_STATE

03/05/2018 12:31:25,20.187,26.687,off
03/05/2018 12:31:37,20.187,26.812,off
03/05/2018 12:31:48,20.187,26.812,off
03/05/2018 12:32:00,20.187,27.125,off
