TIME,INSIDE_TEMPERATURE,OUTSIDE_TEMPERATURE,LIGHTS_STATE

08/31/2017 12:07:26,33.125,33.312,off
08/31/2017 12:07:37,33.312,33.312,off
08/31/2017 12:07:49,32.937,33.312,off
08/31/2017 12:08:01,33.062,33.25,off
