TIME,INSIDE_TEMPERATURE,OUTSIDE_TEMPERATURE,LIGHTS_STATE

09/20/2017 12:22:25,23.937,20.0,off
09/20/2017 12:22:37,23.937,20.0,off
09/20/2017 12:22:48,23.937,20.062,off
09/20/2017 12:23:00,23.937,20.125,off
