TIME,INSIDE_TEMPERATURE,OUTSIDE_TEMPERATURE,LIGHTS_STATE

02/12/2017 12:08:25,28.5,23.437,off
02/12/2017 12:08:37,28.5,23.5,off
02/12/2017 12:08:48,28.437,23.562,off
02/12/2017 12:09:00,28.437,23.5,off
