TIME,INSIDE_TEMPERATURE,OUTSIDE_TEMPERATURE,LIGHTS_STATE

10/31/2016 12:01:25,23.937,19.0,off
10/31/2016 12:01:37,23.937,18.937,off
10/31/2016 12:01:49,23.937,18.812,off
10/31/2016 12:02:00,23.937,18.812,off
