TIME,INSIDE_TEMPERATURE,OUTSIDE_TEMPERATURE,LIGHTS_STATE

02/13/2018 12:09:26,23.437,22.562,off
02/13/2018 12:09:37,23.437,23.062,off
02/13/2018 12:09:49,23.375,23.437,off
02/13/2018 12:10:01,23.437,23.75,off
