TIME,INSIDE_TEMPERATURE,OUTSIDE_TEMPERATURE,LIGHTS_STATE

12/03/2016 12:46:25,24.375,20.125,off
12/03/2016 12:46:36,24.375,20.0,off
12/03/2016 12:46:48,24.375,19.875,off
12/03/2016 12:47:00,24.375,19.75,off
