TIME,INSIDE_TEMPERATURE,OUTSIDE_TEMPERATURE,LIGHTS_STATE

02/27/2017 12:25:25,23.937,22.062,off
02/27/2017 12:25:37,23.937,22.25,off
02/27/2017 12:25:49,23.937,22.375,off
02/27/2017 12:26:00,23.937,22.375,off
