TIME,INSIDE_TEMPERATURE,OUTSIDE_TEMPERATURE,LIGHTS_STATE

03/22/2018 12:02:25,20.187,12.625,off
03/22/2018 12:02:37,20.187,12.562,off
03/22/2018 12:02:49,20.187,12.437,off
03/22/2018 12:03:00,20.125,12.375,off
