TIME,INSIDE_TEMPERATURE,OUTSIDE_TEMPERATURE,LIGHTS_STATE

06/25/2017 12:09:25,27.375,24.062,off
06/25/2017 12:09:37,27.375,24.062,off
06/25/2017 12:09:49,27.375,24.062,off
06/25/2017 12:10:00,27.375,24.062,off
