TIME,INSIDE_TEMPERATURE,OUTSIDE_TEMPERATURE,LIGHTS_STATE

11/02/2017 12:06:25,27.75,28.812,off
11/02/2017 12:06:37,27.75,28.937,off
11/02/2017 12:06:49,27.75,28.937,off
11/02/2017 12:07:00,27.75,29.25,off
