TIME,INSIDE_TEMPERATURE,OUTSIDE_TEMPERATURE,LIGHTS_STATE

06/09/2017 12:46:26,27.25,22.062,off
06/09/2017 12:46:37,27.25,22.062,off
06/09/2017 12:46:49,27.312,22.187,off
06/09/2017 12:47:01,27.25,22.125,off
