TIME,INSIDE_TEMPERATURE,OUTSIDE_TEMPERATURE,LIGHTS_STATE

10/27/2016 12:32:24,22.312,19.187,off
10/27/2016 12:32:36,22.312,19.187,off
10/27/2016 12:32:48,22.375,19.25,off
10/27/2016 12:32:59,22.375,19.25,off
