TIME,INSIDE_TEMPERATURE,OUTSIDE_TEMPERATURE,LIGHTS_STATE

06/23/2016 12:29:25,27.25,28.187,off
06/23/2016 12:29:39,27.25,28.187,off
06/23/2016 12:29:50,27.25,28.187,off
06/23/2016 12:30:02,27.25,28.187,off
