TIME,INSIDE_TEMPERATURE,OUTSIDE_TEMPERATURE,LIGHTS_STATE

01/18/2017 12:15:25,12.0,8.812,off
01/18/2017 12:15:36,12.0,8.812,off
01/18/2017 12:15:48,12.0,8.812,off
01/18/2017 12:16:00,12.062,8.812,off
