TIME,INSIDE_TEMPERATURE,OUTSIDE_TEMPERATURE,LIGHTS_STATE

03/24/2017 12:30:25,17.0,11.625,off
03/24/2017 12:30:36,17.0,11.625,off
03/24/2017 12:30:48,17.0,11.562,off
03/24/2017 12:31:00,17.0,11.562,off
