TIME,INSIDE_TEMPERATURE,OUTSIDE_TEMPERATURE,LIGHTS_STATE

12/25/2017 12:23:25,19.875,18.0,off
12/25/2017 12:23:37,19.875,18.062,off
12/25/2017 12:23:48,19.875,18.062,off
12/25/2017 12:24:00,19.875,18.0,off
