TIME,INSIDE_TEMPERATURE,OUTSIDE_TEMPERATURE,LIGHTS_STATE

12/27/2017 12:07:25,22.75,24.375,off
12/27/2017 12:07:37,22.75,24.437,off
12/27/2017 12:07:49,22.75,24.437,off
12/27/2017 12:08:01,22.812,24.437,off
