TIME,INSIDE_TEMPERATURE,OUTSIDE_TEMPERATURE,LIGHTS_STATE

02/16/2017 12:20:25,24.687,19.062,off
02/16/2017 12:20:37,24.687,19.062,off
02/16/2017 12:20:48,24.687,19.125,off
02/16/2017 12:21:00,24.687,19.187,off
