TIME,INSIDE_TEMPERATURE,OUTSIDE_TEMPERATURE,LIGHTS_STATE

06/28/2017 12:14:25,26.25,23.687,off
06/28/2017 12:14:37,26.0,23.562,off
06/28/2017 12:14:49,26.062,23.562,off
06/28/2017 12:15:01,26.187,23.687,off
