TIME,INSIDE_TEMPERATURE,OUTSIDE_TEMPERATURE,LIGHTS_STATE

10/17/2017 12:29:26,30.375,29.375,off
10/17/2017 12:29:37,30.437,29.375,off
10/17/2017 12:29:49,30.437,29.25,off
10/17/2017 12:30:01,30.437,29.187,off
