TIME,INSIDE_TEMPERATURE,OUTSIDE_TEMPERATURE,LIGHTS_STATE

03/09/2018 12:24:25,25.5,22.25,off
03/09/2018 12:24:37,25.5,22.187,off
03/09/2018 12:24:49,25.5,22.187,off
03/09/2018 12:25:01,25.5,22.187,off
