TIME,INSIDE_TEMPERATURE,OUTSIDE_TEMPERATURE,LIGHTS_STATE

09/23/2016 12:06:26,25.125,26.312,off
09/23/2016 12:06:38,25.125,26.187,off
09/23/2016 12:06:49,25.125,26.125,off
09/23/2016 12:07:01,25.125,26.0,off
