TIME,INSIDE_TEMPERATURE,OUTSIDE_TEMPERATURE,LIGHTS_STATE

09/14/2016 12:23:26,26.125,25.812,off
09/14/2016 12:23:37,26.187,25.875,off
09/14/2016 12:23:49,26.187,25.812,off
09/14/2016 12:24:01,26.187,25.75,off
