TIME,INSIDE_TEMPERATURE,OUTSIDE_TEMPERATURE,LIGHTS_STATE

02/26/2018 12:13:25,18.687,16.875,off
02/26/2018 12:13:37,18.687,16.812,off
02/26/2018 12:13:48,18.687,17.0,off
02/26/2018 12:14:00,18.687,17.187,off
