TIME,INSIDE_TEMPERATURE,OUTSIDE_TEMPERATURE,LIGHTS_STATE

05/02/2017 12:00:26,30.875,28.937,off
05/02/2017 12:00:37,30.875,28.937,off
05/02/2017 12:00:49,30.875,29.0,off
05/02/2017 12:01:01,30.875,29.0,off
