TIME,INSIDE_TEMPERATURE,OUTSIDE_TEMPERATURE,LIGHTS_STATE

03/26/2018 12:26:25,17.875,15.625,off
03/26/2018 12:26:37,17.875,15.562,off
03/26/2018 12:26:49,17.875,15.5,off
03/26/2018 12:27:01,17.937,15.437,off
