TIME,INSIDE_TEMPERATURE,OUTSIDE_TEMPERATURE,LIGHTS_STATE

03/15/2017 12:39:26,27.875,24.187,off
03/15/2017 12:39:37,27.875,24.187,off
03/15/2017 12:39:49,27.937,24.25,off
03/15/2017 12:40:01,27.937,24.25,off
