TIME,INSIDE_TEMPERATURE,OUTSIDE_TEMPERATURE,LIGHTS_STATE

12/03/2016 12:03:25,24.687,22.25,off
12/03/2016 12:03:37,24.75,22.187,off
12/03/2016 12:03:49,24.75,22.125,off
12/03/2016 12:04:00,24.75,22.062,off
