TIME,INSIDE_TEMPERATURE,OUTSIDE_TEMPERATURE,LIGHTS_STATE

11/05/2016 12:22:24,31.375,29.312,off
11/05/2016 12:22:36,31.375,29.25,off
11/05/2016 12:22:48,31.375,29.062,off
11/05/2016 12:22:59,31.312,28.937,off
