TIME,INSIDE_TEMPERATURE,OUTSIDE_TEMPERATURE,LIGHTS_STATE

02/28/2017 12:42:25,22.687,24.312,off
02/28/2017 12:42:37,22.687,24.25,off
02/28/2017 12:42:49,22.687,24.25,off
02/28/2017 12:43:00,22.687,24.312,off
