TIME,INSIDE_TEMPERATURE,OUTSIDE_TEMPERATURE,LIGHTS_STATE

04/27/2017 12:09:25,23.0,20.25,off
04/27/2017 12:09:37,23.0,20.312,off
04/27/2017 12:09:49,23.0,20.312,off
04/27/2017 12:10:00,23.0,20.312,off
