TIME,INSIDE_TEMPERATURE,OUTSIDE_TEMPERATURE,LIGHTS_STATE

04/24/2017 12:10:25,19.687,15.5,off
04/24/2017 12:10:36,19.687,15.5,off
04/24/2017 12:10:48,19.687,15.5,off
04/24/2017 12:11:00,19.687,15.562,off
