TIME,INSIDE_TEMPERATURE,OUTSIDE_TEMPERATURE,LIGHTS_STATE

11/17/2016 12:07:25,24.187,25.312,off
11/17/2016 12:07:37,24.187,25.125,off
11/17/2016 12:07:48,24.125,24.812,off
11/17/2016 12:08:00,24.125,24.625,off
