TIME,INSIDE_TEMPERATURE,OUTSIDE_TEMPERATURE,LIGHTS_STATE

01/21/2018 12:34:25,22.0,18.5,off
01/21/2018 12:34:37,22.062,18.625,off
01/21/2018 12:34:48,22.0,18.687,off
01/21/2018 12:35:00,22.0,18.687,off
