TIME,INSIDE_TEMPERATURE,OUTSIDE_TEMPERATURE,LIGHTS_STATE

09/19/2017 12:48:25,27.0,23.562,off
09/19/2017 12:48:37,27.0,23.625,off
09/19/2017 12:48:49,27.062,23.75,off
09/19/2017 12:49:02,27.062,23.812,off
