TIME,INSIDE_TEMPERATURE,OUTSIDE_TEMPERATURE,LIGHTS_STATE

03/10/2017 12:08:26,27.687,23.875,off
03/10/2017 12:08:37,27.687,23.875,off
03/10/2017 12:08:49,27.687,23.875,off
03/10/2017 12:09:01,27.75,23.937,off
