TIME,INSIDE_TEMPERATURE,OUTSIDE_TEMPERATURE,LIGHTS_STATE

05/23/2017 12:40:25,29.875,28.25,off
05/23/2017 12:40:36,29.875,28.25,off
05/23/2017 12:40:48,29.937,28.312,off
05/23/2017 12:41:00,29.875,28.312,off
