TIME,INSIDE_TEMPERATURE,OUTSIDE_TEMPERATURE,LIGHTS_STATE

03/20/2017 12:47:26,20.75,17.125,off
03/20/2017 12:47:37,20.75,17.125,off
03/20/2017 12:47:49,20.75,17.125,off
03/20/2017 12:48:01,20.75,17.125,off
