TIME,INSIDE_TEMPERATURE,OUTSIDE_TEMPERATURE,LIGHTS_STATE

03/19/2017 12:51:25,24.75,22.437,off
03/19/2017 12:51:37,24.75,22.437,off
03/19/2017 12:51:49,24.75,22.437,off
03/19/2017 12:52:00,24.75,22.375,off
