TIME,INSIDE_TEMPERATURE,OUTSIDE_TEMPERATURE,LIGHTS_STATE

09/28/2017 12:52:25,35.375,33.187,off
09/28/2017 12:52:37,35.375,33.187,off
09/28/2017 12:52:49,35.375,33.187,off
09/28/2017 12:53:00,35.375,33.187,off
