TIME,INSIDE_TEMPERATURE,OUTSIDE_TEMPERATURE,LIGHTS_STATE

05/22/2017 12:32:26,31.187,29.25,off
05/22/2017 12:32:38,31.25,29.312,off
05/22/2017 12:32:49,31.25,29.312,off
05/22/2017 12:33:01,31.25,29.312,off
