TIME,INSIDE_TEMPERATURE,OUTSIDE_TEMPERATURE,LIGHTS_STATE

10/01/2017 12:51:25,30.625,28.625,off
10/01/2017 12:51:37,30.625,28.625,off
10/01/2017 12:51:49,30.687,28.625,off
10/01/2017 12:52:01,30.687,28.625,off
