TIME,INSIDE_TEMPERATURE,OUTSIDE_TEMPERATURE,LIGHTS_STATE

05/18/2017 12:04:25,24.187,23.312,off
05/18/2017 12:04:36,24.187,23.312,off
05/18/2017 12:04:48,24.187,23.312,off
05/18/2017 12:05:00,24.187,23.312,off
