TIME,INSIDE_TEMPERATURE,OUTSIDE_TEMPERATURE,LIGHTS_STATE

06/22/2016 12:02:26,27.625,27.625,off
06/22/2016 12:02:38,27.625,27.625,off
06/22/2016 12:02:50,27.625,27.562,off
06/22/2016 12:03:02,27.625,27.562,off
