TIME,INSIDE_TEMPERATURE,OUTSIDE_TEMPERATURE,LIGHTS_STATE

09/21/2016 12:40:26,28.437,25.687,off
09/21/2016 12:40:38,28.5,25.75,off
09/21/2016 12:40:49,28.5,25.75,off
09/21/2016 12:41:01,28.5,25.75,off
