TIME,INSIDE_TEMPERATURE,OUTSIDE_TEMPERATURE,LIGHTS_STATE

09/04/2017 12:54:26,33.5,30.25,off
09/04/2017 12:54:37,33.5,30.25,off
09/04/2017 12:54:49,33.562,30.25,off
09/04/2017 12:55:01,33.562,30.25,off
