TIME,INSIDE_TEMPERATURE,OUTSIDE_TEMPERATURE,LIGHTS_STATE

11/30/2016 12:41:25,19.5,16.375,off
11/30/2016 12:41:36,19.5,16.312,off
11/30/2016 12:41:48,19.5,16.312,off
11/30/2016 12:42:00,19.5,16.25,off
