TIME,INSIDE_TEMPERATURE,OUTSIDE_TEMPERATURE,LIGHTS_STATE

01/22/2018 12:32:25,22.125,16.562,off
01/22/2018 12:32:37,22.125,16.5,off
01/22/2018 12:32:48,22.125,16.5,off
01/22/2018 12:33:00,22.125,16.437,off
