TIME,INSIDE_TEMPERATURE,OUTSIDE_TEMPERATURE,LIGHTS_STATE

02/03/2018 12:54:25,28.937,39.812,off
02/03/2018 12:54:36,29.062,39.875,off
02/03/2018 12:54:48,29.062,39.875,off
02/03/2018 12:55:00,29.125,39.875,off
