TIME,INSIDE_TEMPERATURE,OUTSIDE_TEMPERATURE,LIGHTS_STATE

05/24/2017 12:20:26,26.937,24.937,off
05/24/2017 12:20:37,26.937,25.0,off
05/24/2017 12:20:49,26.937,24.937,off
05/24/2017 12:21:01,26.937,25.0,off
