TIME,INSIDE_TEMPERATURE,OUTSIDE_TEMPERATURE,LIGHTS_STATE

03/02/2017 12:43:25,24.375,23.375,off
03/02/2017 12:43:37,24.375,23.375,off
03/02/2017 12:43:49,24.375,23.25,off
03/02/2017 12:44:00,24.375,23.25,off
