TIME,INSIDE_TEMPERATURE,OUTSIDE_TEMPERATURE,LIGHTS_STATE

02/16/2017 12:26:26,25.125,22.062,off
02/16/2017 12:26:37,25.125,21.812,off
02/16/2017 12:26:49,25.062,21.625,off
02/16/2017 12:27:01,25.062,21.5,off
