TIME,INSIDE_TEMPERATURE,OUTSIDE_TEMPERATURE,LIGHTS_STATE

09/14/2016 12:22:25,26.125,26.0,off
09/14/2016 12:22:37,26.125,26.0,off
09/14/2016 12:22:49,26.125,25.937,off
09/14/2016 12:23:01,26.187,25.937,off
