TIME,INSIDE_TEMPERATURE,OUTSIDE_TEMPERATURE,LIGHTS_STATE

10/15/2017 12:08:25,29.562,29.312,off
10/15/2017 12:08:37,29.687,29.312,off
10/15/2017 12:08:48,29.75,29.25,off
10/15/2017 12:09:00,29.687,29.25,off
