TIME,INSIDE_TEMPERATURE,OUTSIDE_TEMPERATURE,LIGHTS_STATE

03/27/2017 12:05:26,23.562,16.937,off
03/27/2017 12:05:37,23.5,16.937,off
03/27/2017 12:05:49,23.437,17.0,off
03/27/2017 12:06:01,23.312,16.875,off
