TIME,INSIDE_TEMPERATURE,OUTSIDE_TEMPERATURE,LIGHTS_STATE

06/27/2016 12:09:25,33.562,33.437,off
06/27/2016 12:09:37,33.562,33.437,off
06/27/2016 12:09:48,33.625,33.437,off
06/27/2016 12:10:00,33.625,33.437,off
