TIME,INSIDE_TEMPERATURE,OUTSIDE_TEMPERATURE,LIGHTS_STATE

10/30/2016 12:11:25,19.062,15.25,off
10/30/2016 12:11:36,19.062,15.25,off
10/30/2016 12:11:48,19.062,15.25,off
10/30/2016 12:12:00,19.062,15.25,off
