TIME,INSIDE_TEMPERATURE,OUTSIDE_TEMPERATURE,LIGHTS_STATE

07/25/2017 12:03:25,29.312,26.687,off
07/25/2017 12:03:37,29.312,26.687,off
07/25/2017 12:03:49,29.312,26.625,off
07/25/2017 12:04:02,29.375,26.625,off
