TIME,INSIDE_TEMPERATURE,OUTSIDE_TEMPERATURE,LIGHTS_STATE

09/14/2017 12:18:25,27.125,23.062,off
09/14/2017 12:18:37,27.125,23.062,off
09/14/2017 12:18:48,27.125,23.062,off
09/14/2017 12:19:00,27.125,23.062,off
