TIME,INSIDE_TEMPERATURE,OUTSIDE_TEMPERATURE,LIGHTS_STATE

06/28/2016 12:28:25,32.187,31.687,off
06/28/2016 12:28:36,32.187,31.687,off
06/28/2016 12:28:48,32.187,31.75,off
06/28/2016 12:29:01,32.25,31.75,off
