TIME,INSIDE_TEMPERATURE,OUTSIDE_TEMPERATURE,LIGHTS_STATE

01/07/2018 12:32:25,18.687,13.062,off
01/07/2018 12:32:37,18.687,13.062,off
01/07/2018 12:32:49,18.687,13.0,off
01/07/2018 12:33:01,18.75,13.0,off
