TIME,INSIDE_TEMPERATURE,OUTSIDE_TEMPERATURE,LIGHTS_STATE

02/15/2017 12:19:25,22.0,20.312,off
02/15/2017 12:19:37,22.0,20.25,off
02/15/2017 12:19:48,22.0,20.25,off
02/15/2017 12:20:00,22.0,20.062,off
