TIME,INSIDE_TEMPERATURE,OUTSIDE_TEMPERATURE,LIGHTS_STATE

03/19/2017 12:06:26,22.375,19.125,off
03/19/2017 12:06:37,22.437,19.062,off
03/19/2017 12:06:49,22.375,19.062,off
03/19/2017 12:07:01,22.437,19.125,off
