TIME,INSIDE_TEMPERATURE,OUTSIDE_TEMPERATURE,LIGHTS_STATE

07/02/2016 12:51:25,29.812,29.312,off
07/02/2016 12:51:37,29.812,29.312,off
07/02/2016 12:51:49,29.812,29.312,off
07/02/2016 12:52:00,29.812,29.312,off
