TIME,INSIDE_TEMPERATURE,OUTSIDE_TEMPERATURE,LIGHTS_STATE

03/03/2017 12:31:25,26.187,24.5,off
03/03/2017 12:31:37,26.187,24.312,off
03/03/2017 12:31:49,26.187,24.125,off
03/03/2017 12:32:00,26.187,24.062,off
