TIME,INSIDE_TEMPERATURE,OUTSIDE_TEMPERATURE,LIGHTS_STATE

12/16/2016 12:55:25,17.812,19.062,off
12/16/2016 12:55:37,17.812,19.25,off
12/16/2016 12:55:48,17.812,19.187,off
12/16/2016 12:56:00,17.812,19.25,off
