TIME,INSIDE_TEMPERATURE,OUTSIDE_TEMPERATURE,LIGHTS_STATE

02/04/2018 12:49:25,27.5,39.687,off
02/04/2018 12:49:36,27.5,39.625,off
02/04/2018 12:49:48,27.5,39.562,off
02/04/2018 12:50:00,27.562,39.5,off
