TIME,INSIDE_TEMPERATURE,OUTSIDE_TEMPERATURE,LIGHTS_STATE

02/12/2017 12:14:25,27.062,23.75,off
02/12/2017 12:14:37,27.0,23.812,off
02/12/2017 12:14:48,27.0,23.875,off
02/12/2017 12:15:00,26.937,23.937,off
