TIME,INSIDE_TEMPERATURE,OUTSIDE_TEMPERATURE,LIGHTS_STATE

09/08/2016 12:46:25,29.312,30.125,off
09/08/2016 12:46:37,29.375,30.375,off
09/08/2016 12:46:49,29.375,30.625,off
09/08/2016 12:47:00,29.375,30.75,off
