TIME,INSIDE_TEMPERATURE,OUTSIDE_TEMPERATURE,LIGHTS_STATE

10/13/2017 12:05:25,28.5,28.312,off
10/13/2017 12:05:37,28.562,28.187,off
10/13/2017 12:05:49,28.562,28.187,off
10/13/2017 12:06:01,28.562,27.875,off
