TIME,INSIDE_TEMPERATURE,OUTSIDE_TEMPERATURE,LIGHTS_STATE

03/27/2017 12:11:25,22.312,17.937,off
03/27/2017 12:11:37,22.312,17.875,off
03/27/2017 12:11:49,22.312,17.812,off
03/27/2017 12:12:00,22.25,17.875,off
