TIME,INSIDE_TEMPERATURE,OUTSIDE_TEMPERATURE,LIGHTS_STATE

03/19/2018 12:28:25,19.312,17.062,off
03/19/2018 12:28:37,19.312,17.0,off
03/19/2018 12:28:48,19.375,17.0,off
03/19/2018 12:29:00,19.375,16.937,off
