TIME,INSIDE_TEMPERATURE,OUTSIDE_TEMPERATURE,LIGHTS_STATE

01/26/2018 12:21:25,22.125,17.875,off
01/26/2018 12:21:37,22.187,17.75,off
01/26/2018 12:21:49,22.187,17.5,off
01/26/2018 12:22:00,22.187,17.5,off
