TIME,INSIDE_TEMPERATURE,OUTSIDE_TEMPERATURE,LIGHTS_STATE

07/21/2017 12:43:25,30.875,28.437,off
07/21/2017 12:43:37,30.875,28.375,off
07/21/2017 12:43:49,30.937,28.312,off
07/21/2017 12:44:01,30.875,28.312,off
