TIME,INSIDE_TEMPERATURE,OUTSIDE_TEMPERATURE,LIGHTS_STATE

07/11/2017 12:50:25,33.312,30.25,off
07/11/2017 12:50:37,33.312,30.25,off
07/11/2017 12:50:48,33.312,30.25,off
07/11/2017 12:51:00,33.312,30.312,off
