TIME,INSIDE_TEMPERATURE,OUTSIDE_TEMPERATURE,LIGHTS_STATE

02/02/2018 12:17:25,28.375,25.062,off
02/02/2018 12:17:37,28.437,25.062,off
02/02/2018 12:17:49,28.437,25.062,off
02/02/2018 12:18:00,28.437,25.062,off
