TIME,INSIDE_TEMPERATURE,OUTSIDE_TEMPERATURE,LIGHTS_STATE

04/08/2017 12:01:25,16.125,11.5,off
04/08/2017 12:01:37,16.125,11.5,off
04/08/2017 12:01:49,16.125,11.5,off
04/08/2017 12:02:00,16.187,11.5,off
