TIME,INSIDE_TEMPERATURE,OUTSIDE_TEMPERATURE,LIGHTS_STATE

07/14/2017 12:40:25,33.0,31.187,off
07/14/2017 12:40:37,33.0,31.187,off
07/14/2017 12:40:49,33.0,31.187,off
07/14/2017 12:41:01,33.0,31.125,off
