TIME,INSIDE_TEMPERATURE,OUTSIDE_TEMPERATURE,LIGHTS_STATE

06/11/2017 12:56:25,23.375,18.875,off
06/11/2017 12:56:37,23.375,18.937,off
06/11/2017 12:56:49,23.375,19.0,off
06/11/2017 12:57:00,23.375,19.125,off
