TIME,INSIDE_TEMPERATURE,OUTSIDE_TEMPERATURE,LIGHTS_STATE

08/21/2017 12:55:26,29.25,26.625,off
08/21/2017 12:55:37,29.25,26.625,off
08/21/2017 12:55:49,29.25,26.625,off
08/21/2017 12:56:01,29.25,26.625,off
