TIME,INSIDE_TEMPERATURE,OUTSIDE_TEMPERATURE,LIGHTS_STATE

07/10/2016 12:06:25,24.187,23.75,off
07/10/2016 12:06:37,24.125,23.75,off
07/10/2016 12:06:48,24.125,23.687,off
07/10/2016 12:07:00,24.125,23.687,off
