TIME,INSIDE_TEMPERATURE,OUTSIDE_TEMPERATURE,LIGHTS_STATE

07/21/2017 12:44:25,30.875,28.25,off
07/21/2017 12:44:36,30.937,28.25,off
07/21/2017 12:44:48,30.937,28.25,off
07/21/2017 12:45:00,30.937,28.187,off
