TIME,INSIDE_TEMPERATURE,OUTSIDE_TEMPERATURE,LIGHTS_STATE

02/16/2017 12:40:25,24.875,21.0,off
02/16/2017 12:40:37,24.875,21.187,off
02/16/2017 12:40:49,24.875,21.25,off
02/16/2017 12:41:00,24.937,21.375,off
