TIME,INSIDE_TEMPERATURE,OUTSIDE_TEMPERATURE,LIGHTS_STATE

01/08/2017 12:04:24,18.812,15.062,off
01/08/2017 12:04:36,18.812,15.062,off
01/08/2017 12:04:48,18.812,15.062,off
01/08/2017 12:04:59,18.75,15.062,off
