TIME,INSIDE_TEMPERATURE,OUTSIDE_TEMPERATURE,LIGHTS_STATE

07/11/2016 12:30:26,28.937,28.937,off
07/11/2016 12:30:37,29.0,28.937,off
07/11/2016 12:30:49,29.0,28.937,off
07/11/2016 12:31:01,29.0,28.937,off
