TIME,INSIDE_TEMPERATURE,OUTSIDE_TEMPERATURE,LIGHTS_STATE

01/09/2017 12:43:25,19.875,15.25,off
01/09/2017 12:43:37,19.875,15.25,off
01/09/2017 12:43:48,19.875,15.312,off
01/09/2017 12:44:00,19.875,15.25,off
