TIME,INSIDE_TEMPERATURE,OUTSIDE_TEMPERATURE,LIGHTS_STATE

03/21/2017 12:17:25,22.187,18.125,off
03/21/2017 12:17:37,22.187,18.125,off
03/21/2017 12:17:49,22.187,18.125,off
03/21/2017 12:18:00,22.187,18.125,off
