TIME,INSIDE_TEMPERATURE,OUTSIDE_TEMPERATURE,LIGHTS_STATE

04/20/2017 12:49:25,23.5,19.937,off
04/20/2017 12:49:37,23.5,19.937,off
04/20/2017 12:49:49,23.5,19.875,off
04/20/2017 12:50:00,23.5,19.812,off
