TIME,INSIDE_TEMPERATURE,OUTSIDE_TEMPERATURE,LIGHTS_STATE

07/04/2017 12:04:25,29.25,26.187,off
07/04/2017 12:04:37,29.312,26.187,off
07/04/2017 12:04:49,29.312,26.25,off
07/04/2017 12:05:00,29.312,26.25,off
