TIME,INSIDE_TEMPERATURE,OUTSIDE_TEMPERATURE,LIGHTS_STATE

03/01/2018 12:04:26,18.687,12.875,off
03/01/2018 12:04:37,18.687,12.875,off
03/01/2018 12:04:49,18.687,12.875,off
03/01/2018 12:05:01,18.687,12.875,off
