TIME,INSIDE_TEMPERATURE,OUTSIDE_TEMPERATURE,LIGHTS_STATE

03/24/2017 12:29:26,17.0,11.625,off
03/24/2017 12:29:37,17.0,11.625,off
03/24/2017 12:29:49,17.0,11.625,off
03/24/2017 12:30:01,17.0,11.625,off
