TIME,INSIDE_TEMPERATURE,OUTSIDE_TEMPERATURE,LIGHTS_STATE

03/10/2018 12:30:25,21.25,16.187,off
03/10/2018 12:30:37,21.25,16.187,off
03/10/2018 12:30:49,21.25,16.25,off
03/10/2018 12:31:01,21.312,16.25,off
