TIME,INSIDE_TEMPERATURE,OUTSIDE_TEMPERATURE,LIGHTS_STATE

05/24/2017 12:29:25,27.437,25.375,off
05/24/2017 12:29:37,27.437,25.375,off
05/24/2017 12:29:48,27.437,25.375,off
05/24/2017 12:30:00,27.437,25.312,off
