TIME,INSIDE_TEMPERATURE,OUTSIDE_TEMPERATURE,LIGHTS_STATE

02/07/2017 12:56:25,20.562,16.5,off
02/07/2017 12:56:37,20.562,16.5,off
02/07/2017 12:56:48,20.562,16.562,off
02/07/2017 12:57:00,20.625,16.562,off
