TIME,INSIDE_TEMPERATURE,OUTSIDE_TEMPERATURE,LIGHTS_STATE

09/15/2016 12:15:26,27.312,26.687,off
09/15/2016 12:15:38,27.312,26.812,off
09/15/2016 12:15:50,27.375,26.812,off
09/15/2016 12:16:01,27.375,26.875,off
