TIME,INSIDE_TEMPERATURE,OUTSIDE_TEMPERATURE,LIGHTS_STATE

10/14/2017 12:50:26,29.562,30.25,off
10/14/2017 12:50:37,29.562,29.937,off
10/14/2017 12:50:49,29.562,29.875,off
10/14/2017 12:51:01,29.562,29.75,off
