TIME,INSIDE_TEMPERATURE,OUTSIDE_TEMPERATURE,LIGHTS_STATE

07/24/2016 12:42:26,33.687,33.0,off
07/24/2016 12:42:37,33.687,33.0,off
07/24/2016 12:42:49,33.75,33.0,off
07/24/2016 12:43:01,33.75,33.0,off
