TIME,INSIDE_TEMPERATURE,OUTSIDE_TEMPERATURE,LIGHTS_STATE

05/14/2017 12:30:25,21.375,18.812,off
05/14/2017 12:30:36,21.375,18.812,off
05/14/2017 12:30:48,21.375,18.812,off
05/14/2017 12:31:00,21.375,18.812,off
