TIME,INSIDE_TEMPERATURE,OUTSIDE_TEMPERATURE,LIGHTS_STATE

02/13/2018 12:56:25,23.375,23.687,off
02/13/2018 12:56:37,23.375,23.562,off
02/13/2018 12:56:49,23.375,23.562,off
02/13/2018 12:57:00,23.375,23.437,off
