TIME,INSIDE_TEMPERATURE,OUTSIDE_TEMPERATURE,LIGHTS_STATE

01/08/2017 12:52:25,18.75,15.312,off
01/08/2017 12:52:36,18.75,15.312,off
01/08/2017 12:52:48,18.75,15.312,off
01/08/2017 12:53:00,18.75,15.312,off
