TIME,INSIDE_TEMPERATURE,OUTSIDE_TEMPERATURE,LIGHTS_STATE

12/13/2016 12:15:25,18.187,15.625,off
12/13/2016 12:15:37,18.25,15.562,off
12/13/2016 12:15:48,18.25,15.437,off
12/13/2016 12:16:00,18.187,15.437,off
