TIME,INSIDE_TEMPERATURE,OUTSIDE_TEMPERATURE,LIGHTS_STATE

05/07/2017 12:21:25,23.625,21.562,off
05/07/2017 12:21:36,23.625,21.625,off
05/07/2017 12:21:48,23.687,21.625,off
05/07/2017 12:22:00,23.625,21.625,off
