TIME,INSIDE_TEMPERATURE,OUTSIDE_TEMPERATURE,LIGHTS_STATE

01/20/2018 12:06:25,22.437,18.437,off
01/20/2018 12:06:37,22.437,18.562,off
01/20/2018 12:06:49,22.437,18.625,off
01/20/2018 12:07:01,22.437,18.75,off
