TIME,INSIDE_TEMPERATURE,OUTSIDE_TEMPERATURE,LIGHTS_STATE

10/07/2017 12:14:25,32.375,27.687,off
10/07/2017 12:14:37,32.375,27.75,off
10/07/2017 12:14:49,32.375,27.75,off
10/07/2017 12:15:01,32.375,27.75,off
