TIME,INSIDE_TEMPERATURE,OUTSIDE_TEMPERATURE,LIGHTS_STATE

08/13/2017 12:53:25,30.375,27.687,off
08/13/2017 12:53:37,30.375,27.75,off
08/13/2017 12:53:49,30.375,27.687,off
08/13/2017 12:54:01,30.375,27.75,off
