TIME,INSIDE_TEMPERATURE,OUTSIDE_TEMPERATURE,LIGHTS_STATE

06/18/2017 12:23:26,38.187,32.625,off
06/18/2017 12:23:37,38.187,32.625,off
06/18/2017 12:23:49,38.187,32.625,off
06/18/2017 12:24:01,38.187,32.625,off
