TIME,INSIDE_TEMPERATURE,OUTSIDE_TEMPERATURE,LIGHTS_STATE

02/05/2017 12:53:25,21.937,18.75,off
02/05/2017 12:53:37,21.937,18.687,off
02/05/2017 12:53:49,21.937,18.437,off
02/05/2017 12:54:00,21.937,18.25,off
