TIME,INSIDE_TEMPERATURE,OUTSIDE_TEMPERATURE,LIGHTS_STATE

02/20/2017 12:03:25,17.562,13.5,off
02/20/2017 12:03:37,17.562,13.5,off
02/20/2017 12:03:49,17.562,13.5,off
02/20/2017 12:04:00,17.562,13.5,off
