TIME,INSIDE_TEMPERATURE,OUTSIDE_TEMPERATURE,LIGHTS_STATE

03/09/2017 12:42:25,28.312,27.625,off
03/09/2017 12:42:37,28.312,27.687,off
03/09/2017 12:42:48,28.312,27.812,off
03/09/2017 12:43:00,28.312,27.937,off
