TIME,INSIDE_TEMPERATURE,OUTSIDE_TEMPERATURE,LIGHTS_STATE

08/31/2017 12:49:26,34.25,33.937,off
08/31/2017 12:49:38,34.25,33.937,off
08/31/2017 12:49:49,34.187,33.937,off
08/31/2017 12:50:01,34.25,33.875,off
