TIME,INSIDE_TEMPERATURE,OUTSIDE_TEMPERATURE,LIGHTS_STATE

04/23/2017 12:14:25,21.687,18.937,off
04/23/2017 12:14:37,21.687,19.0,off
04/23/2017 12:14:49,21.687,18.937,off
04/23/2017 12:15:00,21.687,18.937,off
