TIME,INSIDE_TEMPERATURE,OUTSIDE_TEMPERATURE,LIGHTS_STATE

03/29/2018 12:13:25,25.375,24.062,off
03/29/2018 12:13:37,25.375,24.062,off
03/29/2018 12:13:49,25.375,24.0,off
03/29/2018 12:14:00,25.375,24.062,off
