TIME,INSIDE_TEMPERATURE,OUTSIDE_TEMPERATURE,LIGHTS_STATE

12/17/2016 12:02:25,18.437,13.625,off
12/17/2016 12:02:37,18.437,13.625,off
12/17/2016 12:02:48,18.437,13.75,off
12/17/2016 12:03:00,18.437,13.812,off
