TIME,INSIDE_TEMPERATURE,OUTSIDE_TEMPERATURE,LIGHTS_STATE

10/05/2017 12:13:26,29.937,26.812,off
10/05/2017 12:13:38,29.937,26.875,off
10/05/2017 12:13:49,29.937,26.937,off
10/05/2017 12:14:01,29.937,26.937,off
