TIME,INSIDE_TEMPERATURE,OUTSIDE_TEMPERATURE,LIGHTS_STATE

08/01/2016 12:13:26,27.375,27.437,off
08/01/2016 12:13:38,27.375,27.437,off
08/01/2016 12:13:50,27.375,27.437,off
08/01/2016 12:14:02,27.375,27.437,off
