TIME,INSIDE_TEMPERATURE,OUTSIDE_TEMPERATURE,LIGHTS_STATE

06/09/2017 12:07:25,26.125,21.5,off
06/09/2017 12:07:37,26.125,21.437,off
06/09/2017 12:07:49,26.125,21.187,off
06/09/2017 12:08:01,26.125,21.125,off
