TIME,INSIDE_TEMPERATURE,OUTSIDE_TEMPERATURE,LIGHTS_STATE

07/02/2016 12:47:26,29.687,29.187,off
07/02/2016 12:47:37,29.625,29.187,off
07/02/2016 12:47:49,29.687,29.187,off
07/02/2016 12:48:01,29.687,29.187,off
