TIME,INSIDE_TEMPERATURE,OUTSIDE_TEMPERATURE,LIGHTS_STATE

06/19/2017 12:30:25,39.062,34.937,off
06/19/2017 12:30:37,39.062,34.875,off
06/19/2017 12:30:49,39.062,34.875,off
06/19/2017 12:31:01,39.125,34.875,off
