TIME,INSIDE_TEMPERATURE,OUTSIDE_TEMPERATURE,LIGHTS_STATE

02/27/2018 12:31:25,20.875,27.5,off
02/27/2018 12:31:37,20.875,27.375,off
02/27/2018 12:31:49,20.875,27.375,off
02/27/2018 12:32:00,20.875,27.375,off
