TIME,INSIDE_TEMPERATURE,OUTSIDE_TEMPERATURE,LIGHTS_STATE

01/10/2017 12:05:26,16.625,12.75,off
01/10/2017 12:05:37,16.625,12.75,off
01/10/2017 12:05:49,16.625,12.75,off
01/10/2017 12:06:02,16.687,12.75,off
