TIME,INSIDE_TEMPERATURE,OUTSIDE_TEMPERATURE,LIGHTS_STATE

02/23/2018 12:55:25,18.75,35.437,off
02/23/2018 12:55:37,18.75,35.562,off
02/23/2018 12:55:49,18.75,35.5,off
02/23/2018 12:56:00,18.75,35.625,off
