TIME,INSIDE_TEMPERATURE,OUTSIDE_TEMPERATURE,LIGHTS_STATE

07/03/2017 12:25:25,30.875,28.375,off
07/03/2017 12:25:37,30.875,28.312,off
07/03/2017 12:25:49,30.875,28.312,off
07/03/2017 12:26:01,30.875,28.312,off
