TIME,INSIDE_TEMPERATURE,OUTSIDE_TEMPERATURE,LIGHTS_STATE

03/26/2018 12:47:25,18.437,14.562,off
03/26/2018 12:47:37,18.437,14.562,off
03/26/2018 12:47:48,18.437,14.5,off
03/26/2018 12:48:00,18.437,14.437,off
