TIME,INSIDE_TEMPERATURE,OUTSIDE_TEMPERATURE,LIGHTS_STATE

09/15/2017 12:06:25,26.75,23.687,off
09/15/2017 12:06:37,26.687,23.687,off
09/15/2017 12:06:48,26.75,23.687,off
09/15/2017 12:07:00,26.75,23.687,off
