TIME,INSIDE_TEMPERATURE,OUTSIDE_TEMPERATURE,LIGHTS_STATE

06/20/2017 12:46:25,36.562,33.375,off
06/20/2017 12:46:37,36.562,33.375,off
06/20/2017 12:46:49,36.562,33.375,off
06/20/2017 12:47:00,36.562,33.375,off
