TIME,INSIDE_TEMPERATURE,OUTSIDE_TEMPERATURE,LIGHTS_STATE

03/11/2017 12:28:25,29.937,27.187,off
03/11/2017 12:28:37,29.937,27.25,off
03/11/2017 12:28:49,29.937,27.312,off
03/11/2017 12:29:01,29.937,27.437,off
