TIME,INSIDE_TEMPERATURE,OUTSIDE_TEMPERATURE,LIGHTS_STATE

07/02/2016 12:23:25,29.062,28.875,off
07/02/2016 12:23:36,29.062,28.812,off
07/02/2016 12:23:48,29.062,28.875,off
07/02/2016 12:24:00,29.062,28.875,off
