TIME,INSIDE_TEMPERATURE,OUTSIDE_TEMPERATURE,LIGHTS_STATE

02/16/2017 12:36:25,24.75,20.437,off
02/16/2017 12:36:37,24.812,20.5,off
02/16/2017 12:36:49,24.812,20.625,off
02/16/2017 12:37:00,24.812,20.75,off
