TIME,INSIDE_TEMPERATURE,OUTSIDE_TEMPERATURE,LIGHTS_STATE

12/31/2016 12:27:24,13.562,9.937,off
12/31/2016 12:27:36,13.562,10.0,off
12/31/2016 12:27:48,13.562,10.0,off
12/31/2016 12:27:59,13.562,10.0,off
