TIME,INSIDE_TEMPERATURE,OUTSIDE_TEMPERATURE,LIGHTS_STATE

03/26/2017 12:50:25,23.437,18.937,off
03/26/2017 12:50:37,23.437,19.0,off
03/26/2017 12:50:48,23.437,19.062,off
03/26/2017 12:51:00,23.437,19.125,off
