TIME,INSIDE_TEMPERATURE,OUTSIDE_TEMPERATURE,LIGHTS_STATE

05/12/2017 12:45:25,21.187,18.562,off
05/12/2017 12:45:37,21.187,18.437,off
05/12/2017 12:45:48,21.187,18.437,off
05/12/2017 12:46:00,21.187,18.375,off
