TIME,INSIDE_TEMPERATURE,OUTSIDE_TEMPERATURE,LIGHTS_STATE

10/24/2017 12:53:25,36.125,41.625,off
10/24/2017 12:53:37,36.125,41.687,off
10/24/2017 12:53:49,36.125,41.875,off
10/24/2017 12:54:01,36.125,41.937,off
