TIME,INSIDE_TEMPERATURE,OUTSIDE_TEMPERATURE,LIGHTS_STATE

03/19/2018 12:19:25,19.0,16.187,off
03/19/2018 12:19:37,18.937,16.25,off
03/19/2018 12:19:49,19.0,16.312,off
03/19/2018 12:20:00,19.0,16.375,off
