TIME,INSIDE_TEMPERATURE,OUTSIDE_TEMPERATURE,LIGHTS_STATE

10/02/2017 12:08:25,28.562,25.687,off
10/02/2017 12:08:37,28.562,25.5,off
10/02/2017 12:08:49,28.562,25.5,off
10/02/2017 12:09:00,28.562,25.5,off
