TIME,INSIDE_TEMPERATURE,OUTSIDE_TEMPERATURE,LIGHTS_STATE

01/12/2017 12:22:25,12.687,8.0,off
01/12/2017 12:22:37,12.625,8.062,off
01/12/2017 12:22:49,12.625,8.062,off
01/12/2017 12:23:00,12.625,8.0,off
