TIME,INSIDE_TEMPERATURE,OUTSIDE_TEMPERATURE,LIGHTS_STATE

03/29/2017 12:44:25,25.812,23.375,off
03/29/2017 12:44:37,25.812,23.312,off
03/29/2017 12:44:48,25.812,23.312,off
03/29/2017 12:45:00,25.875,23.312,off
