TIME,INSIDE_TEMPERATURE,OUTSIDE_TEMPERATURE,LIGHTS_STATE

06/23/2017 12:11:26,32.437,29.375,off
06/23/2017 12:11:38,32.437,29.375,off
06/23/2017 12:11:49,32.437,29.375,off
06/23/2017 12:12:01,32.437,29.375,off
