TIME,INSIDE_TEMPERATURE,OUTSIDE_TEMPERATURE,LIGHTS_STATE

02/06/2017 12:48:25,18.0,13.875,off
02/06/2017 12:48:36,18.0,13.875,off
02/06/2017 12:48:48,18.0,13.875,off
02/06/2017 12:49:00,18.0,13.875,off
