TIME,INSIDE_TEMPERATURE,OUTSIDE_TEMPERATURE,LIGHTS_STATE

10/14/2017 12:15:26,30.062,26.75,off
10/14/2017 12:15:37,30.0,26.625,off
10/14/2017 12:15:49,30.0,26.625,off
10/14/2017 12:16:01,30.0,26.687,off
