TIME,INSIDE_TEMPERATURE,OUTSIDE_TEMPERATURE,LIGHTS_STATE

02/03/2018 12:07:25,29.125,26.937,off
02/03/2018 12:07:37,29.125,26.937,off
02/03/2018 12:07:49,29.187,27.0,off
02/03/2018 12:08:01,29.187,27.125,off
