TIME,INSIDE_TEMPERATURE,OUTSIDE_TEMPERATURE,LIGHTS_STATE

07/11/2017 12:44:25,33.125,29.812,off
07/11/2017 12:44:37,33.125,29.812,off
07/11/2017 12:44:49,33.187,29.75,off
07/11/2017 12:45:01,33.125,29.75,off
