TIME,INSIDE_TEMPERATURE,OUTSIDE_TEMPERATURE,LIGHTS_STATE

09/18/2017 12:09:26,29.75,25.875,off
09/18/2017 12:09:38,29.75,25.812,off
09/18/2017 12:09:50,29.75,25.812,off
09/18/2017 12:10:02,29.75,25.75,off
