TIME,INSIDE_TEMPERATURE,OUTSIDE_TEMPERATURE,LIGHTS_STATE

10/02/2017 12:23:25,29.187,26.625,off
10/02/2017 12:23:37,29.187,26.625,off
10/02/2017 12:23:48,29.187,26.75,off
10/02/2017 12:24:01,29.187,27.062,off
