TIME,INSIDE_TEMPERATURE,OUTSIDE_TEMPERATURE,LIGHTS_STATE

10/04/2017 12:09:25,28.312,24.75,off
10/04/2017 12:09:38,28.312,24.812,off
10/04/2017 12:09:50,28.312,24.875,off
10/04/2017 12:10:01,28.312,24.937,off
