TIME,INSIDE_TEMPERATURE,OUTSIDE_TEMPERATURE,LIGHTS_STATE

09/28/2017 12:29:25,34.0,31.812,off
09/28/2017 12:29:37,34.0,31.812,off
09/28/2017 12:29:48,34.0,31.812,off
09/28/2017 12:30:00,34.062,31.875,off
