TIME,INSIDE_TEMPERATURE,OUTSIDE_TEMPERATURE,LIGHTS_STATE

08/09/2017 12:29:25,27.375,24.312,off
08/09/2017 12:29:37,27.312,24.312,off
08/09/2017 12:29:49,27.312,24.312,off
08/09/2017 12:30:01,27.375,24.312,off
