TIME,INSIDE_TEMPERATURE,OUTSIDE_TEMPERATURE,LIGHTS_STATE

10/23/2017 12:09:25,35.437,35.125,off
10/23/2017 12:09:37,35.437,35.062,off
10/23/2017 12:09:49,35.437,34.812,off
10/23/2017 12:10:01,35.437,34.5,off
