TIME,INSIDE_TEMPERATURE,OUTSIDE_TEMPERATURE,LIGHTS_STATE

06/20/2017 12:36:25,36.187,33.312,off
06/20/2017 12:36:37,36.187,33.312,off
06/20/2017 12:36:49,36.25,33.25,off
06/20/2017 12:37:00,36.25,33.25,off
