TIME,INSIDE_TEMPERATURE,OUTSIDE_TEMPERATURE,LIGHTS_STATE

01/07/2017 12:10:26,19.875,16.125,off
01/07/2017 12:10:37,19.875,16.125,off
01/07/2017 12:10:49,19.875,16.125,off
01/07/2017 12:11:01,19.875,16.187,off
