TIME,INSIDE_TEMPERATURE,OUTSIDE_TEMPERATURE,LIGHTS_STATE

09/14/2016 12:19:25,26.0,26.25,off
09/14/2016 12:19:37,26.0,26.187,off
09/14/2016 12:19:48,26.062,26.062,off
09/14/2016 12:20:00,26.0,26.0,off
