TIME,INSIDE_TEMPERATURE,OUTSIDE_TEMPERATURE,LIGHTS_STATE

02/15/2017 12:07:26,21.0,18.937,off
02/15/2017 12:07:37,21.0,18.937,off
02/15/2017 12:07:49,21.0,18.937,off
02/15/2017 12:08:01,21.0,19.0,off
