TIME,INSIDE_TEMPERATURE,OUTSIDE_TEMPERATURE,LIGHTS_STATE

11/17/2016 12:29:25,23.75,22.687,off
11/17/2016 12:29:37,23.687,22.5,off
11/17/2016 12:29:48,23.75,22.437,off
11/17/2016 12:30:00,23.75,22.375,off
