TIME,INSIDE_TEMPERATURE,OUTSIDE_TEMPERATURE,LIGHTS_STATE

07/30/2016 12:21:25,30.312,30.625,off
07/30/2016 12:21:37,30.312,30.625,off
07/30/2016 12:21:49,30.375,30.625,off
07/30/2016 12:22:00,30.375,30.687,off
