TIME,INSIDE_TEMPERATURE,OUTSIDE_TEMPERATURE,LIGHTS_STATE

08/05/2016 12:25:26,24.75,24.625,off
08/05/2016 12:25:38,24.75,24.625,off
08/05/2016 12:25:50,24.75,24.5,off
08/05/2016 12:26:02,24.75,24.5,off
