TIME,INSIDE_TEMPERATURE,OUTSIDE_TEMPERATURE,LIGHTS_STATE

09/23/2017 12:24:25,26.812,24.375,off
09/23/2017 12:24:37,26.875,24.375,off
09/23/2017 12:24:50,26.875,24.375,off
09/23/2017 12:25:02,26.875,24.375,off
