TIME,INSIDE_TEMPERATURE,OUTSIDE_TEMPERATURE,LIGHTS_STATE

11/01/2016 12:26:25,27.187,22.125,off
11/01/2016 12:26:36,27.187,22.0,off
11/01/2016 12:26:48,27.125,21.875,off
11/01/2016 12:27:00,27.062,21.75,off
