TIME,INSIDE_TEMPERATURE,OUTSIDE_TEMPERATURE,LIGHTS_STATE

05/22/2017 12:37:25,31.5,29.75,off
05/22/2017 12:37:37,31.5,29.687,off
05/22/2017 12:37:49,31.5,29.75,off
05/22/2017 12:38:00,31.5,29.687,off
