TIME,INSIDE_TEMPERATURE,OUTSIDE_TEMPERATURE,LIGHTS_STATE

03/13/2017 12:21:25,26.125,23.062,off
03/13/2017 12:21:37,26.125,23.125,off
03/13/2017 12:21:49,26.187,23.187,off
03/13/2017 12:22:01,26.187,23.125,off
