TIME,INSIDE_TEMPERATURE,OUTSIDE_TEMPERATURE,LIGHTS_STATE

12/19/2016 12:48:25,17.875,14.312,off
12/19/2016 12:48:36,17.937,14.312,off
12/19/2016 12:48:48,17.875,14.312,off
12/19/2016 12:49:00,17.875,14.25,off
