TIME,INSIDE_TEMPERATURE,OUTSIDE_TEMPERATURE,LIGHTS_STATE

09/05/2016 12:38:26,26.625,29.187,off
09/05/2016 12:38:38,26.687,29.187,off
09/05/2016 12:38:49,26.687,29.187,off
09/05/2016 12:39:01,26.687,29.187,off
