TIME,INSIDE_TEMPERATURE,OUTSIDE_TEMPERATURE,LIGHTS_STATE

01/14/2018 12:49:25,19.312,12.875,off
01/14/2018 12:49:37,19.312,12.937,off
01/14/2018 12:49:49,19.312,12.937,off
01/14/2018 12:50:01,19.312,12.937,off
