TIME,INSIDE_TEMPERATURE,OUTSIDE_TEMPERATURE,LIGHTS_STATE

03/15/2018 12:05:25,18.437,13.625,off
03/15/2018 12:05:37,18.437,13.562,off
03/15/2018 12:05:49,18.437,13.437,off
03/15/2018 12:06:00,18.437,13.312,off
