TIME,INSIDE_TEMPERATURE,OUTSIDE_TEMPERATURE,LIGHTS_STATE

02/23/2018 12:02:25,18.687,16.875,off
02/23/2018 12:02:37,18.687,16.812,off
02/23/2018 12:02:49,18.687,16.812,off
02/23/2018 12:03:01,18.687,16.812,off
