TIME,INSIDE_TEMPERATURE,OUTSIDE_TEMPERATURE,LIGHTS_STATE

09/10/2016 12:03:25,26.875,26.125,off
09/10/2016 12:03:37,26.875,26.125,off
09/10/2016 12:03:48,26.875,26.125,off
09/10/2016 12:04:00,26.937,26.125,off
