TIME,INSIDE_TEMPERATURE,OUTSIDE_TEMPERATURE,LIGHTS_STATE

11/23/2016 12:21:25,23.062,18.125,off
11/23/2016 12:21:36,23.062,18.125,off
11/23/2016 12:21:48,23.062,18.125,off
11/23/2016 12:22:00,23.062,18.25,off
