TIME,INSIDE_TEMPERATURE,OUTSIDE_TEMPERATURE,LIGHTS_STATE

11/10/2016 12:20:25,30.0,31.812,off
11/10/2016 12:20:36,30.0,31.875,off
11/10/2016 12:20:48,30.0,31.875,off
11/10/2016 12:21:00,30.0,32.0,off
