TIME,INSIDE_TEMPERATURE,OUTSIDE_TEMPERATURE,LIGHTS_STATE

12/23/2016 12:17:25,13.25,9.437,off
12/23/2016 12:17:37,13.25,9.437,off
12/23/2016 12:17:48,13.25,9.437,off
12/23/2016 12:18:00,13.312,9.437,off
