TIME,INSIDE_TEMPERATURE,OUTSIDE_TEMPERATURE,LIGHTS_STATE

02/21/2018 12:52:25,21.562,30.0,off
02/21/2018 12:52:37,21.562,29.812,off
02/21/2018 12:52:48,21.562,29.687,off
02/21/2018 12:53:00,21.562,29.437,off
