TIME,INSIDE_TEMPERATURE,OUTSIDE_TEMPERATURE,LIGHTS_STATE

04/19/2017 12:42:25,23.625,20.75,off
04/19/2017 12:42:37,23.625,20.75,off
04/19/2017 12:42:48,23.625,20.75,off
04/19/2017 12:43:00,23.687,20.812,off
