TIME,INSIDE_TEMPERATURE,OUTSIDE_TEMPERATURE,LIGHTS_STATE

09/19/2016 12:52:26,35.25,36.937,off
09/19/2016 12:52:38,35.25,37.0,off
09/19/2016 12:52:49,35.312,37.062,off
09/19/2016 12:53:01,35.312,37.187,off
