TIME,INSIDE_TEMPERATURE,OUTSIDE_TEMPERATURE,LIGHTS_STATE

12/22/2016 12:05:24,23.125,19.375,off
12/22/2016 12:05:36,23.125,19.437,off
12/22/2016 12:05:48,23.125,19.562,off
12/22/2016 12:05:59,23.125,19.562,off
