TIME,INSIDE_TEMPERATURE,OUTSIDE_TEMPERATURE,LIGHTS_STATE

02/03/2018 12:40:25,28.812,33.312,off
02/03/2018 12:40:37,28.875,33.5,off
02/03/2018 12:40:49,28.812,33.625,off
02/03/2018 12:41:01,28.875,33.812,off
