TIME,INSIDE_TEMPERATURE,OUTSIDE_TEMPERATURE,LIGHTS_STATE

03/21/2018 12:40:26,23.375,19.812,off
03/21/2018 12:40:37,23.375,19.812,off
03/21/2018 12:40:49,23.375,19.812,off
03/21/2018 12:41:01,23.437,19.75,off
