TIME,INSIDE_TEMPERATURE,OUTSIDE_TEMPERATURE,LIGHTS_STATE

08/05/2017 12:35:25,33.5,31.125,off
08/05/2017 12:35:36,33.5,31.125,off
08/05/2017 12:35:48,33.5,31.187,off
08/05/2017 12:36:00,33.562,31.187,off
