TIME,INSIDE_TEMPERATURE,OUTSIDE_TEMPERATURE,LIGHTS_STATE

07/14/2016 12:09:25,33.062,33.125,off
07/14/2016 12:09:36,33.062,33.125,off
07/14/2016 12:09:48,33.062,33.187,off
07/14/2016 12:10:00,33.062,33.187,off
