TIME,INSIDE_TEMPERATURE,OUTSIDE_TEMPERATURE,LIGHTS_STATE

06/13/2017 12:24:25,26.187,23.125,off
06/13/2017 12:24:37,26.187,23.187,off
06/13/2017 12:24:49,26.187,23.187,off
06/13/2017 12:25:00,26.187,23.187,off
