TIME,INSIDE_TEMPERATURE,OUTSIDE_TEMPERATURE,LIGHTS_STATE

05/23/2017 12:37:26,29.625,27.937,off
05/23/2017 12:37:37,29.687,27.937,off
05/23/2017 12:37:49,29.687,27.875,off
05/23/2017 12:38:01,29.75,27.875,off
