TIME,INSIDE_TEMPERATURE,OUTSIDE_TEMPERATURE,LIGHTS_STATE

03/27/2017 12:06:25,23.25,17.0,off
03/27/2017 12:06:37,23.187,17.062,off
03/27/2017 12:06:49,23.187,17.125,off
03/27/2017 12:07:00,23.125,17.062,off
