TIME,INSIDE_TEMPERATURE,OUTSIDE_TEMPERATURE,LIGHTS_STATE

07/03/2017 12:41:25,31.562,29.062,off
07/03/2017 12:41:37,31.562,29.062,off
07/03/2017 12:41:48,31.562,29.062,off
07/03/2017 12:42:00,31.562,29.062,off
