TIME,INSIDE_TEMPERATURE,OUTSIDE_TEMPERATURE,LIGHTS_STATE

10/20/2017 12:41:25,24.625,18.562,off
10/20/2017 12:41:37,24.625,18.5,off
10/20/2017 12:41:49,24.625,18.437,off
10/20/2017 12:42:01,24.625,18.5,off
