TIME,INSIDE_TEMPERATURE,OUTSIDE_TEMPERATURE,LIGHTS_STATE

09/18/2016 12:26:26,32.375,34.062,off
09/18/2016 12:26:37,32.437,34.0,off
09/18/2016 12:26:49,32.437,34.0,off
09/18/2016 12:27:01,32.437,34.0,off
