TIME,INSIDE_TEMPERATURE,OUTSIDE_TEMPERATURE,LIGHTS_STATE

12/11/2016 12:33:25,17.312,13.687,off
12/11/2016 12:33:36,17.312,13.75,off
12/11/2016 12:33:48,17.312,13.75,off
12/11/2016 12:34:00,17.312,13.75,off
