TIME,INSIDE_TEMPERATURE,OUTSIDE_TEMPERATURE,LIGHTS_STATE

11/03/2016 12:22:25,30.187,29.812,off
11/03/2016 12:22:37,30.125,29.687,off
11/03/2016 12:22:48,30.125,29.625,off
11/03/2016 12:23:00,30.125,29.5,off
