TIME,INSIDE_TEMPERATURE,OUTSIDE_TEMPERATURE,LIGHTS_STATE

12/11/2016 12:38:25,17.312,13.437,off
12/11/2016 12:38:37,17.375,13.437,off
12/11/2016 12:38:48,17.312,13.312,off
12/11/2016 12:39:00,17.312,13.375,off
