TIME,INSIDE_TEMPERATURE,OUTSIDE_TEMPERATURE,LIGHTS_STATE

11/29/2016 12:14:25,21.875,18.562,off
11/29/2016 12:14:36,21.875,18.687,off
11/29/2016 12:14:49,21.875,18.812,off
11/29/2016 12:15:00,21.875,18.875,off
