TIME,INSIDE_TEMPERATURE,OUTSIDE_TEMPERATURE,LIGHTS_STATE

04/10/2017 12:19:25,22.375,18.625,off
04/10/2017 12:19:37,22.375,18.625,off
04/10/2017 12:19:49,22.375,18.687,off
04/10/2017 12:20:00,22.375,18.75,off
