TIME,INSIDE_TEMPERATURE,OUTSIDE_TEMPERATURE,LIGHTS_STATE

01/14/2017 12:45:25,21.25,17.375,off
01/14/2017 12:45:37,21.187,17.375,off
01/14/2017 12:45:48,21.187,17.437,off
01/14/2017 12:46:00,21.187,17.312,off
