TIME,INSIDE_TEMPERATURE,OUTSIDE_TEMPERATURE,LIGHTS_STATE

03/28/2018 12:35:25,25.062,19.25,off
03/28/2018 12:35:37,25.062,19.25,off
03/28/2018 12:35:49,25.062,19.25,off
03/28/2018 12:36:00,25.062,19.312,off
