TIME,INSIDE_TEMPERATURE,OUTSIDE_TEMPERATURE,LIGHTS_STATE

10/23/2017 12:32:25,35.125,31.125,off
10/23/2017 12:32:37,35.062,30.937,off
10/23/2017 12:32:49,35.062,30.812,off
10/23/2017 12:33:01,35.062,30.687,off
