TIME,INSIDE_TEMPERATURE,OUTSIDE_TEMPERATURE,LIGHTS_STATE

01/05/2018 12:31:25,21.437,17.562,off
01/05/2018 12:31:37,21.5,17.562,off
01/05/2018 12:31:49,21.5,17.562,off
01/05/2018 12:32:00,21.5,17.562,off
