TIME,INSIDE_TEMPERATURE,OUTSIDE_TEMPERATURE,LIGHTS_STATE

08/06/2017 12:39:25,31.25,28.75,off
08/06/2017 12:39:36,31.187,28.75,off
08/06/2017 12:39:48,31.25,28.687,off
08/06/2017 12:40:00,31.25,28.75,off
