TIME,INSIDE_TEMPERATURE,OUTSIDE_TEMPERATURE,LIGHTS_STATE

11/23/2016 12:26:25,23.062,19.187,off
11/23/2016 12:26:36,23.125,19.312,off
11/23/2016 12:26:48,23.125,19.437,off
11/23/2016 12:27:00,23.125,19.625,off
