TIME,INSIDE_TEMPERATURE,OUTSIDE_TEMPERATURE,LIGHTS_STATE

04/26/2017 12:43:26,23.062,19.562,off
04/26/2017 12:43:37,23.125,19.562,off
04/26/2017 12:43:49,23.125,19.625,off
04/26/2017 12:44:01,23.125,19.75,off
