TIME,INSIDE_TEMPERATURE,OUTSIDE_TEMPERATURE,LIGHTS_STATE

05/17/2017 12:03:25,22.187,19.937,off
05/17/2017 12:03:37,22.187,20.0,off
05/17/2017 12:03:48,22.187,20.0,off
05/17/2017 12:04:00,22.187,19.937,off
