TIME,INSIDE_TEMPERATURE,OUTSIDE_TEMPERATURE,LIGHTS_STATE

02/27/2018 12:48:25,21.0,22.625,off
02/27/2018 12:48:37,21.0,22.562,off
02/27/2018 12:48:48,21.0,22.562,off
02/27/2018 12:49:00,21.0,22.562,off
