TIME,INSIDE_TEMPERATURE,OUTSIDE_TEMPERATURE,LIGHTS_STATE

02/01/2018 12:32:25,27.625,26.187,off
02/01/2018 12:32:37,27.687,26.187,off
02/01/2018 12:32:48,27.687,26.25,off
02/01/2018 12:33:00,27.687,26.25,off
