TIME,INSIDE_TEMPERATURE,OUTSIDE_TEMPERATURE,LIGHTS_STATE

01/22/2018 12:47:25,22.0,16.5,off
01/22/2018 12:47:37,22.0,16.437,off
01/22/2018 12:47:48,22.0,16.375,off
01/22/2018 12:48:00,22.0,16.437,off
