TIME,INSIDE_TEMPERATURE,OUTSIDE_TEMPERATURE,LIGHTS_STATE

03/05/2017 12:52:26,17.125,12.5,off
03/05/2017 12:52:37,17.125,12.437,off
03/05/2017 12:52:49,17.125,12.437,off
03/05/2017 12:53:01,17.125,12.437,off
