TIME,INSIDE_TEMPERATURE,OUTSIDE_TEMPERATURE,LIGHTS_STATE

09/22/2017 12:15:25,25.937,22.187,off
09/22/2017 12:15:37,25.937,22.062,off
09/22/2017 12:15:49,25.937,22.062,off
09/22/2017 12:16:01,26.0,22.0,off
