TIME,INSIDE_TEMPERATURE,OUTSIDE_TEMPERATURE,LIGHTS_STATE

01/01/2017 12:51:24,20.25,20.437,off
01/01/2017 12:51:36,20.25,19.937,off
01/01/2017 12:51:48,20.25,19.937,off
01/01/2017 12:51:59,20.25,19.375,off
