TIME,INSIDE_TEMPERATURE,OUTSIDE_TEMPERATURE,LIGHTS_STATE

03/17/2017 12:46:25,25.062,23.125,off
03/17/2017 12:46:37,25.062,23.125,off
03/17/2017 12:46:48,25.062,23.187,off
03/17/2017 12:47:00,25.125,23.187,off
