TIME,INSIDE_TEMPERATURE,OUTSIDE_TEMPERATURE,LIGHTS_STATE

10/28/2016 12:47:25,24.5,21.5,off
10/28/2016 12:47:37,24.5,21.437,off
10/28/2016 12:47:48,24.5,21.437,off
10/28/2016 12:48:00,24.5,21.375,off
