TIME,INSIDE_TEMPERATURE,OUTSIDE_TEMPERATURE,LIGHTS_STATE

08/22/2017 12:47:25,31.437,29.437,off
08/22/2017 12:47:37,31.5,29.375,off
08/22/2017 12:47:49,31.5,29.375,off
08/22/2017 12:48:00,31.5,29.312,off
