TIME,INSIDE_TEMPERATURE,OUTSIDE_TEMPERATURE,LIGHTS_STATE

01/18/2018 12:40:25,25.187,19.75,off
01/18/2018 12:40:37,25.125,19.75,off
01/18/2018 12:40:49,25.187,19.812,off
01/18/2018 12:41:01,25.187,19.875,off
