TIME,INSIDE_TEMPERATURE,OUTSIDE_TEMPERATURE,LIGHTS_STATE

07/15/2017 12:51:25,35.687,32.75,off
07/15/2017 12:51:37,35.687,33.0,off
07/15/2017 12:51:49,35.687,33.25,off
07/15/2017 12:52:00,35.687,33.562,off
