TIME,INSIDE_TEMPERATURE,OUTSIDE_TEMPERATURE,LIGHTS_STATE

03/15/2017 12:45:25,27.875,24.625,off
03/15/2017 12:45:37,27.937,24.5,off
03/15/2017 12:45:49,27.937,24.375,off
03/15/2017 12:46:00,27.937,24.437,off
