TIME,INSIDE_TEMPERATURE,OUTSIDE_TEMPERATURE,LIGHTS_STATE

03/20/2017 12:27:25,20.937,17.562,off
03/20/2017 12:27:37,20.937,17.562,off
03/20/2017 12:27:49,20.937,17.562,off
03/20/2017 12:28:00,20.875,17.562,off
