TIME,INSIDE_TEMPERATURE,OUTSIDE_TEMPERATURE,LIGHTS_STATE

10/22/2017 12:41:26,30.375,27.937,off
10/22/2017 12:41:37,30.375,28.0,off
10/22/2017 12:41:49,30.375,28.0,off
10/22/2017 12:42:01,30.375,28.187,off
