TIME,INSIDE_TEMPERATURE,OUTSIDE_TEMPERATURE,LIGHTS_STATE

09/01/2017 12:26:25,40.0,38.875,off
09/01/2017 12:26:37,40.0,38.875,off
09/01/2017 12:26:49,40.0,38.875,off
09/01/2017 12:27:00,39.937,38.875,off
