TIME,INSIDE_TEMPERATURE,OUTSIDE_TEMPERATURE,LIGHTS_STATE

03/19/2018 12:55:25,20.25,16.937,off
03/19/2018 12:55:37,20.25,17.0,off
03/19/2018 12:55:48,20.312,17.125,off
03/19/2018 12:56:00,20.25,17.125,off
