TIME,INSIDE_TEMPERATURE,OUTSIDE_TEMPERATURE,LIGHTS_STATE

08/13/2017 12:17:25,29.5,27.125,off
08/13/2017 12:17:37,29.5,27.125,off
08/13/2017 12:17:49,29.5,27.125,off
08/13/2017 12:18:01,29.5,27.187,off
