TIME,INSIDE_TEMPERATURE,OUTSIDE_TEMPERATURE,LIGHTS_STATE

09/07/2017 12:08:25,28.812,26.875,off
09/07/2017 12:08:37,28.812,26.937,off
09/07/2017 12:08:49,28.812,27.0,off
09/07/2017 12:09:01,28.812,27.0,off
