TIME,INSIDE_TEMPERATURE,OUTSIDE_TEMPERATURE,LIGHTS_STATE

12/01/2016 12:56:25,21.25,17.75,off
12/01/2016 12:56:37,21.25,17.75,off
12/01/2016 12:56:48,21.25,17.75,off
12/01/2016 12:57:00,21.25,17.812,off
