TIME,INSIDE_TEMPERATURE,OUTSIDE_TEMPERATURE,LIGHTS_STATE

07/20/2016 12:11:25,26.125,27.187,off
07/20/2016 12:11:37,26.125,27.25,off
07/20/2016 12:11:48,26.187,27.25,off
07/20/2016 12:12:00,26.187,27.187,off
