TIME,INSIDE_TEMPERATURE,OUTSIDE_TEMPERATURE,LIGHTS_STATE

02/21/2018 12:42:25,21.375,30.875,off
02/21/2018 12:42:37,21.375,30.875,off
02/21/2018 12:42:49,21.437,30.875,off
02/21/2018 12:43:01,21.437,30.875,off
