TIME,INSIDE_TEMPERATURE,OUTSIDE_TEMPERATURE,LIGHTS_STATE

07/14/2016 12:45:25,34.25,34.062,off
07/14/2016 12:45:37,34.312,34.062,off
07/14/2016 12:45:49,34.312,34.062,off
07/14/2016 12:46:00,34.375,34.062,off
