TIME,INSIDE_TEMPERATURE,OUTSIDE_TEMPERATURE,LIGHTS_STATE

10/14/2017 12:26:25,29.75,27.187,off
10/14/2017 12:26:37,29.75,27.312,off
10/14/2017 12:26:48,29.75,27.375,off
10/14/2017 12:27:00,29.75,27.437,off
