TIME,INSIDE_TEMPERATURE,OUTSIDE_TEMPERATURE,LIGHTS_STATE

11/01/2016 12:39:25,28.625,31.5,off
11/01/2016 12:39:37,28.625,31.625,off
11/01/2016 12:39:49,28.625,31.687,off
11/01/2016 12:40:01,28.562,31.875,off
