TIME,INSIDE_TEMPERATURE,OUTSIDE_TEMPERATURE,LIGHTS_STATE

02/09/2018 12:10:26,30.937,32.0,off
02/09/2018 12:10:38,30.937,32.437,off
02/09/2018 12:10:49,30.937,32.687,off
02/09/2018 12:11:01,30.937,32.687,off
