TIME,INSIDE_TEMPERATURE,OUTSIDE_TEMPERATURE,LIGHTS_STATE

09/21/2017 12:08:25,25.875,23.062,off
09/21/2017 12:08:37,25.875,23.0,off
09/21/2017 12:08:49,25.875,23.062,off
09/21/2017 12:09:01,25.875,23.312,off
