TIME,INSIDE_TEMPERATURE,OUTSIDE_TEMPERATURE,LIGHTS_STATE

12/27/2017 12:22:25,23.187,24.875,off
12/27/2017 12:22:37,23.187,24.875,off
12/27/2017 12:22:49,23.125,24.875,off
12/27/2017 12:23:00,23.187,24.875,off
