TIME,INSIDE_TEMPERATURE,OUTSIDE_TEMPERATURE,LIGHTS_STATE

12/23/2017 12:21:25,20.187,17.562,off
12/23/2017 12:21:37,20.187,17.5,off
12/23/2017 12:21:49,20.187,17.562,off
12/23/2017 12:22:01,20.187,17.562,off
