TIME,INSIDE_TEMPERATURE,OUTSIDE_TEMPERATURE,LIGHTS_STATE

06/14/2017 12:58:25,30.562,27.625,off
06/14/2017 12:58:37,30.562,27.625,off
06/14/2017 12:58:49,30.562,27.625,off
06/14/2017 12:59:01,30.625,27.625,off
