TIME,INSIDE_TEMPERATURE,OUTSIDE_TEMPERATURE,LIGHTS_STATE

12/06/2016 12:48:25,20.187,17.562,off
12/06/2016 12:48:37,20.187,17.5,off
12/06/2016 12:48:48,20.187,17.5,off
12/06/2016 12:49:00,20.187,17.625,off
