TIME,INSIDE_TEMPERATURE,OUTSIDE_TEMPERATURE,LIGHTS_STATE

12/07/2016 12:08:25,13.437,10.625,off
12/07/2016 12:08:37,13.375,10.562,off
12/07/2016 12:08:48,13.437,10.5,off
12/07/2016 12:09:00,13.375,10.5,off
