TIME,INSIDE_TEMPERATURE,OUTSIDE_TEMPERATURE,LIGHTS_STATE

10/14/2017 12:45:25,29.562,29.25,off
10/14/2017 12:45:37,29.562,29.187,off
10/14/2017 12:45:49,29.562,29.312,off
10/14/2017 12:46:01,29.562,29.625,off
