TIME,INSIDE_TEMPERATURE,OUTSIDE_TEMPERATURE,LIGHTS_STATE

10/08/2017 12:44:26,30.437,27.625,off
10/08/2017 12:44:37,30.562,27.625,off
10/08/2017 12:44:49,30.562,27.625,off
10/08/2017 12:45:01,30.625,27.625,off
