TIME,INSIDE_TEMPERATURE,OUTSIDE_TEMPERATURE,LIGHTS_STATE

09/12/2017 12:52:26,37.562,33.187,off
09/12/2017 12:52:38,37.312,33.25,off
09/12/2017 12:52:49,37.437,33.312,off
09/12/2017 12:53:01,37.187,33.375,off
