TIME,INSIDE_TEMPERATURE,OUTSIDE_TEMPERATURE,LIGHTS_STATE

01/04/2018 12:20:25,21.625,18.0,off
01/04/2018 12:20:37,21.625,18.0,off
01/04/2018 12:20:48,21.625,18.0,off
01/04/2018 12:21:00,21.625,18.0,off
