TIME,INSIDE_TEMPERATURE,OUTSIDE_TEMPERATURE,LIGHTS_STATE

01/02/2017 12:25:25,15.437,10.5,off
01/02/2017 12:25:36,15.375,10.437,off
01/02/2017 12:25:48,15.375,10.312,off
01/02/2017 12:26:00,15.375,10.25,off
