TIME,INSIDE_TEMPERATURE,OUTSIDE_TEMPERATURE,LIGHTS_STATE

04/09/2017 12:08:25,19.187,16.5,off
04/09/2017 12:08:37,19.187,16.5,off
04/09/2017 12:08:49,19.187,16.5,off
04/09/2017 12:09:00,19.25,16.437,off
