TIME,INSIDE_TEMPERATURE,OUTSIDE_TEMPERATURE,LIGHTS_STATE

11/14/2016 12:54:25,28.75,26.125,off
11/14/2016 12:54:36,28.75,26.125,off
11/14/2016 12:54:48,28.75,26.187,off
11/14/2016 12:55:00,28.812,26.187,off
