TIME,INSIDE_TEMPERATURE,OUTSIDE_TEMPERATURE,LIGHTS_STATE

08/15/2017 12:02:26,26.375,23.125,off
08/15/2017 12:02:37,26.375,23.125,off
08/15/2017 12:02:49,26.375,23.125,off
08/15/2017 12:03:01,26.375,23.187,off
