TIME,INSIDE_TEMPERATURE,OUTSIDE_TEMPERATURE,LIGHTS_STATE

02/20/2018 12:07:25,18.937,17.625,off
02/20/2018 12:07:37,18.937,17.625,off
02/20/2018 12:07:49,18.937,17.625,off
02/20/2018 12:08:00,18.937,17.562,off
