TIME,INSIDE_TEMPERATURE,OUTSIDE_TEMPERATURE,LIGHTS_STATE

12/06/2016 12:14:25,19.812,17.312,off
12/06/2016 12:14:37,19.812,17.25,off
12/06/2016 12:14:48,19.75,17.25,off
12/06/2016 12:15:00,19.812,17.187,off
