TIME,INSIDE_TEMPERATURE,OUTSIDE_TEMPERATURE,LIGHTS_STATE

09/22/2016 12:47:25,25.25,23.437,off
09/22/2016 12:47:37,25.312,23.625,off
09/22/2016 12:47:49,25.312,23.687,off
09/22/2016 12:48:00,25.312,23.687,off
