TIME,INSIDE_TEMPERATURE,OUTSIDE_TEMPERATURE,LIGHTS_STATE

01/22/2018 12:06:25,21.25,17.125,off
01/22/2018 12:06:37,21.25,17.312,off
01/22/2018 12:06:49,21.312,17.312,off
01/22/2018 12:07:01,21.312,17.25,off
