TIME,INSIDE_TEMPERATURE,OUTSIDE_TEMPERATURE,LIGHTS_STATE

02/04/2017 12:20:25,24.812,25.125,off
02/04/2017 12:20:37,24.812,24.875,off
02/04/2017 12:20:49,24.812,24.75,off
02/04/2017 12:21:00,24.875,24.5,off
