TIME,INSIDE_TEMPERATURE,OUTSIDE_TEMPERATURE,LIGHTS_STATE

01/07/2017 12:03:25,19.875,15.875,off
01/07/2017 12:03:37,19.875,15.875,off
01/07/2017 12:03:49,19.875,15.812,off
01/07/2017 12:04:00,19.875,15.812,off
