TIME,INSIDE_TEMPERATURE,OUTSIDE_TEMPERATURE,LIGHTS_STATE

03/10/2017 12:34:25,28.062,23.75,off
03/10/2017 12:34:37,28.062,23.75,off
03/10/2017 12:34:48,28.062,23.812,off
03/10/2017 12:35:00,28.062,23.812,off
