TIME,INSIDE_TEMPERATURE,OUTSIDE_TEMPERATURE,LIGHTS_STATE

06/21/2017 12:06:25,33.687,30.437,off
06/21/2017 12:06:37,33.687,30.437,off
06/21/2017 12:06:50,33.687,30.5,off
06/21/2017 12:07:01,33.75,30.437,off
