TIME,INSIDE_TEMPERATURE,OUTSIDE_TEMPERATURE,LIGHTS_STATE

09/21/2016 12:25:25,27.687,25.75,off
09/21/2016 12:25:37,27.75,25.75,off
09/21/2016 12:25:49,27.75,25.812,off
09/21/2016 12:26:00,27.75,25.937,off
