TIME,INSIDE_TEMPERATURE,OUTSIDE_TEMPERATURE,LIGHTS_STATE

03/06/2018 12:46:25,22.875,31.375,off
03/06/2018 12:46:37,22.875,31.125,off
03/06/2018 12:46:48,22.875,31.125,off
03/06/2018 12:47:00,22.875,31.187,off
