TIME,INSIDE_TEMPERATURE,OUTSIDE_TEMPERATURE,LIGHTS_STATE

12/10/2016 12:32:25,19.187,14.937,off
12/10/2016 12:32:37,19.187,14.937,off
12/10/2016 12:32:49,19.187,14.937,off
12/10/2016 12:33:00,19.187,15.0,off
