TIME,INSIDE_TEMPERATURE,OUTSIDE_TEMPERATURE,LIGHTS_STATE

07/19/2016 12:42:25,24.875,25.062,off
07/19/2016 12:42:37,24.875,25.062,off
07/19/2016 12:42:48,24.937,25.062,off
07/19/2016 12:43:00,24.937,25.062,off
