TIME,INSIDE_TEMPERATURE,OUTSIDE_TEMPERATURE,LIGHTS_STATE

02/12/2018 12:21:25,23.5,26.937,off
02/12/2018 12:21:37,23.5,26.562,off
02/12/2018 12:21:49,23.5,26.125,off
02/12/2018 12:22:01,23.5,25.687,off
