TIME,INSIDE_TEMPERATURE,OUTSIDE_TEMPERATURE,LIGHTS_STATE

03/18/2017 12:50:25,20.812,17.375,off
03/18/2017 12:50:37,20.812,17.375,off
03/18/2017 12:50:49,20.812,17.375,off
03/18/2017 12:51:00,20.812,17.375,off
