TIME,INSIDE_TEMPERATURE,OUTSIDE_TEMPERATURE,LIGHTS_STATE

07/31/2017 12:17:25,31.187,29.312,off
07/31/2017 12:17:37,31.187,29.312,off
07/31/2017 12:17:49,31.25,29.375,off
07/31/2017 12:18:01,31.187,29.375,off
