TIME,INSIDE_TEMPERATURE,OUTSIDE_TEMPERATURE,LIGHTS_STATE

05/14/2017 12:15:25,21.125,18.062,off
05/14/2017 12:15:36,21.125,18.125,off
05/14/2017 12:15:48,21.125,18.187,off
05/14/2017 12:16:00,21.125,18.25,off
