TIME,INSIDE_TEMPERATURE,OUTSIDE_TEMPERATURE,LIGHTS_STATE

06/25/2017 12:39:25,27.75,25.062,off
06/25/2017 12:39:37,27.687,25.062,off
06/25/2017 12:39:49,27.75,25.0,off
06/25/2017 12:40:00,27.75,25.0,off
