TIME,INSIDE_TEMPERATURE,OUTSIDE_TEMPERATURE,LIGHTS_STATE

07/17/2017 12:06:26,35.812,32.375,off
07/17/2017 12:06:37,35.812,32.375,off
07/17/2017 12:06:49,35.812,32.437,off
07/17/2017 12:07:01,35.812,32.375,off
