TIME,INSIDE_TEMPERATURE,OUTSIDE_TEMPERATURE,LIGHTS_STATE

01/20/2017 12:43:25,14.812,8.062,off
01/20/2017 12:43:37,14.812,8.062,off
01/20/2017 12:43:48,14.812,8.062,off
01/20/2017 12:44:00,14.812,8.062,off
