TIME,INSIDE_TEMPERATURE,OUTSIDE_TEMPERATURE,LIGHTS_STATE

12/03/2016 12:16:25,24.812,22.437,off
12/03/2016 12:16:37,24.812,22.437,off
12/03/2016 12:16:49,24.812,22.437,off
12/03/2016 12:17:00,24.812,22.437,off
