TIME,INSIDE_TEMPERATURE,OUTSIDE_TEMPERATURE,LIGHTS_STATE

03/23/2017 12:19:25,20.75,17.187,off
03/23/2017 12:19:36,20.75,17.187,off
03/23/2017 12:19:48,20.75,17.187,off
03/23/2017 12:20:00,20.75,17.312,off
