TIME,INSIDE_TEMPERATURE,OUTSIDE_TEMPERATURE,LIGHTS_STATE

05/15/2017 12:12:26,21.937,19.0,off
05/15/2017 12:12:37,21.937,19.0,off
05/15/2017 12:12:49,21.937,19.062,off
05/15/2017 12:13:01,21.937,19.0,off
