TIME,INSIDE_TEMPERATURE,OUTSIDE_TEMPERATURE,LIGHTS_STATE

02/24/2017 12:56:25,21.625,22.625,off
02/24/2017 12:56:37,21.625,22.75,off
02/24/2017 12:56:48,21.562,22.562,off
02/24/2017 12:57:00,21.562,22.562,off
