TIME,INSIDE_TEMPERATURE,OUTSIDE_TEMPERATURE,LIGHTS_STATE

09/13/2016 12:35:25,24.312,21.875,off
09/13/2016 12:35:36,24.312,21.937,off
09/13/2016 12:35:48,24.375,21.937,off
09/13/2016 12:36:00,24.375,22.0,off
