TIME,INSIDE_TEMPERATURE,OUTSIDE_TEMPERATURE,LIGHTS_STATE

03/01/2017 12:56:25,22.812,25.0,off
03/01/2017 12:56:37,22.875,24.875,off
03/01/2017 12:56:48,22.875,24.687,off
03/01/2017 12:57:00,22.875,24.375,off
