TIME,INSIDE_TEMPERATURE,OUTSIDE_TEMPERATURE,LIGHTS_STATE

07/02/2017 12:46:25,30.062,27.375,off
07/02/2017 12:46:37,30.125,27.312,off
07/02/2017 12:46:49,30.125,27.312,off
07/02/2017 12:47:00,30.125,27.312,off
