TIME,INSIDE_TEMPERATURE,OUTSIDE_TEMPERATURE,LIGHTS_STATE

09/05/2016 12:44:25,26.937,29.125,off
09/05/2016 12:44:37,26.937,29.125,off
09/05/2016 12:44:49,27.0,29.125,off
09/05/2016 12:45:00,27.0,29.187,off
