TIME,INSIDE_TEMPERATURE,OUTSIDE_TEMPERATURE,LIGHTS_STATE

01/20/2017 12:33:25,15.625,9.062,off
01/20/2017 12:33:37,15.625,9.0,off
01/20/2017 12:33:48,15.625,8.937,off
01/20/2017 12:34:00,15.625,8.937,off
