TIME,INSIDE_TEMPERATURE,OUTSIDE_TEMPERATURE,LIGHTS_STATE

01/02/2017 12:47:25,14.625,10.0,off
01/02/2017 12:47:37,14.625,9.937,off
01/02/2017 12:47:49,14.625,9.937,off
01/02/2017 12:48:00,14.625,9.875,off
