TIME,INSIDE_TEMPERATURE,OUTSIDE_TEMPERATURE,LIGHTS_STATE

09/13/2016 12:48:25,25.062,22.75,off
09/13/2016 12:48:36,25.062,22.812,off
09/13/2016 12:48:48,25.062,22.937,off
09/13/2016 12:49:00,25.062,22.875,off
