TIME,INSIDE_TEMPERATURE,OUTSIDE_TEMPERATURE,LIGHTS_STATE

12/03/2016 12:54:25,24.125,21.5,off
12/03/2016 12:54:37,24.125,21.562,off
12/03/2016 12:54:49,24.125,21.625,off
12/03/2016 12:55:00,24.125,21.625,off
