TIME,INSIDE_TEMPERATURE,OUTSIDE_TEMPERATURE,LIGHTS_STATE

02/15/2018 12:24:25,25.125,30.812,off
02/15/2018 12:24:36,25.125,30.875,off
02/15/2018 12:24:48,25.125,30.937,off
02/15/2018 12:25:00,25.125,30.75,off
