TIME,INSIDE_TEMPERATURE,OUTSIDE_TEMPERATURE,LIGHTS_STATE

01/18/2018 12:04:25,24.375,23.937,off
01/18/2018 12:04:37,24.437,23.937,off
01/18/2018 12:04:49,24.437,23.937,off
01/18/2018 12:05:01,24.437,23.937,off
