TIME,INSIDE_TEMPERATURE,OUTSIDE_TEMPERATURE,LIGHTS_STATE

05/15/2017 12:34:25,22.187,19.375,off
05/15/2017 12:34:37,22.187,19.375,off
05/15/2017 12:34:49,22.187,19.437,off
05/15/2017 12:35:00,22.187,19.437,off
