TIME,INSIDE_TEMPERATURE,OUTSIDE_TEMPERATURE,LIGHTS_STATE

09/23/2016 12:05:26,25.062,26.187,off
09/23/2016 12:05:38,25.125,26.312,off
09/23/2016 12:05:50,25.062,26.437,off
09/23/2016 12:06:02,25.125,26.437,off
