TIME,INSIDE_TEMPERATURE,OUTSIDE_TEMPERATURE,LIGHTS_STATE

03/04/2018 12:00:26,20.312,27.187,off
03/04/2018 12:00:37,20.312,27.0,off
03/04/2018 12:00:49,20.312,26.75,off
03/04/2018 12:01:01,20.312,26.687,off
