TIME,INSIDE_TEMPERATURE,OUTSIDE_TEMPERATURE,LIGHTS_STATE

03/23/2018 12:12:25,18.625,15.937,off
03/23/2018 12:12:36,18.625,16.0,off
03/23/2018 12:12:48,18.625,16.062,off
03/23/2018 12:13:00,18.687,15.937,off
