TIME,INSIDE_TEMPERATURE,OUTSIDE_TEMPERATURE,LIGHTS_STATE

10/27/2017 12:27:25,35.875,35.187,off
10/27/2017 12:27:37,35.875,35.125,off
10/27/2017 12:27:49,35.875,35.0,off
10/27/2017 12:28:00,35.875,35.062,off
