TIME,INSIDE_TEMPERATURE,OUTSIDE_TEMPERATURE,LIGHTS_STATE

02/28/2018 12:03:25,19.437,18.0,off
02/28/2018 12:03:37,19.437,18.187,off
02/28/2018 12:03:48,19.437,18.312,off
02/28/2018 12:04:00,19.437,18.5,off
