TIME,INSIDE_TEMPERATURE,OUTSIDE_TEMPERATURE,LIGHTS_STATE

01/21/2018 12:24:25,22.187,15.937,off
01/21/2018 12:24:37,22.187,16.062,off
01/21/2018 12:24:49,22.187,16.062,off
01/21/2018 12:25:00,22.187,16.0,off
