TIME,INSIDE_TEMPERATURE,OUTSIDE_TEMPERATURE,LIGHTS_STATE

01/07/2017 12:05:25,19.75,15.75,off
01/07/2017 12:05:37,19.75,15.75,off
01/07/2017 12:05:48,19.687,15.75,off
01/07/2017 12:06:00,19.687,15.687,off
