TIME,INSIDE_TEMPERATURE,OUTSIDE_TEMPERATURE,LIGHTS_STATE

10/20/2017 12:04:25,25.187,21.937,off
10/20/2017 12:04:37,25.187,22.062,off
10/20/2017 12:04:48,25.187,22.062,off
10/20/2017 12:05:00,25.187,22.062,off
