TIME,INSIDE_TEMPERATURE,OUTSIDE_TEMPERATURE,LIGHTS_STATE

06/13/2017 12:58:26,27.25,24.125,off
06/13/2017 12:58:37,27.25,24.125,off
06/13/2017 12:58:49,27.25,24.125,off
06/13/2017 12:59:01,27.25,24.187,off
