TIME,INSIDE_TEMPERATURE,OUTSIDE_TEMPERATURE,LIGHTS_STATE

12/25/2017 12:32:25,20.125,17.0,off
12/25/2017 12:32:37,20.187,17.0,off
12/25/2017 12:32:49,20.187,17.0,off
12/25/2017 12:33:00,20.187,17.062,off
