TIME,INSIDE_TEMPERATURE,OUTSIDE_TEMPERATURE,LIGHTS_STATE

03/07/2018 12:38:25,24.937,35.812,off
03/07/2018 12:38:37,24.937,35.625,off
03/07/2018 12:38:49,24.937,35.562,off
03/07/2018 12:39:00,24.937,35.375,off
