TIME,INSIDE_TEMPERATURE,OUTSIDE_TEMPERATURE,LIGHTS_STATE

05/09/2017 12:33:25,27.5,26.125,off
05/09/2017 12:33:36,27.5,26.125,off
05/09/2017 12:33:48,27.562,26.125,off
05/09/2017 12:34:00,27.562,26.125,off
