TIME,INSIDE_TEMPERATURE,OUTSIDE_TEMPERATURE,LIGHTS_STATE

02/18/2017 12:06:25,17.375,13.312,off
02/18/2017 12:06:37,17.375,13.312,off
02/18/2017 12:06:49,17.312,13.312,off
02/18/2017 12:07:00,17.375,13.312,off
