TIME,INSIDE_TEMPERATURE,OUTSIDE_TEMPERATURE,LIGHTS_STATE

02/23/2017 12:22:25,22.437,22.312,off
02/23/2017 12:22:37,22.5,22.437,off
02/23/2017 12:22:49,22.5,22.562,off
02/23/2017 12:23:00,22.5,22.75,off
