TIME,INSIDE_TEMPERATURE,OUTSIDE_TEMPERATURE,LIGHTS_STATE

05/08/2017 12:53:26,26.375,24.25,off
05/08/2017 12:53:37,26.375,24.312,off
05/08/2017 12:53:49,26.375,24.25,off
05/08/2017 12:54:01,26.375,24.25,off
