TIME,INSIDE_TEMPERATURE,OUTSIDE_TEMPERATURE,LIGHTS_STATE

09/12/2016 12:22:25,24.625,22.812,off
09/12/2016 12:22:37,24.625,22.937,off
09/12/2016 12:22:48,24.625,22.937,off
09/12/2016 12:23:00,24.625,22.937,off
