TIME,INSIDE_TEMPERATURE,OUTSIDE_TEMPERATURE,LIGHTS_STATE

04/11/2017 12:41:26,26.062,22.437,off
04/11/2017 12:41:37,26.125,22.5,off
04/11/2017 12:41:49,26.125,22.562,off
04/11/2017 12:42:01,26.125,22.687,off
