TIME,INSIDE_TEMPERATURE,OUTSIDE_TEMPERATURE,LIGHTS_STATE

06/28/2017 12:57:25,26.687,24.625,off
06/28/2017 12:57:37,26.625,24.625,off
06/28/2017 12:57:48,26.5,24.687,off
06/28/2017 12:58:00,26.75,24.875,off
