TIME,INSIDE_TEMPERATURE,OUTSIDE_TEMPERATURE,LIGHTS_STATE

12/30/2016 12:43:25,17.312,15.062,off
12/30/2016 12:43:37,17.312,15.062,off
12/30/2016 12:43:48,17.312,15.125,off
12/30/2016 12:44:00,17.312,15.125,off
