TIME,INSIDE_TEMPERATURE,OUTSIDE_TEMPERATURE,LIGHTS_STATE

03/08/2018 12:12:25,26.562,22.562,off
03/08/2018 12:12:37,26.625,22.562,off
03/08/2018 12:12:49,26.625,22.562,off
03/08/2018 12:13:01,26.625,22.562,off
