TIME,INSIDE_TEMPERATURE,OUTSIDE_TEMPERATURE,LIGHTS_STATE

11/17/2016 12:13:25,23.937,26.437,off
11/17/2016 12:13:37,23.937,26.687,off
11/17/2016 12:13:49,23.937,26.5,off
11/17/2016 12:14:01,24.0,26.25,off
