TIME,INSIDE_TEMPERATURE,OUTSIDE_TEMPERATURE,LIGHTS_STATE

09/20/2016 12:32:26,32.187,31.562,off
09/20/2016 12:32:38,32.187,31.625,off
09/20/2016 12:32:49,32.187,31.625,off
09/20/2016 12:33:01,32.187,31.687,off
