TIME,INSIDE_TEMPERATURE,OUTSIDE_TEMPERATURE,LIGHTS_STATE

08/23/2017 12:07:25,29.5,27.25,off
08/23/2017 12:07:37,29.5,27.25,off
08/23/2017 12:07:49,29.5,27.312,off
08/23/2017 12:08:01,29.5,27.312,off
