TIME,INSIDE_TEMPERATURE,OUTSIDE_TEMPERATURE,LIGHTS_STATE

07/01/2017 12:35:25,25.937,22.312,off
07/01/2017 12:35:37,25.937,22.312,off
07/01/2017 12:35:49,26.0,22.312,off
07/01/2017 12:36:00,25.937,22.312,off
