TIME,INSIDE_TEMPERATURE,OUTSIDE_TEMPERATURE,LIGHTS_STATE

08/31/2017 12:50:25,34.0,33.75,off
08/31/2017 12:50:37,34.187,33.75,off
08/31/2017 12:50:49,34.312,33.75,off
08/31/2017 12:51:00,34.312,33.75,off
