TIME,INSIDE_TEMPERATURE,OUTSIDE_TEMPERATURE,LIGHTS_STATE

11/18/2016 12:22:24,24.937,26.0,off
11/18/2016 12:22:36,24.937,26.062,off
11/18/2016 12:22:48,24.937,26.125,off
11/18/2016 12:22:59,24.937,26.0,off
