TIME,INSIDE_TEMPERATURE,OUTSIDE_TEMPERATURE,LIGHTS_STATE

10/28/2016 12:53:25,24.25,20.5,off
10/28/2016 12:53:37,24.187,20.5,off
10/28/2016 12:53:49,24.25,20.437,off
10/28/2016 12:54:00,24.25,20.437,off
