TIME,INSIDE_TEMPERATURE,OUTSIDE_TEMPERATURE,LIGHTS_STATE

08/04/2016 12:33:26,25.5,25.25,off
08/04/2016 12:33:38,25.562,25.312,off
08/04/2016 12:33:50,25.562,25.375,off
08/04/2016 12:34:01,25.5,25.25,off
