TIME,INSIDE_TEMPERATURE,OUTSIDE_TEMPERATURE,LIGHTS_STATE

03/06/2017 12:22:25,20.812,20.937,off
03/06/2017 12:22:37,20.812,21.125,off
03/06/2017 12:22:48,20.875,21.25,off
03/06/2017 12:23:00,20.875,21.375,off
