TIME,INSIDE_TEMPERATURE,OUTSIDE_TEMPERATURE,LIGHTS_STATE

04/05/2017 12:48:25,28.25,25.625,off
04/05/2017 12:48:37,28.25,25.625,off
04/05/2017 12:48:49,28.25,25.687,off
04/05/2017 12:49:00,28.25,25.75,off
