TIME,INSIDE_TEMPERATURE,OUTSIDE_TEMPERATURE,LIGHTS_STATE

01/05/2017 12:13:25,20.375,14.062,off
01/05/2017 12:13:36,20.437,14.187,off
01/05/2017 12:13:48,20.375,14.312,off
01/05/2017 12:14:00,20.375,14.437,off
