TIME,INSIDE_TEMPERATURE,OUTSIDE_TEMPERATURE,LIGHTS_STATE

05/12/2017 12:22:25,20.75,18.125,off
05/12/2017 12:22:37,20.75,18.062,off
05/12/2017 12:22:48,20.75,18.062,off
05/12/2017 12:23:00,20.75,18.0,off
