TIME,INSIDE_TEMPERATURE,OUTSIDE_TEMPERATURE,LIGHTS_STATE

01/03/2017 12:00:25,15.062,11.937,off
01/03/2017 12:00:37,15.062,11.937,off
01/03/2017 12:00:48,15.062,11.937,off
01/03/2017 12:01:00,15.062,11.937,off
