TIME,INSIDE_TEMPERATURE,OUTSIDE_TEMPERATURE,LIGHTS_STATE

03/09/2018 12:55:25,26.437,22.062,off
03/09/2018 12:55:37,26.437,22.187,off
03/09/2018 12:55:48,26.5,22.375,off
03/09/2018 12:56:00,26.5,22.437,off
