TIME,INSIDE_TEMPERATURE,OUTSIDE_TEMPERATURE,LIGHTS_STATE

09/15/2016 12:21:26,27.562,27.687,off
09/15/2016 12:21:37,27.562,27.625,off
09/15/2016 12:21:49,27.562,27.562,off
09/15/2016 12:22:01,27.625,27.5,off
