TIME,INSIDE_TEMPERATURE,OUTSIDE_TEMPERATURE,LIGHTS_STATE

05/10/2017 12:40:25,24.062,21.5,off
05/10/2017 12:40:37,24.062,21.562,off
05/10/2017 12:40:48,24.062,21.562,off
05/10/2017 12:41:00,24.062,21.562,off
