TIME,INSIDE_TEMPERATURE,OUTSIDE_TEMPERATURE,LIGHTS_STATE

08/20/2017 12:32:26,30.0,28.25,off
08/20/2017 12:32:37,30.062,28.187,off
08/20/2017 12:32:49,30.062,28.125,off
08/20/2017 12:33:01,30.062,28.125,off
