TIME,INSIDE_TEMPERATURE,OUTSIDE_TEMPERATURE,LIGHTS_STATE

07/10/2016 12:23:25,24.187,23.5,off
07/10/2016 12:23:37,24.125,23.437,off
07/10/2016 12:23:48,24.125,23.437,off
07/10/2016 12:24:00,24.125,23.437,off
