TIME,INSIDE_TEMPERATURE,OUTSIDE_TEMPERATURE,LIGHTS_STATE

08/22/2017 12:08:25,30.437,28.5,off
08/22/2017 12:08:37,30.437,28.5,off
08/22/2017 12:08:48,30.437,28.5,off
08/22/2017 12:09:00,30.437,28.437,off
