TIME,INSIDE_TEMPERATURE,OUTSIDE_TEMPERATURE,LIGHTS_STATE

11/01/2017 12:11:25,30.625,30.437,off
11/01/2017 12:11:37,30.687,30.375,off
11/01/2017 12:11:49,30.625,30.562,off
11/01/2017 12:12:00,30.687,30.562,off
