TIME,INSIDE_TEMPERATURE,OUTSIDE_TEMPERATURE,LIGHTS_STATE

01/08/2018 12:46:26,17.125,11.625,off
01/08/2018 12:46:37,17.125,11.625,off
01/08/2018 12:46:49,17.125,11.625,off
01/08/2018 12:47:01,17.125,11.625,off
