TIME,INSIDE_TEMPERATURE,OUTSIDE_TEMPERATURE,LIGHTS_STATE

08/23/2017 12:11:25,29.625,27.5,off
08/23/2017 12:11:37,29.625,27.562,off
08/23/2017 12:11:49,29.625,27.5,off
08/23/2017 12:12:01,29.625,27.5,off
