TIME,INSIDE_TEMPERATURE,OUTSIDE_TEMPERATURE,LIGHTS_STATE

09/25/2017 12:34:26,30.687,27.875,off
09/25/2017 12:34:37,30.75,27.875,off
09/25/2017 12:34:49,30.75,28.0,off
09/25/2017 12:35:01,30.75,28.062,off
