TIME,INSIDE_TEMPERATURE,OUTSIDE_TEMPERATURE,LIGHTS_STATE

02/22/2018 12:44:25,21.562,20.312,off
02/22/2018 12:44:37,21.562,20.187,off
02/22/2018 12:44:48,21.625,19.75,off
02/22/2018 12:45:00,21.562,19.562,off
