TIME,INSIDE_TEMPERATURE,OUTSIDE_TEMPERATURE,LIGHTS_STATE

04/28/2017 12:05:25,22.75,21.0,off
04/28/2017 12:05:36,22.75,21.0,off
04/28/2017 12:05:48,22.75,21.062,off
04/28/2017 12:06:00,22.75,21.062,off
