TIME,INSIDE_TEMPERATURE,OUTSIDE_TEMPERATURE,LIGHTS_STATE

01/18/2018 12:37:26,25.187,20.0,off
01/18/2018 12:37:37,25.187,20.0,off
01/18/2018 12:37:49,25.187,20.062,off
01/18/2018 12:38:01,25.187,20.0,off
