TIME,INSIDE_TEMPERATURE,OUTSIDE_TEMPERATURE,LIGHTS_STATE

01/05/2017 12:53:25,19.062,12.625,off
01/05/2017 12:53:37,19.062,12.562,off
01/05/2017 12:53:49,19.0,12.562,off
01/05/2017 12:54:01,18.937,12.625,off
