TIME,INSIDE_TEMPERATURE,OUTSIDE_TEMPERATURE,LIGHTS_STATE

11/09/2016 12:46:24,28.375,25.0,off
11/09/2016 12:46:36,28.375,25.0,off
11/09/2016 12:46:48,28.375,25.0,off
11/09/2016 12:46:59,28.375,25.062,off
