TIME,INSIDE_TEMPERATURE,OUTSIDE_TEMPERATURE,LIGHTS_STATE

06/29/2016 12:27:25,27.312,26.687,off
06/29/2016 12:27:37,27.312,26.75,off
06/29/2016 12:27:48,27.312,26.687,off
06/29/2016 12:28:00,27.312,26.687,off
