TIME,INSIDE_TEMPERATURE,OUTSIDE_TEMPERATURE,LIGHTS_STATE

10/16/2017 12:21:26,34.187,37.062,off
10/16/2017 12:21:38,34.187,37.062,off
10/16/2017 12:21:49,34.187,37.062,off
10/16/2017 12:22:01,34.187,36.937,off
