TIME,INSIDE_TEMPERATURE,OUTSIDE_TEMPERATURE,LIGHTS_STATE

12/30/2016 12:31:25,17.125,15.687,off
12/30/2016 12:31:37,17.125,15.687,off
12/30/2016 12:31:49,17.187,15.625,off
12/30/2016 12:32:00,17.187,15.625,off
