TIME,INSIDE_TEMPERATURE,OUTSIDE_TEMPERATURE,LIGHTS_STATE

03/08/2018 12:24:26,27.0,23.562,off
03/08/2018 12:24:37,27.062,23.562,off
03/08/2018 12:24:49,27.062,23.562,off
03/08/2018 12:25:01,27.062,23.625,off
