TIME,INSIDE_TEMPERATURE,OUTSIDE_TEMPERATURE,LIGHTS_STATE

07/12/2017 12:29:25,31.812,28.75,off
07/12/2017 12:29:37,31.812,28.75,off
07/12/2017 12:29:48,31.875,28.812,off
07/12/2017 12:30:00,31.875,28.812,off
