TIME,INSIDE_TEMPERATURE,OUTSIDE_TEMPERATURE,LIGHTS_STATE

12/24/2017 12:28:26,16.875,12.062,off
12/24/2017 12:28:38,16.875,12.0,off
12/24/2017 12:28:50,16.875,12.0,off
12/24/2017 12:29:01,16.875,12.0,off
