TIME,INSIDE_TEMPERATURE,OUTSIDE_TEMPERATURE,LIGHTS_STATE

07/28/2016 12:52:25,33.125,33.5,off
07/28/2016 12:52:37,33.187,33.5,off
07/28/2016 12:52:48,33.25,33.562,off
07/28/2016 12:53:00,33.312,33.562,off
