TIME,INSIDE_TEMPERATURE,OUTSIDE_TEMPERATURE,LIGHTS_STATE

12/07/2016 12:30:25,13.812,10.687,off
12/07/2016 12:30:37,13.812,10.687,off
12/07/2016 12:30:49,13.812,10.75,off
12/07/2016 12:31:00,13.812,10.687,off
