TIME,INSIDE_TEMPERATURE,OUTSIDE_TEMPERATURE,LIGHTS_STATE

03/16/2017 12:26:26,25.812,22.25,off
03/16/2017 12:26:37,25.75,22.25,off
03/16/2017 12:26:49,25.812,22.125,off
03/16/2017 12:27:01,25.75,22.187,off
