TIME,INSIDE_TEMPERATURE,OUTSIDE_TEMPERATURE,LIGHTS_STATE

10/06/2017 12:57:25,32.437,30.125,off
10/06/2017 12:57:37,32.437,30.125,off
10/06/2017 12:57:49,32.437,30.125,off
10/06/2017 12:58:01,32.437,30.187,off
