TIME,INSIDE_TEMPERATURE,OUTSIDE_TEMPERATURE,LIGHTS_STATE

01/18/2017 12:19:25,12.062,8.875,off
01/18/2017 12:19:36,12.062,8.937,off
01/18/2017 12:19:48,12.0,8.937,off
01/18/2017 12:20:00,12.0,9.0,off
