TIME,INSIDE_TEMPERATURE,OUTSIDE_TEMPERATURE,LIGHTS_STATE

01/16/2018 12:46:25,23.875,20.187,off
01/16/2018 12:46:37,23.875,20.25,off
01/16/2018 12:46:49,23.875,20.312,off
01/16/2018 12:47:00,23.875,20.312,off
