TIME,INSIDE_TEMPERATURE,OUTSIDE_TEMPERATURE,LIGHTS_STATE

09/12/2017 12:22:25,36.0,33.312,off
09/12/2017 12:22:37,36.0,33.312,off
09/12/2017 12:22:48,36.0,33.312,off
09/12/2017 12:23:00,36.062,33.312,off
