TIME,INSIDE_TEMPERATURE,OUTSIDE_TEMPERATURE,LIGHTS_STATE

08/02/2017 12:31:26,36.937,34.812,off
08/02/2017 12:31:37,36.937,34.812,off
08/02/2017 12:31:49,36.937,34.875,off
08/02/2017 12:32:01,36.937,34.937,off
