TIME,INSIDE_TEMPERATURE,OUTSIDE_TEMPERATURE,LIGHTS_STATE

01/05/2018 12:33:26,21.5,17.562,off
01/05/2018 12:33:37,21.562,17.562,off
01/05/2018 12:33:49,21.562,17.562,off
01/05/2018 12:34:01,21.5,17.5,off
