TIME,INSIDE_TEMPERATURE,OUTSIDE_TEMPERATURE,LIGHTS_STATE

07/17/2017 12:24:25,36.312,33.25,off
07/17/2017 12:24:37,36.25,33.312,off
07/17/2017 12:24:49,36.312,33.312,off
07/17/2017 12:25:00,36.312,33.312,off
