TIME,INSIDE_TEMPERATURE,OUTSIDE_TEMPERATURE,LIGHTS_STATE

02/11/2018 12:54:25,22.625,16.625,off
02/11/2018 12:54:37,22.625,16.5,off
02/11/2018 12:54:49,22.625,16.375,off
02/11/2018 12:55:01,22.625,16.312,off
