TIME,INSIDE_TEMPERATURE,OUTSIDE_TEMPERATURE,LIGHTS_STATE

07/12/2016 12:21:26,24.812,24.437,off
07/12/2016 12:21:37,24.875,24.5,off
07/12/2016 12:21:49,24.875,24.437,off
07/12/2016 12:22:01,24.875,24.437,off
