TIME,INSIDE_TEMPERATURE,OUTSIDE_TEMPERATURE,LIGHTS_STATE

03/09/2017 12:43:26,28.312,28.312,off
03/09/2017 12:43:37,28.312,28.437,off
03/09/2017 12:43:49,28.312,28.562,off
03/09/2017 12:44:01,28.312,28.687,off
