TIME,INSIDE_TEMPERATURE,OUTSIDE_TEMPERATURE,LIGHTS_STATE

03/06/2017 12:50:27,20.687,15.875,off
03/06/2017 12:50:38,20.625,16.125,off
03/06/2017 12:50:50,20.687,16.25,off
03/06/2017 12:51:02,20.687,16.25,off
