TIME,INSIDE_TEMPERATURE,OUTSIDE_TEMPERATURE,LIGHTS_STATE

11/20/2016 12:06:24,21.562,16.75,off
11/20/2016 12:06:36,21.562,16.75,off
11/20/2016 12:06:48,21.562,16.75,off
11/20/2016 12:06:59,21.562,16.75,off
