TIME,INSIDE_TEMPERATURE,OUTSIDE_TEMPERATURE,LIGHTS_STATE

01/14/2017 12:04:25,21.75,17.062,off
01/14/2017 12:04:37,21.687,17.25,off
01/14/2017 12:04:49,21.75,17.375,off
01/14/2017 12:05:01,21.75,17.562,off
