TIME,INSIDE_TEMPERATURE,OUTSIDE_TEMPERATURE,LIGHTS_STATE

06/23/2017 12:50:25,33.312,29.812,off
06/23/2017 12:50:37,33.312,29.812,off
06/23/2017 12:50:48,33.312,29.875,off
06/23/2017 12:51:00,33.375,29.875,off
