TIME,INSIDE_TEMPERATURE,OUTSIDE_TEMPERATURE,LIGHTS_STATE

03/24/2018 12:50:25,19.062,13.437,off
03/24/2018 12:50:37,19.062,13.437,off
03/24/2018 12:50:49,19.062,13.5,off
03/24/2018 12:51:00,19.062,13.5,off
