TIME,INSIDE_TEMPERATURE,OUTSIDE_TEMPERATURE,LIGHTS_STATE

10/05/2017 12:29:26,30.312,28.125,off
10/05/2017 12:29:37,30.312,28.187,off
10/05/2017 12:29:49,30.375,28.25,off
10/05/2017 12:30:01,30.375,28.25,off
