TIME,INSIDE_TEMPERATURE,OUTSIDE_TEMPERATURE,LIGHTS_STATE

03/18/2018 12:56:26,18.437,15.5,off
03/18/2018 12:56:37,18.437,15.375,off
03/18/2018 12:56:49,18.437,15.437,off
03/18/2018 12:57:01,18.437,15.5,off
