TIME,INSIDE_TEMPERATURE,OUTSIDE_TEMPERATURE,LIGHTS_STATE

02/13/2018 12:44:25,23.375,26.25,off
02/13/2018 12:44:37,23.375,26.125,off
02/13/2018 12:44:48,23.375,26.0,off
02/13/2018 12:45:00,23.375,25.562,off
