TIME,INSIDE_TEMPERATURE,OUTSIDE_TEMPERATURE,LIGHTS_STATE

02/26/2018 12:35:25,19.437,21.0,off
02/26/2018 12:35:37,19.437,21.0,off
02/26/2018 12:35:49,19.437,21.062,off
02/26/2018 12:36:01,19.5,21.125,off
