TIME,INSIDE_TEMPERATURE,OUTSIDE_TEMPERATURE,LIGHTS_STATE

12/20/2016 12:09:25,20.062,16.687,off
12/20/2016 12:09:37,20.0,16.687,off
12/20/2016 12:09:49,20.062,16.625,off
12/20/2016 12:10:00,20.062,16.75,off
