TIME,INSIDE_TEMPERATURE,OUTSIDE_TEMPERATURE,LIGHTS_STATE

03/28/2018 12:56:25,25.812,19.5,off
03/28/2018 12:56:36,25.812,19.5,off
03/28/2018 12:56:48,25.812,19.562,off
03/28/2018 12:57:00,25.875,19.562,off
