TIME,INSIDE_TEMPERATURE,OUTSIDE_TEMPERATURE,LIGHTS_STATE

07/06/2016 12:04:25,24.0,23.687,off
07/06/2016 12:04:38,24.0,23.687,off
07/06/2016 12:04:49,24.0,23.687,off
07/06/2016 12:05:01,24.0,23.75,off
