TIME,INSIDE_TEMPERATURE,OUTSIDE_TEMPERATURE,LIGHTS_STATE

10/26/2017 12:18:25,35.875,40.937,off
10/26/2017 12:18:37,35.937,40.687,off
10/26/2017 12:18:48,35.937,40.437,off
10/26/2017 12:19:00,35.937,40.312,off
