TIME,INSIDE_TEMPERATURE,OUTSIDE_TEMPERATURE,LIGHTS_STATE

10/14/2017 12:33:25,29.562,30.812,off
10/14/2017 12:33:37,29.625,30.562,off
10/14/2017 12:33:49,29.625,30.187,off
10/14/2017 12:34:01,29.625,29.812,off
