TIME,INSIDE_TEMPERATURE,OUTSIDE_TEMPERATURE,LIGHTS_STATE

12/05/2016 12:08:25,16.5,13.125,off
12/05/2016 12:08:37,16.562,13.062,off
12/05/2016 12:08:49,16.562,13.0,off
12/05/2016 12:09:01,16.562,13.0,off
