TIME,INSIDE_TEMPERATURE,OUTSIDE_TEMPERATURE,LIGHTS_STATE

03/21/2018 12:26:25,22.875,19.375,off
03/21/2018 12:26:37,22.875,19.437,off
03/21/2018 12:26:48,22.875,19.375,off
03/21/2018 12:27:00,22.937,19.375,off
