TIME,INSIDE_TEMPERATURE,OUTSIDE_TEMPERATURE,LIGHTS_STATE

10/04/2017 12:33:25,29.0,27.5,off
10/04/2017 12:33:37,29.062,27.375,off
10/04/2017 12:33:49,29.062,27.25,off
10/04/2017 12:34:00,29.062,27.187,off
