TIME,INSIDE_TEMPERATURE,OUTSIDE_TEMPERATURE,LIGHTS_STATE

05/01/2017 12:14:26,28.625,28.187,off
05/01/2017 12:14:37,28.625,28.187,off
05/01/2017 12:14:49,28.687,28.25,off
05/01/2017 12:15:01,28.687,28.187,off
