TIME,INSIDE_TEMPERATURE,OUTSIDE_TEMPERATURE,LIGHTS_STATE

08/04/2017 12:49:26,31.937,27.812,off
08/04/2017 12:49:37,31.937,27.812,off
08/04/2017 12:49:49,32.0,27.812,off
08/04/2017 12:50:01,32.0,27.875,off
