TIME,INSIDE_TEMPERATURE,OUTSIDE_TEMPERATURE,LIGHTS_STATE

05/10/2017 12:05:25,23.0,20.687,off
05/10/2017 12:05:37,22.937,20.625,off
05/10/2017 12:05:49,22.937,20.562,off
05/10/2017 12:06:00,22.875,20.5,off
