TIME,INSIDE_TEMPERATURE,OUTSIDE_TEMPERATURE,LIGHTS_STATE

12/11/2016 12:55:24,17.125,12.687,off
12/11/2016 12:55:36,17.125,12.687,off
12/11/2016 12:55:49,17.125,12.75,off
12/11/2016 12:56:00,17.125,12.75,off
