TIME,INSIDE_TEMPERATURE,OUTSIDE_TEMPERATURE,LIGHTS_STATE

02/13/2018 12:33:25,23.375,26.125,off
02/13/2018 12:33:37,23.437,25.875,off
02/13/2018 12:33:49,23.375,25.937,off
02/13/2018 12:34:01,23.375,25.687,off
