TIME,INSIDE_TEMPERATURE,OUTSIDE_TEMPERATURE,LIGHTS_STATE

03/01/2018 12:50:25,19.062,13.187,off
03/01/2018 12:50:37,19.062,13.187,off
03/01/2018 12:50:48,19.062,13.187,off
03/01/2018 12:51:00,19.062,13.187,off
