TIME,INSIDE_TEMPERATURE,OUTSIDE_TEMPERATURE,LIGHTS_STATE

01/14/2017 12:42:25,21.375,17.625,off
01/14/2017 12:42:36,21.375,17.687,off
01/14/2017 12:42:48,21.375,17.812,off
01/14/2017 12:43:00,21.375,17.812,off
