TIME,INSIDE_TEMPERATURE,OUTSIDE_TEMPERATURE,LIGHTS_STATE

07/05/2016 12:07:25,25.437,25.187,off
07/05/2016 12:07:37,25.437,25.187,off
07/05/2016 12:07:49,25.5,25.187,off
07/05/2016 12:08:00,25.437,25.187,off
