TIME,INSIDE_TEMPERATURE,OUTSIDE_TEMPERATURE,LIGHTS_STATE

02/04/2017 12:14:25,24.937,23.75,off
02/04/2017 12:14:36,24.937,23.687,off
02/04/2017 12:14:48,24.937,23.812,off
02/04/2017 12:15:00,24.937,24.125,off
