TIME,INSIDE_TEMPERATURE,OUTSIDE_TEMPERATURE,LIGHTS_STATE

11/19/2016 12:21:25,20.187,15.437,off
11/19/2016 12:21:36,20.187,15.375,off
11/19/2016 12:21:48,20.187,15.375,off
11/19/2016 12:22:00,20.187,15.312,off
