TIME,INSIDE_TEMPERATURE,OUTSIDE_TEMPERATURE,LIGHTS_STATE

12/30/2016 12:27:25,17.062,16.187,off
12/30/2016 12:27:37,17.062,16.187,off
12/30/2016 12:27:48,17.062,16.187,off
12/30/2016 12:28:00,17.062,16.125,off
