TIME,INSIDE_TEMPERATURE,OUTSIDE_TEMPERATURE,LIGHTS_STATE

07/04/2017 12:16:25,29.625,26.187,off
07/04/2017 12:16:37,29.625,26.187,off
07/04/2017 12:16:48,29.687,26.125,off
07/04/2017 12:17:00,29.625,26.125,off
