TIME,INSIDE_TEMPERATURE,OUTSIDE_TEMPERATURE,LIGHTS_STATE

07/20/2017 12:23:25,28.75,26.125,off
07/20/2017 12:23:37,28.812,26.062,off
07/20/2017 12:23:48,28.875,26.062,off
07/20/2017 12:24:00,28.875,26.062,off
