TIME,INSIDE_TEMPERATURE,OUTSIDE_TEMPERATURE,LIGHTS_STATE

10/29/2016 12:09:24,33.0,30.062,off
10/29/2016 12:09:36,33.0,30.062,off
10/29/2016 12:09:48,33.0,30.125,off
10/29/2016 12:09:59,33.062,30.125,off
