TIME,INSIDE_TEMPERATURE,OUTSIDE_TEMPERATURE,LIGHTS_STATE

01/11/2018 12:28:25,22.75,19.25,off
01/11/2018 12:28:37,22.75,19.375,off
01/11/2018 12:28:49,22.75,19.5,off
01/11/2018 12:29:00,22.75,19.562,off
