TIME,INSIDE_TEMPERATURE,OUTSIDE_TEMPERATURE,LIGHTS_STATE

10/02/2017 12:55:25,30.25,27.687,off
10/02/2017 12:55:37,30.25,27.625,off
10/02/2017 12:55:49,30.25,27.625,off
10/02/2017 12:56:01,30.312,27.562,off
