TIME,INSIDE_TEMPERATURE,OUTSIDE_TEMPERATURE,LIGHTS_STATE

09/19/2016 12:19:26,33.0,35.25,off
09/19/2016 12:19:37,33.062,35.312,off
09/19/2016 12:19:49,33.062,35.312,off
09/19/2016 12:20:01,33.062,35.25,off
