TIME,INSIDE_TEMPERATURE,OUTSIDE_TEMPERATURE,LIGHTS_STATE

12/29/2016 12:44:25,19.937,15.812,off
12/29/2016 12:44:37,19.937,15.75,off
12/29/2016 12:44:48,19.937,15.625,off
12/29/2016 12:45:00,19.875,15.625,off
