TIME,INSIDE_TEMPERATURE,OUTSIDE_TEMPERATURE,LIGHTS_STATE

02/11/2018 12:50:25,22.5,17.062,off
02/11/2018 12:50:37,22.5,17.187,off
02/11/2018 12:50:49,22.5,17.187,off
02/11/2018 12:51:01,22.562,17.187,off
