TIME,INSIDE_TEMPERATURE,OUTSIDE_TEMPERATURE,LIGHTS_STATE

07/18/2016 12:52:25,23.375,23.187,off
07/18/2016 12:52:37,23.375,23.187,off
07/18/2016 12:52:48,23.375,23.187,off
07/18/2016 12:53:00,23.375,23.187,off
