TIME,INSIDE_TEMPERATURE,OUTSIDE_TEMPERATURE,LIGHTS_STATE

03/15/2017 12:37:26,27.812,24.125,off
03/15/2017 12:37:37,27.875,24.187,off
03/15/2017 12:37:49,27.875,24.25,off
03/15/2017 12:38:01,27.812,24.375,off
