TIME,INSIDE_TEMPERATURE,OUTSIDE_TEMPERATURE,LIGHTS_STATE

04/05/2017 12:54:25,28.5,25.187,off
04/05/2017 12:54:37,28.5,25.25,off
04/05/2017 12:54:48,28.5,25.312,off
04/05/2017 12:55:00,28.5,25.375,off
