TIME,INSIDE_TEMPERATURE,OUTSIDE_TEMPERATURE,LIGHTS_STATE

08/09/2017 12:12:25,27.062,24.187,off
08/09/2017 12:12:37,27.062,24.187,off
08/09/2017 12:12:49,27.125,24.25,off
08/09/2017 12:13:01,27.125,24.312,off
