TIME,INSIDE_TEMPERATURE,OUTSIDE_TEMPERATURE,LIGHTS_STATE

12/27/2016 12:25:24,20.312,17.187,off
12/27/2016 12:25:36,20.312,17.187,off
12/27/2016 12:25:48,20.312,17.062,off
12/27/2016 12:25:59,20.375,17.062,off
