TIME,INSIDE_TEMPERATURE,OUTSIDE_TEMPERATURE,LIGHTS_STATE

03/15/2018 12:25:25,18.375,11.812,off
03/15/2018 12:25:37,18.312,11.75,off
03/15/2018 12:25:49,18.312,11.687,off
03/15/2018 12:26:01,18.375,11.625,off
