TIME,INSIDE_TEMPERATURE,OUTSIDE_TEMPERATURE,LIGHTS_STATE

04/07/2017 12:05:25,21.187,17.0,off
04/07/2017 12:05:37,21.187,17.0,off
04/07/2017 12:05:48,21.187,16.937,off
04/07/2017 12:06:00,21.25,16.937,off
