TIME,INSIDE_TEMPERATURE,OUTSIDE_TEMPERATURE,LIGHTS_STATE

06/26/2017 12:01:26,27.437,23.437,off
06/26/2017 12:01:37,27.437,23.375,off
06/26/2017 12:01:49,27.437,23.375,off
06/26/2017 12:02:01,27.437,23.437,off
