TIME,INSIDE_TEMPERATURE,OUTSIDE_TEMPERATURE,LIGHTS_STATE

10/21/2017 12:07:25,26.75,38.75,off
10/21/2017 12:07:37,26.75,38.687,off
10/21/2017 12:07:48,26.75,38.187,off
10/21/2017 12:08:00,26.75,37.687,off
