TIME,INSIDE_TEMPERATURE,OUTSIDE_TEMPERATURE,LIGHTS_STATE

05/03/2017 12:06:26,32.312,30.187,off
05/03/2017 12:06:38,32.312,30.187,off
05/03/2017 12:06:49,32.25,30.187,off
05/03/2017 12:07:01,32.25,30.187,off
