TIME,INSIDE_TEMPERATURE,OUTSIDE_TEMPERATURE,LIGHTS_STATE

09/13/2016 12:00:25,24.125,21.437,off
09/13/2016 12:00:37,24.125,21.375,off
09/13/2016 12:00:48,24.125,21.312,off
09/13/2016 12:01:00,24.062,21.25,off
