TIME,INSIDE_TEMPERATURE,OUTSIDE_TEMPERATURE,LIGHTS_STATE

02/08/2018 12:48:25,29.625,45.5,off
02/08/2018 12:48:37,29.625,45.437,off
02/08/2018 12:48:48,29.625,45.312,off
02/08/2018 12:49:00,29.625,45.25,off
