TIME,INSIDE_TEMPERATURE,OUTSIDE_TEMPERATURE,LIGHTS_STATE

08/06/2017 12:47:25,31.562,29.187,off
08/06/2017 12:47:37,31.562,29.125,off
08/06/2017 12:47:49,31.562,29.125,off
08/06/2017 12:48:01,31.625,29.187,off
