TIME,INSIDE_TEMPERATURE,OUTSIDE_TEMPERATURE,LIGHTS_STATE

10/21/2017 12:34:25,27.375,35.812,off
10/21/2017 12:34:37,27.375,36.0,off
10/21/2017 12:34:49,27.375,36.187,off
10/21/2017 12:35:00,27.437,36.312,off
