TIME,INSIDE_TEMPERATURE,OUTSIDE_TEMPERATURE,LIGHTS_STATE

02/17/2018 12:35:25,27.25,24.812,off
02/17/2018 12:35:37,27.25,24.625,off
02/17/2018 12:35:49,27.312,24.562,off
02/17/2018 12:36:00,27.312,24.625,off
