TIME,INSIDE_TEMPERATURE,OUTSIDE_TEMPERATURE,LIGHTS_STATE

03/15/2018 12:41:25,18.187,12.187,off
03/15/2018 12:41:37,18.187,12.187,off
03/15/2018 12:41:49,18.187,12.187,off
03/15/2018 12:42:01,18.187,12.187,off
