TIME,INSIDE_TEMPERATURE,OUTSIDE_TEMPERATURE,LIGHTS_STATE

08/05/2016 12:46:26,25.187,24.5,off
08/05/2016 12:46:38,25.187,24.562,off
08/05/2016 12:46:49,25.25,24.562,off
08/05/2016 12:47:01,25.312,24.625,off
