TIME,INSIDE_TEMPERATURE,OUTSIDE_TEMPERATURE,LIGHTS_STATE

12/22/2016 12:41:24,22.437,19.937,off
12/22/2016 12:41:36,22.437,19.812,off
12/22/2016 12:41:48,22.437,19.875,off
12/22/2016 12:42:00,22.437,19.812,off
