TIME,INSIDE_TEMPERATURE,OUTSIDE_TEMPERATURE,LIGHTS_STATE

03/07/2017 12:44:25,21.937,17.812,off
03/07/2017 12:44:37,22.0,17.812,off
03/07/2017 12:44:49,22.0,17.812,off
03/07/2017 12:45:01,22.0,17.812,off
