TIME,INSIDE_TEMPERATURE,OUTSIDE_TEMPERATURE,LIGHTS_STATE

05/10/2017 12:42:26,24.125,21.312,off
05/10/2017 12:42:37,24.187,21.375,off
05/10/2017 12:42:49,24.125,21.375,off
05/10/2017 12:43:01,24.125,21.437,off
