TIME,INSIDE_TEMPERATURE,OUTSIDE_TEMPERATURE,LIGHTS_STATE

07/04/2017 12:46:25,30.375,26.625,off
07/04/2017 12:46:37,30.375,26.625,off
07/04/2017 12:46:49,30.375,26.625,off
07/04/2017 12:47:00,30.375,26.625,off
