TIME,INSIDE_TEMPERATURE,OUTSIDE_TEMPERATURE,LIGHTS_STATE

10/20/2017 12:57:25,24.562,18.5,off
10/20/2017 12:57:37,24.5,18.437,off
10/20/2017 12:57:49,24.5,18.375,off
10/20/2017 12:58:00,24.5,18.375,off
