TIME,INSIDE_TEMPERATURE,OUTSIDE_TEMPERATURE,LIGHTS_STATE

04/23/2017 12:17:25,21.75,18.812,off
04/23/2017 12:17:37,21.75,18.812,off
04/23/2017 12:17:48,21.812,18.875,off
04/23/2017 12:18:00,21.812,18.875,off
