TIME,INSIDE_TEMPERATURE,OUTSIDE_TEMPERATURE,LIGHTS_STATE

03/15/2017 12:03:26,25.937,22.5,off
03/15/2017 12:03:37,25.937,22.562,off
03/15/2017 12:03:49,26.0,22.625,off
03/15/2017 12:04:01,25.937,22.625,off
