TIME,INSIDE_TEMPERATURE,OUTSIDE_TEMPERATURE,LIGHTS_STATE

01/27/2018 12:09:25,24.25,20.562,off
01/27/2018 12:09:37,24.25,20.687,off
01/27/2018 12:09:49,24.25,20.625,off
01/27/2018 12:10:00,24.25,20.562,off
