TIME,INSIDE_TEMPERATURE,OUTSIDE_TEMPERATURE,LIGHTS_STATE

03/10/2017 12:10:26,27.75,23.562,off
03/10/2017 12:10:38,27.75,23.625,off
03/10/2017 12:10:49,27.75,23.625,off
03/10/2017 12:11:01,27.75,23.562,off
