TIME,INSIDE_TEMPERATURE,OUTSIDE_TEMPERATURE,LIGHTS_STATE

07/26/2017 12:10:25,28.625,26.187,off
07/26/2017 12:10:37,28.625,26.187,off
07/26/2017 12:10:49,28.625,26.187,off
07/26/2017 12:11:01,28.687,26.187,off
