TIME,INSIDE_TEMPERATURE,OUTSIDE_TEMPERATURE,LIGHTS_STATE

02/19/2018 12:39:26,19.937,26.875,off
02/19/2018 12:39:37,20.0,27.187,off
02/19/2018 12:39:49,20.0,27.5,off
02/19/2018 12:40:01,20.0,27.687,off
