TIME,INSIDE_TEMPERATURE,OUTSIDE_TEMPERATURE,LIGHTS_STATE

01/18/2018 12:27:25,25.312,20.812,off
01/18/2018 12:27:37,25.25,20.875,off
01/18/2018 12:27:49,25.25,21.0,off
01/18/2018 12:28:01,25.25,21.187,off
