TIME,INSIDE_TEMPERATURE,OUTSIDE_TEMPERATURE,LIGHTS_STATE

08/27/2017 12:01:25,37.0,35.625,off
08/27/2017 12:01:37,37.0,35.625,off
08/27/2017 12:01:48,37.0,35.625,off
08/27/2017 12:02:00,37.062,35.625,off
