TIME,INSIDE_TEMPERATURE,OUTSIDE_TEMPERATURE,LIGHTS_STATE

03/11/2017 12:55:25,29.437,24.875,off
03/11/2017 12:55:37,29.375,24.875,off
03/11/2017 12:55:49,29.437,24.875,off
03/11/2017 12:56:00,29.375,24.812,off
