TIME,INSIDE_TEMPERATURE,OUTSIDE_TEMPERATURE,LIGHTS_STATE

07/27/2017 12:10:25,32.437,30.062,off
07/27/2017 12:10:37,32.437,30.062,off
07/27/2017 12:10:49,32.5,30.062,off
07/27/2017 12:11:02,32.5,30.125,off
