TIME,INSIDE_TEMPERATURE,OUTSIDE_TEMPERATURE,LIGHTS_STATE

01/05/2018 12:35:25,21.562,17.625,off
01/05/2018 12:35:37,21.625,17.687,off
01/05/2018 12:35:49,21.562,17.687,off
01/05/2018 12:36:01,21.625,17.687,off
