TIME,INSIDE_TEMPERATURE,OUTSIDE_TEMPERATURE,LIGHTS_STATE

02/04/2018 12:32:26,26.687,38.375,off
02/04/2018 12:32:38,26.687,38.5,off
02/04/2018 12:32:49,26.687,38.625,off
02/04/2018 12:33:01,26.687,38.687,off
