TIME,INSIDE_TEMPERATURE,OUTSIDE_TEMPERATURE,LIGHTS_STATE

05/04/2017 12:18:26,31.125,28.75,off
05/04/2017 12:18:38,31.187,28.687,off
05/04/2017 12:18:50,31.187,28.625,off
05/04/2017 12:19:02,31.125,28.562,off
