TIME,INSIDE_TEMPERATURE,OUTSIDE_TEMPERATURE,LIGHTS_STATE

05/25/2017 12:05:26,22.062,19.812,off
05/25/2017 12:05:38,22.125,19.75,off
05/25/2017 12:05:50,22.125,19.75,off
05/25/2017 12:06:01,22.187,19.75,off
