TIME,INSIDE_TEMPERATURE,OUTSIDE_TEMPERATURE,LIGHTS_STATE

07/07/2016 12:34:25,22.812,22.312,off
07/07/2016 12:34:37,22.875,22.312,off
07/07/2016 12:34:49,22.875,22.375,off
07/07/2016 12:35:00,22.875,22.437,off
