TIME,INSIDE_TEMPERATURE,OUTSIDE_TEMPERATURE,LIGHTS_STATE

02/02/2018 12:57:26,28.562,25.375,off
02/02/2018 12:57:37,28.625,25.437,off
02/02/2018 12:57:49,28.562,25.5,off
02/02/2018 12:58:01,28.562,25.5,off
