TIME,INSIDE_TEMPERATURE,OUTSIDE_TEMPERATURE,LIGHTS_STATE

04/03/2017 12:05:25,23.062,21.5,off
04/03/2017 12:05:37,23.062,21.5,off
04/03/2017 12:05:48,23.125,21.562,off
04/03/2017 12:06:00,23.125,21.562,off
