TIME,INSIDE_TEMPERATURE,OUTSIDE_TEMPERATURE,LIGHTS_STATE

09/16/2017 12:55:25,33.187,29.187,off
09/16/2017 12:55:37,33.125,29.187,off
09/16/2017 12:55:49,33.25,29.187,off
09/16/2017 12:56:01,33.312,29.187,off
