TIME,INSIDE_TEMPERATURE,OUTSIDE_TEMPERATURE,LIGHTS_STATE

11/14/2016 12:55:25,28.75,26.187,off
11/14/2016 12:55:36,28.75,26.062,off
11/14/2016 12:55:48,28.812,26.0,off
11/14/2016 12:56:00,28.75,25.812,off
