TIME,INSIDE_TEMPERATURE,OUTSIDE_TEMPERATURE,LIGHTS_STATE

07/18/2017 12:35:25,28.875,25.812,off
07/18/2017 12:35:37,28.875,25.812,off
07/18/2017 12:35:49,28.875,25.875,off
07/18/2017 12:36:00,28.937,25.875,off
