TIME,INSIDE_TEMPERATURE,OUTSIDE_TEMPERATURE,LIGHTS_STATE

07/03/2016 12:03:25,28.25,28.25,off
07/03/2016 12:03:36,28.25,28.25,off
07/03/2016 12:03:48,28.25,28.187,off
07/03/2016 12:04:00,28.25,28.187,off
