TIME,INSIDE_TEMPERATURE,OUTSIDE_TEMPERATURE,LIGHTS_STATE

03/07/2018 12:54:25,25.312,37.5,off
03/07/2018 12:54:37,25.375,37.687,off
03/07/2018 12:54:49,25.375,37.812,off
03/07/2018 12:55:02,25.437,38.062,off
