TIME,INSIDE_TEMPERATURE,OUTSIDE_TEMPERATURE,LIGHTS_STATE

06/30/2017 12:13:25,26.625,23.25,off
06/30/2017 12:13:37,26.625,23.312,off
06/30/2017 12:13:49,26.625,23.312,off
06/30/2017 12:14:01,26.625,23.312,off
