TIME,INSIDE_TEMPERATURE,OUTSIDE_TEMPERATURE,LIGHTS_STATE

03/16/2017 12:11:26,25.5,21.812,off
03/16/2017 12:11:37,25.5,21.812,off
03/16/2017 12:11:49,25.5,21.812,off
03/16/2017 12:12:01,25.5,21.812,off
