TIME,INSIDE_TEMPERATURE,OUTSIDE_TEMPERATURE,LIGHTS_STATE

12/13/2016 12:04:25,18.0,16.687,off
12/13/2016 12:04:37,18.0,16.562,off
12/13/2016 12:04:48,17.937,16.437,off
12/13/2016 12:05:00,17.937,16.312,off
