TIME,INSIDE_TEMPERATURE,OUTSIDE_TEMPERATURE,LIGHTS_STATE

11/08/2016 12:49:25,30.5,26.75,off
11/08/2016 12:49:37,30.5,26.875,off
11/08/2016 12:49:48,30.437,26.875,off
11/08/2016 12:50:00,30.437,27.0,off
