TIME,INSIDE_TEMPERATURE,OUTSIDE_TEMPERATURE,LIGHTS_STATE

11/07/2016 12:33:25,28.687,29.187,off
11/07/2016 12:33:36,28.687,29.25,off
11/07/2016 12:33:48,28.687,29.187,off
11/07/2016 12:34:00,28.687,29.187,off
