TIME,INSIDE_TEMPERATURE,OUTSIDE_TEMPERATURE,LIGHTS_STATE

07/25/2016 12:23:26,30.625,31.187,off
07/25/2016 12:23:37,30.625,31.187,off
07/25/2016 12:23:49,30.625,31.187,off
07/25/2016 12:24:01,30.625,31.187,off
