TIME,INSIDE_TEMPERATURE,OUTSIDE_TEMPERATURE,LIGHTS_STATE

07/07/2016 12:52:25,23.312,22.75,off
07/07/2016 12:52:37,23.312,22.75,off
07/07/2016 12:52:48,23.312,22.75,off
07/07/2016 12:53:00,23.375,22.812,off
