TIME,INSIDE_TEMPERATURE,OUTSIDE_TEMPERATURE,LIGHTS_STATE

11/30/2016 12:10:25,19.687,18.5,off
11/30/2016 12:10:38,19.687,18.625,off
11/30/2016 12:10:49,19.75,18.687,off
11/30/2016 12:11:01,19.75,18.875,off
