TIME,INSIDE_TEMPERATURE,OUTSIDE_TEMPERATURE,LIGHTS_STATE

03/12/2018 12:23:26,26.75,32.937,off
03/12/2018 12:23:37,26.812,32.937,off
03/12/2018 12:23:49,26.812,33.187,off
03/12/2018 12:24:01,26.812,33.562,off
