TIME,INSIDE_TEMPERATURE,OUTSIDE_TEMPERATURE,LIGHTS_STATE

01/09/2017 12:41:25,19.75,15.125,off
01/09/2017 12:41:36,19.812,15.125,off
01/09/2017 12:41:48,19.75,15.125,off
01/09/2017 12:42:00,19.812,15.125,off
