TIME,INSIDE_TEMPERATURE,OUTSIDE_TEMPERATURE,LIGHTS_STATE

12/06/2016 12:51:25,20.125,17.187,off
12/06/2016 12:51:36,20.125,17.25,off
12/06/2016 12:51:48,20.125,17.437,off
12/06/2016 12:52:00,20.187,17.5,off
