TIME,INSIDE_TEMPERATURE,OUTSIDE_TEMPERATURE,LIGHTS_STATE

10/24/2016 12:28:25,22.437,19.437,off
10/24/2016 12:28:36,22.437,19.437,off
10/24/2016 12:28:48,22.437,19.437,off
10/24/2016 12:29:00,22.5,19.5,off
