TIME,INSIDE_TEMPERATURE,OUTSIDE_TEMPERATURE,LIGHTS_STATE

05/06/2017 12:45:25,21.437,17.437,off
05/06/2017 12:45:36,21.437,17.437,off
05/06/2017 12:45:48,21.437,17.437,off
05/06/2017 12:46:00,21.375,17.5,off
