TIME,INSIDE_TEMPERATURE,OUTSIDE_TEMPERATURE,LIGHTS_STATE

10/28/2016 12:35:24,24.562,22.75,off
10/28/2016 12:35:36,24.562,22.687,off
10/28/2016 12:35:48,24.562,22.687,off
10/28/2016 12:35:59,24.562,22.625,off
