TIME,INSIDE_TEMPERATURE,OUTSIDE_TEMPERATURE,LIGHTS_STATE

02/27/2018 12:50:25,21.0,22.437,off
02/27/2018 12:50:37,21.0,22.437,off
02/27/2018 12:50:49,21.0,22.375,off
02/27/2018 12:51:01,21.0,22.375,off
