TIME,INSIDE_TEMPERATURE,OUTSIDE_TEMPERATURE,LIGHTS_STATE

07/14/2016 12:19:25,33.437,33.375,off
07/14/2016 12:19:37,33.437,33.375,off
07/14/2016 12:19:48,33.375,33.437,off
07/14/2016 12:20:00,33.375,33.437,off
