TIME,INSIDE_TEMPERATURE,OUTSIDE_TEMPERATURE,LIGHTS_STATE

05/18/2017 12:55:26,25.687,24.75,off
05/18/2017 12:55:38,25.687,24.687,off
05/18/2017 12:55:49,25.687,24.687,off
05/18/2017 12:56:01,25.687,24.625,off
