TIME,INSIDE_TEMPERATURE,OUTSIDE_TEMPERATURE,LIGHTS_STATE

10/31/2017 12:00:27,30.0,30.687,off
10/31/2017 12:00:38,30.0,30.75,off
10/31/2017 12:00:50,30.0,30.812,off
10/31/2017 12:01:02,30.0,30.937,off
