TIME,INSIDE_TEMPERATURE,OUTSIDE_TEMPERATURE,LIGHTS_STATE

10/25/2017 12:49:25,35.812,42.187,off
10/25/2017 12:49:37,35.875,41.937,off
10/25/2017 12:49:49,35.875,41.562,off
10/25/2017 12:50:01,35.875,41.5,off
