TIME,INSIDE_TEMPERATURE,OUTSIDE_TEMPERATURE,LIGHTS_STATE

05/13/2017 12:36:25,21.562,19.062,off
05/13/2017 12:36:36,21.562,19.062,off
05/13/2017 12:36:48,21.562,19.062,off
05/13/2017 12:37:00,21.562,19.062,off
