TIME,INSIDE_TEMPERATURE,OUTSIDE_TEMPERATURE,LIGHTS_STATE

12/30/2017 12:03:26,21.375,22.875,off
12/30/2017 12:03:37,21.312,22.937,off
12/30/2017 12:03:49,21.375,23.125,off
12/30/2017 12:04:01,21.375,23.25,off
