TIME,INSIDE_TEMPERATURE,OUTSIDE_TEMPERATURE,LIGHTS_STATE

10/16/2017 12:55:25,34.375,31.937,off
10/16/2017 12:55:37,34.375,31.875,off
10/16/2017 12:55:49,34.375,31.875,off
10/16/2017 12:56:01,34.375,31.937,off
