TIME,INSIDE_TEMPERATURE,OUTSIDE_TEMPERATURE,LIGHTS_STATE

10/26/2016 12:50:24,31.937,34.062,off
10/26/2016 12:50:36,31.937,34.062,off
10/26/2016 12:50:48,31.937,34.187,off
10/26/2016 12:50:59,31.875,34.312,off
