TIME,INSIDE_TEMPERATURE,OUTSIDE_TEMPERATURE,LIGHTS_STATE

09/25/2017 12:42:25,30.875,28.062,off
09/25/2017 12:42:37,30.875,28.125,off
09/25/2017 12:42:48,30.937,28.187,off
09/25/2017 12:43:00,30.937,28.187,off
