TIME,INSIDE_TEMPERATURE,OUTSIDE_TEMPERATURE,LIGHTS_STATE

10/19/2017 12:05:25,25.187,19.437,off
10/19/2017 12:05:37,25.187,19.5,off
10/19/2017 12:05:49,25.187,19.562,off
10/19/2017 12:06:00,25.187,19.625,off
