TIME,INSIDE_TEMPERATURE,OUTSIDE_TEMPERATURE,LIGHTS_STATE

05/07/2017 12:49:26,23.937,21.562,off
05/07/2017 12:49:37,23.937,21.5,off
05/07/2017 12:49:49,24.0,21.5,off
05/07/2017 12:50:01,23.937,21.5,off
