TIME,INSIDE_TEMPERATURE,OUTSIDE_TEMPERATURE,LIGHTS_STATE

06/14/2017 12:20:25,29.312,25.937,off
06/14/2017 12:20:37,29.312,25.937,off
06/14/2017 12:20:49,29.312,26.0,off
06/14/2017 12:21:01,29.312,25.875,off
