TIME,INSIDE_TEMPERATURE,OUTSIDE_TEMPERATURE,LIGHTS_STATE

03/31/2017 12:11:25,21.937,18.687,off
03/31/2017 12:11:37,21.937,18.687,off
03/31/2017 12:11:48,21.937,18.687,off
03/31/2017 12:12:00,21.937,18.687,off
