TIME,INSIDE_TEMPERATURE,OUTSIDE_TEMPERATURE,LIGHTS_STATE

01/06/2018 12:54:26,23.687,23.812,off
01/06/2018 12:54:37,23.687,23.812,off
01/06/2018 12:54:49,23.687,23.875,off
01/06/2018 12:55:01,23.687,23.937,off
