TIME,INSIDE_TEMPERATURE,OUTSIDE_TEMPERATURE,LIGHTS_STATE

07/31/2016 12:31:25,28.875,28.812,off
07/31/2016 12:31:37,28.875,28.875,off
07/31/2016 12:31:48,28.875,28.937,off
07/31/2016 12:32:00,28.937,29.0,off
