TIME,INSIDE_TEMPERATURE,OUTSIDE_TEMPERATURE,LIGHTS_STATE

07/24/2016 12:27:26,33.312,33.125,off
07/24/2016 12:27:38,33.312,33.125,off
07/24/2016 12:27:50,33.375,33.125,off
07/24/2016 12:28:02,33.375,33.125,off
