TIME,INSIDE_TEMPERATURE,OUTSIDE_TEMPERATURE,LIGHTS_STATE

03/20/2018 12:34:25,17.062,11.125,off
03/20/2018 12:34:37,17.062,11.125,off
03/20/2018 12:34:49,17.062,11.187,off
03/20/2018 12:35:01,17.062,11.187,off
