TIME,INSIDE_TEMPERATURE,OUTSIDE_TEMPERATURE,LIGHTS_STATE

08/16/2017 12:01:25,26.812,24.25,off
08/16/2017 12:01:37,26.875,24.312,off
08/16/2017 12:01:48,26.875,24.375,off
08/16/2017 12:02:00,26.875,24.437,off
