TIME,INSIDE_TEMPERATURE,OUTSIDE_TEMPERATURE,LIGHTS_STATE

02/11/2017 12:34:25,23.375,20.375,off
02/11/2017 12:34:37,23.375,20.437,off
02/11/2017 12:34:49,23.375,20.437,off
02/11/2017 12:35:00,23.375,20.5,off
