TIME,INSIDE_TEMPERATURE,OUTSIDE_TEMPERATURE,LIGHTS_STATE

08/29/2017 12:52:25,31.625,29.437,off
08/29/2017 12:52:37,31.625,29.437,off
08/29/2017 12:52:48,31.625,29.437,off
08/29/2017 12:53:00,31.687,29.437,off
