TIME,INSIDE_TEMPERATURE,OUTSIDE_TEMPERATURE,LIGHTS_STATE

07/29/2016 12:02:26,31.625,32.062,off
07/29/2016 12:02:38,31.687,32.0,off
07/29/2016 12:02:50,31.687,32.062,off
07/29/2016 12:03:01,31.625,32.0,off
