TIME,INSIDE_TEMPERATURE,OUTSIDE_TEMPERATURE,LIGHTS_STATE

03/13/2018 12:08:25,20.5,13.812,off
03/13/2018 12:08:37,20.5,13.812,off
03/13/2018 12:08:49,20.5,13.812,off
03/13/2018 12:09:00,20.5,13.812,off
