TIME,INSIDE_TEMPERATURE,OUTSIDE_TEMPERATURE,LIGHTS_STATE

06/12/2017 12:41:26,23.125,18.875,off
06/12/2017 12:41:38,23.187,18.937,off
06/12/2017 12:41:50,23.187,18.937,off
06/12/2017 12:42:02,23.187,18.875,off
