TIME,INSIDE_TEMPERATURE,OUTSIDE_TEMPERATURE,LIGHTS_STATE

03/26/2017 12:26:25,23.687,20.0,off
03/26/2017 12:26:37,23.687,19.937,off
03/26/2017 12:26:48,23.687,19.937,off
03/26/2017 12:27:00,23.687,19.875,off
