TIME,INSIDE_TEMPERATURE,OUTSIDE_TEMPERATURE,LIGHTS_STATE

12/06/2016 12:24:25,19.812,16.562,off
12/06/2016 12:24:37,19.812,16.5,off
12/06/2016 12:24:48,19.875,16.625,off
12/06/2016 12:25:00,19.875,16.687,off
