TIME,INSIDE_TEMPERATURE,OUTSIDE_TEMPERATURE,LIGHTS_STATE

05/12/2017 12:11:25,20.687,17.812,off
05/12/2017 12:11:37,20.687,17.812,off
05/12/2017 12:11:49,20.687,17.812,off
05/12/2017 12:12:00,20.687,17.875,off
