TIME,INSIDE_TEMPERATURE,OUTSIDE_TEMPERATURE,LIGHTS_STATE

12/31/2017 12:46:25,21.937,18.75,off
12/31/2017 12:46:37,21.937,18.75,off
12/31/2017 12:46:48,21.937,18.75,off
12/31/2017 12:47:00,21.937,18.75,off
