TIME,INSIDE_TEMPERATURE,OUTSIDE_TEMPERATURE,LIGHTS_STATE

05/19/2017 12:03:25,27.375,26.437,off
05/19/2017 12:03:37,27.375,26.5,off
05/19/2017 12:03:48,27.375,26.562,off
05/19/2017 12:04:00,27.375,26.562,off
