TIME,INSIDE_TEMPERATURE,OUTSIDE_TEMPERATURE,LIGHTS_STATE

05/09/2017 12:51:26,28.062,26.625,off
05/09/2017 12:51:37,28.125,26.625,off
05/09/2017 12:51:49,28.125,26.687,off
05/09/2017 12:52:01,28.125,26.687,off
