TIME,INSIDE_TEMPERATURE,OUTSIDE_TEMPERATURE,LIGHTS_STATE

02/20/2018 12:39:25,19.562,29.187,off
02/20/2018 12:39:37,19.562,29.0,off
02/20/2018 12:39:49,19.562,28.875,off
02/20/2018 12:40:01,19.562,28.687,off
