TIME,INSIDE_TEMPERATURE,OUTSIDE_TEMPERATURE,LIGHTS_STATE

03/11/2018 12:04:25,21.75,18.375,off
03/11/2018 12:04:37,21.75,18.375,off
03/11/2018 12:04:49,21.75,18.437,off
03/11/2018 12:05:00,21.75,18.437,off
