TIME,INSIDE_TEMPERATURE,OUTSIDE_TEMPERATURE,LIGHTS_STATE

02/09/2018 12:42:25,31.25,30.375,off
02/09/2018 12:42:37,31.25,30.312,off
02/09/2018 12:42:49,31.312,30.125,off
02/09/2018 12:43:00,31.25,30.187,off
