TIME,INSIDE_TEMPERATURE,OUTSIDE_TEMPERATURE,LIGHTS_STATE

03/07/2017 12:37:25,22.062,17.187,off
03/07/2017 12:37:37,22.062,17.25,off
03/07/2017 12:37:48,22.062,17.312,off
03/07/2017 12:38:00,22.062,17.375,off
