TIME,INSIDE_TEMPERATURE,OUTSIDE_TEMPERATURE,LIGHTS_STATE

07/06/2017 12:54:25,34.25,31.625,off
07/06/2017 12:54:37,34.187,31.75,off
07/06/2017 12:54:49,34.25,31.812,off
07/06/2017 12:55:01,34.25,31.812,off
