TIME,INSIDE_TEMPERATURE,OUTSIDE_TEMPERATURE,LIGHTS_STATE

09/20/2016 12:06:26,30.125,31.125,off
09/20/2016 12:06:37,30.187,31.125,off
09/20/2016 12:06:49,30.187,31.187,off
09/20/2016 12:07:01,30.187,31.312,off
