TIME,INSIDE_TEMPERATURE,OUTSIDE_TEMPERATURE,LIGHTS_STATE

11/14/2016 12:48:25,28.687,26.437,off
11/14/2016 12:48:37,28.687,26.375,off
11/14/2016 12:48:48,28.687,26.312,off
11/14/2016 12:49:00,28.687,26.375,off
