TIME,INSIDE_TEMPERATURE,OUTSIDE_TEMPERATURE,LIGHTS_STATE

06/16/2017 12:33:25,33.5,29.75,off
06/16/2017 12:33:37,33.5,29.75,off
06/16/2017 12:33:48,33.5,29.812,off
06/16/2017 12:34:00,33.5,29.812,off
