TIME,INSIDE_TEMPERATURE,OUTSIDE_TEMPERATURE,LIGHTS_STATE

07/08/2017 12:16:25,38.812,34.0,off
07/08/2017 12:16:37,38.75,34.0,off
07/08/2017 12:16:48,38.812,34.0,off
07/08/2017 12:17:00,38.812,34.0,off
