TIME,INSIDE_TEMPERATURE,OUTSIDE_TEMPERATURE,LIGHTS_STATE

12/05/2016 12:51:25,16.625,12.937,off
12/05/2016 12:51:37,16.625,12.875,off
12/05/2016 12:51:49,16.625,12.875,off
12/05/2016 12:52:00,16.625,12.812,off
