TIME,INSIDE_TEMPERATURE,OUTSIDE_TEMPERATURE,LIGHTS_STATE

03/12/2018 12:36:26,27.25,34.562,off
03/12/2018 12:36:37,27.25,34.25,off
03/12/2018 12:36:49,27.25,33.937,off
03/12/2018 12:37:01,27.25,33.562,off
