TIME,INSIDE_TEMPERATURE,OUTSIDE_TEMPERATURE,LIGHTS_STATE

01/01/2018 12:00:25,22.875,18.625,off
01/01/2018 12:00:37,22.875,18.625,off
01/01/2018 12:00:49,22.937,18.625,off
01/01/2018 12:01:01,22.937,18.687,off
