TIME,INSIDE_TEMPERATURE,OUTSIDE_TEMPERATURE,LIGHTS_STATE

07/19/2017 12:46:25,31.0,28.562,off
07/19/2017 12:46:37,31.0,28.562,off
07/19/2017 12:46:49,31.0,28.562,off
07/19/2017 12:47:00,31.0,28.562,off
