TIME,INSIDE_TEMPERATURE,OUTSIDE_TEMPERATURE,LIGHTS_STATE

12/30/2017 12:19:26,21.625,24.125,off
12/30/2017 12:19:37,21.625,24.375,off
12/30/2017 12:19:49,21.625,24.437,off
12/30/2017 12:20:01,21.687,24.5,off
