TIME,INSIDE_TEMPERATURE,OUTSIDE_TEMPERATURE,LIGHTS_STATE

11/08/2016 12:26:25,30.562,32.187,off
11/08/2016 12:26:36,30.562,32.0,off
11/08/2016 12:26:48,30.562,32.0,off
11/08/2016 12:27:00,30.562,31.937,off
