TIME,INSIDE_TEMPERATURE,OUTSIDE_TEMPERATURE,LIGHTS_STATE

07/23/2016 12:42:26,32.875,31.937,off
07/23/2016 12:42:38,32.875,31.937,off
07/23/2016 12:42:49,32.937,31.937,off
07/23/2016 12:43:01,33.0,31.937,off
