TIME,INSIDE_TEMPERATURE,OUTSIDE_TEMPERATURE,LIGHTS_STATE

11/21/2016 12:03:25,24.125,24.312,off
11/21/2016 12:03:37,24.187,24.25,off
11/21/2016 12:03:50,24.187,24.125,off
11/21/2016 12:04:01,24.187,23.937,off
