TIME,INSIDE_TEMPERATURE,OUTSIDE_TEMPERATURE,LIGHTS_STATE

07/23/2016 12:53:26,33.562,32.0,off
07/23/2016 12:53:38,33.625,31.937,off
07/23/2016 12:53:49,33.625,31.937,off
07/23/2016 12:54:01,33.625,32.0,off
