TIME,INSIDE_TEMPERATURE,OUTSIDE_TEMPERATURE,LIGHTS_STATE

04/12/2017 12:09:25,20.437,15.875,off
04/12/2017 12:09:37,20.437,15.875,off
04/12/2017 12:09:49,20.437,15.75,off
04/12/2017 12:10:00,20.437,15.75,off
