TIME,INSIDE_TEMPERATURE,OUTSIDE_TEMPERATURE,LIGHTS_STATE

10/15/2017 12:27:25,30.0,31.687,off
10/15/2017 12:27:37,30.187,31.875,off
10/15/2017 12:27:49,30.25,31.937,off
10/15/2017 12:28:00,30.312,32.062,off
