TIME,INSIDE_TEMPERATURE,OUTSIDE_TEMPERATURE,LIGHTS_STATE

07/01/2016 12:04:25,27.625,27.062,off
07/01/2016 12:04:37,27.625,27.062,off
07/01/2016 12:04:48,27.625,27.062,off
07/01/2016 12:05:00,27.625,27.062,off
