TIME,INSIDE_TEMPERATURE,OUTSIDE_TEMPERATURE,LIGHTS_STATE

02/12/2018 12:49:25,23.562,24.187,off
02/12/2018 12:49:37,23.562,23.875,off
02/12/2018 12:49:49,23.562,23.75,off
02/12/2018 12:50:00,23.562,23.562,off
