TIME,INSIDE_TEMPERATURE,OUTSIDE_TEMPERATURE,LIGHTS_STATE

02/25/2018 12:12:25,21.687,25.937,off
02/25/2018 12:12:37,21.687,26.062,off
02/25/2018 12:12:49,21.687,26.125,off
02/25/2018 12:13:00,21.687,26.062,off
