TIME,INSIDE_TEMPERATURE,OUTSIDE_TEMPERATURE,LIGHTS_STATE

07/03/2016 12:28:25,29.187,29.187,off
07/03/2016 12:28:37,29.25,29.187,off
07/03/2016 12:28:48,29.312,29.187,off
07/03/2016 12:29:00,29.312,29.25,off
