TIME,INSIDE_TEMPERATURE,OUTSIDE_TEMPERATURE,LIGHTS_STATE

01/07/2017 12:51:25,20.062,15.187,off
01/07/2017 12:51:36,20.062,15.187,off
01/07/2017 12:51:48,20.062,15.125,off
01/07/2017 12:52:00,20.0,15.187,off
