TIME,INSIDE_TEMPERATURE,OUTSIDE_TEMPERATURE,LIGHTS_STATE

07/28/2017 12:42:25,33.75,30.937,off
07/28/2017 12:42:37,33.687,30.875,off
07/28/2017 12:42:49,33.75,30.875,off
07/28/2017 12:43:01,33.75,30.875,off
