TIME,INSIDE_TEMPERATURE,OUTSIDE_TEMPERATURE,LIGHTS_STATE

01/17/2018 12:38:25,20.875,15.0,off
01/17/2018 12:38:37,20.875,15.0,off
01/17/2018 12:38:49,20.937,15.0,off
01/17/2018 12:39:01,20.937,15.0,off
