TIME,INSIDE_TEMPERATURE,OUTSIDE_TEMPERATURE,LIGHTS_STATE

08/29/2017 12:57:25,31.75,29.562,off
08/29/2017 12:57:37,31.812,29.562,off
08/29/2017 12:57:49,31.812,29.562,off
08/29/2017 12:58:01,31.687,29.562,off
