TIME,INSIDE_TEMPERATURE,OUTSIDE_TEMPERATURE,LIGHTS_STATE

12/26/2016 12:49:25,16.187,12.562,off
12/26/2016 12:49:36,16.125,12.5,off
12/26/2016 12:49:48,16.125,12.5,off
12/26/2016 12:50:00,16.125,12.437,off
