TIME,INSIDE_TEMPERATURE,OUTSIDE_TEMPERATURE,LIGHTS_STATE

11/06/2016 12:14:25,28.312,27.375,off
11/06/2016 12:14:37,28.312,27.375,off
11/06/2016 12:14:49,28.375,27.562,off
11/06/2016 12:15:00,28.375,28.0,off
