TIME,INSIDE_TEMPERATURE,OUTSIDE_TEMPERATURE,LIGHTS_STATE

04/10/2017 12:17:25,22.437,18.875,off
04/10/2017 12:17:36,22.437,18.875,off
04/10/2017 12:17:48,22.437,18.875,off
04/10/2017 12:18:00,22.437,18.875,off
