TIME,INSIDE_TEMPERATURE,OUTSIDE_TEMPERATURE,LIGHTS_STATE

01/29/2018 12:11:25,19.375,15.25,off
01/29/2018 12:11:37,19.375,15.312,off
01/29/2018 12:11:49,19.375,15.312,off
01/29/2018 12:12:01,19.375,15.312,off
