TIME,INSIDE_TEMPERATURE,OUTSIDE_TEMPERATURE,LIGHTS_STATE

06/10/2017 12:27:25,24.687,20.937,off
06/10/2017 12:27:37,24.687,21.062,off
06/10/2017 12:27:49,24.687,21.062,off
06/10/2017 12:28:00,24.687,21.062,off
