TIME,INSIDE_TEMPERATURE,OUTSIDE_TEMPERATURE,LIGHTS_STATE

03/23/2017 12:54:25,21.187,17.375,off
03/23/2017 12:54:37,21.187,17.312,off
03/23/2017 12:54:49,21.187,17.25,off
03/23/2017 12:55:00,21.25,17.25,off
