TIME,INSIDE_TEMPERATURE,OUTSIDE_TEMPERATURE,LIGHTS_STATE

01/12/2017 12:40:24,12.75,8.125,off
01/12/2017 12:40:36,12.75,8.125,off
01/12/2017 12:40:48,12.75,8.125,off
01/12/2017 12:40:59,12.75,8.125,off
