TIME,INSIDE_TEMPERATURE,OUTSIDE_TEMPERATURE,LIGHTS_STATE

09/14/2017 12:48:26,27.812,23.937,off
09/14/2017 12:48:37,27.75,24.0,off
09/14/2017 12:48:49,27.812,24.0,off
09/14/2017 12:49:01,27.812,24.062,off
