TIME,INSIDE_TEMPERATURE,OUTSIDE_TEMPERATURE,LIGHTS_STATE

12/09/2016 12:23:25,21.437,18.0,off
12/09/2016 12:23:37,21.437,18.062,off
12/09/2016 12:23:48,21.5,18.125,off
12/09/2016 12:24:00,21.5,18.25,off
