TIME,INSIDE_TEMPERATURE,OUTSIDE_TEMPERATURE,LIGHTS_STATE

09/20/2016 12:51:25,33.312,33.312,off
09/20/2016 12:51:37,33.312,33.375,off
09/20/2016 12:51:49,33.312,33.437,off
09/20/2016 12:52:01,33.375,33.437,off
