TIME,INSIDE_TEMPERATURE,OUTSIDE_TEMPERATURE,LIGHTS_STATE

02/15/2017 12:36:25,21.75,18.375,off
02/15/2017 12:36:37,21.812,18.437,off
02/15/2017 12:36:48,21.812,18.5,off
02/15/2017 12:37:00,21.812,18.437,off
