TIME,INSIDE_TEMPERATURE,OUTSIDE_TEMPERATURE,LIGHTS_STATE

12/26/2017 12:35:25,24.687,25.937,off
12/26/2017 12:35:37,24.687,25.687,off
12/26/2017 12:35:48,24.687,25.562,off
12/26/2017 12:36:00,24.625,25.625,off
