TIME,INSIDE_TEMPERATURE,OUTSIDE_TEMPERATURE,LIGHTS_STATE

05/16/2017 12:03:25,22.375,18.0,off
05/16/2017 12:03:38,22.437,18.0,off
05/16/2017 12:03:49,22.437,17.937,off
05/16/2017 12:04:01,22.437,18.0,off
