TIME,INSIDE_TEMPERATURE,OUTSIDE_TEMPERATURE,LIGHTS_STATE

02/12/2017 12:58:26,24.812,23.0,off
02/12/2017 12:58:37,24.812,23.0,off
02/12/2017 12:58:49,24.812,22.937,off
02/12/2017 12:59:01,24.75,22.937,off
