TIME,INSIDE_TEMPERATURE,OUTSIDE_TEMPERATURE,LIGHTS_STATE

05/25/2017 12:21:25,22.437,19.875,off
05/25/2017 12:21:36,22.437,19.875,off
05/25/2017 12:21:48,22.437,19.875,off
05/25/2017 12:22:00,22.437,19.875,off
