TIME,INSIDE_TEMPERATURE,OUTSIDE_TEMPERATURE,LIGHTS_STATE

06/14/2017 12:15:25,29.062,26.375,off
06/14/2017 12:15:37,29.062,26.312,off
06/14/2017 12:15:49,29.125,26.25,off
06/14/2017 12:16:01,29.125,26.187,off
