TIME,INSIDE_TEMPERATURE,OUTSIDE_TEMPERATURE,LIGHTS_STATE

08/21/2017 12:27:26,28.5,26.312,off
08/21/2017 12:27:37,28.5,26.312,off
08/21/2017 12:27:49,28.5,26.25,off
08/21/2017 12:28:01,28.5,26.312,off
