TIME,INSIDE_TEMPERATURE,OUTSIDE_TEMPERATURE,LIGHTS_STATE

07/05/2017 12:36:25,29.437,27.062,off
07/05/2017 12:36:37,29.437,27.0,off
07/05/2017 12:36:48,29.437,27.062,off
07/05/2017 12:37:00,29.437,27.0,off
