TIME,INSIDE_TEMPERATURE,OUTSIDE_TEMPERATURE,LIGHTS_STATE

08/21/2017 12:06:25,27.875,25.375,off
08/21/2017 12:06:37,27.875,25.437,off
08/21/2017 12:06:49,27.875,25.437,off
08/21/2017 12:07:01,27.937,25.437,off
