TIME,INSIDE_TEMPERATURE,OUTSIDE_TEMPERATURE,LIGHTS_STATE

02/17/2018 12:28:26,27.0,29.562,off
02/17/2018 12:28:37,27.062,29.687,off
02/17/2018 12:28:49,27.0,29.437,off
02/17/2018 12:29:01,27.062,29.187,off
