TIME,INSIDE_TEMPERATURE,OUTSIDE_TEMPERATURE,LIGHTS_STATE

10/04/2017 12:19:25,28.625,26.125,off
10/04/2017 12:19:37,28.625,26.312,off
10/04/2017 12:19:48,28.687,26.437,off
10/04/2017 12:20:00,28.687,26.562,off
