TIME,INSIDE_TEMPERATURE,OUTSIDE_TEMPERATURE,LIGHTS_STATE

06/25/2016 12:55:25,31.812,32.875,off
06/25/2016 12:55:36,31.812,32.875,off
06/25/2016 12:55:48,31.812,32.875,off
06/25/2016 12:56:00,31.812,32.937,off
