TIME,INSIDE_TEMPERATURE,OUTSIDE_TEMPERATURE,LIGHTS_STATE

06/29/2017 12:04:25,27.437,23.937,off
06/29/2017 12:04:37,27.437,23.937,off
06/29/2017 12:04:49,27.437,24.0,off
06/29/2017 12:05:00,27.437,24.0,off
