TIME,INSIDE_TEMPERATURE,OUTSIDE_TEMPERATURE,LIGHTS_STATE

09/15/2017 12:58:26,28.187,24.687,off
09/15/2017 12:58:38,28.25,24.75,off
09/15/2017 12:58:49,28.25,24.75,off
09/15/2017 12:59:01,28.25,24.812,off
