TIME,INSIDE_TEMPERATURE,OUTSIDE_TEMPERATURE,LIGHTS_STATE

07/12/2017 12:23:25,31.75,28.875,off
07/12/2017 12:23:37,31.75,28.875,off
07/12/2017 12:23:49,31.812,28.875,off
07/12/2017 12:24:01,31.812,28.875,off
