TIME,INSIDE_TEMPERATURE,OUTSIDE_TEMPERATURE,LIGHTS_STATE

03/23/2018 12:08:26,18.5,15.5,off
03/23/2018 12:08:37,18.5,15.562,off
03/23/2018 12:08:49,18.5,15.562,off
03/23/2018 12:09:01,18.5,15.687,off
