TIME,INSIDE_TEMPERATURE,OUTSIDE_TEMPERATURE,LIGHTS_STATE

10/07/2017 12:09:25,32.0,27.75,off
10/07/2017 12:09:37,32.0,27.75,off
10/07/2017 12:09:49,32.0,27.75,off
10/07/2017 12:10:01,32.062,27.75,off
