TIME,INSIDE_TEMPERATURE,OUTSIDE_TEMPERATURE,LIGHTS_STATE

06/20/2017 12:24:25,35.75,32.812,off
06/20/2017 12:24:36,35.75,32.875,off
06/20/2017 12:24:48,35.75,32.875,off
06/20/2017 12:25:00,35.812,32.875,off
