TIME,INSIDE_TEMPERATURE,OUTSIDE_TEMPERATURE,LIGHTS_STATE

04/15/2017 12:30:25,21.625,18.312,off
04/15/2017 12:30:37,21.625,18.312,off
04/15/2017 12:30:48,21.625,18.312,off
04/15/2017 12:31:00,21.625,18.375,off
