TIME,INSIDE_TEMPERATURE,OUTSIDE_TEMPERATURE,LIGHTS_STATE

03/17/2018 12:36:25,19.187,13.75,off
03/17/2018 12:36:37,19.187,13.875,off
03/17/2018 12:36:49,19.187,13.875,off
03/17/2018 12:37:00,19.187,13.937,off
