TIME,INSIDE_TEMPERATURE,OUTSIDE_TEMPERATURE,LIGHTS_STATE

09/06/2016 12:05:25,28.062,31.75,off
09/06/2016 12:05:37,28.062,31.75,off
09/06/2016 12:05:48,28.125,31.75,off
09/06/2016 12:06:01,28.125,31.75,off
