TIME,INSIDE_TEMPERATURE,OUTSIDE_TEMPERATURE,LIGHTS_STATE

03/11/2017 12:19:25,29.937,25.5,off
03/11/2017 12:19:38,29.937,25.625,off
03/11/2017 12:19:49,29.937,25.687,off
03/11/2017 12:20:02,29.937,25.812,off
