TIME,INSIDE_TEMPERATURE,OUTSIDE_TEMPERATURE,LIGHTS_STATE

05/24/2017 12:50:25,28.25,25.625,off
05/24/2017 12:50:36,28.312,25.625,off
05/24/2017 12:50:48,28.312,25.625,off
05/24/2017 12:51:00,28.312,25.687,off
