TIME,INSIDE_TEMPERATURE,OUTSIDE_TEMPERATURE,LIGHTS_STATE

02/28/2017 12:36:26,22.937,22.312,off
02/28/2017 12:36:37,22.875,22.312,off
02/28/2017 12:36:49,22.875,22.312,off
02/28/2017 12:37:01,22.875,22.312,off
