TIME,INSIDE_TEMPERATURE,OUTSIDE_TEMPERATURE,LIGHTS_STATE

04/15/2017 12:25:25,21.625,18.375,off
04/15/2017 12:25:37,21.625,18.437,off
04/15/2017 12:25:48,21.625,18.5,off
04/15/2017 12:26:00,21.625,18.562,off
