TIME,INSIDE_TEMPERATURE,OUTSIDE_TEMPERATURE,LIGHTS_STATE

08/18/2017 12:37:25,31.75,29.875,off
08/18/2017 12:37:37,31.75,29.875,off
08/18/2017 12:37:49,31.75,29.875,off
08/18/2017 12:38:01,31.75,29.875,off
