TIME,INSIDE_TEMPERATURE,OUTSIDE_TEMPERATURE,LIGHTS_STATE

07/14/2016 12:31:25,33.812,33.75,off
07/14/2016 12:31:37,33.875,33.75,off
07/14/2016 12:31:49,33.812,33.75,off
07/14/2016 12:32:00,33.875,33.75,off
