TIME,INSIDE_TEMPERATURE,OUTSIDE_TEMPERATURE,LIGHTS_STATE

05/17/2017 12:24:25,22.5,20.062,off
05/17/2017 12:24:36,22.5,20.125,off
05/17/2017 12:24:48,22.5,20.187,off
05/17/2017 12:25:00,22.5,20.187,off
