TIME,INSIDE_TEMPERATURE,OUTSIDE_TEMPERATURE,LIGHTS_STATE

07/17/2017 12:21:25,36.187,33.375,off
07/17/2017 12:21:37,36.187,33.375,off
07/17/2017 12:21:49,36.187,33.375,off
07/17/2017 12:22:00,36.187,33.375,off
