TIME,INSIDE_TEMPERATURE,OUTSIDE_TEMPERATURE,LIGHTS_STATE

03/24/2017 12:38:26,16.687,10.937,off
03/24/2017 12:38:38,16.687,10.937,off
03/24/2017 12:38:50,16.625,10.937,off
03/24/2017 12:39:02,16.625,10.937,off
