TIME,INSIDE_TEMPERATURE,OUTSIDE_TEMPERATURE,LIGHTS_STATE

08/11/2017 12:02:26,28.062,25.812,off
08/11/2017 12:02:37,28.125,25.812,off
08/11/2017 12:02:49,28.062,25.75,off
08/11/2017 12:03:01,28.125,25.812,off
