TIME,INSIDE_TEMPERATURE,OUTSIDE_TEMPERATURE,LIGHTS_STATE

06/25/2016 12:01:25,30.375,32.0,off
06/25/2016 12:01:36,30.375,32.0,off
06/25/2016 12:01:48,30.375,32.0,off
06/25/2016 12:02:00,30.375,32.0,off
