TIME,INSIDE_TEMPERATURE,OUTSIDE_TEMPERATURE,LIGHTS_STATE

06/27/2016 12:11:25,33.687,33.437,off
06/27/2016 12:11:37,33.625,33.437,off
06/27/2016 12:11:49,33.687,33.437,off
06/27/2016 12:12:00,33.625,33.5,off
