TIME,INSIDE_TEMPERATURE,OUTSIDE_TEMPERATURE,LIGHTS_STATE

09/09/2017 12:10:26,29.5,27.437,off
09/09/2017 12:10:37,29.562,27.437,off
09/09/2017 12:10:49,29.562,27.5,off
09/09/2017 12:11:01,29.562,27.5,off
