TIME,INSIDE_TEMPERATURE,OUTSIDE_TEMPERATURE,LIGHTS_STATE

12/19/2016 12:00:25,18.562,14.562,off
12/19/2016 12:00:37,18.562,14.562,off
12/19/2016 12:00:49,18.562,14.562,off
12/19/2016 12:01:00,18.562,14.562,off
