TIME,INSIDE_TEMPERATURE,OUTSIDE_TEMPERATURE,LIGHTS_STATE

02/19/2017 12:40:25,16.312,11.812,off
02/19/2017 12:40:37,16.312,11.75,off
02/19/2017 12:40:49,16.312,11.812,off
02/19/2017 12:41:00,16.312,11.812,off
