TIME,INSIDE_TEMPERATURE,OUTSIDE_TEMPERATURE,LIGHTS_STATE

02/02/2018 12:47:26,28.625,26.0,off
02/02/2018 12:47:38,28.625,26.062,off
02/02/2018 12:47:50,28.625,26.062,off
02/02/2018 12:48:01,28.562,26.062,off
