TIME,INSIDE_TEMPERATURE,OUTSIDE_TEMPERATURE,LIGHTS_STATE

11/11/2016 12:45:25,27.875,24.75,off
11/11/2016 12:45:36,27.875,24.75,off
11/11/2016 12:45:48,27.875,24.687,off
11/11/2016 12:46:00,27.875,24.687,off
