TIME,INSIDE_TEMPERATURE,OUTSIDE_TEMPERATURE,LIGHTS_STATE

10/08/2017 12:13:25,30.187,26.812,off
10/08/2017 12:13:37,30.25,26.812,off
10/08/2017 12:13:49,30.25,26.812,off
10/08/2017 12:14:00,30.25,26.812,off
