TIME,INSIDE_TEMPERATURE,OUTSIDE_TEMPERATURE,LIGHTS_STATE

01/06/2017 12:56:25,15.812,11.25,off
01/06/2017 12:56:37,15.812,11.187,off
01/06/2017 12:56:49,15.75,11.187,off
01/06/2017 12:57:00,15.812,11.25,off
