TIME,INSIDE_TEMPERATURE,OUTSIDE_TEMPERATURE,LIGHTS_STATE

10/25/2017 12:09:25,35.5,35.187,off
10/25/2017 12:09:37,35.437,35.312,off
10/25/2017 12:09:49,35.437,35.437,off
10/25/2017 12:10:00,35.5,35.625,off
