TIME,INSIDE_TEMPERATURE,OUTSIDE_TEMPERATURE,LIGHTS_STATE

03/10/2017 12:53:25,28.5,24.937,off
03/10/2017 12:53:37,28.5,24.937,off
03/10/2017 12:53:49,28.5,24.875,off
03/10/2017 12:54:00,28.5,24.875,off
