TIME,INSIDE_TEMPERATURE,OUTSIDE_TEMPERATURE,LIGHTS_STATE

06/25/2017 12:30:25,27.625,24.375,off
06/25/2017 12:30:37,27.625,24.375,off
06/25/2017 12:30:49,27.625,24.437,off
06/25/2017 12:31:01,27.625,24.437,off
