TIME,INSIDE_TEMPERATURE,OUTSIDE_TEMPERATURE,LIGHTS_STATE

10/29/2016 12:54:25,29.875,29.625,off
10/29/2016 12:54:37,29.875,29.375,off
10/29/2016 12:54:48,29.875,29.0,off
10/29/2016 12:55:00,29.875,28.687,off
