TIME,INSIDE_TEMPERATURE,OUTSIDE_TEMPERATURE,LIGHTS_STATE

03/09/2017 12:58:26,28.25,25.562,off
03/09/2017 12:58:37,28.25,25.562,off
03/09/2017 12:58:49,28.187,25.625,off
03/09/2017 12:59:01,28.187,25.5,off
