TIME,INSIDE_TEMPERATURE,OUTSIDE_TEMPERATURE,LIGHTS_STATE

09/10/2016 12:21:25,27.687,26.562,off
09/10/2016 12:21:37,27.687,26.562,off
09/10/2016 12:21:49,27.687,26.5,off
09/10/2016 12:22:00,27.687,26.562,off
