TIME,INSIDE_TEMPERATURE,OUTSIDE_TEMPERATURE,LIGHTS_STATE

03/29/2017 12:12:25,25.375,22.5,off
03/29/2017 12:12:37,25.375,22.5,off
03/29/2017 12:12:48,25.375,22.5,off
03/29/2017 12:13:00,25.375,22.5,off
