TIME,INSIDE_TEMPERATURE,OUTSIDE_TEMPERATURE,LIGHTS_STATE

01/18/2018 12:28:25,25.25,21.187,off
01/18/2018 12:28:37,25.25,21.187,off
01/18/2018 12:28:49,25.25,21.187,off
01/18/2018 12:29:00,25.312,21.187,off
