TIME,INSIDE_TEMPERATURE,OUTSIDE_TEMPERATURE,LIGHTS_STATE

06/13/2017 12:32:25,26.375,23.187,off
06/13/2017 12:32:37,26.375,23.187,off
06/13/2017 12:32:49,26.375,23.187,off
06/13/2017 12:33:01,26.375,23.187,off
