TIME,INSIDE_TEMPERATURE,OUTSIDE_TEMPERATURE,LIGHTS_STATE

11/22/2016 12:17:25,23.75,21.375,off
11/22/2016 12:17:36,23.75,21.375,off
11/22/2016 12:17:48,23.75,21.312,off
11/22/2016 12:18:00,23.75,21.312,off
