TIME,INSIDE_TEMPERATURE,OUTSIDE_TEMPERATURE,LIGHTS_STATE

12/23/2016 12:48:25,14.375,10.375,off
12/23/2016 12:48:37,14.375,10.375,off
12/23/2016 12:48:48,14.375,10.375,off
12/23/2016 12:49:00,14.375,10.375,off
