TIME,INSIDE_TEMPERATURE,OUTSIDE_TEMPERATURE,LIGHTS_STATE

09/17/2016 12:15:25,29.0,30.312,off
09/17/2016 12:15:37,29.0,30.375,off
09/17/2016 12:15:50,29.0,30.375,off
09/17/2016 12:16:01,29.062,30.437,off
