TIME,INSIDE_TEMPERATURE,OUTSIDE_TEMPERATURE,LIGHTS_STATE

02/27/2017 12:46:25,23.562,24.125,off
02/27/2017 12:46:37,23.5,24.25,off
02/27/2017 12:46:48,23.562,24.187,off
02/27/2017 12:47:00,23.5,23.937,off
