TIME,INSIDE_TEMPERATURE,OUTSIDE_TEMPERATURE,LIGHTS_STATE

08/25/2017 12:09:25,29.5,27.375,off
08/25/2017 12:09:37,29.5,27.375,off
08/25/2017 12:09:49,29.5,27.375,off
08/25/2017 12:10:00,29.5,27.312,off
