TIME,INSIDE_TEMPERATURE,OUTSIDE_TEMPERATURE,LIGHTS_STATE

08/29/2017 12:25:25,30.562,28.375,off
08/29/2017 12:25:37,30.562,28.437,off
08/29/2017 12:25:48,30.562,28.437,off
08/29/2017 12:26:00,30.562,28.437,off
