TIME,INSIDE_TEMPERATURE,OUTSIDE_TEMPERATURE,LIGHTS_STATE

03/07/2017 12:57:25,22.062,17.125,off
03/07/2017 12:57:37,22.062,17.187,off
03/07/2017 12:57:49,22.062,17.187,off
03/07/2017 12:58:01,22.062,17.125,off
