TIME,INSIDE_TEMPERATURE,OUTSIDE_TEMPERATURE,LIGHTS_STATE

06/14/2017 12:29:26,29.562,26.687,off
06/14/2017 12:29:37,29.562,26.687,off
06/14/2017 12:29:49,29.562,26.687,off
06/14/2017 12:30:01,29.625,26.75,off
