TIME,INSIDE_TEMPERATURE,OUTSIDE_TEMPERATURE,LIGHTS_STATE

09/23/2017 12:47:25,27.875,24.625,off
09/23/2017 12:47:37,27.687,24.625,off
09/23/2017 12:47:49,27.812,24.625,off
09/23/2017 12:48:00,27.875,24.687,off
