TIME,INSIDE_TEMPERATURE,OUTSIDE_TEMPERATURE,LIGHTS_STATE

02/13/2017 12:34:25,24.562,21.562,off
02/13/2017 12:34:37,24.562,21.625,off
02/13/2017 12:34:49,24.562,21.625,off
02/13/2017 12:35:00,24.562,21.562,off
