TIME,INSIDE_TEMPERATURE,OUTSIDE_TEMPERATURE,LIGHTS_STATE

02/10/2018 12:39:26,27.875,25.875,off
02/10/2018 12:39:37,27.937,25.875,off
02/10/2018 12:39:49,27.937,25.875,off
02/10/2018 12:40:01,27.937,25.875,off
