TIME,INSIDE_TEMPERATURE,OUTSIDE_TEMPERATURE,LIGHTS_STATE

10/19/2017 12:50:25,25.875,20.125,off
10/19/2017 12:50:37,25.875,20.062,off
10/19/2017 12:50:48,25.875,20.125,off
10/19/2017 12:51:00,25.875,20.125,off
