TIME,INSIDE_TEMPERATURE,OUTSIDE_TEMPERATURE,LIGHTS_STATE

06/15/2017 12:39:25,29.437,25.875,off
06/15/2017 12:39:37,29.437,25.875,off
06/15/2017 12:39:48,29.5,25.875,off
06/15/2017 12:40:00,29.5,25.937,off
