TIME,INSIDE_TEMPERATURE,OUTSIDE_TEMPERATURE,LIGHTS_STATE

03/03/2018 12:20:26,18.5,11.687,off
03/03/2018 12:20:38,18.562,11.687,off
03/03/2018 12:20:49,18.5,11.625,off
03/03/2018 12:21:01,18.437,11.625,off
