TIME,INSIDE_TEMPERATURE,OUTSIDE_TEMPERATURE,LIGHTS_STATE

06/14/2017 12:36:25,29.812,27.25,off
06/14/2017 12:36:37,29.812,27.25,off
06/14/2017 12:36:49,29.812,27.187,off
06/14/2017 12:37:01,29.812,27.187,off
