TIME,INSIDE_TEMPERATURE,OUTSIDE_TEMPERATURE,LIGHTS_STATE

07/04/2016 12:10:26,27.75,27.562,off
07/04/2016 12:10:38,27.75,27.562,off
07/04/2016 12:10:49,27.812,27.562,off
07/04/2016 12:11:01,27.812,27.562,off
