TIME,INSIDE_TEMPERATURE,OUTSIDE_TEMPERATURE,LIGHTS_STATE

08/02/2017 12:07:25,36.125,34.437,off
08/02/2017 12:07:37,36.0,34.375,off
08/02/2017 12:07:49,36.125,34.312,off
08/02/2017 12:08:01,36.125,34.187,off
