TIME,INSIDE_TEMPERATURE,OUTSIDE_TEMPERATURE,LIGHTS_STATE

03/24/2018 12:05:25,19.187,14.125,off
03/24/2018 12:05:37,19.187,14.125,off
03/24/2018 12:05:49,19.187,14.187,off
03/24/2018 12:06:01,19.187,14.125,off
