TIME,INSIDE_TEMPERATURE,OUTSIDE_TEMPERATURE,LIGHTS_STATE

03/18/2017 12:32:25,20.562,17.312,off
03/18/2017 12:32:36,20.562,17.312,off
03/18/2017 12:32:49,20.625,17.312,off
03/18/2017 12:33:01,20.625,17.312,off
