TIME,INSIDE_TEMPERATURE,OUTSIDE_TEMPERATURE,LIGHTS_STATE

10/12/2017 12:30:25,27.937,29.687,off
10/12/2017 12:30:37,27.937,29.625,off
10/12/2017 12:30:48,27.937,29.75,off
10/12/2017 12:31:00,27.937,29.875,off
