TIME,INSIDE_TEMPERATURE,OUTSIDE_TEMPERATURE,LIGHTS_STATE

07/18/2017 12:02:25,28.25,25.375,off
07/18/2017 12:02:37,28.25,25.375,off
07/18/2017 12:02:49,28.187,25.375,off
07/18/2017 12:03:01,28.187,25.312,off
