TIME,INSIDE_TEMPERATURE,OUTSIDE_TEMPERATURE,LIGHTS_STATE

03/22/2018 12:00:26,20.25,12.937,off
03/22/2018 12:00:37,20.25,12.937,off
03/22/2018 12:00:49,20.25,12.875,off
03/22/2018 12:01:01,20.25,12.812,off
