TIME,INSIDE_TEMPERATURE,OUTSIDE_TEMPERATURE,LIGHTS_STATE

11/18/2016 12:39:25,24.687,20.5,off
11/18/2016 12:39:37,24.687,20.75,off
11/18/2016 12:39:49,24.687,20.75,off
11/18/2016 12:40:00,24.687,20.75,off
