TIME,INSIDE_TEMPERATURE,OUTSIDE_TEMPERATURE,LIGHTS_STATE

04/06/2017 12:35:25,22.312,19.0,off
04/06/2017 12:35:37,22.312,19.0,off
04/06/2017 12:35:49,22.312,19.0,off
04/06/2017 12:36:01,22.312,19.0,off
