TIME,INSIDE_TEMPERATURE,OUTSIDE_TEMPERATURE,LIGHTS_STATE

03/16/2017 12:39:25,26.25,22.625,off
03/16/2017 12:39:37,26.25,22.5,off
03/16/2017 12:39:48,26.25,22.437,off
03/16/2017 12:40:00,26.312,22.5,off
