TIME,INSIDE_TEMPERATURE,OUTSIDE_TEMPERATURE,LIGHTS_STATE

06/18/2017 12:38:25,38.5,33.375,off
06/18/2017 12:38:37,38.5,33.437,off
06/18/2017 12:38:49,38.5,33.437,off
06/18/2017 12:39:01,38.5,33.437,off
