TIME,INSIDE_TEMPERATURE,OUTSIDE_TEMPERATURE,LIGHTS_STATE

05/12/2017 12:40:25,21.062,18.437,off
05/12/2017 12:40:37,21.062,18.437,off
05/12/2017 12:40:48,21.125,18.437,off
05/12/2017 12:41:00,21.125,18.437,off
