TIME,INSIDE_TEMPERATURE,OUTSIDE_TEMPERATURE,LIGHTS_STATE

07/27/2017 12:46:25,33.812,30.062,off
07/27/2017 12:46:37,33.812,30.062,off
07/27/2017 12:46:49,33.812,30.062,off
07/27/2017 12:47:01,33.875,30.062,off
