TIME,INSIDE_TEMPERATURE,OUTSIDE_TEMPERATURE,LIGHTS_STATE

12/15/2016 12:23:25,20.937,18.062,off
12/15/2016 12:23:37,20.937,18.125,off
12/15/2016 12:23:49,20.937,18.125,off
12/15/2016 12:24:00,20.937,18.187,off
