TIME,INSIDE_TEMPERATURE,OUTSIDE_TEMPERATURE,LIGHTS_STATE

08/02/2017 12:11:25,36.312,34.375,off
08/02/2017 12:11:37,36.312,34.375,off
08/02/2017 12:11:49,36.312,34.375,off
08/02/2017 12:12:01,36.375,34.375,off
