TIME,INSIDE_TEMPERATURE,OUTSIDE_TEMPERATURE,LIGHTS_STATE

02/10/2018 12:12:25,26.125,24.812,off
02/10/2018 12:12:37,26.125,24.875,off
02/10/2018 12:12:49,26.187,24.875,off
02/10/2018 12:13:01,26.187,24.937,off
