TIME,INSIDE_TEMPERATURE,OUTSIDE_TEMPERATURE,LIGHTS_STATE

03/19/2018 12:38:25,19.75,16.75,off
03/19/2018 12:38:36,19.75,16.687,off
03/19/2018 12:38:48,19.75,16.687,off
03/19/2018 12:39:00,19.75,16.687,off
