TIME,INSIDE_TEMPERATURE,OUTSIDE_TEMPERATURE,LIGHTS_STATE

06/17/2017 12:24:25,34.187,29.25,off
06/17/2017 12:24:37,34.187,29.25,off
06/17/2017 12:24:48,34.187,29.25,off
06/17/2017 12:25:00,34.187,29.25,off
