TIME,INSIDE_TEMPERATURE,OUTSIDE_TEMPERATURE,LIGHTS_STATE

06/14/2017 12:35:25,29.75,27.062,off
06/14/2017 12:35:37,29.75,27.125,off
06/14/2017 12:35:48,29.75,27.125,off
06/14/2017 12:36:00,29.812,27.187,off
