TIME,INSIDE_TEMPERATURE,OUTSIDE_TEMPERATURE,LIGHTS_STATE

03/10/2018 12:51:25,21.562,16.75,off
03/10/2018 12:51:37,21.562,16.75,off
03/10/2018 12:51:49,21.5,16.75,off
03/10/2018 12:52:01,21.562,16.812,off
