TIME,INSIDE_TEMPERATURE,OUTSIDE_TEMPERATURE,LIGHTS_STATE

05/24/2017 12:28:26,27.375,25.437,off
05/24/2017 12:28:37,27.375,25.375,off
05/24/2017 12:28:49,27.375,25.437,off
05/24/2017 12:29:01,27.437,25.437,off
