TIME,INSIDE_TEMPERATURE,OUTSIDE_TEMPERATURE,LIGHTS_STATE

03/08/2017 12:07:25,25.437,22.125,off
03/08/2017 12:07:37,25.437,22.125,off
03/08/2017 12:07:49,25.437,22.0,off
03/08/2017 12:08:00,25.5,21.812,off
