TIME,INSIDE_TEMPERATURE,OUTSIDE_TEMPERATURE,LIGHTS_STATE

06/25/2016 12:46:25,31.562,32.875,off
06/25/2016 12:46:36,31.562,32.875,off
06/25/2016 12:46:48,31.562,32.875,off
06/25/2016 12:47:00,31.562,32.875,off
