TIME,INSIDE_TEMPERATURE,OUTSIDE_TEMPERATURE,LIGHTS_STATE

07/31/2016 12:38:25,29.187,29.312,off
07/31/2016 12:38:37,29.187,29.312,off
07/31/2016 12:38:49,29.25,29.375,off
07/31/2016 12:39:01,29.25,29.437,off
