TIME,INSIDE_TEMPERATURE,OUTSIDE_TEMPERATURE,LIGHTS_STATE

12/24/2017 12:03:25,16.875,12.625,off
12/24/2017 12:03:37,16.875,12.625,off
12/24/2017 12:03:49,16.875,12.625,off
12/24/2017 12:04:01,16.937,12.625,off
