TIME,INSIDE_TEMPERATURE,OUTSIDE_TEMPERATURE,LIGHTS_STATE

09/14/2016 12:00:26,26.0,24.437,off
09/14/2016 12:00:37,25.937,24.437,off
09/14/2016 12:00:49,25.937,24.5,off
09/14/2016 12:01:01,25.875,24.5,off
