TIME,INSIDE_TEMPERATURE,OUTSIDE_TEMPERATURE,LIGHTS_STATE

07/26/2017 12:26:25,28.937,26.25,off
07/26/2017 12:26:37,28.937,26.25,off
07/26/2017 12:26:49,28.937,26.25,off
07/26/2017 12:27:01,28.937,26.25,off
