TIME,INSIDE_TEMPERATURE,OUTSIDE_TEMPERATURE,LIGHTS_STATE

06/17/2017 12:38:25,34.625,29.562,off
06/17/2017 12:38:37,34.687,29.562,off
06/17/2017 12:38:49,34.687,29.562,off
06/17/2017 12:39:00,34.687,29.625,off
