TIME,INSIDE_TEMPERATURE,OUTSIDE_TEMPERATURE,LIGHTS_STATE

10/29/2017 12:22:25,23.75,20.187,off
10/29/2017 12:22:37,23.75,20.25,off
10/29/2017 12:22:49,23.75,20.312,off
10/29/2017 12:23:01,23.75,20.375,off
