TIME,INSIDE_TEMPERATURE,OUTSIDE_TEMPERATURE,LIGHTS_STATE

05/25/2017 12:58:25,22.812,20.687,off
05/25/2017 12:58:37,22.812,20.625,off
05/25/2017 12:58:48,22.875,20.625,off
05/25/2017 12:59:00,22.812,20.687,off
