TIME,INSIDE_TEMPERATURE,OUTSIDE_TEMPERATURE,LIGHTS_STATE

07/15/2016 12:06:25,28.562,28.687,off
07/15/2016 12:06:37,28.562,28.75,off
07/15/2016 12:06:48,28.562,28.812,off
07/15/2016 12:07:00,28.625,28.812,off
