TIME,INSIDE_TEMPERATURE,OUTSIDE_TEMPERATURE,LIGHTS_STATE

02/02/2018 12:03:26,28.562,25.375,off
02/02/2018 12:03:37,28.562,25.437,off
02/02/2018 12:03:49,28.562,25.437,off
02/02/2018 12:04:01,28.562,25.312,off
