TIME,INSIDE_TEMPERATURE,OUTSIDE_TEMPERATURE,LIGHTS_STATE

09/01/2017 12:09:25,39.625,38.687,off
09/01/2017 12:09:37,39.687,38.687,off
09/01/2017 12:09:48,39.687,38.687,off
09/01/2017 12:10:00,39.687,38.687,off
