TIME,INSIDE_TEMPERATURE,OUTSIDE_TEMPERATURE,LIGHTS_STATE

02/06/2018 12:27:25,29.687,41.187,off
02/06/2018 12:27:37,29.687,41.375,off
02/06/2018 12:27:49,29.625,41.375,off
02/06/2018 12:28:01,29.687,41.437,off
