TIME,INSIDE_TEMPERATURE,OUTSIDE_TEMPERATURE,LIGHTS_STATE

01/30/2018 12:24:26,26.125,22.75,off
01/30/2018 12:24:37,26.125,22.75,off
01/30/2018 12:24:49,26.125,22.812,off
01/30/2018 12:25:01,26.125,22.937,off
