TIME,INSIDE_TEMPERATURE,OUTSIDE_TEMPERATURE,LIGHTS_STATE

04/10/2017 12:36:25,22.5,19.375,off
04/10/2017 12:36:37,22.5,19.375,off
04/10/2017 12:36:49,22.562,19.375,off
04/10/2017 12:37:00,22.5,19.312,off
