TIME,INSIDE_TEMPERATURE,OUTSIDE_TEMPERATURE,LIGHTS_STATE

11/17/2016 12:09:25,24.0,25.625,off
11/17/2016 12:09:37,24.0,25.75,off
11/17/2016 12:09:48,24.0,25.437,off
11/17/2016 12:10:00,24.0,25.312,off
