TIME,INSIDE_TEMPERATURE,OUTSIDE_TEMPERATURE,LIGHTS_STATE

09/02/2017 12:47:25,41.437,39.75,off
09/02/2017 12:47:37,41.437,39.75,off
09/02/2017 12:47:49,41.5,39.75,off
09/02/2017 12:48:01,41.5,39.75,off
