TIME,INSIDE_TEMPERATURE,OUTSIDE_TEMPERATURE,LIGHTS_STATE

05/15/2017 12:17:26,21.937,18.937,off
05/15/2017 12:17:38,21.937,18.937,off
05/15/2017 12:17:50,21.937,19.0,off
05/15/2017 12:18:02,21.937,19.0,off
