TIME,INSIDE_TEMPERATURE,OUTSIDE_TEMPERATURE,LIGHTS_STATE

07/26/2016 12:43:25,34.75,33.437,off
07/26/2016 12:43:36,34.812,33.437,off
07/26/2016 12:43:48,34.812,33.437,off
07/26/2016 12:44:00,34.875,33.437,off
