TIME,INSIDE_TEMPERATURE,OUTSIDE_TEMPERATURE,LIGHTS_STATE

01/08/2017 12:49:25,18.687,15.312,off
01/08/2017 12:49:36,18.75,15.312,off
01/08/2017 12:49:48,18.75,15.312,off
01/08/2017 12:50:00,18.75,15.312,off
