TIME,INSIDE_TEMPERATURE,OUTSIDE_TEMPERATURE,LIGHTS_STATE

12/28/2016 12:05:24,20.062,15.562,off
12/28/2016 12:05:36,20.062,15.625,off
12/28/2016 12:05:48,20.062,15.875,off
12/28/2016 12:06:00,20.062,15.937,off
