TIME,INSIDE_TEMPERATURE,OUTSIDE_TEMPERATURE,LIGHTS_STATE

02/25/2017 12:43:25,21.562,24.062,off
02/25/2017 12:43:37,21.562,24.187,off
02/25/2017 12:43:49,21.562,24.312,off
02/25/2017 12:44:00,21.562,24.312,off
