TIME,INSIDE_TEMPERATURE,OUTSIDE_TEMPERATURE,LIGHTS_STATE

05/12/2017 12:49:25,21.25,18.5,off
05/12/2017 12:49:37,21.312,18.562,off
05/12/2017 12:49:48,21.312,18.625,off
05/12/2017 12:50:00,21.312,18.562,off
