TIME,INSIDE_TEMPERATURE,OUTSIDE_TEMPERATURE,LIGHTS_STATE

11/05/2016 12:40:25,30.812,32.062,off
11/05/2016 12:40:37,30.812,32.062,off
11/05/2016 12:40:49,30.812,31.75,off
11/05/2016 12:41:01,30.75,31.812,off
