TIME,INSIDE_TEMPERATURE,OUTSIDE_TEMPERATURE,LIGHTS_STATE

01/19/2018 12:30:25,24.937,23.812,off
01/19/2018 12:30:37,24.937,23.687,off
01/19/2018 12:30:49,24.937,23.687,off
01/19/2018 12:31:00,24.937,23.937,off
