TIME,INSIDE_TEMPERATURE,OUTSIDE_TEMPERATURE,LIGHTS_STATE

04/13/2017 12:52:25,22.0,17.312,off
04/13/2017 12:52:37,22.0,17.375,off
04/13/2017 12:52:48,22.0,17.437,off
04/13/2017 12:53:00,22.062,17.437,off
