TIME,INSIDE_TEMPERATURE,OUTSIDE_TEMPERATURE,LIGHTS_STATE

09/10/2016 12:07:25,27.062,26.25,off
09/10/2016 12:07:36,27.062,26.25,off
09/10/2016 12:07:48,27.062,26.25,off
09/10/2016 12:08:00,27.062,26.25,off
