TIME,INSIDE_TEMPERATURE,OUTSIDE_TEMPERATURE,LIGHTS_STATE

01/07/2017 12:13:25,20.125,16.25,off
01/07/2017 12:13:37,20.125,16.25,off
01/07/2017 12:13:48,20.125,16.187,off
01/07/2017 12:14:00,20.125,16.25,off
