TIME,INSIDE_TEMPERATURE,OUTSIDE_TEMPERATURE,LIGHTS_STATE

07/09/2016 12:49:25,26.687,26.062,off
07/09/2016 12:49:36,26.75,26.062,off
07/09/2016 12:49:48,26.75,26.062,off
07/09/2016 12:50:00,26.75,26.062,off
