TIME,INSIDE_TEMPERATURE,OUTSIDE_TEMPERATURE,LIGHTS_STATE

03/30/2018 12:44:25,28.875,27.687,off
03/30/2018 12:44:37,28.875,27.75,off
03/30/2018 12:44:48,28.875,27.687,off
03/30/2018 12:45:00,28.937,27.562,off
