TIME,INSIDE_TEMPERATURE,OUTSIDE_TEMPERATURE,LIGHTS_STATE

07/15/2017 12:26:25,34.812,30.625,off
07/15/2017 12:26:37,34.812,30.625,off
07/15/2017 12:26:48,34.812,30.625,off
07/15/2017 12:27:00,34.812,30.625,off
