TIME,INSIDE_TEMPERATURE,OUTSIDE_TEMPERATURE,LIGHTS_STATE

03/15/2017 12:30:25,27.625,23.625,off
03/15/2017 12:30:37,27.687,23.5,off
03/15/2017 12:30:48,27.75,23.5,off
03/15/2017 12:31:00,27.75,23.562,off
