TIME,INSIDE_TEMPERATURE,OUTSIDE_TEMPERATURE,LIGHTS_STATE

09/11/2016 12:07:26,26.875,26.0,off
09/11/2016 12:07:37,26.875,26.062,off
09/11/2016 12:07:49,26.875,26.062,off
09/11/2016 12:08:01,26.875,26.125,off
