TIME,INSIDE_TEMPERATURE,OUTSIDE_TEMPERATURE,LIGHTS_STATE

05/23/2017 12:35:25,29.687,27.875,off
05/23/2017 12:35:37,29.75,27.937,off
05/23/2017 12:35:49,29.75,27.875,off
05/23/2017 12:36:00,29.75,27.875,off
