TIME,INSIDE_TEMPERATURE,OUTSIDE_TEMPERATURE,LIGHTS_STATE

04/18/2017 12:23:25,23.0,18.625,off
04/18/2017 12:23:37,23.0,18.625,off
04/18/2017 12:23:49,23.0,18.687,off
04/18/2017 12:24:00,23.0,18.687,off
