TIME,INSIDE_TEMPERATURE,OUTSIDE_TEMPERATURE,LIGHTS_STATE

07/07/2017 12:00:25,36.0,31.875,off
07/07/2017 12:00:37,36.0,31.875,off
07/07/2017 12:00:49,36.062,31.875,off
07/07/2017 12:01:01,36.062,31.875,off
