TIME,INSIDE_TEMPERATURE,OUTSIDE_TEMPERATURE,LIGHTS_STATE

09/07/2017 12:30:25,29.5,26.875,off
09/07/2017 12:30:37,29.5,26.875,off
09/07/2017 12:30:49,29.5,26.875,off
09/07/2017 12:31:01,29.562,26.937,off
