TIME,INSIDE_TEMPERATURE,OUTSIDE_TEMPERATURE,LIGHTS_STATE

10/28/2017 12:06:25,34.312,51.25,off
10/28/2017 12:06:37,34.312,51.312,off
10/28/2017 12:06:49,34.312,51.312,off
10/28/2017 12:07:00,34.312,51.312,off
