TIME,INSIDE_TEMPERATURE,OUTSIDE_TEMPERATURE,LIGHTS_STATE

02/23/2017 12:33:25,22.187,21.187,off
02/23/2017 12:33:37,22.125,20.687,off
02/23/2017 12:33:48,22.062,20.5,off
02/23/2017 12:34:00,22.062,20.25,off
