TIME,INSIDE_TEMPERATURE,OUTSIDE_TEMPERATURE,LIGHTS_STATE

09/13/2016 12:02:25,24.125,21.562,off
09/13/2016 12:02:37,24.187,21.625,off
09/13/2016 12:02:49,24.187,21.687,off
09/13/2016 12:03:00,24.187,21.75,off
