TIME,INSIDE_TEMPERATURE,OUTSIDE_TEMPERATURE,LIGHTS_STATE

02/27/2018 12:29:26,20.875,27.5,off
02/27/2018 12:29:37,20.875,27.5,off
02/27/2018 12:29:49,20.875,27.5,off
02/27/2018 12:30:01,20.875,27.5,off
