TIME,INSIDE_TEMPERATURE,OUTSIDE_TEMPERATURE,LIGHTS_STATE

03/25/2017 12:30:25,22.312,18.0,off
03/25/2017 12:30:36,22.375,18.0,off
03/25/2017 12:30:48,22.375,18.0,off
03/25/2017 12:31:00,22.375,17.937,off
