TIME,INSIDE_TEMPERATURE,OUTSIDE_TEMPERATURE,LIGHTS_STATE

12/21/2016 12:47:24,22.812,20.437,off
12/21/2016 12:47:36,22.812,20.437,off
12/21/2016 12:47:48,22.812,20.562,off
12/21/2016 12:47:59,22.812,20.812,off
