TIME,INSIDE_TEMPERATURE,OUTSIDE_TEMPERATURE,LIGHTS_STATE

03/09/2018 12:42:25,25.937,22.25,off
03/09/2018 12:42:37,26.0,22.25,off
03/09/2018 12:42:49,26.0,22.25,off
03/09/2018 12:43:01,26.0,22.375,off
