TIME,INSIDE_TEMPERATURE,OUTSIDE_TEMPERATURE,LIGHTS_STATE

01/31/2018 12:42:25,27.062,24.062,off
01/31/2018 12:42:37,27.062,24.0,off
01/31/2018 12:42:49,27.062,24.0,off
01/31/2018 12:43:00,27.062,23.812,off
