TIME,INSIDE_TEMPERATURE,OUTSIDE_TEMPERATURE,LIGHTS_STATE

12/30/2016 12:20:25,16.625,14.5,off
12/30/2016 12:20:36,16.625,14.562,off
12/30/2016 12:20:48,16.625,14.625,off
12/30/2016 12:21:00,16.687,14.625,off
