TIME,INSIDE_TEMPERATURE,OUTSIDE_TEMPERATURE,LIGHTS_STATE

08/02/2016 12:34:26,28.312,28.187,off
08/02/2016 12:34:37,28.312,28.125,off
08/02/2016 12:34:49,28.312,28.125,off
08/02/2016 12:35:01,28.312,28.125,off
