TIME,INSIDE_TEMPERATURE,OUTSIDE_TEMPERATURE,LIGHTS_STATE

08/12/2017 12:38:25,28.812,26.062,off
08/12/2017 12:38:37,28.875,26.062,off
08/12/2017 12:38:49,28.875,26.062,off
08/12/2017 12:39:01,28.875,26.0,off
