TIME,INSIDE_TEMPERATURE,OUTSIDE_TEMPERATURE,LIGHTS_STATE

05/17/2017 12:58:25,22.875,20.625,off
05/17/2017 12:58:37,22.937,20.687,off
05/17/2017 12:58:49,22.937,20.687,off
05/17/2017 12:59:00,22.937,20.75,off
