TIME,INSIDE_TEMPERATURE,OUTSIDE_TEMPERATURE,LIGHTS_STATE

12/30/2017 12:08:25,21.5,24.062,off
12/30/2017 12:08:37,21.5,24.0,off
12/30/2017 12:08:48,21.5,23.875,off
12/30/2017 12:09:00,21.5,23.875,off
