TIME,INSIDE_TEMPERATURE,OUTSIDE_TEMPERATURE,LIGHTS_STATE

08/11/2017 12:06:25,28.125,25.687,off
08/11/2017 12:06:37,28.125,25.75,off
08/11/2017 12:06:49,28.125,25.812,off
08/11/2017 12:07:01,28.125,25.812,off
