TIME,INSIDE_TEMPERATURE,OUTSIDE_TEMPERATURE,LIGHTS_STATE

02/18/2017 12:40:25,16.937,12.812,off
02/18/2017 12:40:37,16.937,12.75,off
02/18/2017 12:40:49,16.875,12.812,off
02/18/2017 12:41:00,16.875,12.812,off
