TIME,INSIDE_TEMPERATURE,OUTSIDE_TEMPERATURE,LIGHTS_STATE

05/09/2017 12:01:25,26.812,25.437,off
05/09/2017 12:01:37,26.812,25.437,off
05/09/2017 12:01:49,26.812,25.437,off
05/09/2017 12:02:00,26.812,25.437,off
