TIME,INSIDE_TEMPERATURE,OUTSIDE_TEMPERATURE,LIGHTS_STATE

12/06/2016 12:05:25,19.687,16.937,off
12/06/2016 12:05:37,19.687,17.0,off
12/06/2016 12:05:49,19.687,17.0,off
12/06/2016 12:06:00,19.687,17.0,off
