TIME,INSIDE_TEMPERATURE,OUTSIDE_TEMPERATURE,LIGHTS_STATE

12/02/2016 12:06:25,22.562,18.25,off
12/02/2016 12:06:37,22.562,18.187,off
12/02/2016 12:06:48,22.562,18.125,off
12/02/2016 12:07:00,22.5,18.062,off
