TIME,INSIDE_TEMPERATURE,OUTSIDE_TEMPERATURE,LIGHTS_STATE

07/28/2016 12:56:26,33.562,33.812,off
07/28/2016 12:56:38,33.625,33.937,off
07/28/2016 12:56:49,33.625,33.937,off
07/28/2016 12:57:01,33.687,33.937,off
