TIME,INSIDE_TEMPERATURE,OUTSIDE_TEMPERATURE,LIGHTS_STATE

12/31/2017 12:53:25,21.875,19.375,off
12/31/2017 12:53:37,21.875,19.375,off
12/31/2017 12:53:49,21.875,19.375,off
12/31/2017 12:54:01,21.875,19.375,off
