TIME,INSIDE_TEMPERATURE,OUTSIDE_TEMPERATURE,LIGHTS_STATE

07/22/2017 12:48:25,33.812,29.75,off
07/22/2017 12:48:37,33.812,29.75,off
07/22/2017 12:48:49,33.812,29.75,off
07/22/2017 12:49:01,33.812,29.687,off
