TIME,INSIDE_TEMPERATURE,OUTSIDE_TEMPERATURE,LIGHTS_STATE

01/21/2018 12:04:26,22.875,18.437,off
01/21/2018 12:04:37,22.875,18.437,off
01/21/2018 12:04:49,22.875,18.5,off
01/21/2018 12:05:01,22.875,18.625,off
