TIME,INSIDE_TEMPERATURE,OUTSIDE_TEMPERATURE,LIGHTS_STATE

07/30/2016 12:23:25,30.375,30.687,off
07/30/2016 12:23:37,30.375,30.687,off
07/30/2016 12:23:49,30.437,30.687,off
07/30/2016 12:24:01,30.437,30.687,off
