TIME,INSIDE_TEMPERATURE,OUTSIDE_TEMPERATURE,LIGHTS_STATE

07/23/2017 12:13:25,35.687,32.937,off
07/23/2017 12:13:37,35.687,33.0,off
07/23/2017 12:13:48,35.75,33.0,off
07/23/2017 12:14:00,35.75,33.0,off
