TIME,INSIDE_TEMPERATURE,OUTSIDE_TEMPERATURE,LIGHTS_STATE

04/18/2017 12:05:25,22.875,17.75,off
04/18/2017 12:05:37,22.875,17.75,off
04/18/2017 12:05:48,22.875,17.75,off
04/18/2017 12:06:00,22.875,17.75,off
