TIME,INSIDE_TEMPERATURE,OUTSIDE_TEMPERATURE,LIGHTS_STATE

01/14/2017 12:39:25,21.437,17.562,off
01/14/2017 12:39:36,21.437,17.625,off
01/14/2017 12:39:48,21.437,17.625,off
01/14/2017 12:40:00,21.437,17.5,off
