TIME,INSIDE_TEMPERATURE,OUTSIDE_TEMPERATURE,LIGHTS_STATE

03/14/2018 12:30:25,17.75,10.812,off
03/14/2018 12:30:37,17.75,10.812,off
03/14/2018 12:30:48,17.75,10.75,off
03/14/2018 12:31:00,17.75,10.687,off
