TIME,INSIDE_TEMPERATURE,OUTSIDE_TEMPERATURE,LIGHTS_STATE

02/23/2017 12:18:25,22.875,23.625,off
02/23/2017 12:18:37,22.875,23.812,off
02/23/2017 12:18:49,22.875,23.937,off
02/23/2017 12:19:01,22.812,23.687,off
