TIME,INSIDE_TEMPERATURE,OUTSIDE_TEMPERATURE,LIGHTS_STATE

05/06/2017 12:11:25,21.625,18.312,off
05/06/2017 12:11:36,21.625,18.312,off
05/06/2017 12:11:48,21.625,18.375,off
05/06/2017 12:12:00,21.625,18.312,off
