TIME,INSIDE_TEMPERATURE,OUTSIDE_TEMPERATURE,LIGHTS_STATE

07/02/2017 12:14:25,28.937,26.062,off
07/02/2017 12:14:37,28.937,26.062,off
07/02/2017 12:14:49,28.937,26.062,off
07/02/2017 12:15:00,29.0,26.125,off
