TIME,INSIDE_TEMPERATURE,OUTSIDE_TEMPERATURE,LIGHTS_STATE

02/08/2018 12:05:26,29.062,29.062,off
02/08/2018 12:05:37,29.062,29.062,off
02/08/2018 12:05:49,29.062,29.125,off
02/08/2018 12:06:01,29.062,29.187,off
