TIME,INSIDE_TEMPERATURE,OUTSIDE_TEMPERATURE,LIGHTS_STATE

02/25/2018 12:05:25,21.5,21.125,off
02/25/2018 12:05:37,21.5,21.375,off
02/25/2018 12:05:49,21.5,21.625,off
02/25/2018 12:06:00,21.5,21.875,off
