TIME,INSIDE_TEMPERATURE,OUTSIDE_TEMPERATURE,LIGHTS_STATE

12/30/2017 12:14:25,21.562,23.375,off
12/30/2017 12:14:37,21.562,23.312,off
12/30/2017 12:14:49,21.562,23.437,off
12/30/2017 12:15:01,21.562,23.437,off
