TIME,INSIDE_TEMPERATURE,OUTSIDE_TEMPERATURE,LIGHTS_STATE

01/20/2018 12:11:26,22.5,21.812,off
01/20/2018 12:11:37,22.562,21.687,off
01/20/2018 12:11:49,22.5,21.687,off
01/20/2018 12:12:01,22.562,21.562,off
