TIME,INSIDE_TEMPERATURE,OUTSIDE_TEMPERATURE,LIGHTS_STATE

02/01/2018 12:58:25,28.25,26.687,off
02/01/2018 12:58:37,28.25,26.562,off
02/01/2018 12:58:49,28.25,26.375,off
02/01/2018 12:59:01,28.25,26.437,off
