TIME,INSIDE_TEMPERATURE,OUTSIDE_TEMPERATURE,LIGHTS_STATE

11/14/2016 12:52:25,28.75,26.187,off
11/14/2016 12:52:37,28.75,26.125,off
11/14/2016 12:52:49,28.75,26.062,off
11/14/2016 12:53:01,28.75,26.0,off
