TIME,INSIDE_TEMPERATURE,OUTSIDE_TEMPERATURE,LIGHTS_STATE

03/03/2017 12:17:25,26.437,27.5,off
03/03/2017 12:17:37,26.375,27.375,off
03/03/2017 12:17:49,26.437,27.25,off
03/03/2017 12:18:00,26.375,27.125,off
