TIME,INSIDE_TEMPERATURE,OUTSIDE_TEMPERATURE,LIGHTS_STATE

07/10/2016 12:41:25,24.687,24.125,off
07/10/2016 12:41:37,24.687,24.125,off
07/10/2016 12:41:48,24.687,24.125,off
07/10/2016 12:42:00,24.687,24.187,off
