TIME,INSIDE_TEMPERATURE,OUTSIDE_TEMPERATURE,LIGHTS_STATE

11/17/2016 12:49:25,23.375,19.75,off
11/17/2016 12:49:36,23.375,19.5,off
11/17/2016 12:49:48,23.375,19.312,off
11/17/2016 12:50:00,23.375,19.25,off
