TIME,INSIDE_TEMPERATURE,OUTSIDE_TEMPERATURE,LIGHTS_STATE

09/18/2017 12:11:25,29.75,26.062,off
09/18/2017 12:11:37,29.75,26.062,off
09/18/2017 12:11:49,29.75,26.125,off
09/18/2017 12:12:00,29.812,26.125,off
