TIME,INSIDE_TEMPERATURE,OUTSIDE_TEMPERATURE,LIGHTS_STATE

09/02/2017 12:54:25,41.812,40.062,off
09/02/2017 12:54:37,41.875,40.125,off
09/02/2017 12:54:48,41.875,40.125,off
09/02/2017 12:55:00,41.875,40.125,off
