TIME,INSIDE_TEMPERATURE,OUTSIDE_TEMPERATURE,LIGHTS_STATE

04/14/2017 12:28:25,19.25,16.375,off
04/14/2017 12:28:37,19.25,16.375,off
04/14/2017 12:28:48,19.25,16.312,off
04/14/2017 12:29:00,19.25,16.312,off
