TIME,INSIDE_TEMPERATURE,OUTSIDE_TEMPERATURE,LIGHTS_STATE

09/17/2017 12:14:25,28.437,25.937,off
09/17/2017 12:14:37,28.437,26.0,off
09/17/2017 12:14:49,28.437,26.062,off
09/17/2017 12:15:01,28.437,26.062,off
