TIME,INSIDE_TEMPERATURE,OUTSIDE_TEMPERATURE,LIGHTS_STATE

04/25/2017 12:15:25,23.125,18.875,off
04/25/2017 12:15:37,23.125,18.875,off
04/25/2017 12:15:48,23.125,18.812,off
04/25/2017 12:16:00,23.125,18.812,off
