TIME,INSIDE_TEMPERATURE,OUTSIDE_TEMPERATURE,LIGHTS_STATE

06/28/2016 12:53:25,32.687,32.187,off
06/28/2016 12:53:38,32.687,32.187,off
06/28/2016 12:53:49,32.687,32.125,off
06/28/2016 12:54:02,32.625,32.187,off
