TIME,INSIDE_TEMPERATURE,OUTSIDE_TEMPERATURE,LIGHTS_STATE

05/06/2017 12:28:25,21.75,18.187,off
05/06/2017 12:28:36,21.75,18.125,off
05/06/2017 12:28:48,21.75,18.187,off
05/06/2017 12:29:00,21.812,18.062,off
