TIME,INSIDE_TEMPERATURE,OUTSIDE_TEMPERATURE,LIGHTS_STATE

03/14/2017 12:35:25,28.562,25.312,off
03/14/2017 12:35:37,28.562,25.312,off
03/14/2017 12:35:48,28.562,25.312,off
03/14/2017 12:36:00,28.562,25.375,off
