TIME,INSIDE_TEMPERATURE,OUTSIDE_TEMPERATURE,LIGHTS_STATE

02/07/2017 12:32:25,20.75,16.312,off
02/07/2017 12:32:37,20.75,16.25,off
02/07/2017 12:32:49,20.687,16.312,off
02/07/2017 12:33:01,20.75,16.312,off
