TIME,INSIDE_TEMPERATURE,OUTSIDE_TEMPERATURE,LIGHTS_STATE

07/22/2016 12:04:25,28.625,28.875,off
07/22/2016 12:04:37,28.687,28.937,off
07/22/2016 12:04:49,28.687,28.875,off
07/22/2016 12:05:00,28.687,28.875,off
