TIME,INSIDE_TEMPERATURE,OUTSIDE_TEMPERATURE,LIGHTS_STATE

04/04/2017 12:44:25,24.875,22.312,off
04/04/2017 12:44:37,24.937,22.312,off
04/04/2017 12:44:49,24.937,22.312,off
04/04/2017 12:45:00,24.875,22.25,off
