TIME,INSIDE_TEMPERATURE,OUTSIDE_TEMPERATURE,LIGHTS_STATE

04/01/2017 12:28:25,25.5,23.0,off
04/01/2017 12:28:37,25.562,23.0,off
04/01/2017 12:28:49,25.562,22.937,off
04/01/2017 12:29:00,25.562,22.937,off
