TIME,INSIDE_TEMPERATURE,OUTSIDE_TEMPERATURE,LIGHTS_STATE

09/23/2017 12:05:25,25.5,24.062,off
09/23/2017 12:05:37,25.562,24.0,off
09/23/2017 12:05:48,25.562,24.0,off
09/23/2017 12:06:00,25.75,24.062,off
