TIME,INSIDE_TEMPERATURE,OUTSIDE_TEMPERATURE,LIGHTS_STATE

02/07/2018 12:48:25,28.75,42.0,off
02/07/2018 12:48:37,28.75,42.0,off
02/07/2018 12:48:49,28.75,41.625,off
02/07/2018 12:49:01,28.687,41.562,off
