TIME,INSIDE_TEMPERATURE,OUTSIDE_TEMPERATURE,LIGHTS_STATE

01/08/2018 12:43:25,17.125,11.562,off
01/08/2018 12:43:37,17.125,11.562,off
01/08/2018 12:43:48,17.125,11.562,off
01/08/2018 12:44:00,17.125,11.5,off
