TIME,INSIDE_TEMPERATURE,OUTSIDE_TEMPERATURE,LIGHTS_STATE

03/28/2018 12:50:25,25.562,19.25,off
03/28/2018 12:50:37,25.562,19.25,off
03/28/2018 12:50:49,25.562,19.25,off
03/28/2018 12:51:00,25.625,19.25,off
