TIME,INSIDE_TEMPERATURE,OUTSIDE_TEMPERATURE,LIGHTS_STATE

02/20/2018 12:05:26,18.875,17.062,off
02/20/2018 12:05:37,18.875,17.125,off
02/20/2018 12:05:49,18.875,17.187,off
02/20/2018 12:06:01,18.875,17.25,off
