TIME,INSIDE_TEMPERATURE,OUTSIDE_TEMPERATURE,LIGHTS_STATE

03/16/2018 12:13:26,16.812,11.5,off
03/16/2018 12:13:38,16.875,11.562,off
03/16/2018 12:13:49,16.875,11.625,off
03/16/2018 12:14:01,16.875,11.562,off
