TIME,INSIDE_TEMPERATURE,OUTSIDE_TEMPERATURE,LIGHTS_STATE

01/31/2018 12:25:25,26.875,23.437,off
01/31/2018 12:25:37,26.875,23.5,off
01/31/2018 12:25:49,26.937,23.687,off
01/31/2018 12:26:00,26.937,23.75,off
