TIME,INSIDE_TEMPERATURE,OUTSIDE_TEMPERATURE,LIGHTS_STATE

12/16/2016 12:07:25,17.312,12.875,off
12/16/2016 12:07:37,17.312,12.937,off
12/16/2016 12:07:49,17.312,13.0,off
12/16/2016 12:08:00,17.375,13.062,off
