TIME,INSIDE_TEMPERATURE,OUTSIDE_TEMPERATURE,LIGHTS_STATE

12/28/2017 12:13:26,24.562,27.687,off
12/28/2017 12:13:37,24.562,27.812,off
12/28/2017 12:13:49,24.562,28.062,off
12/28/2017 12:14:01,24.562,27.812,off
