TIME,INSIDE_TEMPERATURE,OUTSIDE_TEMPERATURE,LIGHTS_STATE

10/24/2017 12:42:25,36.125,38.625,off
10/24/2017 12:42:37,36.125,38.875,off
10/24/2017 12:42:49,36.125,38.937,off
10/24/2017 12:43:01,36.125,38.812,off
