TIME,INSIDE_TEMPERATURE,OUTSIDE_TEMPERATURE,LIGHTS_STATE

03/20/2017 12:57:25,20.75,17.5,off
03/20/2017 12:57:36,20.75,17.5,off
03/20/2017 12:57:50,20.812,17.562,off
03/20/2017 12:58:01,20.75,17.562,off
