TIME,INSIDE_TEMPERATURE,OUTSIDE_TEMPERATURE,LIGHTS_STATE

09/08/2017 12:38:25,29.0,26.875,off
09/08/2017 12:38:37,29.0,26.875,off
09/08/2017 12:38:49,29.0,26.875,off
09/08/2017 12:39:00,29.062,26.937,off
