TIME,INSIDE_TEMPERATURE,OUTSIDE_TEMPERATURE,LIGHTS_STATE

08/23/2017 12:26:25,29.812,27.375,off
08/23/2017 12:26:37,29.812,27.437,off
08/23/2017 12:26:49,29.812,27.437,off
08/23/2017 12:27:00,29.812,27.437,off
