TIME,INSIDE_TEMPERATURE,OUTSIDE_TEMPERATURE,LIGHTS_STATE

02/28/2017 12:51:27,22.562,23.75,off
02/28/2017 12:51:38,22.5,23.812,off
02/28/2017 12:51:50,22.5,23.75,off
02/28/2017 12:52:02,22.437,23.687,off
