TIME,INSIDE_TEMPERATURE,OUTSIDE_TEMPERATURE,LIGHTS_STATE

01/20/2017 12:04:24,19.0,14.687,off
01/20/2017 12:04:36,19.0,14.812,off
01/20/2017 12:04:48,19.0,15.0,off
01/20/2017 12:04:59,19.0,15.187,off
