TIME,INSIDE_TEMPERATURE,OUTSIDE_TEMPERATURE,LIGHTS_STATE

02/24/2017 12:13:25,23.0,22.562,off
02/24/2017 12:13:37,22.937,22.5,off
02/24/2017 12:13:49,22.937,22.562,off
02/24/2017 12:14:00,22.875,22.687,off
