TIME,INSIDE_TEMPERATURE,OUTSIDE_TEMPERATURE,LIGHTS_STATE

08/15/2017 12:15:25,26.437,23.75,off
08/15/2017 12:15:37,26.437,23.812,off
08/15/2017 12:15:49,26.437,23.812,off
08/15/2017 12:16:01,26.437,23.812,off
