TIME,INSIDE_TEMPERATURE,OUTSIDE_TEMPERATURE,LIGHTS_STATE

04/21/2017 12:05:26,24.0,22.187,off
04/21/2017 12:05:38,23.937,22.125,off
04/21/2017 12:05:49,23.937,22.062,off
04/21/2017 12:06:01,23.937,22.0,off
