TIME,INSIDE_TEMPERATURE,OUTSIDE_TEMPERATURE,LIGHTS_STATE

08/04/2017 12:30:25,32.0,27.937,off
08/04/2017 12:30:37,32.0,27.937,off
08/04/2017 12:30:49,32.0,27.937,off
08/04/2017 12:31:01,32.0,27.937,off
