TIME,INSIDE_TEMPERATURE,OUTSIDE_TEMPERATURE,LIGHTS_STATE

09/09/2017 12:22:25,29.875,28.062,off
09/09/2017 12:22:37,29.875,28.062,off
09/09/2017 12:22:49,29.937,28.125,off
09/09/2017 12:23:01,29.937,28.125,off
