TIME,INSIDE_TEMPERATURE,OUTSIDE_TEMPERATURE,LIGHTS_STATE

04/29/2017 12:08:25,25.0,23.312,off
04/29/2017 12:08:37,25.0,23.25,off
04/29/2017 12:08:48,25.0,23.312,off
04/29/2017 12:09:00,25.0,23.25,off
