TIME,INSIDE_TEMPERATURE,OUTSIDE_TEMPERATURE,LIGHTS_STATE

01/07/2017 12:25:26,20.187,16.062,off
01/07/2017 12:25:38,20.187,16.062,off
01/07/2017 12:25:49,20.187,16.062,off
01/07/2017 12:26:01,20.187,16.125,off
