TIME,INSIDE_TEMPERATURE,OUTSIDE_TEMPERATURE,LIGHTS_STATE

12/14/2016 12:19:25,21.312,17.812,off
12/14/2016 12:19:36,21.312,17.875,off
12/14/2016 12:19:48,21.25,17.812,off
12/14/2016 12:20:00,21.312,17.812,off
