TIME,INSIDE_TEMPERATURE,OUTSIDE_TEMPERATURE,LIGHTS_STATE

01/03/2018 12:00:25,16.812,12.562,off
01/03/2018 12:00:37,16.812,12.562,off
01/03/2018 12:00:49,16.812,12.562,off
01/03/2018 12:01:01,16.875,12.562,off
