TIME,INSIDE_TEMPERATURE,OUTSIDE_TEMPERATURE,LIGHTS_STATE

11/06/2016 12:28:25,28.562,24.25,off
11/06/2016 12:28:36,28.562,24.187,off
11/06/2016 12:28:48,28.562,24.062,off
11/06/2016 12:29:00,28.562,24.0,off
