TIME,INSIDE_TEMPERATURE,OUTSIDE_TEMPERATURE,LIGHTS_STATE

01/14/2018 12:37:25,19.375,13.375,off
01/14/2018 12:37:37,19.375,13.437,off
01/14/2018 12:37:49,19.375,13.437,off
01/14/2018 12:38:01,19.375,13.437,off
