TIME,INSIDE_TEMPERATURE,OUTSIDE_TEMPERATURE,LIGHTS_STATE

10/18/2017 12:18:25,30.937,33.312,off
10/18/2017 12:18:37,30.937,33.062,off
10/18/2017 12:18:49,30.937,33.062,off
10/18/2017 12:19:01,30.937,33.187,off
