TIME,INSIDE_TEMPERATURE,OUTSIDE_TEMPERATURE,LIGHTS_STATE

02/18/2017 12:09:26,17.312,13.187,off
02/18/2017 12:09:38,17.312,13.187,off
02/18/2017 12:09:50,17.25,13.187,off
02/18/2017 12:10:01,17.25,13.187,off
