TIME,INSIDE_TEMPERATURE,OUTSIDE_TEMPERATURE,LIGHTS_STATE

01/13/2018 12:52:25,17.562,12.5,off
01/13/2018 12:52:37,17.562,12.437,off
01/13/2018 12:52:48,17.562,12.5,off
01/13/2018 12:53:00,17.562,12.5,off
