TIME,INSIDE_TEMPERATURE,OUTSIDE_TEMPERATURE,LIGHTS_STATE

03/04/2018 12:16:25,20.437,37.375,off
03/04/2018 12:16:37,20.437,37.062,off
03/04/2018 12:16:49,20.5,36.75,off
03/04/2018 12:17:01,20.5,36.5,off
