TIME,INSIDE_TEMPERATURE,OUTSIDE_TEMPERATURE,LIGHTS_STATE

10/21/2017 12:19:26,26.937,26.25,off
10/21/2017 12:19:37,27.0,26.25,off
10/21/2017 12:19:49,27.0,26.187,off
10/21/2017 12:20:01,27.062,26.187,off
