TIME,INSIDE_TEMPERATURE,OUTSIDE_TEMPERATURE,LIGHTS_STATE

10/18/2017 12:23:25,31.062,33.687,off
10/18/2017 12:23:37,31.062,33.625,off
10/18/2017 12:23:49,31.062,33.687,off
10/18/2017 12:24:00,31.062,33.75,off
