TIME,INSIDE_TEMPERATURE,OUTSIDE_TEMPERATURE,LIGHTS_STATE

04/27/2017 12:46:26,23.437,20.25,off
04/27/2017 12:46:37,23.437,20.312,off
04/27/2017 12:46:49,23.437,20.375,off
04/27/2017 12:47:01,23.437,20.437,off
