TIME,INSIDE_TEMPERATURE,OUTSIDE_TEMPERATURE,LIGHTS_STATE

08/09/2017 12:24:25,27.312,24.312,off
08/09/2017 12:24:37,27.312,24.312,off
08/09/2017 12:24:49,27.312,24.25,off
08/09/2017 12:25:01,27.312,24.25,off
