TIME,INSIDE_TEMPERATURE,OUTSIDE_TEMPERATURE,LIGHTS_STATE

05/23/2017 12:51:25,30.312,28.625,off
05/23/2017 12:51:37,30.312,28.687,off
05/23/2017 12:51:48,30.375,28.687,off
05/23/2017 12:52:00,30.375,28.687,off
