TIME,INSIDE_TEMPERATURE,OUTSIDE_TEMPERATURE,LIGHTS_STATE

11/18/2016 12:48:24,24.625,22.312,off
11/18/2016 12:48:36,24.625,22.312,off
11/18/2016 12:48:48,24.625,22.375,off
11/18/2016 12:48:59,24.625,22.25,off
