TIME,INSIDE_TEMPERATURE,OUTSIDE_TEMPERATURE,LIGHTS_STATE

03/27/2017 12:36:25,22.0,18.625,off
03/27/2017 12:36:36,22.062,18.562,off
03/27/2017 12:36:48,22.062,18.562,off
03/27/2017 12:37:00,22.062,18.625,off
