TIME,INSIDE_TEMPERATURE,OUTSIDE_TEMPERATURE,LIGHTS_STATE

01/31/2018 12:03:25,26.875,23.5,off
01/31/2018 12:03:37,26.875,23.312,off
01/31/2018 12:03:49,26.875,23.187,off
01/31/2018 12:04:01,26.875,23.0,off
