TIME,INSIDE_TEMPERATURE,OUTSIDE_TEMPERATURE,LIGHTS_STATE

07/28/2016 12:42:26,32.75,33.062,off
07/28/2016 12:42:37,32.75,33.125,off
07/28/2016 12:42:50,32.75,33.062,off
07/28/2016 12:43:01,32.75,33.125,off
