TIME,INSIDE_TEMPERATURE,OUTSIDE_TEMPERATURE,LIGHTS_STATE

12/23/2017 12:03:25,19.687,15.937,off
12/23/2017 12:03:37,19.687,15.812,off
12/23/2017 12:03:49,19.687,15.812,off
12/23/2017 12:04:00,19.687,15.687,off
