TIME,INSIDE_TEMPERATURE,OUTSIDE_TEMPERATURE,LIGHTS_STATE

06/07/2017 12:32:25,22.687,22.187,off
06/07/2017 12:32:37,22.75,22.187,off
06/07/2017 12:32:48,22.75,22.187,off
06/07/2017 12:33:00,22.75,22.187,off
