TIME,INSIDE_TEMPERATURE,OUTSIDE_TEMPERATURE,LIGHTS_STATE

08/07/2017 12:08:26,27.75,24.562,off
08/07/2017 12:08:37,27.812,24.562,off
08/07/2017 12:08:49,27.812,24.625,off
08/07/2017 12:09:01,27.812,24.625,off
