TIME,INSIDE_TEMPERATURE,OUTSIDE_TEMPERATURE,LIGHTS_STATE

12/12/2016 12:48:25,19.375,14.437,off
12/12/2016 12:48:37,19.375,14.5,off
12/12/2016 12:48:48,19.375,14.5,off
12/12/2016 12:49:00,19.312,14.562,off
