TIME,INSIDE_TEMPERATURE,OUTSIDE_TEMPERATURE,LIGHTS_STATE

09/19/2017 12:54:25,27.437,23.937,off
09/19/2017 12:54:37,27.437,23.937,off
09/19/2017 12:54:49,27.437,23.875,off
09/19/2017 12:55:00,27.437,23.875,off
