TIME,INSIDE_TEMPERATURE,OUTSIDE_TEMPERATURE,LIGHTS_STATE

04/08/2017 12:09:25,16.312,11.75,off
04/08/2017 12:09:37,16.312,11.687,off
04/08/2017 12:09:49,16.312,11.687,off
04/08/2017 12:10:00,16.312,11.625,off
