TIME,INSIDE_TEMPERATURE,OUTSIDE_TEMPERATURE,LIGHTS_STATE

07/29/2017 12:34:25,31.5,28.437,off
07/29/2017 12:34:37,31.437,28.437,off
07/29/2017 12:34:49,31.437,28.437,off
07/29/2017 12:35:00,31.437,28.437,off
