TIME,INSIDE_TEMPERATURE,OUTSIDE_TEMPERATURE,LIGHTS_STATE

06/10/2017 12:53:25,25.0,20.75,off
06/10/2017 12:53:37,25.0,20.812,off
06/10/2017 12:53:49,25.0,20.812,off
06/10/2017 12:54:00,25.0,20.875,off
