TIME,INSIDE_TEMPERATURE,OUTSIDE_TEMPERATURE,LIGHTS_STATE

01/21/2018 12:06:25,22.812,18.937,off
01/21/2018 12:06:37,22.875,18.812,off
01/21/2018 12:06:49,22.812,18.687,off
01/21/2018 12:07:00,22.875,18.625,off
