TIME,INSIDE_TEMPERATURE,OUTSIDE_TEMPERATURE,LIGHTS_STATE

03/31/2018 12:45:25,27.875,25.937,off
03/31/2018 12:45:37,27.937,25.937,off
03/31/2018 12:45:48,27.875,25.937,off
03/31/2018 12:46:00,27.875,26.0,off
