TIME,INSIDE_TEMPERATURE,OUTSIDE_TEMPERATURE,LIGHTS_STATE

11/29/2016 12:39:25,21.375,18.625,off
11/29/2016 12:39:37,21.375,18.562,off
11/29/2016 12:39:48,21.375,18.312,off
11/29/2016 12:40:00,21.375,18.187,off
