TIME,INSIDE_TEMPERATURE,OUTSIDE_TEMPERATURE,LIGHTS_STATE

09/18/2016 12:42:26,33.5,35.437,off
09/18/2016 12:42:37,33.5,35.562,off
09/18/2016 12:42:50,33.5,35.625,off
09/18/2016 12:43:02,33.562,35.562,off
