TIME,INSIDE_TEMPERATURE,OUTSIDE_TEMPERATURE,LIGHTS_STATE

03/05/2018 12:34:25,20.187,28.0,off
03/05/2018 12:34:37,20.187,28.062,off
03/05/2018 12:34:49,20.187,28.25,off
03/05/2018 12:35:01,20.187,28.562,off
