TIME,INSIDE_TEMPERATURE,OUTSIDE_TEMPERATURE,LIGHTS_STATE

11/14/2016 12:09:25,29.125,31.875,off
11/14/2016 12:09:36,29.125,31.875,off
11/14/2016 12:09:48,29.125,31.812,off
11/14/2016 12:10:01,29.187,31.625,off
