TIME,INSIDE_TEMPERATURE,OUTSIDE_TEMPERATURE,LIGHTS_STATE

10/16/2017 12:54:25,34.375,31.625,off
10/16/2017 12:54:37,34.375,31.562,off
10/16/2017 12:54:48,34.375,31.687,off
10/16/2017 12:55:00,34.375,31.812,off
