TIME,INSIDE_TEMPERATURE,OUTSIDE_TEMPERATURE,LIGHTS_STATE

11/19/2016 12:41:25,20.437,15.812,off
11/19/2016 12:41:36,20.437,15.812,off
11/19/2016 12:41:48,20.437,15.812,off
11/19/2016 12:42:00,20.437,15.812,off
