TIME,INSIDE_TEMPERATURE,OUTSIDE_TEMPERATURE,LIGHTS_STATE

01/10/2017 12:34:24,16.375,12.625,off
01/10/2017 12:34:36,16.375,12.625,off
01/10/2017 12:34:48,16.375,12.625,off
01/10/2017 12:34:59,16.375,12.625,off
