TIME,INSIDE_TEMPERATURE,OUTSIDE_TEMPERATURE,LIGHTS_STATE

01/15/2018 12:44:25,23.5,21.0,off
01/15/2018 12:44:37,23.5,21.125,off
01/15/2018 12:44:48,23.5,21.187,off
01/15/2018 12:45:00,23.5,21.312,off
