TIME,INSIDE_TEMPERATURE,OUTSIDE_TEMPERATURE,LIGHTS_STATE

01/23/2018 12:27:25,22.75,22.25,off
01/23/2018 12:27:37,22.75,22.0,off
01/23/2018 12:27:49,22.75,21.937,off
01/23/2018 12:28:01,22.812,21.937,off
