TIME,INSIDE_TEMPERATURE,OUTSIDE_TEMPERATURE,LIGHTS_STATE

07/25/2016 12:04:25,29.875,31.562,off
07/25/2016 12:04:37,29.937,31.5,off
07/25/2016 12:04:48,29.937,31.562,off
07/25/2016 12:05:00,29.937,31.5,off
