TIME,INSIDE_TEMPERATURE,OUTSIDE_TEMPERATURE,LIGHTS_STATE

05/11/2017 12:39:26,23.5,19.875,off
05/11/2017 12:39:37,23.5,19.937,off
05/11/2017 12:39:50,23.5,19.875,off
05/11/2017 12:40:01,23.5,19.875,off
