TIME,INSIDE_TEMPERATURE,OUTSIDE_TEMPERATURE,LIGHTS_STATE

07/01/2017 12:42:26,26.125,22.375,off
07/01/2017 12:42:37,26.125,22.375,off
07/01/2017 12:42:49,26.125,22.375,off
07/01/2017 12:43:01,26.125,22.375,off
