TIME,INSIDE_TEMPERATURE,OUTSIDE_TEMPERATURE,LIGHTS_STATE

03/17/2018 12:44:25,19.187,14.562,off
03/17/2018 12:44:37,19.187,14.625,off
03/17/2018 12:44:49,19.187,14.562,off
03/17/2018 12:45:00,19.187,14.5,off
