TIME,INSIDE_TEMPERATURE,OUTSIDE_TEMPERATURE,LIGHTS_STATE

10/30/2017 12:07:25,27.312,23.0,off
10/30/2017 12:07:37,27.312,22.875,off
10/30/2017 12:07:49,27.312,22.625,off
10/30/2017 12:08:01,27.312,22.25,off
