TIME,INSIDE_TEMPERATURE,OUTSIDE_TEMPERATURE,LIGHTS_STATE

06/25/2017 12:35:25,27.75,25.0,off
06/25/2017 12:35:37,27.812,25.062,off
06/25/2017 12:35:49,27.75,25.125,off
06/25/2017 12:36:01,27.812,25.125,off
