TIME,INSIDE_TEMPERATURE,OUTSIDE_TEMPERATURE,LIGHTS_STATE

09/09/2017 12:30:25,30.125,28.0,off
09/09/2017 12:30:37,30.187,28.0,off
09/09/2017 12:30:49,30.187,28.062,off
09/09/2017 12:31:01,30.187,28.062,off
