TIME,INSIDE_TEMPERATURE,OUTSIDE_TEMPERATURE,LIGHTS_STATE

01/17/2018 12:01:25,20.375,15.75,off
01/17/2018 12:01:37,20.375,15.75,off
01/17/2018 12:01:49,20.375,15.75,off
01/17/2018 12:02:00,20.375,15.75,off
