TIME,INSIDE_TEMPERATURE,OUTSIDE_TEMPERATURE,LIGHTS_STATE

03/17/2018 12:28:25,19.062,14.812,off
03/17/2018 12:28:37,19.062,14.75,off
03/17/2018 12:28:48,19.062,14.75,off
03/17/2018 12:29:00,19.062,14.687,off
