TIME,INSIDE_TEMPERATURE,OUTSIDE_TEMPERATURE,LIGHTS_STATE

10/25/2016 12:20:26,28.0,27.562,off
10/25/2016 12:20:39,28.0,27.5,off
10/25/2016 12:20:50,28.125,27.625,off
10/25/2016 12:21:02,28.125,27.562,off
