TIME,INSIDE_TEMPERATURE,OUTSIDE_TEMPERATURE,LIGHTS_STATE

08/30/2017 12:35:25,30.187,28.125,off
08/30/2017 12:35:37,30.187,28.125,off
08/30/2017 12:35:50,30.187,28.187,off
08/30/2017 12:36:01,30.187,28.187,off
