TIME,INSIDE_TEMPERATURE,OUTSIDE_TEMPERATURE,LIGHTS_STATE

05/23/2017 12:57:25,30.5,28.687,off
05/23/2017 12:57:37,30.437,28.687,off
05/23/2017 12:57:48,30.5,28.75,off
05/23/2017 12:58:00,30.5,28.75,off
