TIME,INSIDE_TEMPERATURE,OUTSIDE_TEMPERATURE,LIGHTS_STATE

12/06/2016 12:21:25,19.875,17.062,off
12/06/2016 12:21:36,19.875,17.062,off
12/06/2016 12:21:48,19.875,17.125,off
12/06/2016 12:22:00,19.875,17.25,off
