TIME,INSIDE_TEMPERATURE,OUTSIDE_TEMPERATURE,LIGHTS_STATE

05/01/2017 12:10:26,28.562,28.125,off
05/01/2017 12:10:38,28.562,28.125,off
05/01/2017 12:10:49,28.562,28.062,off
05/01/2017 12:11:01,28.562,28.062,off
