TIME,INSIDE_TEMPERATURE,OUTSIDE_TEMPERATURE,LIGHTS_STATE

12/03/2016 12:44:25,24.437,20.437,off
12/03/2016 12:44:37,24.437,20.437,off
12/03/2016 12:44:49,24.437,20.375,off
12/03/2016 12:45:00,24.437,20.437,off
