TIME,INSIDE_TEMPERATURE,OUTSIDE_TEMPERATURE,LIGHTS_STATE

09/17/2017 12:24:25,28.75,26.625,off
09/17/2017 12:24:37,28.75,26.687,off
09/17/2017 12:24:49,28.812,26.75,off
09/17/2017 12:25:00,28.812,26.75,off
