TIME,INSIDE_TEMPERATURE,OUTSIDE_TEMPERATURE,LIGHTS_STATE

01/09/2017 12:44:25,19.875,15.25,off
01/09/2017 12:44:37,19.875,15.25,off
01/09/2017 12:44:48,19.875,15.187,off
01/09/2017 12:45:00,19.875,15.25,off
