TIME,INSIDE_TEMPERATURE,OUTSIDE_TEMPERATURE,LIGHTS_STATE

03/20/2017 12:13:25,21.0,18.0,off
03/20/2017 12:13:37,21.0,18.0,off
03/20/2017 12:13:49,21.062,18.0,off
03/20/2017 12:14:00,21.062,17.937,off
