TIME,INSIDE_TEMPERATURE,OUTSIDE_TEMPERATURE,LIGHTS_STATE

03/28/2017 12:56:25,23.625,20.5,off
03/28/2017 12:56:37,23.625,20.562,off
03/28/2017 12:56:48,23.625,20.625,off
03/28/2017 12:57:00,23.625,20.562,off
