TIME,INSIDE_TEMPERATURE,OUTSIDE_TEMPERATURE,LIGHTS_STATE

04/23/2017 12:25:25,21.875,18.75,off
04/23/2017 12:25:37,21.875,18.812,off
04/23/2017 12:25:49,21.937,18.875,off
04/23/2017 12:26:00,21.937,18.937,off
