TIME,INSIDE_TEMPERATURE,OUTSIDE_TEMPERATURE,LIGHTS_STATE

07/14/2017 12:36:25,32.875,30.812,off
07/14/2017 12:36:38,32.5,30.812,off
07/14/2017 12:36:50,32.562,30.812,off
07/14/2017 12:37:02,32.625,30.75,off
