TIME,INSIDE_TEMPERATURE,OUTSIDE_TEMPERATURE,LIGHTS_STATE

07/23/2017 12:16:25,35.812,32.937,off
07/23/2017 12:16:37,35.812,32.937,off
07/23/2017 12:16:49,35.875,32.937,off
07/23/2017 12:17:01,35.812,32.937,off
