TIME,INSIDE_TEMPERATURE,OUTSIDE_TEMPERATURE,LIGHTS_STATE

03/05/2018 12:42:25,20.187,26.75,off
03/05/2018 12:42:37,20.25,27.125,off
03/05/2018 12:42:49,20.25,27.5,off
03/05/2018 12:43:01,20.25,27.687,off
