TIME,INSIDE_TEMPERATURE,OUTSIDE_TEMPERATURE,LIGHTS_STATE

09/29/2017 12:16:25,29.062,27.187,off
09/29/2017 12:16:37,29.125,27.25,off
09/29/2017 12:16:48,29.125,27.312,off
09/29/2017 12:17:00,29.125,27.312,off
