TIME,INSIDE_TEMPERATURE,OUTSIDE_TEMPERATURE,LIGHTS_STATE

07/21/2017 12:35:25,30.687,27.312,off
07/21/2017 12:35:37,30.687,27.375,off
07/21/2017 12:35:48,30.687,27.375,off
07/21/2017 12:36:00,30.687,27.375,off
