TIME,INSIDE_TEMPERATURE,OUTSIDE_TEMPERATURE,LIGHTS_STATE

02/25/2017 12:02:25,24.875,18.5,off
02/25/2017 12:02:37,24.812,18.375,off
02/25/2017 12:02:49,24.812,18.25,off
02/25/2017 12:03:00,24.812,18.312,off
