TIME,INSIDE_TEMPERATURE,OUTSIDE_TEMPERATURE,LIGHTS_STATE

01/29/2018 12:07:25,19.312,15.312,off
01/29/2018 12:07:37,19.312,15.312,off
01/29/2018 12:07:49,19.312,15.375,off
01/29/2018 12:08:02,19.312,15.375,off
