TIME,INSIDE_TEMPERATURE,OUTSIDE_TEMPERATURE,LIGHTS_STATE

01/03/2018 12:28:25,17.0,12.812,off
01/03/2018 12:28:37,17.0,12.812,off
01/03/2018 12:28:49,17.0,12.812,off
01/03/2018 12:29:00,17.0,12.812,off
