TIME,INSIDE_TEMPERATURE,OUTSIDE_TEMPERATURE,LIGHTS_STATE

07/20/2017 12:57:25,29.625,26.312,off
07/20/2017 12:57:37,29.625,26.312,off
07/20/2017 12:57:48,29.625,26.375,off
07/20/2017 12:58:00,29.687,26.375,off
