TIME,INSIDE_TEMPERATURE,OUTSIDE_TEMPERATURE,LIGHTS_STATE

06/24/2017 12:33:26,30.25,27.937,off
06/24/2017 12:33:37,30.25,27.937,off
06/24/2017 12:33:49,30.312,27.937,off
06/24/2017 12:34:01,30.312,27.937,off
