TIME,INSIDE_TEMPERATURE,OUTSIDE_TEMPERATURE,LIGHTS_STATE

01/20/2018 12:03:25,22.375,17.812,off
01/20/2018 12:03:37,22.375,17.812,off
01/20/2018 12:03:49,22.437,17.937,off
01/20/2018 12:04:01,22.437,18.062,off
