TIME,INSIDE_TEMPERATURE,OUTSIDE_TEMPERATURE,LIGHTS_STATE

03/06/2017 12:33:26,21.062,17.875,off
03/06/2017 12:33:37,21.062,17.5,off
03/06/2017 12:33:49,21.0,17.25,off
03/06/2017 12:34:01,21.0,17.187,off
