TIME,INSIDE_TEMPERATURE,OUTSIDE_TEMPERATURE,LIGHTS_STATE

07/23/2016 12:08:26,32.5,32.375,off
07/23/2016 12:08:37,32.562,32.375,off
07/23/2016 12:08:49,32.562,32.375,off
07/23/2016 12:09:01,32.625,32.375,off
