TIME,INSIDE_TEMPERATURE,OUTSIDE_TEMPERATURE,LIGHTS_STATE

02/20/2017 12:52:25,18.062,13.375,off
02/20/2017 12:52:37,18.062,13.375,off
02/20/2017 12:52:49,18.062,13.375,off
02/20/2017 12:53:00,18.062,13.312,off
