TIME,INSIDE_TEMPERATURE,OUTSIDE_TEMPERATURE,LIGHTS_STATE

01/01/2018 12:39:25,24.375,20.062,off
01/01/2018 12:39:37,24.375,20.125,off
01/01/2018 12:39:49,24.375,20.125,off
01/01/2018 12:40:01,24.375,20.125,off
