TIME,INSIDE_TEMPERATURE,OUTSIDE_TEMPERATURE,LIGHTS_STATE

01/02/2017 12:06:25,15.687,11.312,off
01/02/2017 12:06:37,15.75,11.25,off
01/02/2017 12:06:49,15.687,11.312,off
01/02/2017 12:07:00,15.687,11.375,off
