TIME,INSIDE_TEMPERATURE,OUTSIDE_TEMPERATURE,LIGHTS_STATE

10/22/2017 12:01:25,29.937,31.187,off
10/22/2017 12:01:37,29.937,31.062,off
10/22/2017 12:01:48,29.937,30.625,off
10/22/2017 12:02:00,30.0,30.25,off
