TIME,INSIDE_TEMPERATURE,OUTSIDE_TEMPERATURE,LIGHTS_STATE

02/10/2017 12:00:25,19.937,16.0,off
02/10/2017 12:00:37,19.937,16.0,off
02/10/2017 12:00:49,19.937,16.0,off
02/10/2017 12:01:00,20.0,16.0,off
