TIME,INSIDE_TEMPERATURE,OUTSIDE_TEMPERATURE,LIGHTS_STATE

12/28/2017 12:21:25,24.687,27.437,off
12/28/2017 12:21:37,24.687,27.187,off
12/28/2017 12:21:49,24.687,27.0,off
12/28/2017 12:22:01,24.687,26.75,off
