TIME,INSIDE_TEMPERATURE,OUTSIDE_TEMPERATURE,LIGHTS_STATE

10/08/2017 12:52:25,30.875,27.75,off
10/08/2017 12:52:37,30.875,27.75,off
10/08/2017 12:52:49,30.75,27.687,off
10/08/2017 12:53:01,30.437,27.687,off
