TIME,INSIDE_TEMPERATURE,OUTSIDE_TEMPERATURE,LIGHTS_STATE

03/24/2018 12:14:25,19.125,13.187,off
03/24/2018 12:14:37,19.062,13.25,off
03/24/2018 12:14:49,19.062,13.25,off
03/24/2018 12:15:00,19.062,13.25,off
