TIME,INSIDE_TEMPERATURE,OUTSIDE_TEMPERATURE,LIGHTS_STATE

01/26/2018 12:53:25,21.937,18.0,off
01/26/2018 12:53:37,21.937,18.0,off
01/26/2018 12:53:48,21.937,18.125,off
01/26/2018 12:54:00,21.937,18.25,off
