TIME,INSIDE_TEMPERATURE,OUTSIDE_TEMPERATURE,LIGHTS_STATE

11/02/2017 12:34:25,27.375,22.937,off
11/02/2017 12:34:37,27.375,22.625,off
11/02/2017 12:34:48,27.375,22.5,off
11/02/2017 12:35:00,27.375,22.25,off
