TIME,INSIDE_TEMPERATURE,OUTSIDE_TEMPERATURE,LIGHTS_STATE

05/13/2017 12:35:26,21.5,19.187,off
05/13/2017 12:35:37,21.5,19.187,off
05/13/2017 12:35:49,21.562,19.187,off
05/13/2017 12:36:01,21.562,19.062,off
