TIME,INSIDE_TEMPERATURE,OUTSIDE_TEMPERATURE,LIGHTS_STATE

01/16/2017 12:33:25,19.187,14.125,off
01/16/2017 12:33:36,19.187,14.375,off
01/16/2017 12:33:48,19.187,14.5,off
01/16/2017 12:34:00,19.25,14.437,off
