TIME,INSIDE_TEMPERATURE,OUTSIDE_TEMPERATURE,LIGHTS_STATE

03/16/2018 12:55:25,17.937,12.437,off
03/16/2018 12:55:37,17.937,12.375,off
03/16/2018 12:55:49,18.0,12.312,off
03/16/2018 12:56:01,18.0,12.25,off
