TIME,INSIDE_TEMPERATURE,OUTSIDE_TEMPERATURE,LIGHTS_STATE

07/10/2016 12:12:25,24.125,23.5,off
07/10/2016 12:12:36,24.062,23.5,off
07/10/2016 12:12:48,24.062,23.5,off
07/10/2016 12:13:00,24.0,23.437,off
