TIME,INSIDE_TEMPERATURE,OUTSIDE_TEMPERATURE,LIGHTS_STATE

04/24/2017 12:26:25,20.875,16.75,off
04/24/2017 12:26:37,20.875,16.687,off
04/24/2017 12:26:48,20.875,16.687,off
04/24/2017 12:27:00,20.875,16.687,off
