TIME,INSIDE_TEMPERATURE,OUTSIDE_TEMPERATURE,LIGHTS_STATE

06/23/2016 12:05:25,26.875,27.5,off
06/23/2016 12:05:37,26.875,27.5,off
06/23/2016 12:05:48,26.937,27.5,off
06/23/2016 12:06:00,26.937,27.437,off
