TIME,INSIDE_TEMPERATURE,OUTSIDE_TEMPERATURE,LIGHTS_STATE

04/09/2017 12:14:25,19.312,16.562,off
04/09/2017 12:14:36,19.312,16.562,off
04/09/2017 12:14:48,19.375,16.5,off
04/09/2017 12:15:00,19.312,16.5,off
