TIME,INSIDE_TEMPERATURE,OUTSIDE_TEMPERATURE,LIGHTS_STATE

08/25/2017 12:57:25,31.312,29.25,off
08/25/2017 12:57:37,31.312,29.187,off
08/25/2017 12:57:48,31.375,29.25,off
08/25/2017 12:58:00,31.375,29.25,off
