TIME,INSIDE_TEMPERATURE,OUTSIDE_TEMPERATURE,LIGHTS_STATE

11/10/2016 12:17:25,29.937,30.375,off
11/10/2016 12:17:36,29.937,30.312,off
11/10/2016 12:17:48,29.937,30.25,off
11/10/2016 12:18:00,29.875,30.125,off
