TIME,INSIDE_TEMPERATURE,OUTSIDE_TEMPERATURE,LIGHTS_STATE

12/16/2016 12:31:25,18.0,14.687,off
12/16/2016 12:31:36,18.0,14.75,off
12/16/2016 12:31:48,18.0,14.687,off
12/16/2016 12:32:00,18.0,14.562,off
