TIME,INSIDE_TEMPERATURE,OUTSIDE_TEMPERATURE,LIGHTS_STATE

02/24/2018 12:23:25,21.937,22.0,off
02/24/2018 12:23:37,22.0,21.937,off
02/24/2018 12:23:49,22.0,21.875,off
02/24/2018 12:24:00,22.0,22.0,off
