TIME,INSIDE_TEMPERATURE,OUTSIDE_TEMPERATURE,LIGHTS_STATE

11/10/2016 12:08:25,29.937,33.687,off
11/10/2016 12:08:37,29.937,33.687,off
11/10/2016 12:08:48,30.0,33.437,off
11/10/2016 12:09:00,29.937,33.437,off
