TIME,INSIDE_TEMPERATURE,OUTSIDE_TEMPERATURE,LIGHTS_STATE

02/24/2017 12:23:26,22.437,24.562,off
02/24/2017 12:23:37,22.437,24.437,off
02/24/2017 12:23:49,22.5,24.437,off
02/24/2017 12:24:01,22.437,24.437,off
