TIME,INSIDE_TEMPERATURE,OUTSIDE_TEMPERATURE,LIGHTS_STATE

01/13/2018 12:37:26,17.312,12.187,off
01/13/2018 12:37:37,17.25,12.187,off
01/13/2018 12:37:49,17.312,12.187,off
01/13/2018 12:38:01,17.312,12.187,off
