TIME,INSIDE_TEMPERATURE,OUTSIDE_TEMPERATURE,LIGHTS_STATE

03/12/2017 12:17:25,25.875,22.187,off
03/12/2017 12:17:37,25.875,22.25,off
03/12/2017 12:17:49,25.937,22.25,off
03/12/2017 12:18:00,26.0,22.312,off
