TIME,INSIDE_TEMPERATURE,OUTSIDE_TEMPERATURE,LIGHTS_STATE

11/02/2016 12:31:25,29.5,28.812,off
11/02/2016 12:31:36,29.5,28.812,off
11/02/2016 12:31:48,29.562,28.875,off
11/02/2016 12:32:00,29.5,29.062,off
