TIME,INSIDE_TEMPERATURE,OUTSIDE_TEMPERATURE,LIGHTS_STATE

10/18/2017 12:40:25,31.562,34.687,off
10/18/2017 12:40:37,31.625,34.687,off
10/18/2017 12:40:49,31.625,34.687,off
10/18/2017 12:41:00,31.625,34.5,off
