TIME,INSIDE_TEMPERATURE,OUTSIDE_TEMPERATURE,LIGHTS_STATE

01/20/2018 12:48:26,22.625,22.875,off
01/20/2018 12:48:37,22.625,23.062,off
01/20/2018 12:48:49,22.625,23.187,off
01/20/2018 12:49:01,22.625,23.312,off
