TIME,INSIDE_TEMPERATURE,OUTSIDE_TEMPERATURE,LIGHTS_STATE

12/29/2017 12:13:26,22.625,24.5,off
12/29/2017 12:13:37,22.625,24.562,off
12/29/2017 12:13:49,22.625,24.562,off
12/29/2017 12:14:01,22.625,24.625,off
