TIME,INSIDE_TEMPERATURE,OUTSIDE_TEMPERATURE,LIGHTS_STATE

02/06/2017 12:31:26,18.0,13.812,off
02/06/2017 12:31:37,18.062,13.875,off
02/06/2017 12:31:49,18.0,13.875,off
02/06/2017 12:32:01,18.062,13.875,off
