TIME,INSIDE_TEMPERATURE,OUTSIDE_TEMPERATURE,LIGHTS_STATE

04/23/2017 12:27:25,22.0,18.875,off
04/23/2017 12:27:37,22.0,18.875,off
04/23/2017 12:27:48,22.0,18.937,off
04/23/2017 12:28:00,22.062,18.875,off
