TIME,INSIDE_TEMPERATURE,OUTSIDE_TEMPERATURE,LIGHTS_STATE

01/04/2017 12:36:25,17.062,12.375,off
01/04/2017 12:36:37,17.062,12.375,off
01/04/2017 12:36:48,17.062,12.375,off
01/04/2017 12:37:00,17.062,12.312,off
