TIME,INSIDE_TEMPERATURE,OUTSIDE_TEMPERATURE,LIGHTS_STATE

11/14/2016 12:42:25,28.5,28.0,off
11/14/2016 12:42:37,28.562,27.75,off
11/14/2016 12:42:48,28.562,27.687,off
11/14/2016 12:43:00,28.562,27.625,off
