TIME,INSIDE_TEMPERATURE,OUTSIDE_TEMPERATURE,LIGHTS_STATE

03/08/2018 12:56:25,28.625,24.687,off
03/08/2018 12:56:37,28.562,24.562,off
03/08/2018 12:56:48,28.625,24.437,off
03/08/2018 12:57:00,28.625,24.437,off
