TIME,INSIDE_TEMPERATURE,OUTSIDE_TEMPERATURE,LIGHTS_STATE

05/07/2017 12:17:25,23.625,21.562,off
05/07/2017 12:17:37,23.625,21.562,off
05/07/2017 12:17:49,23.625,21.5,off
05/07/2017 12:18:00,23.625,21.5,off
