TIME,INSIDE_TEMPERATURE,OUTSIDE_TEMPERATURE,LIGHTS_STATE

03/17/2017 12:34:26,24.687,22.687,off
03/17/2017 12:34:37,24.75,22.625,off
03/17/2017 12:34:49,24.75,22.625,off
03/17/2017 12:35:01,24.75,22.625,off
