TIME,INSIDE_TEMPERATURE,OUTSIDE_TEMPERATURE,LIGHTS_STATE

03/23/2018 12:07:25,18.437,15.625,off
03/23/2018 12:07:37,18.437,15.625,off
03/23/2018 12:07:49,18.437,15.625,off
03/23/2018 12:08:01,18.5,15.5,off
