TIME,INSIDE_TEMPERATURE,OUTSIDE_TEMPERATURE,LIGHTS_STATE

08/15/2017 12:08:25,26.25,22.875,off
08/15/2017 12:08:37,26.25,22.937,off
08/15/2017 12:08:49,26.25,23.0,off
08/15/2017 12:09:01,26.187,23.062,off
