TIME,INSIDE_TEMPERATURE,OUTSIDE_TEMPERATURE,LIGHTS_STATE

03/21/2018 12:46:25,23.562,19.937,off
03/21/2018 12:46:37,23.562,19.937,off
03/21/2018 12:46:49,23.562,20.0,off
03/21/2018 12:47:00,23.562,20.0,off
