TIME,INSIDE_TEMPERATURE,OUTSIDE_TEMPERATURE,LIGHTS_STATE

06/14/2017 12:19:25,29.25,26.0,off
06/14/2017 12:19:37,29.25,26.0,off
06/14/2017 12:19:49,29.25,26.0,off
06/14/2017 12:20:01,29.25,25.937,off
