TIME,INSIDE_TEMPERATURE,OUTSIDE_TEMPERATURE,LIGHTS_STATE

03/05/2018 12:28:26,20.187,27.812,off
03/05/2018 12:28:37,20.187,28.062,off
03/05/2018 12:28:49,20.187,27.937,off
03/05/2018 12:29:01,20.187,27.562,off
