TIME,INSIDE_TEMPERATURE,OUTSIDE_TEMPERATURE,LIGHTS_STATE

04/13/2017 12:47:26,21.687,16.562,off
04/13/2017 12:47:37,21.687,16.562,off
04/13/2017 12:47:49,21.687,16.5,off
04/13/2017 12:48:01,21.687,16.437,off
