TIME,INSIDE_TEMPERATURE,OUTSIDE_TEMPERATURE,LIGHTS_STATE

02/14/2017 12:01:26,30.0,24.25,off
02/14/2017 12:01:38,29.937,24.187,off
02/14/2017 12:01:50,30.0,24.062,off
02/14/2017 12:02:01,29.937,23.937,off
