TIME,INSIDE_TEMPERATURE,OUTSIDE_TEMPERATURE,LIGHTS_STATE

01/10/2018 12:37:25,17.625,14.687,off
01/10/2018 12:37:37,17.687,14.562,off
01/10/2018 12:37:49,17.687,14.5,off
01/10/2018 12:38:01,17.75,14.437,off
