TIME,INSIDE_TEMPERATURE,OUTSIDE_TEMPERATURE,LIGHTS_STATE

09/28/2017 12:23:25,33.625,31.25,off
09/28/2017 12:23:37,33.625,31.312,off
09/28/2017 12:23:48,33.625,31.312,off
09/28/2017 12:24:00,33.687,31.312,off
