TIME,INSIDE_TEMPERATURE,OUTSIDE_TEMPERATURE,LIGHTS_STATE

02/27/2017 12:45:26,23.562,24.312,off
02/27/2017 12:45:38,23.562,24.437,off
02/27/2017 12:45:50,23.5,24.5,off
02/27/2017 12:46:01,23.562,24.562,off
