TIME,INSIDE_TEMPERATURE,OUTSIDE_TEMPERATURE,LIGHTS_STATE

08/23/2017 12:56:25,30.75,28.187,off
08/23/2017 12:56:37,30.75,28.25,off
08/23/2017 12:56:49,30.75,28.312,off
08/23/2017 12:57:00,30.75,28.312,off
