TIME,INSIDE_TEMPERATURE,OUTSIDE_TEMPERATURE,LIGHTS_STATE

04/19/2017 12:16:25,22.875,20.625,off
04/19/2017 12:16:36,22.875,20.625,off
04/19/2017 12:16:48,22.875,20.625,off
04/19/2017 12:17:00,22.937,20.562,off
