TIME,INSIDE_TEMPERATURE,OUTSIDE_TEMPERATURE,LIGHTS_STATE

04/24/2017 12:53:25,20.625,16.562,off
04/24/2017 12:53:37,20.625,16.562,off
04/24/2017 12:53:48,20.625,16.625,off
04/24/2017 12:54:00,20.687,16.625,off
