TIME,INSIDE_TEMPERATURE,OUTSIDE_TEMPERATURE,LIGHTS_STATE

08/06/2016 12:30:26,24.437,24.125,off
08/06/2016 12:30:38,24.437,24.125,off
08/06/2016 12:30:50,24.5,24.187,off
08/06/2016 12:31:01,24.5,24.25,off
