TIME,INSIDE_TEMPERATURE,OUTSIDE_TEMPERATURE,LIGHTS_STATE

03/04/2018 12:14:26,20.375,37.375,off
03/04/2018 12:14:37,20.375,37.25,off
03/04/2018 12:14:49,20.375,36.812,off
03/04/2018 12:15:01,20.437,36.687,off
