TIME,INSIDE_TEMPERATURE,OUTSIDE_TEMPERATURE,LIGHTS_STATE

02/15/2017 12:29:26,22.0,18.75,off
02/15/2017 12:29:37,21.937,18.75,off
02/15/2017 12:29:49,22.0,18.75,off
02/15/2017 12:30:01,21.937,18.75,off
