TIME,INSIDE_TEMPERATURE,OUTSIDE_TEMPERATURE,LIGHTS_STATE

07/13/2017 12:37:25,32.687,30.125,off
07/13/2017 12:37:37,32.687,30.187,off
07/13/2017 12:37:49,32.687,30.187,off
07/13/2017 12:38:00,32.687,30.187,off
