TIME,INSIDE_TEMPERATURE,OUTSIDE_TEMPERATURE,LIGHTS_STATE

07/04/2016 12:24:25,28.062,27.812,off
07/04/2016 12:24:36,28.062,27.812,off
07/04/2016 12:24:48,28.062,27.812,off
07/04/2016 12:25:00,28.062,27.75,off
