TIME,INSIDE_TEMPERATURE,OUTSIDE_TEMPERATURE,LIGHTS_STATE

03/11/2018 12:14:26,22.187,30.0,off
03/11/2018 12:14:37,22.187,30.187,off
03/11/2018 12:14:49,22.187,30.437,off
03/11/2018 12:15:01,22.187,30.687,off
