TIME,INSIDE_TEMPERATURE,OUTSIDE_TEMPERATURE,LIGHTS_STATE

12/23/2016 12:13:25,13.125,9.312,off
12/23/2016 12:13:36,13.125,9.312,off
12/23/2016 12:13:48,13.187,9.312,off
12/23/2016 12:14:00,13.187,9.375,off
