TIME,INSIDE_TEMPERATURE,OUTSIDE_TEMPERATURE,LIGHTS_STATE

02/28/2017 12:06:25,23.375,22.0,off
02/28/2017 12:06:37,23.437,21.875,off
02/28/2017 12:06:49,23.375,21.937,off
02/28/2017 12:07:00,23.437,21.937,off
