TIME,INSIDE_TEMPERATURE,OUTSIDE_TEMPERATURE,LIGHTS_STATE

10/02/2017 12:33:26,29.375,27.125,off
10/02/2017 12:33:37,29.437,27.125,off
10/02/2017 12:33:49,29.437,27.062,off
10/02/2017 12:34:01,29.437,27.062,off
