TIME,INSIDE_TEMPERATURE,OUTSIDE_TEMPERATURE,LIGHTS_STATE

02/16/2017 12:10:25,26.937,21.75,off
02/16/2017 12:10:37,26.937,21.75,off
02/16/2017 12:10:49,26.875,21.625,off
02/16/2017 12:11:00,26.812,21.437,off
