TIME,INSIDE_TEMPERATURE,OUTSIDE_TEMPERATURE,LIGHTS_STATE

02/18/2017 12:03:26,17.312,13.375,off
02/18/2017 12:03:37,17.312,13.437,off
02/18/2017 12:03:49,17.375,13.437,off
02/18/2017 12:04:01,17.375,13.375,off
