TIME,INSIDE_TEMPERATURE,OUTSIDE_TEMPERATURE,LIGHTS_STATE

03/22/2018 12:54:25,19.937,13.687,off
03/22/2018 12:54:37,19.937,13.625,off
03/22/2018 12:54:49,19.937,13.625,off
03/22/2018 12:55:00,19.937,13.75,off
