TIME,INSIDE_TEMPERATURE,OUTSIDE_TEMPERATURE,LIGHTS_STATE

06/10/2017 12:51:25,24.937,20.75,off
06/10/2017 12:51:37,25.0,20.75,off
06/10/2017 12:51:49,24.937,20.625,off
06/10/2017 12:52:01,24.937,20.562,off
