TIME,INSIDE_TEMPERATURE,OUTSIDE_TEMPERATURE,LIGHTS_STATE

08/01/2017 12:08:25,35.375,34.312,off
08/01/2017 12:08:37,35.375,34.312,off
08/01/2017 12:08:49,35.375,34.312,off
08/01/2017 12:09:01,35.375,34.312,off
