TIME,INSIDE_TEMPERATURE,OUTSIDE_TEMPERATURE,LIGHTS_STATE

07/18/2016 12:35:26,23.062,23.312,off
07/18/2016 12:35:37,23.062,23.312,off
07/18/2016 12:35:49,23.062,23.375,off
07/18/2016 12:36:01,23.062,23.375,off
