TIME,INSIDE_TEMPERATURE,OUTSIDE_TEMPERATURE,LIGHTS_STATE

02/06/2017 12:06:25,18.312,14.437,off
02/06/2017 12:06:37,18.312,14.437,off
02/06/2017 12:06:49,18.312,14.437,off
02/06/2017 12:07:00,18.312,14.437,off
