TIME,INSIDE_TEMPERATURE,OUTSIDE_TEMPERATURE,LIGHTS_STATE

01/24/2018 12:04:26,19.5,16.0,off
01/24/2018 12:04:38,19.437,16.0,off
01/24/2018 12:04:49,19.437,16.0,off
01/24/2018 12:05:01,19.5,16.062,off
