TIME,INSIDE_TEMPERATURE,OUTSIDE_TEMPERATURE,LIGHTS_STATE

08/03/2017 12:00:26,37.437,38.25,off
08/03/2017 12:00:37,37.437,38.312,off
08/03/2017 12:00:49,37.437,38.312,off
08/03/2017 12:01:01,37.437,38.25,off
