TIME,INSIDE_TEMPERATURE,OUTSIDE_TEMPERATURE,LIGHTS_STATE

07/07/2017 12:34:25,37.125,33.562,off
07/07/2017 12:34:37,37.125,33.562,off
07/07/2017 12:34:49,37.125,33.562,off
07/07/2017 12:35:00,37.125,33.5,off
