TIME,INSIDE_TEMPERATURE,OUTSIDE_TEMPERATURE,LIGHTS_STATE

03/10/2017 12:43:25,28.125,23.937,off
03/10/2017 12:43:37,28.187,24.0,off
03/10/2017 12:43:49,28.187,24.062,off
03/10/2017 12:44:01,28.187,24.062,off
