TIME,INSIDE_TEMPERATURE,OUTSIDE_TEMPERATURE,LIGHTS_STATE

11/02/2016 12:33:25,29.562,30.062,off
11/02/2016 12:33:37,29.625,30.312,off
11/02/2016 12:33:49,29.562,30.5,off
11/02/2016 12:34:00,29.562,30.437,off
