TIME,INSIDE_TEMPERATURE,OUTSIDE_TEMPERATURE,LIGHTS_STATE

12/15/2016 12:15:25,20.562,17.75,off
12/15/2016 12:15:37,20.562,17.687,off
12/15/2016 12:15:49,20.562,17.687,off
12/15/2016 12:16:00,20.625,17.75,off
