TIME,INSIDE_TEMPERATURE,OUTSIDE_TEMPERATURE,LIGHTS_STATE

05/11/2017 12:14:25,23.062,19.375,off
05/11/2017 12:14:37,23.125,19.375,off
05/11/2017 12:14:48,23.125,19.375,off
05/11/2017 12:15:00,23.125,19.312,off
