TIME,INSIDE_TEMPERATURE,OUTSIDE_TEMPERATURE,LIGHTS_STATE

06/23/2016 12:43:25,27.625,28.562,off
06/23/2016 12:43:37,27.687,28.562,off
06/23/2016 12:43:48,27.687,28.562,off
06/23/2016 12:44:00,27.687,28.625,off
