TIME,INSIDE_TEMPERATURE,OUTSIDE_TEMPERATURE,LIGHTS_STATE

03/11/2018 12:40:26,23.5,36.875,off
03/11/2018 12:40:38,23.5,36.937,off
03/11/2018 12:40:49,23.5,36.937,off
03/11/2018 12:41:01,23.5,37.0,off
