TIME,INSIDE_TEMPERATURE,OUTSIDE_TEMPERATURE,LIGHTS_STATE

01/13/2017 12:28:25,21.187,17.25,off
01/13/2017 12:28:37,21.187,17.187,off
01/13/2017 12:28:49,21.187,17.125,off
01/13/2017 12:29:01,21.187,16.875,off
