TIME,INSIDE_TEMPERATURE,OUTSIDE_TEMPERATURE,LIGHTS_STATE

07/13/2017 12:49:25,33.187,29.5,off
07/13/2017 12:49:37,33.187,29.5,off
07/13/2017 12:49:49,33.187,29.5,off
07/13/2017 12:50:01,33.187,29.562,off
