TIME,INSIDE_TEMPERATURE,OUTSIDE_TEMPERATURE,LIGHTS_STATE

07/06/2016 12:52:25,24.937,24.687,off
07/06/2016 12:52:37,24.937,24.687,off
07/06/2016 12:52:49,25.0,24.75,off
07/06/2016 12:53:00,25.0,24.75,off
