TIME,INSIDE_TEMPERATURE,OUTSIDE_TEMPERATURE,LIGHTS_STATE

09/15/2017 12:16:25,26.875,23.812,off
09/15/2017 12:16:37,26.812,23.812,off
09/15/2017 12:16:49,26.812,23.812,off
09/15/2017 12:17:01,26.812,23.75,off
