TIME,INSIDE_TEMPERATURE,OUTSIDE_TEMPERATURE,LIGHTS_STATE

11/07/2016 12:52:25,28.75,24.562,off
11/07/2016 12:52:36,28.812,24.75,off
11/07/2016 12:52:48,28.812,24.812,off
11/07/2016 12:53:00,28.812,24.875,off
