TIME,INSIDE_TEMPERATURE,OUTSIDE_TEMPERATURE,LIGHTS_STATE

01/13/2017 12:13:25,21.187,16.687,off
01/13/2017 12:13:36,21.187,16.687,off
01/13/2017 12:13:48,21.187,16.625,off
01/13/2017 12:14:00,21.187,16.562,off
