TIME,INSIDE_TEMPERATURE,OUTSIDE_TEMPERATURE,LIGHTS_STATE

11/07/2016 12:51:25,28.75,24.437,off
11/07/2016 12:51:36,28.75,24.375,off
11/07/2016 12:51:48,28.75,24.437,off
11/07/2016 12:52:00,28.75,24.375,off
