TIME,INSIDE_TEMPERATURE,OUTSIDE_TEMPERATURE,LIGHTS_STATE

06/11/2017 12:16:25,23.062,18.687,off
06/11/2017 12:16:37,23.0,18.75,off
06/11/2017 12:16:49,23.062,18.812,off
06/11/2017 12:17:00,23.062,18.875,off
