TIME,INSIDE_TEMPERATURE,OUTSIDE_TEMPERATURE,LIGHTS_STATE

07/29/2017 12:44:25,31.812,28.625,off
07/29/2017 12:44:37,31.812,28.625,off
07/29/2017 12:44:49,31.812,28.562,off
07/29/2017 12:45:00,31.812,28.625,off
