TIME,INSIDE_TEMPERATURE,OUTSIDE_TEMPERATURE,LIGHTS_STATE

11/11/2016 12:20:25,27.437,24.562,off
11/11/2016 12:20:36,27.437,24.562,off
11/11/2016 12:20:48,27.437,24.625,off
11/11/2016 12:21:00,27.437,24.625,off
