TIME,INSIDE_TEMPERATURE,OUTSIDE_TEMPERATURE,LIGHTS_STATE

12/29/2016 12:09:26,20.562,15.812,off
12/29/2016 12:09:38,20.562,15.937,off
12/29/2016 12:09:49,20.562,16.125,off
12/29/2016 12:10:02,20.625,16.375,off
