TIME,INSIDE_TEMPERATURE,OUTSIDE_TEMPERATURE,LIGHTS_STATE

09/22/2017 12:50:25,27.25,22.687,off
09/22/2017 12:50:37,27.25,22.75,off
09/22/2017 12:50:49,27.25,22.812,off
09/22/2017 12:51:01,27.312,22.875,off
