TIME,INSIDE_TEMPERATURE,OUTSIDE_TEMPERATURE,LIGHTS_STATE

07/24/2017 12:56:25,31.687,28.562,off
07/24/2017 12:56:37,31.687,28.562,off
07/24/2017 12:56:49,31.687,28.562,off
07/24/2017 12:57:01,31.687,28.625,off
