TIME,INSIDE_TEMPERATURE,OUTSIDE_TEMPERATURE,LIGHTS_STATE

01/01/2017 12:03:25,20.75,18.375,off
01/01/2017 12:03:37,20.75,18.375,off
01/01/2017 12:03:49,20.75,18.125,off
01/01/2017 12:04:00,20.75,18.187,off
