TIME,INSIDE_TEMPERATURE,OUTSIDE_TEMPERATURE,LIGHTS_STATE

01/17/2017 12:25:24,14.125,12.0,off
01/17/2017 12:25:36,14.125,12.0,off
01/17/2017 12:25:48,14.125,12.0,off
01/17/2017 12:25:59,14.125,12.062,off
