TIME,INSIDE_TEMPERATURE,OUTSIDE_TEMPERATURE,LIGHTS_STATE

09/10/2017 12:57:25,39.125,34.562,off
09/10/2017 12:57:37,39.187,34.625,off
09/10/2017 12:57:49,39.0,34.625,off
09/10/2017 12:58:01,38.937,34.625,off
