TIME,INSIDE_TEMPERATURE,OUTSIDE_TEMPERATURE,LIGHTS_STATE

07/15/2016 12:50:26,29.687,29.75,off
07/15/2016 12:50:37,29.687,29.75,off
07/15/2016 12:50:49,29.75,29.812,off
07/15/2016 12:51:01,29.812,29.875,off
