TIME,INSIDE_TEMPERATURE,OUTSIDE_TEMPERATURE,LIGHTS_STATE

06/13/2017 12:06:25,25.75,22.562,off
06/13/2017 12:06:37,25.75,22.5,off
06/13/2017 12:06:49,25.75,22.5,off
06/13/2017 12:07:01,25.75,22.5,off
