TIME,INSIDE_TEMPERATURE,OUTSIDE_TEMPERATURE,LIGHTS_STATE

12/26/2016 12:41:25,16.25,12.875,off
12/26/2016 12:41:36,16.25,12.812,off
12/26/2016 12:41:48,16.25,12.75,off
12/26/2016 12:42:00,16.25,12.75,off
