TIME,INSIDE_TEMPERATURE,OUTSIDE_TEMPERATURE,LIGHTS_STATE

03/22/2018 12:13:25,19.687,12.875,off
03/22/2018 12:13:37,19.687,12.875,off
03/22/2018 12:13:48,19.687,12.875,off
03/22/2018 12:14:00,19.687,12.937,off
