TIME,INSIDE_TEMPERATURE,OUTSIDE_TEMPERATURE,LIGHTS_STATE

06/29/2017 12:16:25,27.625,24.25,off
06/29/2017 12:16:37,27.562,24.25,off
06/29/2017 12:16:48,27.625,24.25,off
06/29/2017 12:17:00,27.625,24.25,off
