TIME,INSIDE_TEMPERATURE,OUTSIDE_TEMPERATURE,LIGHTS_STATE

01/20/2017 12:01:25,18.937,13.562,off
01/20/2017 12:01:37,18.875,13.625,off
01/20/2017 12:01:49,18.875,13.562,off
01/20/2017 12:02:00,18.875,13.5,off
