TIME,INSIDE_TEMPERATURE,OUTSIDE_TEMPERATURE,LIGHTS_STATE

02/06/2018 12:35:25,29.687,46.062,off
02/06/2018 12:35:37,29.75,46.187,off
02/06/2018 12:35:49,29.75,46.25,off
02/06/2018 12:36:02,29.75,46.25,off
