TIME,INSIDE_TEMPERATURE,OUTSIDE_TEMPERATURE,LIGHTS_STATE

10/04/2017 12:37:25,29.187,27.437,off
10/04/2017 12:37:37,29.187,27.312,off
10/04/2017 12:37:49,29.187,27.25,off
10/04/2017 12:38:00,29.187,27.312,off
