TIME,INSIDE_TEMPERATURE,OUTSIDE_TEMPERATURE,LIGHTS_STATE

04/09/2017 12:07:25,19.187,16.5,off
04/09/2017 12:07:37,19.187,16.5,off
04/09/2017 12:07:48,19.187,16.437,off
04/09/2017 12:08:00,19.187,16.437,off
