TIME,INSIDE_TEMPERATURE,OUTSIDE_TEMPERATURE,LIGHTS_STATE

03/16/2017 12:12:25,25.5,21.812,off
03/16/2017 12:12:37,25.5,21.812,off
03/16/2017 12:12:49,25.5,21.812,off
03/16/2017 12:13:00,25.5,21.812,off
