TIME,INSIDE_TEMPERATURE,OUTSIDE_TEMPERATURE,LIGHTS_STATE

04/03/2017 12:56:25,24.625,22.062,off
04/03/2017 12:56:37,24.625,22.125,off
04/03/2017 12:56:49,24.625,22.125,off
04/03/2017 12:57:00,24.625,22.062,off
