TIME,INSIDE_TEMPERATURE,OUTSIDE_TEMPERATURE,LIGHTS_STATE

09/22/2016 12:48:26,25.375,23.812,off
09/22/2016 12:48:38,25.375,23.687,off
09/22/2016 12:48:50,25.375,23.75,off
09/22/2016 12:49:01,25.437,23.812,off
