TIME,INSIDE_TEMPERATURE,OUTSIDE_TEMPERATURE,LIGHTS_STATE

11/08/2016 12:52:25,30.5,27.125,off
11/08/2016 12:52:36,30.5,27.25,off
11/08/2016 12:52:48,30.5,27.312,off
11/08/2016 12:53:00,30.5,27.312,off
