TIME,INSIDE_TEMPERATURE,OUTSIDE_TEMPERATURE,LIGHTS_STATE

10/23/2017 12:17:25,35.312,32.687,off
10/23/2017 12:17:38,35.312,32.5,off
10/23/2017 12:17:50,35.312,32.375,off
10/23/2017 12:18:02,35.375,32.312,off
