TIME,INSIDE_TEMPERATURE,OUTSIDE_TEMPERATURE,LIGHTS_STATE

08/30/2017 12:05:26,29.0,26.875,off
08/30/2017 12:05:37,29.0,26.875,off
08/30/2017 12:05:49,29.0,26.875,off
08/30/2017 12:06:01,29.0,26.875,off
