TIME,INSIDE_TEMPERATURE,OUTSIDE_TEMPERATURE,LIGHTS_STATE

02/28/2017 12:35:25,22.937,22.875,off
02/28/2017 12:35:37,22.937,23.0,off
02/28/2017 12:35:48,22.937,22.625,off
02/28/2017 12:36:00,22.937,22.437,off
