TIME,INSIDE_TEMPERATURE,OUTSIDE_TEMPERATURE,LIGHTS_STATE

10/30/2016 12:46:25,20.625,18.125,off
10/30/2016 12:46:37,20.625,18.125,off
10/30/2016 12:46:48,20.687,18.187,off
10/30/2016 12:47:00,20.812,18.375,off
