TIME,INSIDE_TEMPERATURE,OUTSIDE_TEMPERATURE,LIGHTS_STATE

11/02/2016 12:39:25,29.062,29.312,off
11/02/2016 12:39:38,29.062,29.437,off
11/02/2016 12:39:49,29.0,29.75,off
11/02/2016 12:40:01,29.0,30.062,off
