TIME,INSIDE_TEMPERATURE,OUTSIDE_TEMPERATURE,LIGHTS_STATE

12/04/2016 12:03:25,23.5,20.25,off
12/04/2016 12:03:36,23.437,20.125,off
12/04/2016 12:03:48,23.5,19.937,off
12/04/2016 12:04:00,23.5,19.75,off
