TIME,INSIDE_TEMPERATURE,OUTSIDE_TEMPERATURE,LIGHTS_STATE

01/01/2018 12:43:25,24.437,20.25,off
01/01/2018 12:43:37,24.437,20.312,off
01/01/2018 12:43:49,24.437,20.312,off
01/01/2018 12:44:01,24.437,20.312,off
