TIME,INSIDE_TEMPERATURE,OUTSIDE_TEMPERATURE,LIGHTS_STATE

09/08/2016 12:02:25,28.187,28.062,off
09/08/2016 12:02:37,28.25,28.062,off
09/08/2016 12:02:48,28.25,28.25,off
09/08/2016 12:03:00,28.187,28.25,off
