TIME,INSIDE_TEMPERATURE,OUTSIDE_TEMPERATURE,LIGHTS_STATE

09/21/2017 12:23:25,26.125,22.25,off
09/21/2017 12:23:37,26.125,22.312,off
09/21/2017 12:23:49,26.187,22.375,off
09/21/2017 12:24:01,26.187,22.375,off
