TIME,INSIDE_TEMPERATURE,OUTSIDE_TEMPERATURE,LIGHTS_STATE

05/12/2017 12:27:25,20.812,18.062,off
05/12/2017 12:27:37,20.812,18.062,off
05/12/2017 12:27:49,20.812,18.125,off
05/12/2017 12:28:00,20.812,18.187,off
