TIME,INSIDE_TEMPERATURE,OUTSIDE_TEMPERATURE,LIGHTS_STATE

09/26/2017 12:05:25,31.0,28.562,off
09/26/2017 12:05:37,31.0,28.562,off
09/26/2017 12:05:49,31.0,28.562,off
09/26/2017 12:06:01,31.062,28.562,off
