TIME,INSIDE_TEMPERATURE,OUTSIDE_TEMPERATURE,LIGHTS_STATE

02/06/2017 12:05:25,18.25,14.375,off
02/06/2017 12:05:37,18.312,14.375,off
02/06/2017 12:05:48,18.312,14.375,off
02/06/2017 12:06:00,18.312,14.437,off
