TIME,INSIDE_TEMPERATURE,OUTSIDE_TEMPERATURE,LIGHTS_STATE

06/07/2017 12:00:25,22.687,22.125,off
06/07/2017 12:00:37,22.625,22.125,off
06/07/2017 12:00:50,22.625,22.125,off
06/07/2017 12:01:02,22.687,22.125,off
