TIME,INSIDE_TEMPERATURE,OUTSIDE_TEMPERATURE,LIGHTS_STATE

07/05/2016 12:31:25,25.75,25.5,off
07/05/2016 12:31:36,25.75,25.5,off
07/05/2016 12:31:48,25.75,25.437,off
07/05/2016 12:32:00,25.75,25.437,off
