TIME,INSIDE_TEMPERATURE,OUTSIDE_TEMPERATURE,LIGHTS_STATE

11/20/2016 12:22:25,21.562,17.687,off
11/20/2016 12:22:37,21.562,17.75,off
11/20/2016 12:22:48,21.562,17.75,off
11/20/2016 12:23:00,21.562,17.812,off
