TIME,INSIDE_TEMPERATURE,OUTSIDE_TEMPERATURE,LIGHTS_STATE

02/20/2017 12:33:25,18.875,14.5,off
02/20/2017 12:33:37,18.812,14.5,off
02/20/2017 12:33:48,18.812,14.5,off
02/20/2017 12:34:00,18.812,14.437,off
