TIME,INSIDE_TEMPERATURE,OUTSIDE_TEMPERATURE,LIGHTS_STATE

07/13/2016 12:55:25,31.312,31.562,off
07/13/2016 12:55:36,31.312,31.562,off
07/13/2016 12:55:48,31.312,31.5,off
07/13/2016 12:56:00,31.312,31.5,off
