TIME,INSIDE_TEMPERATURE,OUTSIDE_TEMPERATURE,LIGHTS_STATE

09/23/2017 12:20:25,26.687,24.562,off
09/23/2017 12:20:37,26.687,24.562,off
09/23/2017 12:20:49,26.687,24.562,off
09/23/2017 12:21:00,26.75,24.562,off
