TIME,INSIDE_TEMPERATURE,OUTSIDE_TEMPERATURE,LIGHTS_STATE

12/04/2016 12:49:25,23.437,20.5,off
12/04/2016 12:49:36,23.437,20.437,off
12/04/2016 12:49:48,23.437,20.437,off
12/04/2016 12:50:00,23.437,20.5,off
