TIME,INSIDE_TEMPERATURE,OUTSIDE_TEMPERATURE,LIGHTS_STATE

10/31/2017 12:42:25,29.75,29.125,off
10/31/2017 12:42:36,29.75,29.375,off
10/31/2017 12:42:48,29.75,29.562,off
10/31/2017 12:43:00,29.75,29.562,off
