TIME,INSIDE_TEMPERATURE,OUTSIDE_TEMPERATURE,LIGHTS_STATE

01/06/2018 12:31:25,24.5,30.312,off
01/06/2018 12:31:37,24.5,29.75,off
01/06/2018 12:31:49,24.5,29.125,off
01/06/2018 12:32:01,24.5,28.437,off
