TIME,INSIDE_TEMPERATURE,OUTSIDE_TEMPERATURE,LIGHTS_STATE

01/23/2018 12:52:25,22.687,22.312,off
01/23/2018 12:52:37,22.687,22.687,off
01/23/2018 12:52:49,22.687,22.812,off
01/23/2018 12:53:00,22.687,22.875,off
