TIME,INSIDE_TEMPERATURE,OUTSIDE_TEMPERATURE,LIGHTS_STATE

03/29/2017 12:14:25,25.375,22.375,off
03/29/2017 12:14:36,25.437,22.312,off
03/29/2017 12:14:48,25.375,22.25,off
03/29/2017 12:15:00,25.437,22.25,off
