TIME,INSIDE_TEMPERATURE,OUTSIDE_TEMPERATURE,LIGHTS_STATE

06/28/2017 12:19:25,27.062,24.062,off
06/28/2017 12:19:37,27.062,24.187,off
06/28/2017 12:19:49,27.125,24.125,off
06/28/2017 12:20:01,27.125,24.062,off
