TIME,INSIDE_TEMPERATURE,OUTSIDE_TEMPERATURE,LIGHTS_STATE

09/18/2017 12:34:25,30.375,26.75,off
09/18/2017 12:34:37,30.437,26.687,off
09/18/2017 12:34:49,30.375,26.625,off
09/18/2017 12:35:01,30.437,26.625,off
