TIME,INSIDE_TEMPERATURE,OUTSIDE_TEMPERATURE,LIGHTS_STATE

03/01/2018 12:12:25,18.687,12.375,off
03/01/2018 12:12:37,18.687,12.437,off
03/01/2018 12:12:48,18.687,12.375,off
03/01/2018 12:13:00,18.687,12.375,off
