TIME,INSIDE_TEMPERATURE,OUTSIDE_TEMPERATURE,LIGHTS_STATE

08/04/2017 12:20:25,31.937,28.062,off
08/04/2017 12:20:37,31.937,28.125,off
08/04/2017 12:20:48,31.937,28.062,off
08/04/2017 12:21:00,31.937,28.125,off
