TIME,INSIDE_TEMPERATURE,OUTSIDE_TEMPERATURE,LIGHTS_STATE

09/15/2016 12:03:27,27.25,26.75,off
09/15/2016 12:03:38,27.25,26.687,off
09/15/2016 12:03:50,27.25,26.812,off
09/15/2016 12:04:02,27.25,26.75,off
