TIME,INSIDE_TEMPERATURE,OUTSIDE_TEMPERATURE,LIGHTS_STATE

03/18/2017 12:22:25,20.312,17.25,off
03/18/2017 12:22:37,20.375,17.187,off
03/18/2017 12:22:49,20.375,17.187,off
03/18/2017 12:23:00,20.312,17.187,off
