TIME,INSIDE_TEMPERATURE,OUTSIDE_TEMPERATURE,LIGHTS_STATE

07/16/2017 12:07:25,37.5,33.437,off
07/16/2017 12:07:37,37.5,33.437,off
07/16/2017 12:07:49,37.5,33.437,off
07/16/2017 12:08:01,37.5,33.5,off
