TIME,INSIDE_TEMPERATURE,OUTSIDE_TEMPERATURE,LIGHTS_STATE

03/03/2017 12:30:25,26.187,24.812,off
03/03/2017 12:30:37,26.187,24.75,off
03/03/2017 12:30:48,26.187,24.75,off
03/03/2017 12:31:00,26.187,24.75,off
