TIME,INSIDE_TEMPERATURE,OUTSIDE_TEMPERATURE,LIGHTS_STATE

02/19/2017 12:14:27,17.125,12.812,off
02/19/2017 12:14:38,17.125,12.812,off
02/19/2017 12:14:50,17.125,12.812,off
02/19/2017 12:15:02,17.062,12.812,off
