TIME,INSIDE_TEMPERATURE,OUTSIDE_TEMPERATURE,LIGHTS_STATE

05/20/2017 12:10:26,29.625,29.062,off
05/20/2017 12:10:37,29.625,29.062,off
05/20/2017 12:10:49,29.625,29.125,off
05/20/2017 12:11:01,29.625,29.062,off
