TIME,INSIDE_TEMPERATURE,OUTSIDE_TEMPERATURE,LIGHTS_STATE

03/20/2017 12:33:26,20.75,17.312,off
03/20/2017 12:33:37,20.75,17.312,off
03/20/2017 12:33:49,20.75,17.25,off
03/20/2017 12:34:01,20.75,17.25,off
