TIME,INSIDE_TEMPERATURE,OUTSIDE_TEMPERATURE,LIGHTS_STATE

04/11/2017 12:12:25,25.312,21.437,off
04/11/2017 12:12:37,25.312,21.5,off
04/11/2017 12:12:49,25.312,21.437,off
04/11/2017 12:13:00,25.312,21.375,off
