TIME,INSIDE_TEMPERATURE,OUTSIDE_TEMPERATURE,LIGHTS_STATE

06/25/2017 12:26:25,27.562,24.125,off
06/25/2017 12:26:37,27.562,24.125,off
06/25/2017 12:26:49,27.562,24.125,off
06/25/2017 12:27:00,27.562,24.125,off
