TIME,INSIDE_TEMPERATURE,OUTSIDE_TEMPERATURE,LIGHTS_STATE

12/03/2016 12:43:25,24.437,20.562,off
12/03/2016 12:43:37,24.5,20.562,off
12/03/2016 12:43:49,24.437,20.562,off
12/03/2016 12:44:00,24.437,20.562,off
