TIME,INSIDE_TEMPERATURE,OUTSIDE_TEMPERATURE,LIGHTS_STATE

07/04/2016 12:18:26,28.0,27.625,off
07/04/2016 12:18:37,28.0,27.625,off
07/04/2016 12:18:49,28.0,27.625,off
07/04/2016 12:19:01,28.0,27.625,off
