TIME,INSIDE_TEMPERATURE,OUTSIDE_TEMPERATURE,LIGHTS_STATE

05/18/2017 12:25:25,24.687,23.437,off
05/18/2017 12:25:37,24.687,23.437,off
05/18/2017 12:25:49,24.687,23.437,off
05/18/2017 12:26:00,24.687,23.437,off
