TIME,INSIDE_TEMPERATURE,OUTSIDE_TEMPERATURE,LIGHTS_STATE

03/17/2018 12:25:25,18.937,15.25,off
03/17/2018 12:25:37,18.937,15.375,off
03/17/2018 12:25:49,18.937,15.375,off
03/17/2018 12:26:00,18.937,15.437,off
