TIME,INSIDE_TEMPERATURE,OUTSIDE_TEMPERATURE,LIGHTS_STATE

11/15/2016 12:15:25,27.437,22.687,off
11/15/2016 12:15:36,27.5,22.625,off
11/15/2016 12:15:49,27.5,22.562,off
11/15/2016 12:16:01,27.437,22.562,off
