TIME,INSIDE_TEMPERATURE,OUTSIDE_TEMPERATURE,LIGHTS_STATE

07/20/2017 12:48:25,29.625,26.687,off
07/20/2017 12:48:37,29.625,26.625,off
07/20/2017 12:48:49,29.625,26.625,off
07/20/2017 12:49:01,29.625,26.562,off
