TIME,INSIDE_TEMPERATURE,OUTSIDE_TEMPERATURE,LIGHTS_STATE

01/02/2017 12:29:24,15.0,10.125,off
01/02/2017 12:29:36,15.062,10.187,off
01/02/2017 12:29:48,15.0,10.187,off
01/02/2017 12:29:59,15.0,10.125,off
