TIME,INSIDE_TEMPERATURE,OUTSIDE_TEMPERATURE,LIGHTS_STATE

02/14/2017 12:53:25,25.687,23.375,off
02/14/2017 12:53:37,25.687,23.187,off
02/14/2017 12:53:48,25.687,23.187,off
02/14/2017 12:54:00,25.687,23.187,off
