TIME,INSIDE_TEMPERATURE,OUTSIDE_TEMPERATURE,LIGHTS_STATE

09/28/2017 12:37:25,34.5,32.25,off
09/28/2017 12:37:37,34.5,32.312,off
09/28/2017 12:37:49,34.5,32.312,off
09/28/2017 12:38:01,34.5,32.375,off
