TIME,INSIDE_TEMPERATURE,OUTSIDE_TEMPERATURE,LIGHTS_STATE

04/20/2017 12:55:25,23.687,20.0,off
04/20/2017 12:55:37,23.687,20.0,off
04/20/2017 12:55:48,23.687,20.0,off
04/20/2017 12:56:00,23.687,20.0,off
