TIME,INSIDE_TEMPERATURE,OUTSIDE_TEMPERATURE,LIGHTS_STATE

09/21/2017 12:02:25,25.687,22.375,off
09/21/2017 12:02:37,25.687,22.375,off
09/21/2017 12:02:49,25.687,22.437,off
09/21/2017 12:03:01,25.687,22.437,off
