TIME,INSIDE_TEMPERATURE,OUTSIDE_TEMPERATURE,LIGHTS_STATE

02/09/2017 12:27:26,20.187,15.125,off
02/09/2017 12:27:37,20.187,15.125,off
02/09/2017 12:27:49,20.187,15.187,off
02/09/2017 12:28:01,20.187,15.125,off
