TIME,INSIDE_TEMPERATURE,OUTSIDE_TEMPERATURE,LIGHTS_STATE

07/02/2017 12:20:25,29.062,26.5,off
07/02/2017 12:20:37,28.937,26.5,off
07/02/2017 12:20:48,29.0,26.5,off
07/02/2017 12:21:00,29.062,26.562,off
