TIME,INSIDE_TEMPERATURE,OUTSIDE_TEMPERATURE,LIGHTS_STATE

11/16/2016 12:39:25,24.375,21.437,off
11/16/2016 12:39:37,24.312,21.437,off
11/16/2016 12:39:48,24.312,21.5,off
11/16/2016 12:40:00,24.312,21.625,off
