TIME,INSIDE_TEMPERATURE,OUTSIDE_TEMPERATURE,LIGHTS_STATE

01/26/2018 12:30:25,22.125,21.25,off
01/26/2018 12:30:37,22.187,21.375,off
01/26/2018 12:30:49,22.187,21.5,off
01/26/2018 12:31:01,22.187,21.562,off
