TIME,INSIDE_TEMPERATURE,OUTSIDE_TEMPERATURE,LIGHTS_STATE

02/03/2018 12:22:25,29.375,29.687,off
02/03/2018 12:22:37,29.437,29.75,off
02/03/2018 12:22:49,29.437,29.75,off
02/03/2018 12:23:00,29.437,29.812,off
