TIME,INSIDE_TEMPERATURE,OUTSIDE_TEMPERATURE,LIGHTS_STATE

12/12/2016 12:36:25,19.75,14.937,off
12/12/2016 12:36:37,19.75,14.937,off
12/12/2016 12:36:49,19.75,14.937,off
12/12/2016 12:37:01,19.75,15.0,off
