TIME,INSIDE_TEMPERATURE,OUTSIDE_TEMPERATURE,LIGHTS_STATE

02/19/2018 12:30:25,20.5,31.562,off
02/19/2018 12:30:37,20.562,31.75,off
02/19/2018 12:30:49,20.562,31.75,off
02/19/2018 12:31:01,20.562,31.437,off
