TIME,INSIDE_TEMPERATURE,OUTSIDE_TEMPERATURE,LIGHTS_STATE

12/26/2016 12:38:25,16.312,12.625,off
12/26/2016 12:38:37,16.312,12.625,off
12/26/2016 12:38:48,16.312,12.625,off
12/26/2016 12:39:00,16.312,12.687,off
