TIME,INSIDE_TEMPERATURE,OUTSIDE_TEMPERATURE,LIGHTS_STATE

11/11/2016 12:36:25,27.75,24.75,off
11/11/2016 12:36:36,27.75,24.812,off
11/11/2016 12:36:49,27.75,24.812,off
11/11/2016 12:37:00,27.75,24.812,off
