TIME,INSIDE_TEMPERATURE,OUTSIDE_TEMPERATURE,LIGHTS_STATE

08/31/2017 12:18:26,33.75,33.437,off
08/31/2017 12:18:37,33.812,33.375,off
08/31/2017 12:18:49,33.5,33.375,off
08/31/2017 12:19:01,33.562,33.375,off
