TIME,INSIDE_TEMPERATURE,OUTSIDE_TEMPERATURE,LIGHTS_STATE

08/21/2017 12:11:25,28.0,25.562,off
08/21/2017 12:11:37,28.0,25.625,off
08/21/2017 12:11:48,28.0,25.625,off
08/21/2017 12:12:00,28.0,25.625,off
