TIME,INSIDE_TEMPERATURE,OUTSIDE_TEMPERATURE,LIGHTS_STATE

05/22/2017 12:02:25,30.125,28.75,off
05/22/2017 12:02:37,30.125,28.75,off
05/22/2017 12:02:48,30.125,28.75,off
05/22/2017 12:03:00,30.125,28.75,off
