TIME,INSIDE_TEMPERATURE,OUTSIDE_TEMPERATURE,LIGHTS_STATE

01/04/2017 12:27:25,17.0,12.437,off
01/04/2017 12:27:37,17.0,12.375,off
01/04/2017 12:27:49,17.0,12.375,off
01/04/2017 12:28:00,17.0,12.375,off
