TIME,INSIDE_TEMPERATURE,OUTSIDE_TEMPERATURE,LIGHTS_STATE

02/06/2017 12:38:25,18.0,13.875,off
02/06/2017 12:38:37,18.0,13.875,off
02/06/2017 12:38:48,18.0,13.875,off
02/06/2017 12:39:00,18.0,13.875,off
