TIME,INSIDE_TEMPERATURE,OUTSIDE_TEMPERATURE,LIGHTS_STATE

03/21/2018 12:36:26,23.25,19.75,off
03/21/2018 12:36:37,23.187,19.812,off
03/21/2018 12:36:49,23.25,19.812,off
03/21/2018 12:37:01,23.25,19.875,off
