TIME,INSIDE_TEMPERATURE,OUTSIDE_TEMPERATURE,LIGHTS_STATE

04/24/2017 12:25:25,20.937,16.812,off
04/24/2017 12:25:36,20.875,16.812,off
04/24/2017 12:25:48,20.937,16.875,off
04/24/2017 12:26:00,20.937,16.875,off
