TIME,INSIDE_TEMPERATURE,OUTSIDE_TEMPERATURE,LIGHTS_STATE

07/19/2016 12:41:25,24.875,25.062,off
07/19/2016 12:41:37,24.875,25.062,off
07/19/2016 12:41:49,24.875,25.062,off
07/19/2016 12:42:00,24.875,25.062,off
