TIME,INSIDE_TEMPERATURE,OUTSIDE_TEMPERATURE,LIGHTS_STATE

02/07/2017 12:14:26,20.75,16.187,off
02/07/2017 12:14:37,20.75,16.187,off
02/07/2017 12:14:49,20.75,16.187,off
02/07/2017 12:15:01,20.75,16.187,off
