TIME,INSIDE_TEMPERATURE,OUTSIDE_TEMPERATURE,LIGHTS_STATE

03/04/2017 12:13:26,23.937,23.562,off
03/04/2017 12:13:37,23.937,23.625,off
03/04/2017 12:13:49,23.937,23.687,off
03/04/2017 12:14:01,23.937,23.687,off
