TIME,INSIDE_TEMPERATURE,OUTSIDE_TEMPERATURE,LIGHTS_STATE

07/23/2017 12:37:25,36.375,33.312,off
07/23/2017 12:37:36,36.312,33.312,off
07/23/2017 12:37:48,36.375,33.375,off
07/23/2017 12:38:00,36.375,33.437,off
