TIME,INSIDE_TEMPERATURE,OUTSIDE_TEMPERATURE,LIGHTS_STATE

07/29/2016 12:17:26,31.937,32.312,off
07/29/2016 12:17:37,32.0,32.312,off
07/29/2016 12:17:49,32.0,32.375,off
07/29/2016 12:18:01,32.0,32.437,off
