TIME,INSIDE_TEMPERATURE,OUTSIDE_TEMPERATURE,LIGHTS_STATE

10/12/2017 12:17:25,28.187,27.062,off
10/12/2017 12:17:37,28.187,27.187,off
10/12/2017 12:17:49,28.187,27.187,off
10/12/2017 12:18:01,28.187,27.25,off
