TIME,INSIDE_TEMPERATURE,OUTSIDE_TEMPERATURE,LIGHTS_STATE

02/06/2018 12:19:26,29.687,35.625,off
02/06/2018 12:19:37,29.687,35.75,off
02/06/2018 12:19:49,29.687,35.875,off
02/06/2018 12:20:01,29.687,36.062,off
