TIME,INSIDE_TEMPERATURE,OUTSIDE_TEMPERATURE,LIGHTS_STATE

06/12/2017 12:01:25,23.187,18.812,off
06/12/2017 12:01:37,23.187,18.812,off
06/12/2017 12:01:49,23.125,18.812,off
06/12/2017 12:02:00,23.187,18.812,off
