TIME,INSIDE_TEMPERATURE,OUTSIDE_TEMPERATURE,LIGHTS_STATE

05/13/2017 12:16:25,21.187,18.875,off
05/13/2017 12:16:37,21.187,18.937,off
05/13/2017 12:16:48,21.187,18.937,off
05/13/2017 12:17:01,21.187,18.937,off
