TIME,INSIDE_TEMPERATURE,OUTSIDE_TEMPERATURE,LIGHTS_STATE

01/23/2018 12:45:25,22.75,22.187,off
01/23/2018 12:45:37,22.75,22.125,off
01/23/2018 12:45:49,22.75,22.25,off
01/23/2018 12:46:01,22.75,22.375,off
