TIME,INSIDE_TEMPERATURE,OUTSIDE_TEMPERATURE,LIGHTS_STATE

03/13/2018 12:44:25,20.625,14.125,off
03/13/2018 12:44:37,20.625,14.187,off
03/13/2018 12:44:48,20.625,14.125,off
03/13/2018 12:45:00,20.625,14.187,off
