TIME,INSIDE_TEMPERATURE,OUTSIDE_TEMPERATURE,LIGHTS_STATE

02/16/2017 12:42:25,24.937,21.437,off
02/16/2017 12:42:37,24.937,21.312,off
02/16/2017 12:42:49,24.937,21.187,off
02/16/2017 12:43:00,24.875,21.125,off
