TIME,INSIDE_TEMPERATURE,OUTSIDE_TEMPERATURE,LIGHTS_STATE

10/06/2017 12:49:26,31.875,29.875,off
10/06/2017 12:49:37,31.937,29.875,off
10/06/2017 12:49:49,31.937,29.875,off
10/06/2017 12:50:01,32.0,29.812,off
