TIME,INSIDE_TEMPERATURE,OUTSIDE_TEMPERATURE,LIGHTS_STATE

01/25/2018 12:27:25,18.625,12.375,off
01/25/2018 12:27:37,18.625,12.375,off
01/25/2018 12:27:49,18.625,12.375,off
01/25/2018 12:28:00,18.625,12.312,off
