TIME,INSIDE_TEMPERATURE,OUTSIDE_TEMPERATURE,LIGHTS_STATE

11/29/2016 12:48:25,21.25,18.312,off
11/29/2016 12:48:36,21.25,18.25,off
11/29/2016 12:48:48,21.25,18.187,off
11/29/2016 12:49:00,21.312,18.25,off
