TIME,INSIDE_TEMPERATURE,OUTSIDE_TEMPERATURE,LIGHTS_STATE

03/21/2018 12:35:25,23.187,19.437,off
03/21/2018 12:35:37,23.187,19.5,off
03/21/2018 12:35:49,23.187,19.562,off
03/21/2018 12:36:01,23.25,19.687,off
