TIME,INSIDE_TEMPERATURE,OUTSIDE_TEMPERATURE,LIGHTS_STATE

09/18/2017 12:13:26,29.812,26.312,off
09/18/2017 12:13:37,29.812,26.312,off
09/18/2017 12:13:49,29.812,26.312,off
09/18/2017 12:14:01,29.812,26.25,off
