TIME,INSIDE_TEMPERATURE,OUTSIDE_TEMPERATURE,LIGHTS_STATE

07/01/2017 12:26:25,25.687,22.0,off
07/01/2017 12:26:37,25.687,22.062,off
07/01/2017 12:26:48,25.687,22.0,off
07/01/2017 12:27:00,25.687,22.062,off
