TIME,INSIDE_TEMPERATURE,OUTSIDE_TEMPERATURE,LIGHTS_STATE

08/02/2017 12:02:25,36.0,33.562,off
08/02/2017 12:02:37,36.0,33.625,off
08/02/2017 12:02:49,36.0,33.687,off
08/02/2017 12:03:00,36.0,33.75,off
