TIME,INSIDE_TEMPERATURE,OUTSIDE_TEMPERATURE,LIGHTS_STATE

02/11/2017 12:04:25,26.937,19.875,off
02/11/2017 12:04:37,26.937,19.937,off
02/11/2017 12:04:48,26.875,19.937,off
02/11/2017 12:05:00,26.875,19.937,off
