TIME,INSIDE_TEMPERATURE,OUTSIDE_TEMPERATURE,LIGHTS_STATE

03/31/2017 12:52:25,22.562,19.312,off
03/31/2017 12:52:36,22.562,19.375,off
03/31/2017 12:52:48,22.562,19.437,off
03/31/2017 12:53:00,22.625,19.437,off
