TIME,INSIDE_TEMPERATURE,OUTSIDE_TEMPERATURE,LIGHTS_STATE

03/21/2018 12:06:25,21.75,17.687,off
03/21/2018 12:06:37,21.812,17.75,off
03/21/2018 12:06:49,21.812,17.875,off
03/21/2018 12:07:01,21.75,17.875,off
