TIME,INSIDE_TEMPERATURE,OUTSIDE_TEMPERATURE,LIGHTS_STATE

11/02/2016 12:49:25,27.875,31.0,off
11/02/2016 12:49:36,27.875,30.937,off
11/02/2016 12:49:48,27.875,30.937,off
11/02/2016 12:50:00,27.875,30.937,off
