TIME,INSIDE_TEMPERATURE,OUTSIDE_TEMPERATURE,LIGHTS_STATE

06/26/2017 12:34:25,27.75,24.25,off
06/26/2017 12:34:37,27.812,24.187,off
06/26/2017 12:34:49,27.75,24.125,off
06/26/2017 12:35:00,27.812,24.062,off
