TIME,INSIDE_TEMPERATURE,OUTSIDE_TEMPERATURE,LIGHTS_STATE

11/20/2016 12:02:25,21.562,16.75,off
11/20/2016 12:02:37,21.562,16.812,off
11/20/2016 12:02:48,21.562,16.875,off
11/20/2016 12:03:00,21.562,16.875,off
