TIME,INSIDE_TEMPERATURE,OUTSIDE_TEMPERATURE,LIGHTS_STATE

08/06/2016 12:32:26,24.625,24.562,off
08/06/2016 12:32:38,24.625,24.5,off
08/06/2016 12:32:50,24.625,24.562,off
08/06/2016 12:33:01,24.625,24.625,off
