TIME,INSIDE_TEMPERATURE,OUTSIDE_TEMPERATURE,LIGHTS_STATE

10/25/2016 12:12:24,25.937,24.312,off
10/25/2016 12:12:36,25.937,24.375,off
10/25/2016 12:12:47,25.937,24.437,off
10/25/2016 12:12:59,26.0,24.562,off
