TIME,INSIDE_TEMPERATURE,OUTSIDE_TEMPERATURE,LIGHTS_STATE

09/26/2017 12:39:25,32.312,29.875,off
09/26/2017 12:39:37,32.312,29.875,off
09/26/2017 12:39:48,32.375,29.812,off
09/26/2017 12:40:00,32.375,29.875,off
