TIME,INSIDE_TEMPERATURE,OUTSIDE_TEMPERATURE,LIGHTS_STATE

05/13/2017 12:07:26,20.875,18.437,off
05/13/2017 12:07:37,20.875,18.5,off
05/13/2017 12:07:49,20.875,18.437,off
05/13/2017 12:08:01,20.937,18.5,off
