TIME,INSIDE_TEMPERATURE,OUTSIDE_TEMPERATURE,LIGHTS_STATE

02/15/2017 12:40:25,21.812,18.0,off
02/15/2017 12:40:37,21.812,18.0,off
02/15/2017 12:40:48,21.812,18.0,off
02/15/2017 12:41:00,21.75,18.062,off
