TIME,INSIDE_TEMPERATURE,OUTSIDE_TEMPERATURE,LIGHTS_STATE

08/27/2017 12:20:25,37.687,36.062,off
08/27/2017 12:20:37,37.687,36.125,off
08/27/2017 12:20:48,37.687,36.125,off
08/27/2017 12:21:00,37.5,36.125,off
