TIME,INSIDE_TEMPERATURE,OUTSIDE_TEMPERATURE,LIGHTS_STATE

09/20/2016 12:03:25,30.0,30.187,off
09/20/2016 12:03:38,30.0,30.25,off
09/20/2016 12:03:49,29.937,30.437,off
09/20/2016 12:04:01,30.0,30.562,off
