TIME,INSIDE_TEMPERATURE,OUTSIDE_TEMPERATURE,LIGHTS_STATE

07/29/2016 12:20:25,32.062,32.437,off
07/29/2016 12:20:37,32.062,32.437,off
07/29/2016 12:20:49,32.062,32.437,off
07/29/2016 12:21:00,32.062,32.5,off
