TIME,INSIDE_TEMPERATURE,OUTSIDE_TEMPERATURE,LIGHTS_STATE

03/03/2018 12:22:25,18.312,11.562,off
03/03/2018 12:22:37,18.25,11.5,off
03/03/2018 12:22:49,18.25,11.437,off
03/03/2018 12:23:01,18.25,11.437,off
