TIME,INSIDE_TEMPERATURE,OUTSIDE_TEMPERATURE,LIGHTS_STATE

02/16/2018 12:52:25,25.625,40.125,off
02/16/2018 12:52:37,25.562,40.125,off
02/16/2018 12:52:49,25.562,40.125,off
02/16/2018 12:53:02,25.562,39.875,off
