TIME,INSIDE_TEMPERATURE,OUTSIDE_TEMPERATURE,LIGHTS_STATE

09/19/2017 12:20:26,26.5,22.875,off
09/19/2017 12:20:37,26.5,22.875,off
09/19/2017 12:20:49,26.5,22.937,off
09/19/2017 12:21:01,26.562,22.937,off
