TIME,INSIDE_TEMPERATURE,OUTSIDE_TEMPERATURE,LIGHTS_STATE

07/02/2017 12:34:25,29.562,27.0,off
07/02/2017 12:34:37,29.562,27.0,off
07/02/2017 12:34:49,29.562,27.0,off
07/02/2017 12:35:01,29.437,27.062,off
