TIME,INSIDE_TEMPERATURE,OUTSIDE_TEMPERATURE,LIGHTS_STATE

03/25/2017 12:35:25,22.812,19.312,off
03/25/2017 12:35:36,22.812,19.25,off
03/25/2017 12:35:48,22.875,19.25,off
03/25/2017 12:36:00,22.875,19.25,off
