TIME,INSIDE_TEMPERATURE,OUTSIDE_TEMPERATURE,LIGHTS_STATE

11/29/2016 12:13:25,21.875,18.687,off
11/29/2016 12:13:36,21.875,18.625,off
11/29/2016 12:13:48,21.875,18.5,off
11/29/2016 12:14:00,21.875,18.5,off
