TIME,INSIDE_TEMPERATURE,OUTSIDE_TEMPERATURE,LIGHTS_STATE

01/09/2017 12:07:25,20.875,16.375,off
01/09/2017 12:07:36,20.875,16.375,off
01/09/2017 12:07:48,20.875,16.312,off
01/09/2017 12:08:00,20.875,16.25,off
