TIME,INSIDE_TEMPERATURE,OUTSIDE_TEMPERATURE,LIGHTS_STATE

10/16/2017 12:26:25,34.312,35.187,off
10/16/2017 12:26:37,34.312,35.187,off
10/16/2017 12:26:49,34.375,35.375,off
10/16/2017 12:27:01,34.375,35.437,off
