TIME,INSIDE_TEMPERATURE,OUTSIDE_TEMPERATURE,LIGHTS_STATE

09/20/2016 12:24:26,31.562,31.062,off
09/20/2016 12:24:37,31.5,31.062,off
09/20/2016 12:24:50,31.562,31.062,off
09/20/2016 12:25:02,31.5,31.062,off
