TIME,INSIDE_TEMPERATURE,OUTSIDE_TEMPERATURE,LIGHTS_STATE

05/19/2017 12:49:25,28.562,27.437,off
05/19/2017 12:49:36,28.562,27.437,off
05/19/2017 12:49:48,28.562,27.437,off
05/19/2017 12:50:00,28.562,27.437,off
