TIME,INSIDE_TEMPERATURE,OUTSIDE_TEMPERATURE,LIGHTS_STATE

09/26/2017 12:53:25,32.812,30.5,off
09/26/2017 12:53:37,32.812,30.5,off
09/26/2017 12:53:49,32.875,30.437,off
09/26/2017 12:54:00,32.875,30.437,off
