TIME,INSIDE_TEMPERATURE,OUTSIDE_TEMPERATURE,LIGHTS_STATE

12/17/2016 12:47:26,17.625,14.625,off
12/17/2016 12:47:38,17.625,14.812,off
12/17/2016 12:47:50,17.625,15.0,off
12/17/2016 12:48:01,17.625,15.125,off
