TIME,INSIDE_TEMPERATURE,OUTSIDE_TEMPERATURE,LIGHTS_STATE

10/23/2017 12:50:25,34.812,37.5,off
10/23/2017 12:50:37,34.812,37.562,off
10/23/2017 12:50:48,34.812,37.625,off
10/23/2017 12:51:00,34.812,37.687,off
