TIME,INSIDE_TEMPERATURE,OUTSIDE_TEMPERATURE,LIGHTS_STATE

06/10/2017 12:47:25,24.937,20.937,off
06/10/2017 12:47:36,24.937,20.937,off
06/10/2017 12:47:48,24.937,20.937,off
06/10/2017 12:48:00,24.937,20.937,off
