TIME,INSIDE_TEMPERATURE,OUTSIDE_TEMPERATURE,LIGHTS_STATE

09/04/2017 12:02:25,32.375,29.937,off
09/04/2017 12:02:37,32.375,29.937,off
09/04/2017 12:02:49,32.375,30.0,off
09/04/2017 12:03:00,32.375,30.062,off
