TIME,INSIDE_TEMPERATURE,OUTSIDE_TEMPERATURE,LIGHTS_STATE

05/17/2017 12:41:26,22.687,20.437,off
05/17/2017 12:41:37,22.625,20.437,off
05/17/2017 12:41:49,22.687,20.437,off
05/17/2017 12:42:01,22.687,20.5,off
