TIME,INSIDE_TEMPERATURE,OUTSIDE_TEMPERATURE,LIGHTS_STATE

08/24/2017 12:50:25,28.625,25.5,off
08/24/2017 12:50:37,28.625,25.625,off
08/24/2017 12:50:49,28.625,25.687,off
08/24/2017 12:51:01,28.625,25.687,off
