TIME,INSIDE_TEMPERATURE,OUTSIDE_TEMPERATURE,LIGHTS_STATE

08/03/2016 12:18:25,29.0,29.312,off
08/03/2016 12:18:37,29.062,29.312,off
08/03/2016 12:18:48,29.062,29.312,off
08/03/2016 12:19:00,29.062,29.312,off
