TIME,INSIDE_TEMPERATURE,OUTSIDE_TEMPERATURE,LIGHTS_STATE

03/27/2017 12:46:25,22.25,18.125,off
03/27/2017 12:46:37,22.25,18.125,off
03/27/2017 12:46:49,22.187,18.125,off
03/27/2017 12:47:00,22.187,18.125,off
