TIME,INSIDE_TEMPERATURE,OUTSIDE_TEMPERATURE,LIGHTS_STATE

09/04/2016 12:39:25,24.625,24.312,off
09/04/2016 12:39:37,24.625,24.375,off
09/04/2016 12:39:48,24.687,24.437,off
09/04/2016 12:40:00,24.625,24.437,off
