TIME,INSIDE_TEMPERATURE,OUTSIDE_TEMPERATURE,LIGHTS_STATE

01/02/2018 12:48:25,20.375,17.062,off
01/02/2018 12:48:37,20.375,17.062,off
01/02/2018 12:48:49,20.437,17.062,off
01/02/2018 12:49:01,20.375,17.062,off
