TIME,INSIDE_TEMPERATURE,OUTSIDE_TEMPERATURE,LIGHTS_STATE

08/31/2017 12:19:25,33.687,33.437,off
08/31/2017 12:19:37,33.687,33.375,off
08/31/2017 12:19:49,33.75,33.437,off
08/31/2017 12:20:00,33.812,33.437,off
