TIME,INSIDE_TEMPERATURE,OUTSIDE_TEMPERATURE,LIGHTS_STATE

03/17/2017 12:51:26,25.25,23.125,off
03/17/2017 12:51:37,25.25,23.125,off
03/17/2017 12:51:49,25.25,23.062,off
03/17/2017 12:52:01,25.25,23.062,off
