TIME,INSIDE_TEMPERATURE,OUTSIDE_TEMPERATURE,LIGHTS_STATE

01/11/2018 12:18:26,22.562,18.625,off
01/11/2018 12:18:37,22.562,18.625,off
01/11/2018 12:18:49,22.562,18.687,off
01/11/2018 12:19:01,22.562,18.687,off
