TIME,INSIDE_TEMPERATURE,OUTSIDE_TEMPERATURE,LIGHTS_STATE

09/23/2016 12:44:26,26.687,27.062,off
09/23/2016 12:44:38,26.687,27.125,off
09/23/2016 12:44:49,26.75,27.062,off
09/23/2016 12:45:01,26.75,27.0,off
