TIME,INSIDE_TEMPERATURE,OUTSIDE_TEMPERATURE,LIGHTS_STATE

01/25/2018 12:44:26,18.125,10.687,off
01/25/2018 12:44:37,18.125,10.75,off
01/25/2018 12:44:49,18.125,10.75,off
01/25/2018 12:45:01,18.125,10.75,off
