TIME,INSIDE_TEMPERATURE,OUTSIDE_TEMPERATURE,LIGHTS_STATE

03/13/2017 12:34:25,27.75,23.687,off
03/13/2017 12:34:37,27.75,23.75,off
03/13/2017 12:34:48,27.75,23.875,off
03/13/2017 12:35:00,27.75,23.937,off
