TIME,INSIDE_TEMPERATURE,OUTSIDE_TEMPERATURE,LIGHTS_STATE

10/29/2017 12:12:25,23.875,20.5,off
10/29/2017 12:12:37,23.875,20.437,off
10/29/2017 12:12:49,23.875,20.375,off
10/29/2017 12:13:01,23.875,20.25,off
