TIME,INSIDE_TEMPERATURE,OUTSIDE_TEMPERATURE,LIGHTS_STATE

05/19/2017 12:09:25,27.5,26.687,off
05/19/2017 12:09:37,27.5,26.75,off
05/19/2017 12:09:48,27.5,26.687,off
05/19/2017 12:10:00,27.5,26.687,off
