TIME,INSIDE_TEMPERATURE,OUTSIDE_TEMPERATURE,LIGHTS_STATE

03/08/2017 12:16:25,24.937,22.25,off
03/08/2017 12:16:37,24.937,22.375,off
03/08/2017 12:16:48,24.937,22.5,off
03/08/2017 12:17:00,24.937,22.687,off
