TIME,INSIDE_TEMPERATURE,OUTSIDE_TEMPERATURE,LIGHTS_STATE

01/11/2018 12:29:25,22.75,19.687,off
01/11/2018 12:29:37,22.75,19.875,off
01/11/2018 12:29:49,22.75,20.062,off
01/11/2018 12:30:01,22.75,20.187,off
