TIME,INSIDE_TEMPERATURE,OUTSIDE_TEMPERATURE,LIGHTS_STATE

04/24/2017 12:11:25,19.75,15.625,off
04/24/2017 12:11:37,19.75,15.625,off
04/24/2017 12:11:48,19.75,15.687,off
04/24/2017 12:12:00,19.75,15.687,off
