TIME,INSIDE_TEMPERATURE,OUTSIDE_TEMPERATURE,LIGHTS_STATE

10/19/2017 12:53:25,25.937,20.312,off
10/19/2017 12:53:37,25.937,20.312,off
10/19/2017 12:53:48,25.937,20.312,off
10/19/2017 12:54:00,25.937,20.312,off
