TIME,INSIDE_TEMPERATURE,OUTSIDE_TEMPERATURE,LIGHTS_STATE

07/02/2016 12:49:25,29.75,29.187,off
07/02/2016 12:49:37,29.75,29.25,off
07/02/2016 12:49:48,29.75,29.25,off
07/02/2016 12:50:00,29.75,29.25,off
