TIME,INSIDE_TEMPERATURE,OUTSIDE_TEMPERATURE,LIGHTS_STATE

02/14/2017 12:58:26,25.562,23.0,off
02/14/2017 12:58:38,25.562,22.937,off
02/14/2017 12:58:50,25.562,22.812,off
02/14/2017 12:59:01,25.562,22.812,off
