TIME,INSIDE_TEMPERATURE,OUTSIDE_TEMPERATURE,LIGHTS_STATE

01/01/2018 12:57:26,24.437,19.687,off
01/01/2018 12:57:37,24.437,19.687,off
01/01/2018 12:57:49,24.437,19.687,off
01/01/2018 12:58:01,24.437,19.687,off
