TIME,INSIDE_TEMPERATURE,OUTSIDE_TEMPERATURE,LIGHTS_STATE

09/12/2017 12:13:25,35.312,32.75,off
09/12/2017 12:13:37,35.437,32.75,off
09/12/2017 12:13:49,35.437,32.687,off
09/12/2017 12:14:01,35.5,32.687,off
