TIME,INSIDE_TEMPERATURE,OUTSIDE_TEMPERATURE,LIGHTS_STATE

03/10/2017 12:05:26,27.625,23.562,off
03/10/2017 12:05:37,27.625,23.625,off
03/10/2017 12:05:49,27.562,23.687,off
03/10/2017 12:06:01,27.625,23.625,off
