TIME,INSIDE_TEMPERATURE,OUTSIDE_TEMPERATURE,LIGHTS_STATE

05/02/2017 12:55:25,32.187,29.937,off
05/02/2017 12:55:37,32.187,29.937,off
05/02/2017 12:55:48,32.187,29.937,off
05/02/2017 12:56:00,32.187,29.937,off
