TIME,INSIDE_TEMPERATURE,OUTSIDE_TEMPERATURE,LIGHTS_STATE

09/11/2017 12:33:26,35.437,33.25,off
09/11/2017 12:33:38,35.437,33.25,off
09/11/2017 12:33:49,35.437,33.312,off
09/11/2017 12:34:01,35.437,33.375,off
