TIME,INSIDE_TEMPERATURE,OUTSIDE_TEMPERATURE,LIGHTS_STATE

08/02/2017 12:51:25,37.5,35.25,off
08/02/2017 12:51:37,37.5,35.25,off
08/02/2017 12:51:48,37.5,35.187,off
08/02/2017 12:52:00,37.5,35.187,off
