TIME,INSIDE_TEMPERATURE,OUTSIDE_TEMPERATURE,LIGHTS_STATE

12/11/2016 12:48:25,17.312,12.875,off
12/11/2016 12:48:36,17.312,12.875,off
12/11/2016 12:48:48,17.312,12.812,off
12/11/2016 12:49:00,17.312,12.812,off
