TIME,INSIDE_TEMPERATURE,OUTSIDE_TEMPERATURE,LIGHTS_STATE

09/11/2016 12:13:25,27.187,26.25,off
09/11/2016 12:13:37,27.187,26.187,off
09/11/2016 12:13:49,27.187,26.25,off
09/11/2016 12:14:01,27.187,26.312,off
