TIME,INSIDE_TEMPERATURE,OUTSIDE_TEMPERATURE,LIGHTS_STATE

06/29/2016 12:31:25,27.5,26.812,off
06/29/2016 12:31:36,27.5,26.812,off
06/29/2016 12:31:48,27.5,26.812,off
06/29/2016 12:32:00,27.5,26.875,off
