TIME,INSIDE_TEMPERATURE,OUTSIDE_TEMPERATURE,LIGHTS_STATE

03/18/2018 12:33:25,17.75,14.687,off
03/18/2018 12:33:37,17.75,14.75,off
03/18/2018 12:33:48,17.75,14.75,off
03/18/2018 12:34:00,17.75,14.687,off
