TIME,INSIDE_TEMPERATURE,OUTSIDE_TEMPERATURE,LIGHTS_STATE

10/18/2017 12:02:25,30.25,30.625,off
10/18/2017 12:02:37,30.312,30.75,off
10/18/2017 12:02:49,30.312,30.875,off
10/18/2017 12:03:01,30.312,31.0,off
