TIME,INSIDE_TEMPERATURE,OUTSIDE_TEMPERATURE,LIGHTS_STATE

02/09/2018 12:18:25,31.062,34.187,off
02/09/2018 12:18:37,31.062,34.312,off
02/09/2018 12:18:49,31.062,34.437,off
02/09/2018 12:19:00,31.062,34.437,off
