TIME,INSIDE_TEMPERATURE,OUTSIDE_TEMPERATURE,LIGHTS_STATE

07/26/2017 12:36:25,29.312,26.437,off
07/26/2017 12:36:37,29.375,26.437,off
07/26/2017 12:36:48,29.375,26.437,off
07/26/2017 12:37:00,29.375,26.437,off
