TIME,INSIDE_TEMPERATURE,OUTSIDE_TEMPERATURE,LIGHTS_STATE

10/29/2017 12:27:25,23.75,21.187,off
10/29/2017 12:27:37,23.75,21.25,off
10/29/2017 12:27:49,23.75,21.437,off
10/29/2017 12:28:01,23.75,21.5,off
