TIME,INSIDE_TEMPERATURE,OUTSIDE_TEMPERATURE,LIGHTS_STATE

08/27/2017 12:28:25,37.812,36.312,off
08/27/2017 12:28:37,37.875,36.312,off
08/27/2017 12:28:49,37.812,36.375,off
08/27/2017 12:29:00,37.875,36.375,off
