TIME,INSIDE_TEMPERATURE,OUTSIDE_TEMPERATURE,LIGHTS_STATE

06/30/2016 12:57:25,30.562,30.312,off
06/30/2016 12:57:36,30.625,30.312,off
06/30/2016 12:57:48,30.625,30.312,off
06/30/2016 12:58:00,30.625,30.312,off
