TIME,INSIDE_TEMPERATURE,OUTSIDE_TEMPERATURE,LIGHTS_STATE

02/27/2017 12:00:26,24.875,21.812,off
02/27/2017 12:00:37,24.937,21.875,off
02/27/2017 12:00:49,24.875,21.875,off
02/27/2017 12:01:01,24.937,21.687,off
