TIME,INSIDE_TEMPERATURE,OUTSIDE_TEMPERATURE,LIGHTS_STATE

10/12/2017 12:18:25,28.125,27.562,off
10/12/2017 12:18:37,28.125,27.75,off
10/12/2017 12:18:49,28.125,27.937,off
10/12/2017 12:19:00,28.125,28.0,off
