TIME,INSIDE_TEMPERATURE,OUTSIDE_TEMPERATURE,LIGHTS_STATE

09/04/2017 12:57:26,33.625,30.25,off
09/04/2017 12:57:37,33.625,30.25,off
09/04/2017 12:57:49,33.625,30.25,off
09/04/2017 12:58:01,33.625,30.25,off
