TIME,INSIDE_TEMPERATURE,OUTSIDE_TEMPERATURE,LIGHTS_STATE

10/21/2017 12:12:25,26.875,29.562,off
10/21/2017 12:12:37,26.937,29.375,off
10/21/2017 12:12:49,26.937,29.187,off
10/21/2017 12:13:00,26.937,29.062,off
