TIME,INSIDE_TEMPERATURE,OUTSIDE_TEMPERATURE,LIGHTS_STATE

03/17/2018 12:58:25,19.437,15.437,off
03/17/2018 12:58:37,19.437,15.437,off
03/17/2018 12:58:48,19.437,15.437,off
03/17/2018 12:59:00,19.437,15.437,off
