TIME,INSIDE_TEMPERATURE,OUTSIDE_TEMPERATURE,LIGHTS_STATE

04/10/2017 12:00:25,22.375,19.562,off
04/10/2017 12:00:36,22.375,19.625,off
04/10/2017 12:00:48,22.375,19.625,off
04/10/2017 12:01:00,22.375,19.625,off
