TIME,INSIDE_TEMPERATURE,OUTSIDE_TEMPERATURE,LIGHTS_STATE

02/27/2018 12:54:26,21.062,21.125,off
02/27/2018 12:54:37,21.062,21.062,off
02/27/2018 12:54:49,21.062,21.062,off
02/27/2018 12:55:01,21.125,21.0,off
