TIME,INSIDE_TEMPERATURE,OUTSIDE_TEMPERATURE,LIGHTS_STATE

08/02/2017 12:52:25,37.5,35.187,off
08/02/2017 12:52:37,37.562,35.187,off
08/02/2017 12:52:49,37.562,35.187,off
08/02/2017 12:53:00,37.437,35.187,off
