TIME,INSIDE_TEMPERATURE,OUTSIDE_TEMPERATURE,LIGHTS_STATE

07/13/2017 12:39:26,32.75,30.125,off
07/13/2017 12:39:38,32.75,30.125,off
07/13/2017 12:39:49,32.75,30.062,off
07/13/2017 12:40:01,32.75,30.062,off
