TIME,INSIDE_TEMPERATURE,OUTSIDE_TEMPERATURE,LIGHTS_STATE

03/09/2018 12:39:26,25.875,21.5,off
03/09/2018 12:39:37,25.875,21.437,off
03/09/2018 12:39:49,25.875,21.437,off
03/09/2018 12:40:01,25.875,21.5,off
