TIME,INSIDE_TEMPERATURE,OUTSIDE_TEMPERATURE,LIGHTS_STATE

09/08/2017 12:16:26,28.125,26.0,off
09/08/2017 12:16:37,28.187,26.062,off
09/08/2017 12:16:49,28.187,26.125,off
09/08/2017 12:17:01,28.187,26.125,off
