TIME,INSIDE_TEMPERATURE,OUTSIDE_TEMPERATURE,LIGHTS_STATE

07/21/2017 12:49:26,31.0,27.812,off
07/21/2017 12:49:37,31.062,27.812,off
07/21/2017 12:49:49,31.062,27.875,off
07/21/2017 12:50:01,31.062,27.875,off
