TIME,INSIDE_TEMPERATURE,OUTSIDE_TEMPERATURE,LIGHTS_STATE

06/13/2017 12:16:26,25.937,22.875,off
06/13/2017 12:16:37,25.937,22.937,off
06/13/2017 12:16:49,25.937,23.0,off
06/13/2017 12:17:01,26.0,23.0,off
