TIME,INSIDE_TEMPERATURE,OUTSIDE_TEMPERATURE,LIGHTS_STATE

07/24/2016 12:34:25,33.5,33.062,off
07/24/2016 12:34:37,33.5,33.062,off
07/24/2016 12:34:49,33.562,33.062,off
07/24/2016 12:35:00,33.562,33.062,off
