TIME,INSIDE_TEMPERATURE,OUTSIDE_TEMPERATURE,LIGHTS_STATE

10/26/2016 12:18:25,33.875,37.875,off
10/26/2016 12:18:37,33.937,37.625,off
10/26/2016 12:18:48,33.937,37.125,off
10/26/2016 12:19:00,33.937,36.875,off
