TIME,INSIDE_TEMPERATURE,OUTSIDE_TEMPERATURE,LIGHTS_STATE

06/17/2017 12:43:25,34.875,29.812,off
06/17/2017 12:43:37,34.937,29.812,off
06/17/2017 12:43:49,34.937,29.812,off
06/17/2017 12:44:00,34.937,29.875,off
