TIME,INSIDE_TEMPERATURE,OUTSIDE_TEMPERATURE,LIGHTS_STATE

04/15/2017 12:47:25,21.937,18.687,off
04/15/2017 12:47:37,21.937,18.687,off
04/15/2017 12:47:48,22.0,18.625,off
04/15/2017 12:48:00,22.0,18.562,off
