TIME,INSIDE_TEMPERATURE,OUTSIDE_TEMPERATURE,LIGHTS_STATE

07/28/2017 12:01:25,33.125,30.312,off
07/28/2017 12:01:37,33.187,30.312,off
07/28/2017 12:01:49,33.187,30.312,off
07/28/2017 12:02:01,33.187,30.312,off
