TIME,INSIDE_TEMPERATURE,OUTSIDE_TEMPERATURE,LIGHTS_STATE

12/15/2016 12:34:25,21.125,17.5,off
12/15/2016 12:34:37,21.125,17.5,off
12/15/2016 12:34:48,21.125,17.5,off
12/15/2016 12:35:00,21.125,17.5,off
