TIME,INSIDE_TEMPERATURE,OUTSIDE_TEMPERATURE,LIGHTS_STATE

07/12/2016 12:45:25,25.625,25.5,off
07/12/2016 12:45:36,25.625,25.562,off
07/12/2016 12:45:48,25.625,25.562,off
07/12/2016 12:46:00,25.625,25.5,off
