TIME,INSIDE_TEMPERATURE,OUTSIDE_TEMPERATURE,LIGHTS_STATE

04/23/2017 12:37:25,22.062,18.937,off
04/23/2017 12:37:37,22.062,18.937,off
04/23/2017 12:37:49,22.0,18.937,off
04/23/2017 12:38:00,22.0,18.937,off
