TIME,INSIDE_TEMPERATURE,OUTSIDE_TEMPERATURE,LIGHTS_STATE

01/06/2018 12:20:25,24.625,31.687,off
01/06/2018 12:20:37,24.625,31.687,off
01/06/2018 12:20:49,24.625,31.75,off
01/06/2018 12:21:00,24.625,31.875,off
