TIME,INSIDE_TEMPERATURE,OUTSIDE_TEMPERATURE,LIGHTS_STATE

01/05/2017 12:57:24,18.5,11.812,off
01/05/2017 12:57:36,18.5,11.687,off
01/05/2017 12:57:48,18.5,11.687,off
01/05/2017 12:57:59,18.5,11.625,off
