TIME,INSIDE_TEMPERATURE,OUTSIDE_TEMPERATURE,LIGHTS_STATE

07/20/2016 12:00:25,26.0,27.437,off
07/20/2016 12:00:36,26.0,27.437,off
07/20/2016 12:00:48,26.0,27.437,off
07/20/2016 12:01:00,26.0,27.437,off
