TIME,INSIDE_TEMPERATURE,OUTSIDE_TEMPERATURE,LIGHTS_STATE

10/21/2017 12:10:25,26.812,32.062,off
10/21/2017 12:10:37,26.812,31.687,off
10/21/2017 12:10:48,26.812,31.375,off
10/21/2017 12:11:00,26.812,31.062,off
