TIME,INSIDE_TEMPERATURE,OUTSIDE_TEMPERATURE,LIGHTS_STATE

01/08/2017 12:32:25,18.812,15.187,off
01/08/2017 12:32:36,18.812,15.25,off
01/08/2017 12:32:48,18.812,15.25,off
01/08/2017 12:33:00,18.812,15.25,off
