TIME,INSIDE_TEMPERATURE,OUTSIDE_TEMPERATURE,LIGHTS_STATE

07/30/2017 12:40:25,30.937,27.875,off
07/30/2017 12:40:37,30.937,27.937,off
07/30/2017 12:40:49,31.0,27.875,off
07/30/2017 12:41:02,31.0,27.875,off
