TIME,INSIDE_TEMPERATURE,OUTSIDE_TEMPERATURE,LIGHTS_STATE

12/22/2017 12:40:26,19.625,21.125,off
12/22/2017 12:40:37,19.562,20.875,off
12/22/2017 12:40:49,19.625,20.625,off
12/22/2017 12:41:01,19.625,20.437,off
