TIME,INSIDE_TEMPERATURE,OUTSIDE_TEMPERATURE,LIGHTS_STATE

02/26/2018 12:23:25,19.0,17.562,off
02/26/2018 12:23:37,19.0,17.75,off
02/26/2018 12:23:49,19.0,17.937,off
02/26/2018 12:24:01,19.0,18.125,off
