TIME,INSIDE_TEMPERATURE,OUTSIDE_TEMPERATURE,LIGHTS_STATE

11/01/2017 12:19:25,30.625,30.375,off
11/01/2017 12:19:37,30.625,30.5,off
11/01/2017 12:19:48,30.625,30.5,off
11/01/2017 12:20:00,30.625,30.562,off
