TIME,INSIDE_TEMPERATURE,OUTSIDE_TEMPERATURE,LIGHTS_STATE

03/21/2017 12:19:25,22.187,18.312,off
03/21/2017 12:19:37,22.187,18.312,off
03/21/2017 12:19:48,22.187,18.375,off
03/21/2017 12:20:00,22.187,18.437,off
