TIME,INSIDE_TEMPERATURE,OUTSIDE_TEMPERATURE,LIGHTS_STATE

08/16/2017 12:41:26,27.687,25.25,off
08/16/2017 12:41:37,27.75,25.312,off
08/16/2017 12:41:49,27.75,25.312,off
08/16/2017 12:42:01,27.75,25.375,off
