TIME,INSIDE_TEMPERATURE,OUTSIDE_TEMPERATURE,LIGHTS_STATE

07/27/2016 12:22:25,36.187,37.062,off
07/27/2016 12:22:37,36.125,37.125,off
07/27/2016 12:22:48,36.187,37.187,off
07/27/2016 12:23:01,36.187,37.125,off
