TIME,INSIDE_TEMPERATURE,OUTSIDE_TEMPERATURE,LIGHTS_STATE

07/11/2017 12:54:25,33.375,31.375,off
07/11/2017 12:54:37,33.437,31.25,off
07/11/2017 12:54:49,33.437,31.187,off
07/11/2017 12:55:01,33.437,31.125,off
