TIME,INSIDE_TEMPERATURE,OUTSIDE_TEMPERATURE,LIGHTS_STATE

02/18/2017 12:25:25,16.812,12.625,off
02/18/2017 12:25:37,16.812,12.625,off
02/18/2017 12:25:49,16.875,12.687,off
02/18/2017 12:26:00,16.875,12.687,off
