TIME,INSIDE_TEMPERATURE,OUTSIDE_TEMPERATURE,LIGHTS_STATE

03/17/2018 12:01:26,18.187,13.562,off
03/17/2018 12:01:37,18.187,13.562,off
03/17/2018 12:01:49,18.187,13.562,off
03/17/2018 12:02:01,18.187,13.562,off
