TIME,INSIDE_TEMPERATURE,OUTSIDE_TEMPERATURE,LIGHTS_STATE

08/29/2017 12:41:25,31.062,28.937,off
08/29/2017 12:41:38,31.125,28.937,off
08/29/2017 12:41:50,31.125,29.0,off
08/29/2017 12:42:01,31.125,29.0,off
