TIME,INSIDE_TEMPERATURE,OUTSIDE_TEMPERATURE,LIGHTS_STATE

12/06/2016 12:37:26,19.937,17.25,off
12/06/2016 12:37:37,19.937,17.312,off
12/06/2016 12:37:49,19.937,17.375,off
12/06/2016 12:38:01,19.937,17.312,off
