TIME,INSIDE_TEMPERATURE,OUTSIDE_TEMPERATURE,LIGHTS_STATE

07/10/2017 12:01:26,33.25,30.812,off
07/10/2017 12:01:37,33.25,30.812,off
07/10/2017 12:01:49,33.187,30.875,off
07/10/2017 12:02:01,33.187,30.812,off
