TIME,INSIDE_TEMPERATURE,OUTSIDE_TEMPERATURE,LIGHTS_STATE

10/02/2017 12:05:25,28.375,25.187,off
10/02/2017 12:05:37,28.375,25.125,off
10/02/2017 12:05:49,28.437,25.187,off
10/02/2017 12:06:01,28.437,25.25,off
