TIME,INSIDE_TEMPERATURE,OUTSIDE_TEMPERATURE,LIGHTS_STATE

09/21/2017 12:14:26,26.0,22.312,off
09/21/2017 12:14:38,26.0,22.312,off
09/21/2017 12:14:49,26.062,22.25,off
09/21/2017 12:15:01,26.062,22.25,off
