TIME,INSIDE_TEMPERATURE,OUTSIDE_TEMPERATURE,LIGHTS_STATE

08/17/2017 12:42:26,31.187,28.687,off
08/17/2017 12:42:37,31.25,28.625,off
08/17/2017 12:42:49,31.25,28.625,off
08/17/2017 12:43:01,31.25,28.562,off
