TIME,INSIDE_TEMPERATURE,OUTSIDE_TEMPERATURE,LIGHTS_STATE

07/02/2017 12:50:25,30.312,27.437,off
07/02/2017 12:50:37,30.25,27.437,off
07/02/2017 12:50:49,30.312,27.5,off
07/02/2017 12:51:01,30.312,27.5,off
