TIME,INSIDE_TEMPERATURE,OUTSIDE_TEMPERATURE,LIGHTS_STATE

02/13/2017 12:38:25,24.562,21.312,off
02/13/2017 12:38:37,24.562,21.312,off
02/13/2017 12:38:48,24.562,21.312,off
02/13/2017 12:39:00,24.562,21.312,off
