TIME,INSIDE_TEMPERATURE,OUTSIDE_TEMPERATURE,LIGHTS_STATE

08/26/2017 12:09:25,35.25,33.937,off
08/26/2017 12:09:37,35.187,33.937,off
08/26/2017 12:09:48,35.25,34.0,off
08/26/2017 12:10:00,35.25,34.0,off
