TIME,INSIDE_TEMPERATURE,OUTSIDE_TEMPERATURE,LIGHTS_STATE

07/09/2016 12:47:25,26.687,26.0,off
07/09/2016 12:47:37,26.687,26.0,off
07/09/2016 12:47:48,26.687,26.062,off
07/09/2016 12:48:00,26.625,26.062,off
