TIME,INSIDE_TEMPERATURE,OUTSIDE_TEMPERATURE,LIGHTS_STATE

12/21/2016 12:43:24,22.937,21.187,off
12/21/2016 12:43:36,22.937,21.062,off
12/21/2016 12:43:48,22.937,20.875,off
12/21/2016 12:43:59,22.937,20.75,off
