TIME,INSIDE_TEMPERATURE,OUTSIDE_TEMPERATURE,LIGHTS_STATE

08/02/2016 12:09:26,27.437,27.562,off
08/02/2016 12:09:37,27.437,27.562,off
08/02/2016 12:09:49,27.437,27.562,off
08/02/2016 12:10:01,27.437,27.562,off
