TIME,INSIDE_TEMPERATURE,OUTSIDE_TEMPERATURE,LIGHTS_STATE

04/18/2017 12:16:25,23.062,18.312,off
04/18/2017 12:16:37,23.062,18.312,off
04/18/2017 12:16:49,23.062,18.375,off
04/18/2017 12:17:00,23.062,18.375,off
