TIME,INSIDE_TEMPERATURE,OUTSIDE_TEMPERATURE,LIGHTS_STATE

04/08/2017 12:36:25,17.125,12.312,off
04/08/2017 12:36:36,17.125,12.312,off
04/08/2017 12:36:48,17.125,12.312,off
04/08/2017 12:37:00,17.187,12.375,off
