TIME,INSIDE_TEMPERATURE,OUTSIDE_TEMPERATURE,LIGHTS_STATE

03/14/2017 12:31:25,28.187,24.875,off
03/14/2017 12:31:37,28.312,24.937,off
03/14/2017 12:31:48,28.375,24.937,off
03/14/2017 12:32:00,28.437,24.937,off
