TIME,INSIDE_TEMPERATURE,OUTSIDE_TEMPERATURE,LIGHTS_STATE

03/18/2018 12:21:25,17.375,14.937,off
03/18/2018 12:21:36,17.375,15.0,off
03/18/2018 12:21:48,17.375,15.0,off
03/18/2018 12:22:00,17.437,15.0,off
