TIME,INSIDE_TEMPERATURE,OUTSIDE_TEMPERATURE,LIGHTS_STATE

12/10/2016 12:41:25,19.062,14.937,off
12/10/2016 12:41:37,19.125,14.937,off
12/10/2016 12:41:48,19.125,14.937,off
12/10/2016 12:42:00,19.125,14.875,off
