TIME,INSIDE_TEMPERATURE,OUTSIDE_TEMPERATURE,LIGHTS_STATE

08/11/2017 12:58:25,29.75,27.625,off
08/11/2017 12:58:37,29.75,27.687,off
08/11/2017 12:58:48,29.812,27.687,off
08/11/2017 12:59:00,29.812,27.687,off
