TIME,INSIDE_TEMPERATURE,OUTSIDE_TEMPERATURE,LIGHTS_STATE

02/12/2018 12:47:26,23.562,23.812,off
02/12/2018 12:47:37,23.562,23.875,off
02/12/2018 12:47:49,23.562,23.875,off
02/12/2018 12:48:01,23.562,23.812,off
