TIME,INSIDE_TEMPERATURE,OUTSIDE_TEMPERATURE,LIGHTS_STATE

02/07/2017 12:05:26,20.812,16.187,off
02/07/2017 12:05:37,20.812,16.187,off
02/07/2017 12:05:49,20.812,16.187,off
02/07/2017 12:06:01,20.812,16.187,off
