TIME,INSIDE_TEMPERATURE,OUTSIDE_TEMPERATURE,LIGHTS_STATE

07/25/2017 12:33:25,30.062,26.937,off
07/25/2017 12:33:37,30.062,26.937,off
07/25/2017 12:33:49,30.062,26.937,off
07/25/2017 12:34:00,30.062,26.937,off
