TIME,INSIDE_TEMPERATURE,OUTSIDE_TEMPERATURE,LIGHTS_STATE

09/12/2017 12:07:25,35.562,32.562,off
09/12/2017 12:07:37,35.562,32.5,off
09/12/2017 12:07:48,35.625,32.5,off
09/12/2017 12:08:00,35.687,32.5,off
