TIME,INSIDE_TEMPERATURE,OUTSIDE_TEMPERATURE,LIGHTS_STATE

12/08/2016 12:19:25,15.75,13.687,off
12/08/2016 12:19:37,15.75,13.687,off
12/08/2016 12:19:48,15.812,13.75,off
12/08/2016 12:20:00,15.812,13.75,off
