TIME,INSIDE_TEMPERATURE,OUTSIDE_TEMPERATURE,LIGHTS_STATE

03/08/2017 12:23:26,24.812,26.375,off
03/08/2017 12:23:37,24.875,26.375,off
03/08/2017 12:23:49,24.812,26.312,off
03/08/2017 12:24:01,24.875,26.312,off
