TIME,INSIDE_TEMPERATURE,OUTSIDE_TEMPERATURE,LIGHTS_STATE

09/29/2017 12:28:25,29.75,28.437,off
09/29/2017 12:28:37,29.75,28.437,off
09/29/2017 12:28:48,29.812,28.437,off
09/29/2017 12:29:00,29.812,28.437,off
