TIME,INSIDE_TEMPERATURE,OUTSIDE_TEMPERATURE,LIGHTS_STATE

03/17/2017 12:04:25,23.187,22.437,off
03/17/2017 12:04:37,23.25,22.5,off
03/17/2017 12:04:48,23.25,22.625,off
03/17/2017 12:05:00,23.187,22.562,off
