TIME,INSIDE_TEMPERATURE,OUTSIDE_TEMPERATURE,LIGHTS_STATE

12/22/2017 12:23:25,19.5,20.125,off
12/22/2017 12:23:37,19.437,20.187,off
12/22/2017 12:23:49,19.437,20.187,off
12/22/2017 12:24:00,19.5,19.875,off
