TIME,INSIDE_TEMPERATURE,OUTSIDE_TEMPERATURE,LIGHTS_STATE

01/30/2018 12:07:25,25.937,23.125,off
01/30/2018 12:07:37,26.0,23.062,off
01/30/2018 12:07:49,26.0,22.875,off
01/30/2018 12:08:00,26.0,22.875,off
