TIME,INSIDE_TEMPERATURE,OUTSIDE_TEMPERATURE,LIGHTS_STATE

04/21/2017 12:54:26,24.625,22.187,off
04/21/2017 12:54:37,24.625,22.187,off
04/21/2017 12:54:49,24.625,22.187,off
04/21/2017 12:55:01,24.625,22.187,off
