TIME,INSIDE_TEMPERATURE,OUTSIDE_TEMPERATURE,LIGHTS_STATE

08/03/2016 12:00:25,28.562,29.062,off
08/03/2016 12:00:37,28.562,29.062,off
08/03/2016 12:00:48,28.562,29.0,off
08/03/2016 12:01:00,28.625,29.062,off
