TIME,INSIDE_TEMPERATURE,OUTSIDE_TEMPERATURE,LIGHTS_STATE

09/23/2017 12:12:25,25.937,24.0,off
09/23/2017 12:12:37,25.937,24.0,off
09/23/2017 12:12:49,26.0,24.062,off
09/23/2017 12:13:01,26.062,24.125,off
