TIME,INSIDE_TEMPERATURE,OUTSIDE_TEMPERATURE,LIGHTS_STATE

04/11/2017 12:50:25,26.625,21.812,off
04/11/2017 12:50:37,26.625,21.812,off
04/11/2017 12:50:48,26.687,21.812,off
04/11/2017 12:51:00,26.625,21.937,off
