TIME,INSIDE_TEMPERATURE,OUTSIDE_TEMPERATURE,LIGHTS_STATE

07/14/2016 12:37:25,34.062,33.875,off
07/14/2016 12:37:36,34.062,33.875,off
07/14/2016 12:37:48,34.062,33.937,off
07/14/2016 12:38:00,34.062,33.937,off
