TIME,INSIDE_TEMPERATURE,OUTSIDE_TEMPERATURE,LIGHTS_STATE

05/25/2017 12:49:25,22.812,20.562,off
05/25/2017 12:49:36,22.812,20.562,off
05/25/2017 12:49:48,22.875,20.562,off
05/25/2017 12:50:00,22.875,20.562,off
