TIME,INSIDE_TEMPERATURE,OUTSIDE_TEMPERATURE,LIGHTS_STATE

08/10/2017 12:28:25,26.937,23.875,off
08/10/2017 12:28:37,26.937,23.937,off
08/10/2017 12:28:49,26.937,23.937,off
08/10/2017 12:29:01,26.937,23.937,off
