TIME,INSIDE_TEMPERATURE,OUTSIDE_TEMPERATURE,LIGHTS_STATE

12/02/2016 12:16:25,22.562,19.0,off
12/02/2016 12:16:36,22.562,18.812,off
12/02/2016 12:16:48,22.562,18.75,off
12/02/2016 12:17:00,22.562,18.75,off
