TIME,INSIDE_TEMPERATURE,OUTSIDE_TEMPERATURE,LIGHTS_STATE

09/15/2017 12:04:25,26.625,23.625,off
09/15/2017 12:04:37,26.687,23.625,off
09/15/2017 12:04:49,26.687,23.625,off
09/15/2017 12:05:00,26.625,23.687,off
