TIME,INSIDE_TEMPERATURE,OUTSIDE_TEMPERATURE,LIGHTS_STATE

06/27/2017 12:43:25,26.75,23.0,off
06/27/2017 12:43:37,26.812,23.062,off
06/27/2017 12:43:49,26.75,23.125,off
06/27/2017 12:44:01,26.812,23.187,off
