TIME,INSIDE_TEMPERATURE,OUTSIDE_TEMPERATURE,LIGHTS_STATE

02/16/2018 12:57:26,25.375,38.75,off
02/16/2018 12:57:37,25.437,38.75,off
02/16/2018 12:57:49,25.437,38.75,off
02/16/2018 12:58:01,25.5,38.937,off
