TIME,INSIDE_TEMPERATURE,OUTSIDE_TEMPERATURE,LIGHTS_STATE

08/30/2017 12:24:25,29.5,27.562,off
08/30/2017 12:24:37,29.5,27.625,off
08/30/2017 12:24:49,29.5,27.687,off
08/30/2017 12:25:01,29.5,27.687,off
