TIME,INSIDE_TEMPERATURE,OUTSIDE_TEMPERATURE,LIGHTS_STATE

08/19/2017 12:10:25,29.625,27.625,off
08/19/2017 12:10:37,29.687,27.625,off
08/19/2017 12:10:49,29.75,27.625,off
08/19/2017 12:11:00,29.75,27.625,off
