TIME,INSIDE_TEMPERATURE,OUTSIDE_TEMPERATURE,LIGHTS_STATE

01/20/2017 12:06:25,18.937,15.562,off
01/20/2017 12:06:37,18.937,15.562,off
01/20/2017 12:06:49,18.937,14.937,off
01/20/2017 12:07:00,18.937,15.0,off
