TIME,INSIDE_TEMPERATURE,OUTSIDE_TEMPERATURE,LIGHTS_STATE

09/24/2017 12:37:26,29.0,26.312,off
09/24/2017 12:37:38,29.0,26.437,off
09/24/2017 12:37:49,29.062,26.5,off
09/24/2017 12:38:01,29.062,26.5,off
