TIME,INSIDE_TEMPERATURE,OUTSIDE_TEMPERATURE,LIGHTS_STATE

08/17/2017 12:03:25,30.562,27.937,off
08/17/2017 12:03:37,30.625,27.937,off
08/17/2017 12:03:48,30.562,27.937,off
08/17/2017 12:04:00,30.562,28.0,off
