TIME,INSIDE_TEMPERATURE,OUTSIDE_TEMPERATURE,LIGHTS_STATE

08/29/2017 12:33:25,30.875,28.75,off
08/29/2017 12:33:37,30.875,28.812,off
08/29/2017 12:33:49,30.875,28.875,off
08/29/2017 12:34:00,30.687,28.875,off
