TIME,INSIDE_TEMPERATURE,OUTSIDE_TEMPERATURE,LIGHTS_STATE

07/14/2016 12:34:25,33.875,33.687,off
07/14/2016 12:34:37,33.812,33.75,off
07/14/2016 12:34:49,33.875,33.687,off
07/14/2016 12:35:00,33.937,33.687,off
