TIME,INSIDE_TEMPERATURE,OUTSIDE_TEMPERATURE,LIGHTS_STATE

11/09/2016 12:55:25,28.437,25.0,off
11/09/2016 12:55:36,28.375,25.0,off
11/09/2016 12:55:48,28.375,25.0,off
11/09/2016 12:56:00,28.375,24.937,off
