TIME,INSIDE_TEMPERATURE,OUTSIDE_TEMPERATURE,LIGHTS_STATE

07/23/2017 12:41:25,36.375,33.312,off
07/23/2017 12:41:36,36.375,33.312,off
07/23/2017 12:41:48,36.375,33.312,off
07/23/2017 12:42:00,36.375,33.312,off
