TIME,INSIDE_TEMPERATURE,OUTSIDE_TEMPERATURE,LIGHTS_STATE

12/26/2016 12:34:25,16.437,12.625,off
12/26/2016 12:34:37,16.437,12.437,off
12/26/2016 12:34:49,16.437,12.437,off
12/26/2016 12:35:01,16.437,12.5,off
