TIME,INSIDE_TEMPERATURE,OUTSIDE_TEMPERATURE,LIGHTS_STATE

01/08/2017 12:02:25,18.812,15.062,off
01/08/2017 12:02:36,18.812,15.062,off
01/08/2017 12:02:48,18.812,15.062,off
01/08/2017 12:03:00,18.812,15.062,off
