TIME,INSIDE_TEMPERATURE,OUTSIDE_TEMPERATURE,LIGHTS_STATE

11/15/2016 12:09:25,27.75,24.75,off
11/15/2016 12:09:37,27.75,24.625,off
11/15/2016 12:09:48,27.75,24.5,off
11/15/2016 12:10:00,27.75,24.437,off
