TIME,INSIDE_TEMPERATURE,OUTSIDE_TEMPERATURE,LIGHTS_STATE

02/19/2017 12:51:25,16.312,12.062,off
02/19/2017 12:51:37,16.312,12.0,off
02/19/2017 12:51:48,16.25,12.0,off
02/19/2017 12:52:00,16.25,11.937,off
