TIME,INSIDE_TEMPERATURE,OUTSIDE_TEMPERATURE,LIGHTS_STATE

11/17/2016 12:30:25,23.75,22.187,off
11/17/2016 12:30:37,23.687,22.187,off
11/17/2016 12:30:49,23.75,22.0,off
11/17/2016 12:31:00,23.687,21.812,off
