TIME,INSIDE_TEMPERATURE,OUTSIDE_TEMPERATURE,LIGHTS_STATE

12/07/2016 12:05:24,13.375,10.75,off
12/07/2016 12:05:36,13.375,10.75,off
12/07/2016 12:05:48,13.375,10.75,off
12/07/2016 12:05:59,13.375,10.75,off
