TIME,INSIDE_TEMPERATURE,OUTSIDE_TEMPERATURE,LIGHTS_STATE

02/23/2018 12:31:25,18.5,28.25,off
02/23/2018 12:31:37,18.562,28.437,off
02/23/2018 12:31:49,18.562,28.625,off
02/23/2018 12:32:01,18.562,28.75,off
