TIME,INSIDE_TEMPERATURE,OUTSIDE_TEMPERATURE,LIGHTS_STATE

08/09/2017 12:13:25,27.125,24.375,off
08/09/2017 12:13:37,27.125,24.375,off
08/09/2017 12:13:49,27.125,24.437,off
08/09/2017 12:14:01,27.187,24.437,off
