TIME,INSIDE_TEMPERATURE,OUTSIDE_TEMPERATURE,LIGHTS_STATE

08/22/2017 12:53:26,31.562,29.625,off
08/22/2017 12:53:37,31.625,29.687,off
08/22/2017 12:53:49,31.625,29.687,off
08/22/2017 12:54:01,31.625,29.687,off
