TIME,INSIDE_TEMPERATURE,OUTSIDE_TEMPERATURE,LIGHTS_STATE

05/13/2017 12:44:25,21.625,18.75,off
05/13/2017 12:44:37,21.562,18.812,off
05/13/2017 12:44:49,21.625,18.875,off
05/13/2017 12:45:01,21.625,18.875,off
