TIME,INSIDE_TEMPERATURE,OUTSIDE_TEMPERATURE,LIGHTS_STATE

03/12/2018 12:54:26,27.312,26.875,off
03/12/2018 12:54:38,27.375,26.875,off
03/12/2018 12:54:49,27.375,26.687,off
03/12/2018 12:55:01,27.375,26.625,off
