TIME,INSIDE_TEMPERATURE,OUTSIDE_TEMPERATURE,LIGHTS_STATE

07/01/2016 12:12:25,27.812,27.0,off
07/01/2016 12:12:36,27.812,27.062,off
07/01/2016 12:12:48,27.875,27.062,off
07/01/2016 12:13:00,27.812,27.062,off
