TIME,INSIDE_TEMPERATURE,OUTSIDE_TEMPERATURE,LIGHTS_STATE

10/28/2017 12:43:26,34.812,46.312,off
10/28/2017 12:43:38,34.812,46.312,off
10/28/2017 12:43:49,34.812,46.312,off
10/28/2017 12:44:01,34.812,46.312,off
