TIME,INSIDE_TEMPERATURE,OUTSIDE_TEMPERATURE,LIGHTS_STATE

02/12/2017 12:47:25,25.125,22.562,off
02/12/2017 12:47:37,25.062,22.562,off
02/12/2017 12:47:49,25.062,22.562,off
02/12/2017 12:48:00,25.062,22.5,off
