TIME,INSIDE_TEMPERATURE,OUTSIDE_TEMPERATURE,LIGHTS_STATE

01/17/2018 12:30:25,20.875,15.062,off
01/17/2018 12:30:37,20.875,15.0,off
01/17/2018 12:30:49,20.875,15.062,off
01/17/2018 12:31:01,20.875,15.0,off
