TIME,INSIDE_TEMPERATURE,OUTSIDE_TEMPERATURE,LIGHTS_STATE

02/22/2018 12:11:25,22.25,21.375,off
02/22/2018 12:11:37,22.25,21.25,off
02/22/2018 12:11:48,22.25,21.187,off
02/22/2018 12:12:00,22.25,21.25,off
