TIME,INSIDE_TEMPERATURE,OUTSIDE_TEMPERATURE,LIGHTS_STATE

11/30/2016 12:32:24,19.687,16.25,off
11/30/2016 12:32:36,19.687,16.187,off
11/30/2016 12:32:48,19.687,16.187,off
11/30/2016 12:33:00,19.75,16.187,off
