TIME,INSIDE_TEMPERATURE,OUTSIDE_TEMPERATURE,LIGHTS_STATE

04/28/2017 12:56:25,23.5,21.812,off
04/28/2017 12:56:37,23.562,21.812,off
04/28/2017 12:56:48,23.562,21.812,off
04/28/2017 12:57:01,23.562,21.875,off
