TIME,INSIDE_TEMPERATURE,OUTSIDE_TEMPERATURE,LIGHTS_STATE

09/20/2017 12:21:26,23.875,20.062,off
09/20/2017 12:21:37,23.875,20.062,off
09/20/2017 12:21:49,23.875,20.0,off
09/20/2017 12:22:01,23.875,20.0,off
