TIME,INSIDE_TEMPERATURE,OUTSIDE_TEMPERATURE,LIGHTS_STATE

02/21/2018 12:14:25,21.187,24.437,off
02/21/2018 12:14:36,21.125,24.75,off
02/21/2018 12:14:48,21.125,25.062,off
02/21/2018 12:15:00,21.125,25.312,off
