TIME,INSIDE_TEMPERATURE,OUTSIDE_TEMPERATURE,LIGHTS_STATE

11/16/2016 12:07:24,25.125,24.937,off
11/16/2016 12:07:36,25.125,25.375,off
11/16/2016 12:07:48,25.125,25.812,off
11/16/2016 12:07:59,25.125,26.0,off
