TIME,INSIDE_TEMPERATURE,OUTSIDE_TEMPERATURE,LIGHTS_STATE

06/06/2017 12:07:26,22.625,22.437,off
06/06/2017 12:07:38,22.625,22.437,off
06/06/2017 12:07:49,22.625,22.437,off
06/06/2017 12:08:01,22.625,22.437,off
