TIME,INSIDE_TEMPERATURE,OUTSIDE_TEMPERATURE,LIGHTS_STATE

01/02/2017 12:48:25,14.562,9.812,off
01/02/2017 12:48:36,14.562,9.812,off
01/02/2017 12:48:48,14.562,9.812,off
01/02/2017 12:49:00,14.562,9.875,off
