TIME,INSIDE_TEMPERATURE,OUTSIDE_TEMPERATURE,LIGHTS_STATE

12/22/2017 12:10:25,19.5,19.062,off
12/22/2017 12:10:37,19.5,19.187,off
12/22/2017 12:10:49,19.5,19.312,off
12/22/2017 12:11:01,19.5,19.5,off
