TIME,INSIDE_TEMPERATURE,OUTSIDE_TEMPERATURE,LIGHTS_STATE

03/07/2018 12:22:25,24.375,36.937,off
03/07/2018 12:22:37,24.437,36.937,off
03/07/2018 12:22:49,24.437,36.937,off
03/07/2018 12:23:00,24.437,36.687,off
