TIME,INSIDE_TEMPERATURE,OUTSIDE_TEMPERATURE,LIGHTS_STATE

09/12/2016 12:04:26,24.437,21.875,off
09/12/2016 12:04:38,24.437,21.75,off
09/12/2016 12:04:50,24.437,21.75,off
09/12/2016 12:05:01,24.5,21.687,off
