TIME,INSIDE_TEMPERATURE,OUTSIDE_TEMPERATURE,LIGHTS_STATE

04/04/2017 12:25:25,24.062,21.687,off
04/04/2017 12:25:38,24.062,21.687,off
04/04/2017 12:25:49,24.125,21.75,off
04/04/2017 12:26:01,24.125,21.75,off
