TIME,INSIDE_TEMPERATURE,OUTSIDE_TEMPERATURE,LIGHTS_STATE

02/06/2018 12:54:26,29.75,45.187,off
02/06/2018 12:54:37,29.812,45.125,off
02/06/2018 12:54:49,29.812,45.125,off
02/06/2018 12:55:01,29.812,45.062,off
