TIME,INSIDE_TEMPERATURE,OUTSIDE_TEMPERATURE,LIGHTS_STATE

01/05/2017 12:49:25,19.25,12.375,off
01/05/2017 12:49:36,19.25,12.312,off
01/05/2017 12:49:48,19.25,12.312,off
01/05/2017 12:50:00,19.187,12.375,off
