TIME,INSIDE_TEMPERATURE,OUTSIDE_TEMPERATURE,LIGHTS_STATE

02/18/2018 12:45:25,24.437,21.812,off
02/18/2018 12:45:37,24.437,21.437,off
02/18/2018 12:45:48,24.437,20.937,off
02/18/2018 12:46:00,24.437,20.562,off
