TIME,INSIDE_TEMPERATURE,OUTSIDE_TEMPERATURE,LIGHTS_STATE

07/06/2016 12:57:25,25.125,24.75,off
07/06/2016 12:57:37,25.125,24.75,off
07/06/2016 12:57:48,25.125,24.75,off
07/06/2016 12:58:00,25.125,24.812,off
