TIME,INSIDE_TEMPERATURE,OUTSIDE_TEMPERATURE,LIGHTS_STATE

03/28/2017 12:22:25,22.875,20.5,off
03/28/2017 12:22:36,22.937,20.5,off
03/28/2017 12:22:48,22.875,20.5,off
03/28/2017 12:23:00,22.937,20.5,off
