TIME,INSIDE_TEMPERATURE,OUTSIDE_TEMPERATURE,LIGHTS_STATE

09/06/2017 12:25:25,33.312,30.75,off
09/06/2017 12:25:37,33.312,30.75,off
09/06/2017 12:25:49,33.312,30.75,off
09/06/2017 12:26:00,33.312,30.812,off
