TIME,INSIDE_TEMPERATURE,OUTSIDE_TEMPERATURE,LIGHTS_STATE

02/03/2018 12:15:25,29.25,28.437,off
02/03/2018 12:15:37,29.187,28.437,off
02/03/2018 12:15:49,29.25,28.437,off
02/03/2018 12:16:01,29.25,28.375,off
