TIME,INSIDE_TEMPERATURE,OUTSIDE_TEMPERATURE,LIGHTS_STATE

12/27/2017 12:53:25,23.75,23.75,off
12/27/2017 12:53:37,23.687,23.75,off
12/27/2017 12:53:48,23.75,23.875,off
12/27/2017 12:54:00,23.75,23.937,off
