TIME,INSIDE_TEMPERATURE,OUTSIDE_TEMPERATURE,LIGHTS_STATE

04/30/2017 12:26:25,25.812,24.625,off
04/30/2017 12:26:37,25.812,24.625,off
04/30/2017 12:26:49,25.812,24.625,off
04/30/2017 12:27:00,25.875,24.625,off
