TIME,INSIDE_TEMPERATURE,OUTSIDE_TEMPERATURE,LIGHTS_STATE

12/29/2016 12:55:26,19.5,17.375,off
12/29/2016 12:55:37,19.5,17.5,off
12/29/2016 12:55:49,19.5,17.562,off
12/29/2016 12:56:01,19.5,17.687,off
