TIME,INSIDE_TEMPERATURE,OUTSIDE_TEMPERATURE,LIGHTS_STATE

04/09/2017 12:09:25,19.187,16.375,off
04/09/2017 12:09:37,19.25,16.375,off
04/09/2017 12:09:49,19.25,16.375,off
04/09/2017 12:10:00,19.25,16.375,off
