TIME,INSIDE_TEMPERATURE,OUTSIDE_TEMPERATURE,LIGHTS_STATE

08/19/2017 12:56:25,30.812,28.75,off
08/19/2017 12:56:37,30.625,28.625,off
08/19/2017 12:56:49,30.562,28.562,off
08/19/2017 12:57:00,30.562,28.5,off
