TIME,INSIDE_TEMPERATURE,OUTSIDE_TEMPERATURE,LIGHTS_STATE

03/28/2018 12:02:25,24.062,18.75,off
03/28/2018 12:02:37,24.062,18.75,off
03/28/2018 12:02:48,24.062,18.75,off
03/28/2018 12:03:00,24.062,18.75,off
