TIME,INSIDE_TEMPERATURE,OUTSIDE_TEMPERATURE,LIGHTS_STATE

10/28/2017 12:44:25,34.812,46.25,off
10/28/2017 12:44:37,34.812,46.25,off
10/28/2017 12:44:49,34.812,46.25,off
10/28/2017 12:45:00,34.812,46.187,off
