TIME,INSIDE_TEMPERATURE,OUTSIDE_TEMPERATURE,LIGHTS_STATE

01/04/2018 12:03:25,21.437,17.75,off
01/04/2018 12:03:37,21.437,17.75,off
01/04/2018 12:03:49,21.437,17.687,off
01/04/2018 12:04:01,21.437,17.687,off
