TIME,INSIDE_TEMPERATURE,OUTSIDE_TEMPERATURE,LIGHTS_STATE

02/06/2017 12:32:25,18.0,13.875,off
02/06/2017 12:32:37,18.0,13.812,off
02/06/2017 12:32:48,18.062,13.812,off
02/06/2017 12:33:00,18.062,13.875,off
