TIME,INSIDE_TEMPERATURE,OUTSIDE_TEMPERATURE,LIGHTS_STATE

06/10/2017 12:37:25,24.812,20.875,off
06/10/2017 12:37:37,24.875,20.875,off
06/10/2017 12:37:48,24.875,20.812,off
06/10/2017 12:38:00,24.875,20.812,off
