TIME,INSIDE_TEMPERATURE,OUTSIDE_TEMPERATURE,LIGHTS_STATE

10/09/2017 12:04:25,30.625,25.0,off
10/09/2017 12:04:37,30.625,25.062,off
10/09/2017 12:04:49,30.625,25.25,off
10/09/2017 12:05:00,30.687,25.437,off
