TIME,INSIDE_TEMPERATURE,OUTSIDE_TEMPERATURE,LIGHTS_STATE

12/03/2016 12:08:25,24.812,21.75,off
12/03/2016 12:08:37,24.812,21.812,off
12/03/2016 12:08:49,24.812,21.812,off
12/03/2016 12:09:00,24.812,21.875,off
