TIME,INSIDE_TEMPERATURE,OUTSIDE_TEMPERATURE,LIGHTS_STATE

10/24/2016 12:19:25,22.312,19.375,off
10/24/2016 12:19:36,22.312,19.437,off
10/24/2016 12:19:48,22.375,19.437,off
10/24/2016 12:20:00,22.375,19.5,off
