TIME,INSIDE_TEMPERATURE,OUTSIDE_TEMPERATURE,LIGHTS_STATE

08/14/2017 12:52:25,26.5,22.937,off
08/14/2017 12:52:37,26.5,22.875,off
08/14/2017 12:52:48,26.5,22.937,off
08/14/2017 12:53:00,26.5,22.937,off
