TIME,INSIDE_TEMPERATURE,OUTSIDE_TEMPERATURE,LIGHTS_STATE

10/09/2017 12:43:25,31.375,28.187,off
10/09/2017 12:43:37,31.375,28.187,off
10/09/2017 12:43:48,31.375,28.25,off
10/09/2017 12:44:00,31.375,28.25,off
