TIME,INSIDE_TEMPERATURE,OUTSIDE_TEMPERATURE,LIGHTS_STATE

02/10/2018 12:14:25,26.312,24.812,off
02/10/2018 12:14:37,26.312,24.812,off
02/10/2018 12:14:49,26.375,24.812,off
02/10/2018 12:15:00,26.375,24.875,off
