TIME,INSIDE_TEMPERATURE,OUTSIDE_TEMPERATURE,LIGHTS_STATE

09/23/2017 12:03:25,25.812,24.187,off
09/23/2017 12:03:37,25.437,24.125,off
09/23/2017 12:03:49,25.562,24.125,off
09/23/2017 12:04:00,25.562,24.062,off
