TIME,INSIDE_TEMPERATURE,OUTSIDE_TEMPERATURE,LIGHTS_STATE

12/22/2017 12:52:25,19.375,19.625,off
12/22/2017 12:52:37,19.375,19.75,off
12/22/2017 12:52:49,19.375,20.0,off
12/22/2017 12:53:00,19.375,20.062,off
