TIME,INSIDE_TEMPERATURE,OUTSIDE_TEMPERATURE,LIGHTS_STATE

11/14/2016 12:07:25,29.125,32.062,off
11/14/2016 12:07:36,29.125,32.125,off
11/14/2016 12:07:48,29.125,32.312,off
11/14/2016 12:08:00,29.125,32.437,off
