TIME,INSIDE_TEMPERATURE,OUTSIDE_TEMPERATURE,LIGHTS_STATE

09/19/2016 12:18:26,32.937,35.0,off
09/19/2016 12:18:38,33.0,35.062,off
09/19/2016 12:18:49,33.0,35.062,off
09/19/2016 12:19:01,33.0,35.125,off
