TIME,INSIDE_TEMPERATURE,OUTSIDE_TEMPERATURE,LIGHTS_STATE

12/08/2016 12:45:24,16.75,14.937,off
12/08/2016 12:45:36,16.75,14.875,off
12/08/2016 12:45:48,16.812,14.875,off
12/08/2016 12:45:59,16.812,14.937,off
