TIME,INSIDE_TEMPERATURE,OUTSIDE_TEMPERATURE,LIGHTS_STATE

02/16/2017 12:27:25,25.0,21.125,off
02/16/2017 12:27:37,25.0,21.0,off
02/16/2017 12:27:48,25.0,20.875,off
02/16/2017 12:28:00,24.937,20.812,off
