TIME,INSIDE_TEMPERATURE,OUTSIDE_TEMPERATURE,LIGHTS_STATE

09/03/2017 12:39:25,41.875,39.875,off
09/03/2017 12:39:37,41.937,39.937,off
09/03/2017 12:39:49,41.937,40.062,off
09/03/2017 12:40:00,42.0,40.062,off
