TIME,INSIDE_TEMPERATURE,OUTSIDE_TEMPERATURE,LIGHTS_STATE

11/30/2016 12:22:25,20.0,17.875,off
11/30/2016 12:22:37,20.0,17.875,off
11/30/2016 12:22:49,20.0,17.812,off
11/30/2016 12:23:00,20.0,17.75,off
