TIME,INSIDE_TEMPERATURE,OUTSIDE_TEMPERATURE,LIGHTS_STATE

10/28/2016 12:29:25,24.25,22.25,off
10/28/2016 12:29:37,24.25,22.312,off
10/28/2016 12:29:48,24.312,22.375,off
10/28/2016 12:30:00,24.312,22.375,off
