TIME,INSIDE_TEMPERATURE,OUTSIDE_TEMPERATURE,LIGHTS_STATE

03/03/2018 12:32:25,17.75,11.062,off
03/03/2018 12:32:37,17.812,11.062,off
03/03/2018 12:32:49,17.75,11.062,off
03/03/2018 12:33:00,17.75,11.062,off
