TIME,INSIDE_TEMPERATURE,OUTSIDE_TEMPERATURE,LIGHTS_STATE

12/30/2016 12:36:25,17.25,15.375,off
12/30/2016 12:36:37,17.25,15.375,off
12/30/2016 12:36:49,17.25,15.375,off
12/30/2016 12:37:00,17.25,15.375,off
