TIME,INSIDE_TEMPERATURE,OUTSIDE_TEMPERATURE,LIGHTS_STATE

03/26/2017 12:06:25,23.937,19.5,off
03/26/2017 12:06:37,23.937,19.562,off
03/26/2017 12:06:48,23.937,19.562,off
03/26/2017 12:07:00,23.875,19.562,off
