TIME,INSIDE_TEMPERATURE,OUTSIDE_TEMPERATURE,LIGHTS_STATE

02/15/2018 12:41:26,25.187,27.125,off
02/15/2018 12:41:37,25.187,26.875,off
02/15/2018 12:41:49,25.187,27.0,off
02/15/2018 12:42:01,25.187,27.187,off
