TIME,INSIDE_TEMPERATURE,OUTSIDE_TEMPERATURE,LIGHTS_STATE

07/13/2016 12:34:26,30.75,30.875,off
07/13/2016 12:34:38,30.75,30.875,off
07/13/2016 12:34:50,30.812,30.875,off
07/13/2016 12:35:01,30.812,30.875,off
