TIME,INSIDE_TEMPERATURE,OUTSIDE_TEMPERATURE,LIGHTS_STATE

01/22/2018 12:07:25,21.312,17.25,off
01/22/2018 12:07:37,21.312,17.312,off
01/22/2018 12:07:49,21.312,17.437,off
01/22/2018 12:08:01,21.312,17.562,off
