TIME,INSIDE_TEMPERATURE,OUTSIDE_TEMPERATURE,LIGHTS_STATE

11/23/2016 12:00:26,24.125,18.875,off
11/23/2016 12:00:38,24.125,18.875,off
11/23/2016 12:00:49,24.062,18.937,off
11/23/2016 12:01:01,24.062,18.812,off
