TIME,INSIDE_TEMPERATURE,OUTSIDE_TEMPERATURE,LIGHTS_STATE

03/16/2017 12:07:26,25.375,22.0,off
03/16/2017 12:07:38,25.375,21.937,off
03/16/2017 12:07:49,25.375,22.0,off
03/16/2017 12:08:01,25.375,22.062,off
