TIME,INSIDE_TEMPERATURE,OUTSIDE_TEMPERATURE,LIGHTS_STATE

02/26/2018 12:04:26,18.375,14.875,off
02/26/2018 12:04:37,18.375,14.937,off
02/26/2018 12:04:49,18.375,15.0,off
02/26/2018 12:05:01,18.375,15.062,off
