TIME,INSIDE_TEMPERATURE,OUTSIDE_TEMPERATURE,LIGHTS_STATE

07/18/2016 12:55:25,23.437,23.25,off
07/18/2016 12:55:37,23.437,23.25,off
07/18/2016 12:55:49,23.437,23.25,off
07/18/2016 12:56:00,23.437,23.25,off
