TIME,INSIDE_TEMPERATURE,OUTSIDE_TEMPERATURE,LIGHTS_STATE

09/16/2016 12:19:26,25.625,25.625,off
09/16/2016 12:19:37,25.625,25.562,off
09/16/2016 12:19:49,25.625,25.562,off
09/16/2016 12:20:01,25.625,25.562,off
