TIME,INSIDE_TEMPERATURE,OUTSIDE_TEMPERATURE,LIGHTS_STATE

09/12/2016 12:21:25,24.562,22.562,off
09/12/2016 12:21:37,24.562,22.687,off
09/12/2016 12:21:49,24.562,22.687,off
09/12/2016 12:22:01,24.625,22.75,off
