TIME,INSIDE_TEMPERATURE,OUTSIDE_TEMPERATURE,LIGHTS_STATE

03/31/2017 12:27:25,22.125,18.937,off
03/31/2017 12:27:37,22.125,18.937,off
03/31/2017 12:27:48,22.125,18.875,off
03/31/2017 12:28:00,22.125,18.812,off
