TIME,INSIDE_TEMPERATURE,OUTSIDE_TEMPERATURE,LIGHTS_STATE

06/23/2017 12:38:25,33.062,30.5,off
06/23/2017 12:38:37,33.062,30.437,off
06/23/2017 12:38:49,33.062,30.375,off
06/23/2017 12:39:00,33.062,30.312,off
