TIME,INSIDE_TEMPERATURE,OUTSIDE_TEMPERATURE,LIGHTS_STATE

11/16/2016 12:10:25,25.125,27.875,off
11/16/2016 12:10:37,25.125,27.937,off
11/16/2016 12:10:48,25.125,27.937,off
11/16/2016 12:11:00,25.125,27.875,off
