TIME,INSIDE_TEMPERATURE,OUTSIDE_TEMPERATURE,LIGHTS_STATE

07/27/2016 12:09:26,36.062,37.312,off
07/27/2016 12:09:37,36.062,37.312,off
07/27/2016 12:09:49,36.062,37.312,off
07/27/2016 12:10:01,36.062,37.25,off
