TIME,INSIDE_TEMPERATURE,OUTSIDE_TEMPERATURE,LIGHTS_STATE

07/13/2017 12:52:25,33.25,31.25,off
07/13/2017 12:52:37,33.25,31.5,off
07/13/2017 12:52:49,33.312,31.75,off
07/13/2017 12:53:01,33.312,31.937,off
