TIME,INSIDE_TEMPERATURE,OUTSIDE_TEMPERATURE,LIGHTS_STATE

04/10/2017 12:41:25,22.625,19.375,off
04/10/2017 12:41:37,22.625,19.375,off
04/10/2017 12:41:49,22.625,19.312,off
04/10/2017 12:42:01,22.625,19.312,off
