TIME,INSIDE_TEMPERATURE,OUTSIDE_TEMPERATURE,LIGHTS_STATE

07/05/2017 12:07:25,29.437,27.437,off
07/05/2017 12:07:37,29.437,27.437,off
07/05/2017 12:07:49,29.437,27.5,off
07/05/2017 12:08:00,29.5,27.562,off
