TIME,INSIDE_TEMPERATURE,OUTSIDE_TEMPERATURE,LIGHTS_STATE

01/03/2017 12:24:24,14.937,11.562,off
01/03/2017 12:24:36,15.0,11.5,off
01/03/2017 12:24:48,15.0,11.5,off
01/03/2017 12:24:59,15.0,11.562,off
