TIME,INSIDE_TEMPERATURE,OUTSIDE_TEMPERATURE,LIGHTS_STATE

01/21/2018 12:23:25,22.25,15.875,off
01/21/2018 12:23:37,22.25,15.875,off
01/21/2018 12:23:48,22.25,15.812,off
01/21/2018 12:24:00,22.25,15.812,off
