TIME,INSIDE_TEMPERATURE,OUTSIDE_TEMPERATURE,LIGHTS_STATE

07/16/2017 12:52:26,38.437,35.937,off
07/16/2017 12:52:37,38.5,36.125,off
07/16/2017 12:52:49,38.5,36.25,off
07/16/2017 12:53:01,38.5,36.312,off
