TIME,INSIDE_TEMPERATURE,OUTSIDE_TEMPERATURE,LIGHTS_STATE

12/12/2016 12:17:25,20.062,15.875,off
12/12/2016 12:17:37,20.062,15.75,off
12/12/2016 12:17:49,20.125,15.75,off
12/12/2016 12:18:00,20.062,15.75,off
