TIME,INSIDE_TEMPERATURE,OUTSIDE_TEMPERATURE,LIGHTS_STATE

05/21/2017 12:51:25,32.875,30.437,off
05/21/2017 12:51:37,32.875,30.375,off
05/21/2017 12:51:48,32.875,30.375,off
05/21/2017 12:52:00,32.875,30.375,off
