TIME,INSIDE_TEMPERATURE,OUTSIDE_TEMPERATURE,LIGHTS_STATE

05/22/2017 12:17:25,30.75,29.125,off
05/22/2017 12:17:36,30.812,29.187,off
05/22/2017 12:17:48,30.812,29.187,off
05/22/2017 12:18:00,30.812,29.125,off
