TIME,INSIDE_TEMPERATURE,OUTSIDE_TEMPERATURE,LIGHTS_STATE

12/10/2016 12:16:26,19.437,15.187,off
12/10/2016 12:16:38,19.437,15.187,off
12/10/2016 12:16:49,19.437,15.187,off
12/10/2016 12:17:02,19.437,15.25,off
