TIME,INSIDE_TEMPERATURE,OUTSIDE_TEMPERATURE,LIGHTS_STATE

06/22/2016 12:01:25,27.562,27.625,off
06/22/2016 12:01:36,27.625,27.562,off
06/22/2016 12:01:48,27.625,27.562,off
06/22/2016 12:02:00,27.625,27.625,off
