TIME,INSIDE_TEMPERATURE,OUTSIDE_TEMPERATURE,LIGHTS_STATE

08/21/2017 12:22:25,28.312,26.312,off
08/21/2017 12:22:37,28.312,26.375,off
08/21/2017 12:22:49,28.312,26.375,off
08/21/2017 12:23:02,28.375,26.375,off
