TIME,INSIDE_TEMPERATURE,OUTSIDE_TEMPERATURE,LIGHTS_STATE

03/13/2018 12:52:25,20.75,14.375,off
03/13/2018 12:52:37,20.75,14.375,off
03/13/2018 12:52:49,20.75,14.375,off
03/13/2018 12:53:00,20.75,14.375,off
