TIME,INSIDE_TEMPERATURE,OUTSIDE_TEMPERATURE,LIGHTS_STATE

02/22/2018 12:04:25,22.25,22.687,off
02/22/2018 12:04:37,22.312,22.937,off
02/22/2018 12:04:49,22.312,23.125,off
02/22/2018 12:05:00,22.312,23.187,off
