TIME,INSIDE_TEMPERATURE,OUTSIDE_TEMPERATURE,LIGHTS_STATE

02/11/2017 12:58:25,22.75,20.625,off
02/11/2017 12:58:36,22.75,20.625,off
02/11/2017 12:58:48,22.75,20.562,off
02/11/2017 12:59:00,22.75,20.562,off
