TIME,INSIDE_TEMPERATURE,OUTSIDE_TEMPERATURE,LIGHTS_STATE

05/14/2017 12:34:25,21.5,18.625,off
05/14/2017 12:34:36,21.5,18.625,off
05/14/2017 12:34:48,21.5,18.625,off
05/14/2017 12:35:00,21.5,18.625,off
