TIME,INSIDE_TEMPERATURE,OUTSIDE_TEMPERATURE,LIGHTS_STATE

04/13/2017 12:45:26,21.75,16.312,off
04/13/2017 12:45:38,21.75,16.375,off
04/13/2017 12:45:50,21.75,16.375,off
04/13/2017 12:46:02,21.75,16.375,off
