TIME,INSIDE_TEMPERATURE,OUTSIDE_TEMPERATURE,LIGHTS_STATE

03/27/2018 12:16:26,22.0,16.75,off
03/27/2018 12:16:37,22.0,16.75,off
03/27/2018 12:16:49,22.062,16.812,off
03/27/2018 12:17:01,22.062,16.75,off
