TIME,INSIDE_TEMPERATURE,OUTSIDE_TEMPERATURE,LIGHTS_STATE

12/05/2016 12:58:25,16.625,12.75,off
12/05/2016 12:58:37,16.625,12.687,off
12/05/2016 12:58:48,16.625,12.687,off
12/05/2016 12:59:00,16.625,12.687,off
