TIME,INSIDE_TEMPERATURE,OUTSIDE_TEMPERATURE,LIGHTS_STATE

09/01/2017 12:17:25,39.812,38.562,off
09/01/2017 12:17:37,39.812,38.562,off
09/01/2017 12:17:48,39.812,38.625,off
09/01/2017 12:18:00,39.812,38.625,off
