TIME,INSIDE_TEMPERATURE,OUTSIDE_TEMPERATURE,LIGHTS_STATE

09/08/2017 12:44:25,29.25,26.75,off
09/08/2017 12:44:37,29.312,26.75,off
09/08/2017 12:44:49,29.25,26.75,off
09/08/2017 12:45:01,29.312,26.812,off
