TIME,INSIDE_TEMPERATURE,OUTSIDE_TEMPERATURE,LIGHTS_STATE

01/01/2017 12:15:25,20.437,15.437,off
01/01/2017 12:15:37,20.5,15.562,off
01/01/2017 12:15:49,20.5,15.562,off
01/01/2017 12:16:00,20.5,15.625,off
