TIME,INSIDE_TEMPERATURE,OUTSIDE_TEMPERATURE,LIGHTS_STATE

04/15/2017 12:38:25,21.75,18.437,off
04/15/2017 12:38:37,21.75,18.437,off
04/15/2017 12:38:48,21.812,18.375,off
04/15/2017 12:39:00,21.75,18.437,off
