TIME,INSIDE_TEMPERATURE,OUTSIDE_TEMPERATURE,LIGHTS_STATE

06/11/2017 12:02:25,22.812,19.062,off
06/11/2017 12:02:36,22.875,19.25,off
06/11/2017 12:02:48,22.812,19.187,off
06/11/2017 12:03:00,22.875,19.25,off
