TIME,INSIDE_TEMPERATURE,OUTSIDE_TEMPERATURE,LIGHTS_STATE

10/30/2017 12:47:25,26.75,26.187,off
10/30/2017 12:47:37,26.75,26.187,off
10/30/2017 12:47:49,26.75,25.937,off
10/30/2017 12:48:00,26.75,25.875,off
