TIME,INSIDE_TEMPERATURE,OUTSIDE_TEMPERATURE,LIGHTS_STATE

10/07/2017 12:22:25,32.687,28.125,off
10/07/2017 12:22:37,32.75,28.125,off
10/07/2017 12:22:49,32.75,28.125,off
10/07/2017 12:23:01,32.75,28.125,off
