TIME,INSIDE_TEMPERATURE,OUTSIDE_TEMPERATURE,LIGHTS_STATE

01/05/2018 12:24:25,21.187,17.187,off
01/05/2018 12:24:37,21.187,17.25,off
01/05/2018 12:24:48,21.187,17.25,off
01/05/2018 12:25:00,21.187,17.25,off
