TIME,INSIDE_TEMPERATURE,OUTSIDE_TEMPERATURE,LIGHTS_STATE

07/19/2016 12:05:25,24.125,25.375,off
07/19/2016 12:05:38,24.187,25.375,off
07/19/2016 12:05:49,24.187,25.375,off
07/19/2016 12:06:01,24.187,25.375,off
