TIME,INSIDE_TEMPERATURE,OUTSIDE_TEMPERATURE,LIGHTS_STATE

06/12/2017 12:39:25,23.062,18.875,off
06/12/2017 12:39:37,23.062,18.937,off
06/12/2017 12:39:48,23.062,19.0,off
06/12/2017 12:40:00,23.062,19.0,off
