TIME,INSIDE_TEMPERATURE,OUTSIDE_TEMPERATURE,LIGHTS_STATE

08/02/2017 12:17:25,36.5,34.687,off
08/02/2017 12:17:37,36.5,34.687,off
08/02/2017 12:17:49,36.5,34.625,off
08/02/2017 12:18:00,36.5,34.562,off
