TIME,INSIDE_TEMPERATURE,OUTSIDE_TEMPERATURE,LIGHTS_STATE

01/16/2018 12:27:25,23.75,18.812,off
01/16/2018 12:27:37,23.75,18.812,off
01/16/2018 12:27:49,23.75,18.812,off
01/16/2018 12:28:00,23.812,18.812,off
