TIME,INSIDE_TEMPERATURE,OUTSIDE_TEMPERATURE,LIGHTS_STATE

07/18/2017 12:15:25,28.687,25.75,off
07/18/2017 12:15:38,28.75,25.75,off
07/18/2017 12:15:50,28.75,25.75,off
07/18/2017 12:16:01,28.75,25.75,off
