TIME,INSIDE_TEMPERATURE,OUTSIDE_TEMPERATURE,LIGHTS_STATE

01/08/2017 12:41:25,18.75,15.187,off
01/08/2017 12:41:36,18.75,15.187,off
01/08/2017 12:41:48,18.75,15.187,off
01/08/2017 12:42:00,18.75,15.187,off
