TIME,INSIDE_TEMPERATURE,OUTSIDE_TEMPERATURE,LIGHTS_STATE

07/22/2017 12:17:25,32.625,28.75,off
07/22/2017 12:17:37,32.625,28.75,off
07/22/2017 12:17:48,32.625,28.75,off
07/22/2017 12:18:00,32.625,28.75,off
