TIME,INSIDE_TEMPERATURE,OUTSIDE_TEMPERATURE,LIGHTS_STATE

12/29/2017 12:51:25,23.125,22.437,off
12/29/2017 12:51:37,23.125,22.625,off
12/29/2017 12:51:48,23.125,22.75,off
12/29/2017 12:52:00,23.125,22.875,off
