TIME,INSIDE_TEMPERATURE,OUTSIDE_TEMPERATURE,LIGHTS_STATE

01/01/2018 12:03:25,23.062,18.812,off
01/01/2018 12:03:37,23.062,18.75,off
01/01/2018 12:03:49,23.062,18.812,off
01/01/2018 12:04:00,23.062,18.812,off
