TIME,INSIDE_TEMPERATURE,OUTSIDE_TEMPERATURE,LIGHTS_STATE

09/09/2016 12:58:25,29.437,39.687,off
09/09/2016 12:58:37,29.437,39.75,off
09/09/2016 12:58:49,29.437,39.812,off
09/09/2016 12:59:00,29.437,39.75,off
