TIME,INSIDE_TEMPERATURE,OUTSIDE_TEMPERATURE,LIGHTS_STATE

01/24/2018 12:51:25,19.75,15.375,off
01/24/2018 12:51:37,19.812,15.312,off
01/24/2018 12:51:49,19.75,15.375,off
01/24/2018 12:52:01,19.812,15.375,off
