TIME,INSIDE_TEMPERATURE,OUTSIDE_TEMPERATURE,LIGHTS_STATE

02/23/2017 12:25:26,22.375,22.062,off
02/23/2017 12:25:37,22.437,22.187,off
02/23/2017 12:25:49,22.437,22.312,off
02/23/2017 12:26:01,22.437,22.312,off
