TIME,INSIDE_TEMPERATURE,OUTSIDE_TEMPERATURE,LIGHTS_STATE

05/01/2017 12:19:25,28.75,28.437,off
05/01/2017 12:19:36,28.75,28.437,off
05/01/2017 12:19:48,28.75,28.5,off
05/01/2017 12:20:00,28.812,28.437,off
