TIME,INSIDE_TEMPERATURE,OUTSIDE_TEMPERATURE,LIGHTS_STATE

01/13/2017 12:48:25,20.937,16.625,off
01/13/2017 12:48:37,20.937,16.687,off
01/13/2017 12:48:49,20.937,16.687,off
01/13/2017 12:49:00,20.937,16.625,off
