TIME,INSIDE_TEMPERATURE,OUTSIDE_TEMPERATURE,LIGHTS_STATE

12/31/2017 12:56:25,21.875,19.312,off
12/31/2017 12:56:37,21.875,19.312,off
12/31/2017 12:56:49,21.875,19.312,off
12/31/2017 12:57:01,21.875,19.375,off
