TIME,INSIDE_TEMPERATURE,OUTSIDE_TEMPERATURE,LIGHTS_STATE

03/01/2017 12:32:26,23.5,20.875,off
03/01/2017 12:32:38,23.5,20.812,off
03/01/2017 12:32:49,23.5,20.812,off
03/01/2017 12:33:01,23.5,20.75,off
