TIME,INSIDE_TEMPERATURE,OUTSIDE_TEMPERATURE,LIGHTS_STATE

04/20/2017 12:04:25,23.437,19.562,off
04/20/2017 12:04:37,23.437,19.625,off
04/20/2017 12:04:49,23.437,19.687,off
04/20/2017 12:05:00,23.437,19.75,off
