TIME,INSIDE_TEMPERATURE,OUTSIDE_TEMPERATURE,LIGHTS_STATE

04/22/2017 12:40:25,25.937,23.375,off
04/22/2017 12:40:37,25.937,23.437,off
04/22/2017 12:40:49,26.0,23.437,off
04/22/2017 12:41:00,26.0,23.437,off
