TIME,INSIDE_TEMPERATURE,OUTSIDE_TEMPERATURE,LIGHTS_STATE

03/09/2018 12:05:25,24.812,21.0,off
03/09/2018 12:05:37,24.812,21.062,off
03/09/2018 12:05:49,24.875,21.062,off
03/09/2018 12:06:01,24.875,21.125,off
