TIME,INSIDE_TEMPERATURE,OUTSIDE_TEMPERATURE,LIGHTS_STATE

09/21/2017 12:03:26,25.687,22.375,off
09/21/2017 12:03:37,25.687,22.375,off
09/21/2017 12:03:49,25.687,22.375,off
09/21/2017 12:04:01,25.75,22.375,off
