TIME,INSIDE_TEMPERATURE,OUTSIDE_TEMPERATURE,LIGHTS_STATE

01/02/2018 12:21:25,20.25,17.187,off
01/02/2018 12:21:37,20.25,17.25,off
01/02/2018 12:21:49,20.25,17.187,off
01/02/2018 12:22:00,20.25,17.25,off
