TIME,INSIDE_TEMPERATURE,OUTSIDE_TEMPERATURE,LIGHTS_STATE

02/08/2017 12:02:26,21.812,18.437,off
02/08/2017 12:02:37,21.875,18.375,off
02/08/2017 12:02:49,21.875,18.375,off
02/08/2017 12:03:01,21.812,18.375,off
