TIME,INSIDE_TEMPERATURE,OUTSIDE_TEMPERATURE,LIGHTS_STATE

06/20/2017 12:05:25,35.25,32.437,off
06/20/2017 12:05:38,35.25,32.5,off
06/20/2017 12:05:50,35.25,32.5,off
06/20/2017 12:06:01,35.25,32.562,off
