TIME,INSIDE_TEMPERATURE,OUTSIDE_TEMPERATURE,LIGHTS_STATE

07/07/2017 12:02:25,36.062,31.75,off
07/07/2017 12:02:37,36.062,31.75,off
07/07/2017 12:02:49,36.062,31.75,off
07/07/2017 12:03:01,36.125,31.75,off
