TIME,INSIDE_TEMPERATURE,OUTSIDE_TEMPERATURE,LIGHTS_STATE

01/16/2018 12:25:25,23.75,18.687,off
01/16/2018 12:25:37,23.75,18.75,off
01/16/2018 12:25:49,23.75,18.75,off
01/16/2018 12:26:01,23.75,18.812,off
