TIME,INSIDE_TEMPERATURE,OUTSIDE_TEMPERATURE,LIGHTS_STATE

11/01/2016 12:46:25,27.812,30.812,off
11/01/2016 12:46:37,27.812,30.625,off
11/01/2016 12:46:48,27.812,30.75,off
11/01/2016 12:47:00,27.75,30.875,off
