TIME,INSIDE_TEMPERATURE,OUTSIDE_TEMPERATURE,LIGHTS_STATE

06/19/2017 12:27:25,39.0,34.687,off
06/19/2017 12:27:37,38.937,34.75,off
06/19/2017 12:27:48,38.937,34.75,off
06/19/2017 12:28:00,38.937,34.75,off
