TIME,INSIDE_TEMPERATURE,OUTSIDE_TEMPERATURE,LIGHTS_STATE

03/25/2017 12:10:25,23.0,18.375,off
03/25/2017 12:10:36,22.937,18.312,off
03/25/2017 12:10:48,22.937,18.187,off
03/25/2017 12:11:00,22.937,18.187,off
