TIME,INSIDE_TEMPERATURE,OUTSIDE_TEMPERATURE,LIGHTS_STATE

12/09/2016 12:41:25,22.187,20.875,off
12/09/2016 12:41:36,22.187,20.875,off
12/09/2016 12:41:48,22.187,20.937,off
12/09/2016 12:42:00,22.25,20.937,off
