TIME,INSIDE_TEMPERATURE,OUTSIDE_TEMPERATURE,LIGHTS_STATE

12/25/2016 12:48:24,18.5,15.312,off
12/25/2016 12:48:36,18.5,15.375,off
12/25/2016 12:48:48,18.5,15.437,off
12/25/2016 12:48:59,18.5,15.625,off
