TIME,INSIDE_TEMPERATURE,OUTSIDE_TEMPERATURE,LIGHTS_STATE

12/18/2016 12:20:25,16.187,17.375,off
12/18/2016 12:20:36,16.187,16.437,off
12/18/2016 12:20:48,16.187,15.625,off
12/18/2016 12:21:00,16.187,14.937,off
