TIME,INSIDE_TEMPERATURE,OUTSIDE_TEMPERATURE,LIGHTS_STATE

07/14/2017 12:43:25,33.187,30.812,off
07/14/2017 12:43:37,33.187,30.75,off
07/14/2017 12:43:49,33.187,30.75,off
07/14/2017 12:44:00,33.25,30.75,off
