TIME,INSIDE_TEMPERATURE,OUTSIDE_TEMPERATURE,LIGHTS_STATE

05/17/2017 12:01:26,22.187,20.0,off
05/17/2017 12:01:37,22.25,19.937,off
05/17/2017 12:01:49,22.187,19.875,off
05/17/2017 12:02:01,22.25,19.875,off
