TIME,INSIDE_TEMPERATURE,OUTSIDE_TEMPERATURE,LIGHTS_STATE

01/31/2018 12:16:26,26.875,22.75,off
01/31/2018 12:16:37,26.875,22.812,off
01/31/2018 12:16:49,26.875,22.75,off
01/31/2018 12:17:01,26.875,22.812,off
