TIME,INSIDE_TEMPERATURE,OUTSIDE_TEMPERATURE,LIGHTS_STATE

04/18/2017 12:28:25,23.125,18.5,off
04/18/2017 12:28:36,23.125,18.437,off
04/18/2017 12:28:48,23.125,18.437,off
04/18/2017 12:29:00,23.125,18.437,off
