TIME,INSIDE_TEMPERATURE,OUTSIDE_TEMPERATURE,LIGHTS_STATE

09/30/2017 12:46:25,29.937,27.875,off
09/30/2017 12:46:37,29.937,27.937,off
09/30/2017 12:46:49,29.937,27.875,off
09/30/2017 12:47:00,30.0,28.0,off
