TIME,INSIDE_TEMPERATURE,OUTSIDE_TEMPERATURE,LIGHTS_STATE

02/04/2018 12:37:26,26.937,39.375,off
02/04/2018 12:37:37,26.937,39.375,off
02/04/2018 12:37:49,26.937,39.375,off
02/04/2018 12:38:01,26.937,39.312,off
