TIME,INSIDE_TEMPERATURE,OUTSIDE_TEMPERATURE,LIGHTS_STATE

01/27/2018 12:38:25,24.25,22.25,off
01/27/2018 12:38:37,24.25,22.437,off
01/27/2018 12:38:48,24.25,22.625,off
01/27/2018 12:39:00,24.25,22.625,off
