TIME,INSIDE_TEMPERATURE,OUTSIDE_TEMPERATURE,LIGHTS_STATE

06/24/2017 12:27:25,30.125,27.5,off
06/24/2017 12:27:37,30.125,27.5,off
06/24/2017 12:27:49,30.125,27.562,off
06/24/2017 12:28:01,30.125,27.562,off
