TIME,INSIDE_TEMPERATURE,OUTSIDE_TEMPERATURE,LIGHTS_STATE

02/27/2018 12:41:25,20.875,23.875,off
02/27/2018 12:41:37,20.875,23.937,off
02/27/2018 12:41:48,20.875,24.0,off
02/27/2018 12:42:00,20.937,24.0,off
