TIME,INSIDE_TEMPERATURE,OUTSIDE_TEMPERATURE,LIGHTS_STATE

08/03/2016 12:41:25,29.875,30.062,off
08/03/2016 12:41:36,29.937,30.187,off
08/03/2016 12:41:48,29.875,30.187,off
08/03/2016 12:42:00,29.937,30.125,off
