TIME,INSIDE_TEMPERATURE,OUTSIDE_TEMPERATURE,LIGHTS_STATE

09/07/2017 12:07:25,28.75,26.937,off
09/07/2017 12:07:37,28.812,26.875,off
09/07/2017 12:07:49,28.812,26.812,off
09/07/2017 12:08:00,28.812,26.812,off
