TIME,INSIDE_TEMPERATURE,OUTSIDE_TEMPERATURE,LIGHTS_STATE

09/09/2016 12:46:25,28.625,30.187,off
09/09/2016 12:46:37,28.625,30.25,off
09/09/2016 12:46:49,28.687,30.25,off
09/09/2016 12:47:00,28.625,30.25,off
