TIME,INSIDE_TEMPERATURE,OUTSIDE_TEMPERATURE,LIGHTS_STATE

02/16/2018 12:12:26,25.375,40.625,off
02/16/2018 12:12:38,25.437,40.812,off
02/16/2018 12:12:49,25.437,41.062,off
02/16/2018 12:13:01,25.375,40.812,off
