TIME,INSIDE_TEMPERATURE,OUTSIDE_TEMPERATURE,LIGHTS_STATE

11/01/2016 12:31:25,28.625,28.437,off
11/01/2016 12:31:37,28.625,28.625,off
11/01/2016 12:31:48,28.687,28.625,off
11/01/2016 12:32:00,28.687,28.75,off
