TIME,INSIDE_TEMPERATURE,OUTSIDE_TEMPERATURE,LIGHTS_STATE

05/10/2017 12:09:25,22.812,20.437,off
05/10/2017 12:09:37,22.875,20.5,off
05/10/2017 12:09:49,22.937,20.562,off
05/10/2017 12:10:00,23.0,20.625,off
