TIME,INSIDE_TEMPERATURE,OUTSIDE_TEMPERATURE,LIGHTS_STATE

04/11/2017 12:29:25,25.312,21.0,off
04/11/2017 12:29:36,25.312,21.062,off
04/11/2017 12:29:48,25.312,21.062,off
04/11/2017 12:30:00,25.312,21.187,off
