TIME,INSIDE_TEMPERATURE,OUTSIDE_TEMPERATURE,LIGHTS_STATE

07/05/2017 12:18:25,29.625,27.5,off
07/05/2017 12:18:37,29.625,27.5,off
07/05/2017 12:18:49,29.625,27.5,off
07/05/2017 12:19:01,29.625,27.5,off
