TIME,INSIDE_TEMPERATURE,OUTSIDE_TEMPERATURE,LIGHTS_STATE

08/06/2016 12:44:26,25.125,25.187,off
08/06/2016 12:44:37,25.125,25.125,off
08/06/2016 12:44:49,25.125,25.125,off
08/06/2016 12:45:01,25.125,25.062,off
