TIME,INSIDE_TEMPERATURE,OUTSIDE_TEMPERATURE,LIGHTS_STATE

10/11/2017 12:04:25,26.437,22.5,off
10/11/2017 12:04:37,26.437,22.625,off
10/11/2017 12:04:49,26.5,22.812,off
10/11/2017 12:05:01,26.437,22.937,off
