TIME,INSIDE_TEMPERATURE,OUTSIDE_TEMPERATURE,LIGHTS_STATE

11/05/2016 12:39:25,30.937,31.312,off
11/05/2016 12:39:37,30.937,31.25,off
11/05/2016 12:39:48,30.937,31.25,off
11/05/2016 12:40:00,30.937,31.437,off
