TIME,INSIDE_TEMPERATURE,OUTSIDE_TEMPERATURE,LIGHTS_STATE

07/23/2016 12:48:26,33.25,31.937,off
07/23/2016 12:48:37,33.25,31.937,off
07/23/2016 12:48:49,33.25,31.937,off
07/23/2016 12:49:02,33.25,31.937,off
