TIME,INSIDE_TEMPERATURE,OUTSIDE_TEMPERATURE,LIGHTS_STATE

09/19/2016 12:38:26,34.187,36.062,off
09/19/2016 12:38:37,34.187,36.062,off
09/19/2016 12:38:49,34.187,36.0,off
09/19/2016 12:39:01,34.25,36.0,off
