TIME,INSIDE_TEMPERATURE,OUTSIDE_TEMPERATURE,LIGHTS_STATE

09/08/2017 12:17:25,28.187,26.125,off
09/08/2017 12:17:37,28.187,26.187,off
09/08/2017 12:17:49,28.187,26.25,off
09/08/2017 12:18:00,28.25,26.187,off
