TIME,INSIDE_TEMPERATURE,OUTSIDE_TEMPERATURE,LIGHTS_STATE

09/06/2016 12:41:25,29.812,32.812,off
09/06/2016 12:41:38,29.875,32.812,off
09/06/2016 12:41:49,29.875,32.875,off
09/06/2016 12:42:01,29.875,32.875,off
