TIME,INSIDE_TEMPERATURE,OUTSIDE_TEMPERATURE,LIGHTS_STATE

06/27/2017 12:38:26,26.625,22.875,off
06/27/2017 12:38:37,26.625,22.937,off
06/27/2017 12:38:49,26.687,22.937,off
06/27/2017 12:39:01,26.687,23.062,off
