TIME,INSIDE_TEMPERATURE,OUTSIDE_TEMPERATURE,LIGHTS_STATE

03/19/2017 12:08:25,22.375,19.062,off
03/19/2017 12:08:37,22.437,19.0,off
03/19/2017 12:08:49,22.437,19.0,off
03/19/2017 12:09:00,22.437,18.937,off
