TIME,INSIDE_TEMPERATURE,OUTSIDE_TEMPERATURE,LIGHTS_STATE

08/18/2017 12:06:25,30.875,28.937,off
08/18/2017 12:06:37,30.875,28.937,off
08/18/2017 12:06:49,30.875,28.937,off
08/18/2017 12:07:00,30.937,28.937,off
