TIME,INSIDE_TEMPERATURE,OUTSIDE_TEMPERATURE,LIGHTS_STATE

06/30/2016 12:38:25,29.937,29.687,off
06/30/2016 12:38:37,29.937,29.687,off
06/30/2016 12:38:48,30.062,29.687,off
06/30/2016 12:39:00,30.062,29.75,off
