TIME,INSIDE_TEMPERATURE,OUTSIDE_TEMPERATURE,LIGHTS_STATE

07/31/2016 12:01:25,28.062,28.125,off
07/31/2016 12:01:37,28.062,28.125,off
07/31/2016 12:01:48,28.125,28.187,off
07/31/2016 12:02:00,28.062,28.187,off
