TIME,INSIDE_TEMPERATURE,OUTSIDE_TEMPERATURE,LIGHTS_STATE

06/25/2017 12:54:25,28.187,24.625,off
06/25/2017 12:54:37,28.25,24.625,off
06/25/2017 12:54:49,28.25,24.625,off
06/25/2017 12:55:01,28.25,24.625,off
