TIME,INSIDE_TEMPERATURE,OUTSIDE_TEMPERATURE,LIGHTS_STATE

09/20/2016 12:12:25,30.437,30.187,off
09/20/2016 12:12:37,30.5,30.187,off
09/20/2016 12:12:49,30.5,30.125,off
09/20/2016 12:13:00,30.562,30.125,off
