TIME,INSIDE_TEMPERATURE,OUTSIDE_TEMPERATURE,LIGHTS_STATE

07/06/2016 12:47:25,24.812,24.5,off
07/06/2016 12:47:37,24.812,24.437,off
07/06/2016 12:47:48,24.812,24.5,off
07/06/2016 12:48:01,24.812,24.5,off
