TIME,INSIDE_TEMPERATURE,OUTSIDE_TEMPERATURE,LIGHTS_STATE

04/20/2017 12:07:26,23.375,19.562,off
04/20/2017 12:07:38,23.375,19.562,off
04/20/2017 12:07:50,23.375,19.562,off
04/20/2017 12:08:02,23.375,19.562,off
