TIME,INSIDE_TEMPERATURE,OUTSIDE_TEMPERATURE,LIGHTS_STATE

01/07/2017 12:50:25,20.125,15.25,off
01/07/2017 12:50:36,20.125,15.187,off
01/07/2017 12:50:48,20.125,15.187,off
01/07/2017 12:51:00,20.125,15.187,off
