TIME,INSIDE_TEMPERATURE,OUTSIDE_TEMPERATURE,LIGHTS_STATE

09/29/2017 12:38:25,30.375,29.25,off
09/29/2017 12:38:37,30.437,29.375,off
09/29/2017 12:38:49,30.437,29.375,off
09/29/2017 12:39:01,30.437,29.375,off
