TIME,INSIDE_TEMPERATURE,OUTSIDE_TEMPERATURE,LIGHTS_STATE

09/13/2016 12:51:25,25.125,23.187,off
09/13/2016 12:51:37,25.187,23.0,off
09/13/2016 12:51:49,25.187,22.875,off
09/13/2016 12:52:00,25.187,22.875,off
