TIME,INSIDE_TEMPERATURE,OUTSIDE_TEMPERATURE,LIGHTS_STATE

07/17/2016 12:34:25,26.187,26.25,off
07/17/2016 12:34:37,26.187,26.25,off
07/17/2016 12:34:49,26.187,26.25,off
07/17/2016 12:35:00,26.25,26.25,off
