TIME,INSIDE_TEMPERATURE,OUTSIDE_TEMPERATURE,LIGHTS_STATE

07/27/2017 12:04:25,32.437,29.75,off
07/27/2017 12:04:37,32.437,29.75,off
07/27/2017 12:04:49,32.437,29.75,off
07/27/2017 12:05:01,32.437,29.75,off
