TIME,INSIDE_TEMPERATURE,OUTSIDE_TEMPERATURE,LIGHTS_STATE

07/09/2017 12:21:25,33.625,31.312,off
07/09/2017 12:21:37,33.625,31.312,off
07/09/2017 12:21:49,33.687,31.312,off
07/09/2017 12:22:00,33.687,31.312,off
