TIME,INSIDE_TEMPERATURE,OUTSIDE_TEMPERATURE,LIGHTS_STATE

05/06/2017 12:16:25,21.75,18.062,off
05/06/2017 12:16:37,21.75,17.937,off
05/06/2017 12:16:48,21.812,17.812,off
05/06/2017 12:17:00,21.75,17.75,off
