TIME,INSIDE_TEMPERATURE,OUTSIDE_TEMPERATURE,LIGHTS_STATE

03/08/2017 12:56:25,24.625,23.75,off
03/08/2017 12:56:37,24.625,23.625,off
03/08/2017 12:56:49,24.625,23.625,off
03/08/2017 12:57:00,24.625,23.625,off
