TIME,INSIDE_TEMPERATURE,OUTSIDE_TEMPERATURE,LIGHTS_STATE

05/22/2017 12:23:25,30.937,28.875,off
05/22/2017 12:23:37,31.0,28.812,off
05/22/2017 12:23:49,30.937,28.875,off
05/22/2017 12:24:00,31.0,28.875,off
