TIME,INSIDE_TEMPERATURE,OUTSIDE_TEMPERATURE,LIGHTS_STATE

02/06/2018 12:38:25,29.75,44.312,off
02/06/2018 12:38:37,29.812,44.25,off
02/06/2018 12:38:48,29.812,44.312,off
02/06/2018 12:39:00,29.812,44.312,off
