TIME,INSIDE_TEMPERATURE,OUTSIDE_TEMPERATURE,LIGHTS_STATE

03/16/2017 12:32:25,26.125,21.875,off
03/16/2017 12:32:37,26.187,21.937,off
03/16/2017 12:32:48,26.125,21.937,off
03/16/2017 12:33:00,26.125,22.0,off
