TIME,INSIDE_TEMPERATURE,OUTSIDE_TEMPERATURE,LIGHTS_STATE

05/14/2017 12:49:25,21.937,19.625,off
05/14/2017 12:49:37,21.937,19.562,off
05/14/2017 12:49:48,21.937,19.562,off
05/14/2017 12:50:00,21.937,19.562,off
