TIME,INSIDE_TEMPERATURE,OUTSIDE_TEMPERATURE,LIGHTS_STATE

05/11/2017 12:09:25,23.062,19.5,off
05/11/2017 12:09:37,23.062,19.5,off
05/11/2017 12:09:49,23.062,19.5,off
05/11/2017 12:10:00,23.0,19.5,off
