TIME,INSIDE_TEMPERATURE,OUTSIDE_TEMPERATURE,LIGHTS_STATE

07/11/2016 12:56:25,29.312,29.062,off
07/11/2016 12:56:36,29.312,29.062,off
07/11/2016 12:56:49,29.312,29.062,off
07/11/2016 12:57:00,29.312,29.125,off
