TIME,INSIDE_TEMPERATURE,OUTSIDE_TEMPERATURE,LIGHTS_STATE

02/21/2017 12:10:25,25.625,20.875,off
02/21/2017 12:10:37,25.625,20.937,off
02/21/2017 12:10:49,25.625,21.125,off
02/21/2017 12:11:00,25.625,21.25,off
