TIME,INSIDE_TEMPERATURE,OUTSIDE_TEMPERATURE,LIGHTS_STATE

08/16/2017 12:32:26,27.437,25.0,off
08/16/2017 12:32:37,27.437,25.0,off
08/16/2017 12:32:49,27.437,25.0,off
08/16/2017 12:33:01,27.5,24.937,off
