TIME,INSIDE_TEMPERATURE,OUTSIDE_TEMPERATURE,LIGHTS_STATE

06/23/2016 12:39:25,27.5,28.375,off
06/23/2016 12:39:37,27.5,28.437,off
06/23/2016 12:39:48,27.562,28.375,off
06/23/2016 12:40:00,27.562,28.437,off
