TIME,INSIDE_TEMPERATURE,OUTSIDE_TEMPERATURE,LIGHTS_STATE

03/11/2018 12:56:25,23.937,25.625,off
03/11/2018 12:56:37,24.0,25.5,off
03/11/2018 12:56:49,23.937,25.312,off
03/11/2018 12:57:00,23.937,25.187,off
