TIME,INSIDE_TEMPERATURE,OUTSIDE_TEMPERATURE,LIGHTS_STATE

08/23/2017 12:51:26,30.562,28.187,off
08/23/2017 12:51:37,30.625,28.187,off
08/23/2017 12:51:49,30.625,28.187,off
08/23/2017 12:52:01,30.625,28.25,off
