TIME,INSIDE_TEMPERATURE,OUTSIDE_TEMPERATURE,LIGHTS_STATE

07/28/2016 12:25:26,31.937,32.25,off
07/28/2016 12:25:37,31.937,32.25,off
07/28/2016 12:25:49,31.937,32.25,off
07/28/2016 12:26:01,31.937,32.312,off
