TIME,INSIDE_TEMPERATURE,OUTSIDE_TEMPERATURE,LIGHTS_STATE

12/29/2016 12:34:25,20.25,16.625,off
12/29/2016 12:34:36,20.25,16.625,off
12/29/2016 12:34:48,20.25,16.562,off
12/29/2016 12:35:00,20.25,16.625,off
