TIME,INSIDE_TEMPERATURE,OUTSIDE_TEMPERATURE,LIGHTS_STATE

08/19/2017 12:11:25,29.812,27.75,off
08/19/2017 12:11:37,29.812,27.812,off
08/19/2017 12:11:49,29.875,27.75,off
08/19/2017 12:12:01,29.875,27.687,off
