TIME,INSIDE_TEMPERATURE,OUTSIDE_TEMPERATURE,LIGHTS_STATE

12/19/2016 12:13:25,18.562,14.375,off
12/19/2016 12:13:36,18.625,14.375,off
12/19/2016 12:13:48,18.625,14.437,off
12/19/2016 12:14:00,18.625,14.562,off
