TIME,INSIDE_TEMPERATURE,OUTSIDE_TEMPERATURE,LIGHTS_STATE

12/27/2016 12:51:24,19.812,17.5,off
12/27/2016 12:51:36,19.812,17.687,off
12/27/2016 12:51:47,19.812,17.875,off
12/27/2016 12:51:59,19.812,18.062,off
