TIME,INSIDE_TEMPERATURE,OUTSIDE_TEMPERATURE,LIGHTS_STATE

11/29/2016 12:38:25,21.375,18.625,off
11/29/2016 12:38:37,21.375,18.687,off
11/29/2016 12:38:49,21.375,18.687,off
11/29/2016 12:39:01,21.375,18.687,off
