TIME,INSIDE_TEMPERATURE,OUTSIDE_TEMPERATURE,LIGHTS_STATE

07/05/2016 12:27:25,25.812,25.562,off
07/05/2016 12:27:37,25.812,25.562,off
07/05/2016 12:27:48,25.812,25.625,off
07/05/2016 12:28:00,25.812,25.625,off
