TIME,INSIDE_TEMPERATURE,OUTSIDE_TEMPERATURE,LIGHTS_STATE

01/08/2018 12:33:25,17.062,11.625,off
01/08/2018 12:33:37,17.125,11.562,off
01/08/2018 12:33:49,17.125,11.562,off
01/08/2018 12:34:00,17.062,11.562,off
