TIME,INSIDE_TEMPERATURE,OUTSIDE_TEMPERATURE,LIGHTS_STATE

07/15/2016 12:14:26,28.625,28.687,off
07/15/2016 12:14:38,28.687,28.625,off
07/15/2016 12:14:49,28.625,28.625,off
07/15/2016 12:15:01,28.625,28.625,off
