TIME,INSIDE_TEMPERATURE,OUTSIDE_TEMPERATURE,LIGHTS_STATE

03/29/2017 12:31:25,25.437,23.5,off
03/29/2017 12:31:37,25.437,23.5,off
03/29/2017 12:31:48,25.437,23.5,off
03/29/2017 12:32:00,25.437,23.437,off
