TIME,INSIDE_TEMPERATURE,OUTSIDE_TEMPERATURE,LIGHTS_STATE

02/23/2018 12:42:25,18.562,30.625,off
02/23/2018 12:42:37,18.562,30.5,off
02/23/2018 12:42:49,18.562,30.437,off
02/23/2018 12:43:00,18.562,30.312,off
