TIME,INSIDE_TEMPERATURE,OUTSIDE_TEMPERATURE,LIGHTS_STATE

07/21/2016 12:56:25,26.062,25.75,off
07/21/2016 12:56:38,26.125,25.75,off
07/21/2016 12:56:49,26.125,25.812,off
07/21/2016 12:57:01,26.125,25.812,off
