TIME,INSIDE_TEMPERATURE,OUTSIDE_TEMPERATURE,LIGHTS_STATE

09/25/2017 12:16:25,29.687,27.5,off
09/25/2017 12:16:37,29.687,27.562,off
09/25/2017 12:16:49,29.687,27.562,off
09/25/2017 12:17:01,29.75,27.562,off
