TIME,INSIDE_TEMPERATURE,OUTSIDE_TEMPERATURE,LIGHTS_STATE

01/16/2017 12:18:25,19.5,15.187,off
01/16/2017 12:18:37,19.562,15.25,off
01/16/2017 12:18:49,19.562,15.187,off
01/16/2017 12:19:00,19.5,15.312,off
