TIME,INSIDE_TEMPERATURE,OUTSIDE_TEMPERATURE,LIGHTS_STATE

06/13/2017 12:36:25,26.5,23.437,off
06/13/2017 12:36:37,26.5,23.375,off
06/13/2017 12:36:48,26.5,23.375,off
06/13/2017 12:37:00,26.5,23.375,off
