TIME,INSIDE_TEMPERATURE,OUTSIDE_TEMPERATURE,LIGHTS_STATE

11/01/2017 12:51:25,30.375,31.125,off
11/01/2017 12:51:37,30.375,31.0,off
11/01/2017 12:51:49,30.375,30.937,off
11/01/2017 12:52:01,30.375,30.875,off
