TIME,INSIDE_TEMPERATURE,OUTSIDE_TEMPERATURE,LIGHTS_STATE

06/23/2017 12:58:25,33.625,30.0,off
06/23/2017 12:58:36,33.625,30.0,off
06/23/2017 12:58:48,33.625,30.0,off
06/23/2017 12:59:00,33.687,30.0,off
