TIME,INSIDE_TEMPERATURE,OUTSIDE_TEMPERATURE,LIGHTS_STATE

08/04/2016 12:16:26,25.062,24.687,off
08/04/2016 12:16:37,25.062,24.687,off
08/04/2016 12:16:49,25.062,24.687,off
08/04/2016 12:17:01,25.062,24.75,off
