TIME,INSIDE_TEMPERATURE,OUTSIDE_TEMPERATURE,LIGHTS_STATE

07/24/2016 12:05:25,32.937,33.625,off
07/24/2016 12:05:37,33.0,33.687,off
07/24/2016 12:05:49,33.0,33.687,off
07/24/2016 12:06:01,33.0,33.625,off
