TIME,INSIDE_TEMPERATURE,OUTSIDE_TEMPERATURE,LIGHTS_STATE

08/01/2016 12:03:25,27.187,27.375,off
08/01/2016 12:03:37,27.187,27.437,off
08/01/2016 12:03:48,27.25,27.437,off
08/01/2016 12:04:00,27.25,27.5,off
