TIME,INSIDE_TEMPERATURE,OUTSIDE_TEMPERATURE,LIGHTS_STATE

03/16/2018 12:16:26,16.937,11.375,off
03/16/2018 12:16:37,16.937,11.312,off
03/16/2018 12:16:49,16.937,11.25,off
03/16/2018 12:17:01,16.937,11.187,off
