TIME,INSIDE_TEMPERATURE,OUTSIDE_TEMPERATURE,LIGHTS_STATE

01/13/2017 12:02:25,21.25,15.812,off
01/13/2017 12:02:37,21.25,15.937,off
01/13/2017 12:02:50,21.25,15.937,off
01/13/2017 12:03:01,21.25,15.937,off
