TIME,INSIDE_TEMPERATURE,OUTSIDE_TEMPERATURE,LIGHTS_STATE

07/07/2017 12:18:25,36.562,31.812,off
07/07/2017 12:18:37,36.562,31.812,off
07/07/2017 12:18:48,36.562,31.812,off
07/07/2017 12:19:00,36.562,31.75,off
