TIME,INSIDE_TEMPERATURE,OUTSIDE_TEMPERATURE,LIGHTS_STATE

03/31/2017 12:13:26,21.937,18.875,off
03/31/2017 12:13:37,22.0,18.937,off
03/31/2017 12:13:49,22.0,19.0,off
03/31/2017 12:14:01,22.0,19.062,off
