TIME,INSIDE_TEMPERATURE,OUTSIDE_TEMPERATURE,LIGHTS_STATE

10/29/2017 12:45:26,24.562,24.875,off
10/29/2017 12:45:37,24.562,24.625,off
10/29/2017 12:45:49,24.625,24.5,off
10/29/2017 12:46:01,24.625,24.5,off
