TIME,INSIDE_TEMPERATURE,OUTSIDE_TEMPERATURE,LIGHTS_STATE

06/14/2017 12:13:25,29.0,25.937,off
06/14/2017 12:13:37,29.0,26.0,off
06/14/2017 12:13:49,29.062,25.937,off
06/14/2017 12:14:01,29.0,25.937,off
