TIME,INSIDE_TEMPERATURE,OUTSIDE_TEMPERATURE,LIGHTS_STATE

05/16/2017 12:08:25,22.375,17.687,off
05/16/2017 12:08:37,22.375,17.562,off
05/16/2017 12:08:49,22.375,17.5,off
05/16/2017 12:09:00,22.375,17.5,off
