TIME,INSIDE_TEMPERATURE,OUTSIDE_TEMPERATURE,LIGHTS_STATE

07/20/2017 12:14:25,29.062,26.125,off
07/20/2017 12:14:37,29.062,26.125,off
07/20/2017 12:14:49,29.062,26.125,off
07/20/2017 12:15:00,29.062,26.062,off
