TIME,INSIDE_TEMPERATURE,OUTSIDE_TEMPERATURE,LIGHTS_STATE

08/11/2017 12:15:26,28.312,26.062,off
08/11/2017 12:15:38,28.375,26.0,off
08/11/2017 12:15:50,28.375,26.0,off
08/11/2017 12:16:01,28.375,26.0,off
