TIME,INSIDE_TEMPERATURE,OUTSIDE_TEMPERATURE,LIGHTS_STATE

03/20/2017 12:49:25,20.75,17.187,off
03/20/2017 12:49:37,20.75,17.187,off
03/20/2017 12:49:48,20.75,17.25,off
03/20/2017 12:50:00,20.75,17.25,off
