TIME,INSIDE_TEMPERATURE,OUTSIDE_TEMPERATURE,LIGHTS_STATE

07/17/2017 12:36:26,36.562,33.5,off
07/17/2017 12:36:37,36.562,33.562,off
07/17/2017 12:36:49,36.625,33.562,off
07/17/2017 12:37:01,36.562,33.562,off
