TIME,INSIDE_TEMPERATURE,OUTSIDE_TEMPERATURE,LIGHTS_STATE

10/29/2017 12:35:25,24.062,21.0,off
10/29/2017 12:35:37,24.062,20.937,off
10/29/2017 12:35:49,24.062,20.875,off
10/29/2017 12:36:00,24.062,20.875,off
