TIME,INSIDE_TEMPERATURE,OUTSIDE_TEMPERATURE,LIGHTS_STATE

04/08/2017 12:55:25,17.875,12.125,off
04/08/2017 12:55:37,17.937,12.125,off
04/08/2017 12:55:48,17.937,12.187,off
04/08/2017 12:56:00,17.937,12.312,off
