TIME,INSIDE_TEMPERATURE,OUTSIDE_TEMPERATURE,LIGHTS_STATE

03/18/2018 12:47:25,18.125,15.375,off
03/18/2018 12:47:37,18.125,15.375,off
03/18/2018 12:47:49,18.125,15.375,off
03/18/2018 12:48:00,18.125,15.375,off
