TIME,INSIDE_TEMPERATURE,OUTSIDE_TEMPERATURE,LIGHTS_STATE

05/06/2017 12:22:25,21.75,17.75,off
05/06/2017 12:22:37,21.75,17.687,off
05/06/2017 12:22:49,21.75,17.687,off
05/06/2017 12:23:00,21.812,17.75,off
