TIME,INSIDE_TEMPERATURE,OUTSIDE_TEMPERATURE,LIGHTS_STATE

03/22/2018 12:55:25,19.937,13.75,off
03/22/2018 12:55:37,19.937,13.687,off
03/22/2018 12:55:49,19.937,13.625,off
03/22/2018 12:56:00,19.937,13.625,off
