TIME,INSIDE_TEMPERATURE,OUTSIDE_TEMPERATURE,LIGHTS_STATE

08/27/2017 12:16:25,37.562,35.937,off
08/27/2017 12:16:37,37.562,35.937,off
08/27/2017 12:16:48,37.625,35.937,off
08/27/2017 12:17:00,37.625,35.937,off
