TIME,INSIDE_TEMPERATURE,OUTSIDE_TEMPERATURE,LIGHTS_STATE

10/14/2017 12:28:25,29.687,27.562,off
10/14/2017 12:28:37,29.687,27.75,off
10/14/2017 12:28:49,29.687,27.937,off
10/14/2017 12:29:01,29.687,28.125,off
