TIME,INSIDE_TEMPERATURE,OUTSIDE_TEMPERATURE,LIGHTS_STATE

05/20/2017 12:19:25,29.812,29.125,off
05/20/2017 12:19:37,29.875,29.125,off
05/20/2017 12:19:49,29.875,29.125,off
05/20/2017 12:20:00,29.875,29.062,off
