TIME,INSIDE_TEMPERATURE,OUTSIDE_TEMPERATURE,LIGHTS_STATE

01/08/2018 12:26:25,17.062,11.5,off
01/08/2018 12:26:37,17.062,11.562,off
01/08/2018 12:26:49,17.0,11.5,off
01/08/2018 12:27:01,17.062,11.562,off
