TIME,INSIDE_TEMPERATURE,OUTSIDE_TEMPERATURE,LIGHTS_STATE

02/16/2017 12:07:26,28.312,22.0,off
02/16/2017 12:07:37,28.312,22.062,off
02/16/2017 12:07:49,28.25,22.125,off
02/16/2017 12:08:01,28.125,22.25,off
