TIME,INSIDE_TEMPERATURE,OUTSIDE_TEMPERATURE,LIGHTS_STATE

07/31/2016 12:53:26,29.5,29.437,off
07/31/2016 12:53:37,29.5,29.437,off
07/31/2016 12:53:49,29.5,29.437,off
07/31/2016 12:54:01,29.5,29.375,off
