TIME,INSIDE_TEMPERATURE,OUTSIDE_TEMPERATURE,LIGHTS_STATE

07/23/2017 12:33:25,36.312,33.125,off
07/23/2017 12:33:37,36.312,33.062,off
07/23/2017 12:33:48,36.312,33.125,off
07/23/2017 12:34:00,36.312,33.125,off
