TIME,INSIDE_TEMPERATURE,OUTSIDE_TEMPERATURE,LIGHTS_STATE

07/21/2016 12:05:26,24.625,25.5,off
07/21/2016 12:05:37,24.625,25.5,off
07/21/2016 12:05:50,24.625,25.5,off
07/21/2016 12:06:02,24.625,25.437,off
