TIME,INSIDE_TEMPERATURE,OUTSIDE_TEMPERATURE,LIGHTS_STATE

08/08/2017 12:18:25,29.437,27.187,off
08/08/2017 12:18:37,29.437,27.187,off
08/08/2017 12:18:49,29.437,27.187,off
08/08/2017 12:19:01,29.437,27.187,off
