TIME,INSIDE_TEMPERATURE,OUTSIDE_TEMPERATURE,LIGHTS_STATE

01/10/2017 12:11:25,16.687,12.75,off
01/10/2017 12:11:36,16.687,12.812,off
01/10/2017 12:11:48,16.687,12.75,off
01/10/2017 12:12:00,16.687,12.75,off
