TIME,INSIDE_TEMPERATURE,OUTSIDE_TEMPERATURE,LIGHTS_STATE

09/16/2016 12:40:26,26.875,27.687,off
09/16/2016 12:40:37,26.875,27.687,off
09/16/2016 12:40:50,26.937,27.687,off
09/16/2016 12:41:02,26.875,27.687,off
