TIME,INSIDE_TEMPERATURE,OUTSIDE_TEMPERATURE,LIGHTS_STATE

11/19/2016 12:14:25,20.375,16.25,off
11/19/2016 12:14:36,20.375,16.312,off
11/19/2016 12:14:48,20.375,16.312,off
11/19/2016 12:15:00,20.375,16.375,off
