TIME,INSIDE_TEMPERATURE,OUTSIDE_TEMPERATURE,LIGHTS_STATE

07/15/2017 12:40:25,35.312,31.437,off
07/15/2017 12:40:37,35.312,31.437,off
07/15/2017 12:40:49,35.312,31.437,off
07/15/2017 12:41:01,35.312,31.437,off
