TIME,INSIDE_TEMPERATURE,OUTSIDE_TEMPERATURE,LIGHTS_STATE

10/14/2017 12:51:25,29.562,30.0,off
10/14/2017 12:51:37,29.562,29.875,off
10/14/2017 12:51:48,29.562,29.625,off
10/14/2017 12:52:00,29.562,29.562,off
