TIME,INSIDE_TEMPERATURE,OUTSIDE_TEMPERATURE,LIGHTS_STATE

07/10/2017 12:16:25,33.25,30.875,off
07/10/2017 12:16:37,33.312,30.875,off
07/10/2017 12:16:48,33.312,30.875,off
07/10/2017 12:17:00,33.375,30.937,off
