TIME,INSIDE_TEMPERATURE,OUTSIDE_TEMPERATURE,LIGHTS_STATE

03/31/2018 12:54:25,28.062,25.812,off
03/31/2018 12:54:37,28.125,25.875,off
03/31/2018 12:54:48,28.125,25.937,off
03/31/2018 12:55:00,28.125,25.937,off
