TIME,INSIDE_TEMPERATURE,OUTSIDE_TEMPERATURE,LIGHTS_STATE

02/10/2017 12:01:26,19.937,15.937,off
02/10/2017 12:01:37,20.0,15.937,off
02/10/2017 12:01:49,19.937,15.937,off
02/10/2017 12:02:01,19.937,15.937,off
