TIME,INSIDE_TEMPERATURE,OUTSIDE_TEMPERATURE,LIGHTS_STATE

11/14/2016 12:41:25,28.5,28.562,off
11/14/2016 12:41:37,28.5,28.375,off
11/14/2016 12:41:48,28.5,28.312,off
11/14/2016 12:42:00,28.5,28.25,off
