TIME,INSIDE_TEMPERATURE,OUTSIDE_TEMPERATURE,LIGHTS_STATE

10/23/2017 12:23:25,35.25,31.0,off
10/23/2017 12:23:37,35.25,31.0,off
10/23/2017 12:23:49,35.25,31.125,off
10/23/2017 12:24:00,35.25,31.125,off
