TIME,INSIDE_TEMPERATURE,OUTSIDE_TEMPERATURE,LIGHTS_STATE

04/14/2017 12:13:25,19.062,16.187,off
04/14/2017 12:13:37,19.062,16.25,off
04/14/2017 12:13:48,19.062,16.25,off
04/14/2017 12:14:00,19.062,16.312,off
