TIME,INSIDE_TEMPERATURE,OUTSIDE_TEMPERATURE,LIGHTS_STATE

02/04/2017 12:28:26,24.625,23.625,off
02/04/2017 12:28:37,24.562,23.375,off
02/04/2017 12:28:49,24.562,23.437,off
02/04/2017 12:29:01,24.562,23.562,off
