TIME,INSIDE_TEMPERATURE,OUTSIDE_TEMPERATURE,LIGHTS_STATE

09/18/2016 12:52:25,34.187,35.562,off
09/18/2016 12:52:37,34.187,35.625,off
09/18/2016 12:52:48,34.187,35.625,off
09/18/2016 12:53:00,34.25,35.687,off
