TIME,INSIDE_TEMPERATURE,OUTSIDE_TEMPERATURE,LIGHTS_STATE

02/18/2018 12:40:26,24.562,22.312,off
02/18/2018 12:40:37,24.562,21.875,off
02/18/2018 12:40:49,24.562,21.687,off
02/18/2018 12:41:01,24.562,21.562,off
