TIME,INSIDE_TEMPERATURE,OUTSIDE_TEMPERATURE,LIGHTS_STATE

07/29/2016 12:07:26,31.75,32.0,off
07/29/2016 12:07:38,31.687,32.0,off
07/29/2016 12:07:49,31.75,32.062,off
07/29/2016 12:08:01,31.75,32.062,off
