TIME,INSIDE_TEMPERATURE,OUTSIDE_TEMPERATURE,LIGHTS_STATE

03/12/2017 12:00:26,25.187,22.75,off
03/12/2017 12:00:37,25.187,22.687,off
03/12/2017 12:00:49,25.187,22.75,off
03/12/2017 12:01:01,25.187,22.75,off
