TIME,INSIDE_TEMPERATURE,OUTSIDE_TEMPERATURE,LIGHTS_STATE

09/06/2017 12:31:26,33.562,31.375,off
09/06/2017 12:31:38,33.562,31.375,off
09/06/2017 12:31:49,33.562,31.375,off
09/06/2017 12:32:01,33.562,31.312,off
