TIME,INSIDE_TEMPERATURE,OUTSIDE_TEMPERATURE,LIGHTS_STATE

07/09/2016 12:17:25,26.375,26.0,off
07/09/2016 12:17:37,26.437,26.0,off
07/09/2016 12:17:49,26.437,26.0,off
07/09/2016 12:18:00,26.437,25.937,off
