TIME,INSIDE_TEMPERATURE,OUTSIDE_TEMPERATURE,LIGHTS_STATE

12/02/2016 12:30:25,22.312,18.687,off
12/02/2016 12:30:37,22.312,18.625,off
12/02/2016 12:30:48,22.312,18.687,off
12/02/2016 12:31:00,22.312,18.75,off
