TIME,INSIDE_TEMPERATURE,OUTSIDE_TEMPERATURE,LIGHTS_STATE

12/18/2016 12:46:24,16.312,13.062,off
12/18/2016 12:46:36,16.312,13.187,off
12/18/2016 12:46:49,16.375,13.25,off
12/18/2016 12:47:01,16.312,13.25,off
