TIME,INSIDE_TEMPERATURE,OUTSIDE_TEMPERATURE,LIGHTS_STATE

07/18/2016 12:18:25,22.625,23.25,off
07/18/2016 12:18:38,22.687,23.25,off
07/18/2016 12:18:49,22.687,23.25,off
07/18/2016 12:19:01,22.687,23.187,off
