TIME,INSIDE_TEMPERATURE,OUTSIDE_TEMPERATURE,LIGHTS_STATE

02/10/2017 12:23:26,19.812,15.562,off
02/10/2017 12:23:37,19.875,15.5,off
02/10/2017 12:23:49,19.875,15.562,off
02/10/2017 12:24:01,19.812,15.5,off
