TIME,INSIDE_TEMPERATURE,OUTSIDE_TEMPERATURE,LIGHTS_STATE

12/12/2016 12:23:25,20.0,15.5,off
12/12/2016 12:23:36,19.937,15.5,off
12/12/2016 12:23:48,19.937,15.5,off
12/12/2016 12:24:00,19.937,15.5,off
