TIME,INSIDE_TEMPERATURE,OUTSIDE_TEMPERATURE,LIGHTS_STATE

01/10/2017 12:44:25,16.375,12.562,off
01/10/2017 12:44:37,16.375,12.562,off
01/10/2017 12:44:48,16.375,12.562,off
01/10/2017 12:45:00,16.375,12.5,off
