TIME,INSIDE_TEMPERATURE,OUTSIDE_TEMPERATURE,LIGHTS_STATE

03/10/2017 12:11:25,27.75,23.562,off
03/10/2017 12:11:37,27.812,23.562,off
03/10/2017 12:11:49,27.812,23.562,off
03/10/2017 12:12:00,27.812,23.625,off
