TIME,INSIDE_TEMPERATURE,OUTSIDE_TEMPERATURE,LIGHTS_STATE

01/20/2018 12:37:26,22.625,24.0,off
01/20/2018 12:37:37,22.562,24.125,off
01/20/2018 12:37:49,22.562,24.062,off
01/20/2018 12:38:01,22.625,23.937,off
