TIME,INSIDE_TEMPERATURE,OUTSIDE_TEMPERATURE,LIGHTS_STATE

10/27/2016 12:02:25,22.062,18.75,off
10/27/2016 12:02:37,22.062,18.812,off
10/27/2016 12:02:49,22.062,18.812,off
10/27/2016 12:03:00,22.062,18.812,off
