TIME,INSIDE_TEMPERATURE,OUTSIDE_TEMPERATURE,LIGHTS_STATE

07/16/2016 12:35:26,28.125,27.812,off
07/16/2016 12:35:38,28.125,27.812,off
07/16/2016 12:35:49,28.125,27.812,off
07/16/2016 12:36:01,28.187,27.875,off
