TIME,INSIDE_TEMPERATURE,OUTSIDE_TEMPERATURE,LIGHTS_STATE

11/10/2016 12:50:25,30.437,26.562,off
11/10/2016 12:50:36,30.437,26.437,off
11/10/2016 12:50:48,30.375,26.375,off
11/10/2016 12:51:00,30.375,26.312,off
