TIME,INSIDE_TEMPERATURE,OUTSIDE_TEMPERATURE,LIGHTS_STATE

02/19/2017 12:13:25,17.125,12.875,off
02/19/2017 12:13:37,17.125,12.875,off
02/19/2017 12:13:49,17.125,12.875,off
02/19/2017 12:14:00,17.125,12.875,off
