TIME,INSIDE_TEMPERATURE,OUTSIDE_TEMPERATURE,LIGHTS_STATE

02/25/2018 12:23:25,22.187,26.812,off
02/25/2018 12:23:37,22.187,26.875,off
02/25/2018 12:23:48,22.25,26.812,off
02/25/2018 12:24:00,22.25,26.875,off
