TIME,INSIDE_TEMPERATURE,OUTSIDE_TEMPERATURE,LIGHTS_STATE

12/30/2017 12:47:25,22.062,20.312,off
12/30/2017 12:47:37,22.062,20.312,off
12/30/2017 12:47:49,22.062,20.375,off
12/30/2017 12:48:01,22.062,20.375,off
