TIME,INSIDE_TEMPERATURE,OUTSIDE_TEMPERATURE,LIGHTS_STATE

11/01/2016 12:50:25,27.687,30.375,off
11/01/2016 12:50:37,27.687,30.437,off
11/01/2016 12:50:49,27.687,30.5,off
11/01/2016 12:51:00,27.687,30.562,off
