TIME,INSIDE_TEMPERATURE,OUTSIDE_TEMPERATURE,LIGHTS_STATE

07/21/2016 12:36:26,25.437,25.562,off
07/21/2016 12:36:37,25.5,25.562,off
07/21/2016 12:36:49,25.5,25.625,off
07/21/2016 12:37:01,25.5,25.625,off
