TIME,INSIDE_TEMPERATURE,OUTSIDE_TEMPERATURE,LIGHTS_STATE

04/29/2017 12:47:25,25.687,23.812,off
04/29/2017 12:47:37,25.687,23.812,off
04/29/2017 12:47:48,25.687,23.75,off
04/29/2017 12:48:00,25.687,23.75,off
