TIME,INSIDE_TEMPERATURE,OUTSIDE_TEMPERATURE,LIGHTS_STATE

02/22/2018 12:55:25,21.375,30.75,off
02/22/2018 12:55:37,21.437,31.312,off
02/22/2018 12:55:49,21.437,31.875,off
02/22/2018 12:56:01,21.437,32.312,off
