TIME,INSIDE_TEMPERATURE,OUTSIDE_TEMPERATURE,LIGHTS_STATE

09/22/2016 12:13:26,24.25,22.125,off
09/22/2016 12:13:38,24.25,22.062,off
09/22/2016 12:13:49,24.25,21.937,off
09/22/2016 12:14:01,24.25,21.812,off
