TIME,INSIDE_TEMPERATURE,OUTSIDE_TEMPERATURE,LIGHTS_STATE

06/27/2016 12:44:25,34.5,34.312,off
06/27/2016 12:44:37,34.562,34.312,off
06/27/2016 12:44:48,34.562,34.375,off
06/27/2016 12:45:00,34.687,34.375,off
