TIME,INSIDE_TEMPERATURE,OUTSIDE_TEMPERATURE,LIGHTS_STATE

09/07/2016 12:31:26,31.75,34.0,off
09/07/2016 12:31:37,31.75,33.937,off
09/07/2016 12:31:49,31.812,33.812,off
09/07/2016 12:32:01,31.812,33.812,off
