TIME,INSIDE_TEMPERATURE,OUTSIDE_TEMPERATURE,LIGHTS_STATE

10/04/2017 12:05:25,28.0,24.562,off
10/04/2017 12:05:37,28.062,24.5,off
10/04/2017 12:05:49,28.062,24.437,off
10/04/2017 12:06:00,28.062,24.5,off
