TIME,INSIDE_TEMPERATURE,OUTSIDE_TEMPERATURE,LIGHTS_STATE

01/09/2018 12:54:26,20.187,14.062,off
01/09/2018 12:54:37,20.187,14.062,off
01/09/2018 12:54:49,20.187,14.062,off
01/09/2018 12:55:01,20.187,14.062,off
