TIME,INSIDE_TEMPERATURE,OUTSIDE_TEMPERATURE,LIGHTS_STATE

12/16/2016 12:28:25,17.937,14.75,off
12/16/2016 12:28:36,17.937,14.75,off
12/16/2016 12:28:48,17.937,14.625,off
12/16/2016 12:29:00,17.937,14.562,off
