TIME,INSIDE_TEMPERATURE,OUTSIDE_TEMPERATURE,LIGHTS_STATE

02/10/2017 12:10:25,19.937,15.812,off
02/10/2017 12:10:37,20.0,15.812,off
02/10/2017 12:10:49,19.937,15.75,off
02/10/2017 12:11:00,20.0,15.75,off
