TIME,INSIDE_TEMPERATURE,OUTSIDE_TEMPERATURE,LIGHTS_STATE

02/06/2018 12:02:26,29.875,26.75,off
02/06/2018 12:02:37,29.875,26.75,off
02/06/2018 12:02:49,29.812,26.812,off
02/06/2018 12:03:01,29.875,26.812,off
