TIME,INSIDE_TEMPERATURE,OUTSIDE_TEMPERATURE,LIGHTS_STATE

12/16/2016 12:41:26,17.937,14.875,off
12/16/2016 12:41:37,17.937,14.812,off
12/16/2016 12:41:49,17.937,14.75,off
12/16/2016 12:42:01,17.937,14.75,off
