TIME,INSIDE_TEMPERATURE,OUTSIDE_TEMPERATURE,LIGHTS_STATE

10/25/2017 12:14:25,35.5,35.562,off
10/25/2017 12:14:37,35.562,35.437,off
10/25/2017 12:14:49,35.562,35.187,off
10/25/2017 12:15:01,35.562,35.125,off
