TIME,INSIDE_TEMPERATURE,OUTSIDE_TEMPERATURE,LIGHTS_STATE

03/26/2018 12:41:26,18.187,14.687,off
03/26/2018 12:41:37,18.25,14.687,off
03/26/2018 12:41:49,18.25,14.75,off
03/26/2018 12:42:01,18.25,14.75,off
