TIME,INSIDE_TEMPERATURE,OUTSIDE_TEMPERATURE,LIGHTS_STATE

10/23/2017 12:38:25,34.937,31.5,off
10/23/2017 12:38:37,34.937,31.687,off
10/23/2017 12:38:48,34.937,31.875,off
10/23/2017 12:39:00,34.937,32.0,off
