TIME,INSIDE_TEMPERATURE,OUTSIDE_TEMPERATURE,LIGHTS_STATE

10/03/2017 12:32:26,27.25,25.562,off
10/03/2017 12:32:38,27.25,25.562,off
10/03/2017 12:32:49,27.25,25.625,off
10/03/2017 12:33:01,27.25,25.687,off
