TIME,INSIDE_TEMPERATURE,OUTSIDE_TEMPERATURE,LIGHTS_STATE

10/31/2016 12:09:24,23.625,18.312,off
10/31/2016 12:09:36,23.625,18.375,off
10/31/2016 12:09:48,23.625,18.437,off
10/31/2016 12:09:59,23.625,18.5,off
