TIME,INSIDE_TEMPERATURE,OUTSIDE_TEMPERATURE,LIGHTS_STATE

09/10/2017 12:18:25,37.062,33.125,off
09/10/2017 12:18:37,37.062,33.125,off
09/10/2017 12:18:49,37.062,33.125,off
09/10/2017 12:19:00,37.062,33.125,off
