TIME,INSIDE_TEMPERATURE,OUTSIDE_TEMPERATURE,LIGHTS_STATE

04/07/2017 12:40:25,21.5,17.062,off
04/07/2017 12:40:37,21.5,17.125,off
04/07/2017 12:40:49,21.5,17.125,off
04/07/2017 12:41:00,21.5,17.125,off
