TIME,INSIDE_TEMPERATURE,OUTSIDE_TEMPERATURE,LIGHTS_STATE

08/21/2017 12:53:25,29.187,26.437,off
08/21/2017 12:53:37,29.25,26.437,off
08/21/2017 12:53:49,29.25,26.437,off
08/21/2017 12:54:01,29.25,26.437,off
