TIME,INSIDE_TEMPERATURE,OUTSIDE_TEMPERATURE,LIGHTS_STATE

01/11/2018 12:57:25,22.937,19.187,off
01/11/2018 12:57:37,23.0,19.062,off
01/11/2018 12:57:48,23.0,19.125,off
01/11/2018 12:58:00,23.0,19.125,off
