TIME,INSIDE_TEMPERATURE,OUTSIDE_TEMPERATURE,LIGHTS_STATE

01/17/2017 12:41:25,15.125,12.562,off
01/17/2017 12:41:37,15.125,12.562,off
01/17/2017 12:41:49,15.125,12.625,off
01/17/2017 12:42:00,15.125,12.625,off
