TIME,INSIDE_TEMPERATURE,OUTSIDE_TEMPERATURE,LIGHTS_STATE

10/24/2016 12:13:25,22.312,19.0,off
10/24/2016 12:13:36,22.25,19.0,off
10/24/2016 12:13:48,22.312,18.937,off
10/24/2016 12:14:00,22.312,19.0,off
