TIME,INSIDE_TEMPERATURE,OUTSIDE_TEMPERATURE,LIGHTS_STATE

04/19/2017 12:41:25,23.562,20.625,off
04/19/2017 12:41:36,23.625,20.625,off
04/19/2017 12:41:48,23.562,20.687,off
04/19/2017 12:42:00,23.625,20.75,off
