TIME,INSIDE_TEMPERATURE,OUTSIDE_TEMPERATURE,LIGHTS_STATE

08/06/2016 12:43:26,25.0,24.937,off
08/06/2016 12:43:37,25.0,25.0,off
08/06/2016 12:43:49,25.062,25.062,off
08/06/2016 12:44:01,25.062,25.125,off
