TIME,INSIDE_TEMPERATURE,OUTSIDE_TEMPERATURE,LIGHTS_STATE

12/12/2016 12:46:25,19.375,14.625,off
12/12/2016 12:46:37,19.375,14.562,off
12/12/2016 12:46:48,19.375,14.562,off
12/12/2016 12:47:00,19.375,14.562,off
