TIME,INSIDE_TEMPERATURE,OUTSIDE_TEMPERATURE,LIGHTS_STATE

05/19/2017 12:42:25,28.312,27.25,off
05/19/2017 12:42:37,28.375,27.25,off
05/19/2017 12:42:49,28.375,27.312,off
05/19/2017 12:43:00,28.375,27.312,off
