TIME,INSIDE_TEMPERATURE,OUTSIDE_TEMPERATURE,LIGHTS_STATE

05/20/2017 12:43:25,30.562,29.375,off
05/20/2017 12:43:37,30.562,29.375,off
05/20/2017 12:43:49,30.562,29.375,off
05/20/2017 12:44:00,30.562,29.375,off
