TIME,INSIDE_TEMPERATURE,OUTSIDE_TEMPERATURE,LIGHTS_STATE

01/23/2018 12:22:25,22.687,19.562,off
01/23/2018 12:22:37,22.687,19.562,off
01/23/2018 12:22:49,22.75,19.625,off
01/23/2018 12:23:00,22.687,19.687,off
