TIME,INSIDE_TEMPERATURE,OUTSIDE_TEMPERATURE,LIGHTS_STATE

12/25/2017 12:28:25,20.062,17.687,off
12/25/2017 12:28:37,20.062,17.687,off
12/25/2017 12:28:49,20.062,17.625,off
12/25/2017 12:29:01,20.062,17.625,off
