TIME,INSIDE_TEMPERATURE,OUTSIDE_TEMPERATURE,LIGHTS_STATE

01/14/2018 12:44:25,19.375,13.437,off
01/14/2018 12:44:37,19.312,13.375,off
01/14/2018 12:44:49,19.375,13.25,off
01/14/2018 12:45:00,19.375,13.187,off
