TIME,INSIDE_TEMPERATURE,OUTSIDE_TEMPERATURE,LIGHTS_STATE

10/28/2017 12:30:25,34.75,34.5,off
10/28/2017 12:30:37,34.687,34.562,off
10/28/2017 12:30:49,34.687,34.625,off
10/28/2017 12:31:01,34.687,34.687,off
