TIME,INSIDE_TEMPERATURE,OUTSIDE_TEMPERATURE,LIGHTS_STATE

03/04/2017 12:49:25,24.062,21.375,off
03/04/2017 12:49:37,24.062,21.312,off
03/04/2017 12:49:49,24.062,21.062,off
03/04/2017 12:50:00,24.125,21.0,off
