TIME,INSIDE_TEMPERATURE,OUTSIDE_TEMPERATURE,LIGHTS_STATE

06/19/2017 12:13:25,38.5,34.062,off
06/19/2017 12:13:37,38.5,34.062,off
06/19/2017 12:13:49,38.5,34.062,off
06/19/2017 12:14:00,38.562,34.125,off
