TIME,INSIDE_TEMPERATURE,OUTSIDE_TEMPERATURE,LIGHTS_STATE

03/11/2018 12:36:26,23.187,37.187,off
03/11/2018 12:36:37,23.187,37.25,off
03/11/2018 12:36:49,23.25,37.25,off
03/11/2018 12:37:01,23.25,37.25,off
