TIME,INSIDE_TEMPERATURE,OUTSIDE_TEMPERATURE,LIGHTS_STATE

11/02/2016 12:13:24,29.812,27.25,off
11/02/2016 12:13:36,29.812,27.125,off
11/02/2016 12:13:48,29.812,27.125,off
11/02/2016 12:13:59,29.812,27.375,off
