TIME,INSIDE_TEMPERATURE,OUTSIDE_TEMPERATURE,LIGHTS_STATE

09/23/2016 12:16:26,25.5,24.562,off
09/23/2016 12:16:37,25.5,24.625,off
09/23/2016 12:16:49,25.5,24.562,off
09/23/2016 12:17:01,25.562,24.437,off
