TIME,INSIDE_TEMPERATURE,OUTSIDE_TEMPERATURE,LIGHTS_STATE

09/10/2016 12:15:25,27.437,26.437,off
09/10/2016 12:15:37,27.5,26.437,off
09/10/2016 12:15:48,27.5,26.437,off
09/10/2016 12:16:00,27.5,26.5,off
