TIME,INSIDE_TEMPERATURE,OUTSIDE_TEMPERATURE,LIGHTS_STATE

03/29/2018 12:19:25,25.562,24.125,off
03/29/2018 12:19:37,25.5,24.125,off
03/29/2018 12:19:49,25.562,24.125,off
03/29/2018 12:20:01,25.562,24.125,off
