TIME,INSIDE_TEMPERATURE,OUTSIDE_TEMPERATURE,LIGHTS_STATE

02/22/2018 12:08:25,22.312,21.437,off
02/22/2018 12:08:37,22.312,21.25,off
02/22/2018 12:08:49,22.312,21.062,off
02/22/2018 12:09:00,22.312,20.937,off
