TIME,INSIDE_TEMPERATURE,OUTSIDE_TEMPERATURE,LIGHTS_STATE

08/04/2017 12:39:25,32.0,27.187,off
08/04/2017 12:39:37,32.0,27.187,off
08/04/2017 12:39:48,32.0,27.125,off
08/04/2017 12:40:00,32.0,27.125,off
