TIME,INSIDE_TEMPERATURE,OUTSIDE_TEMPERATURE,LIGHTS_STATE

10/23/2016 12:05:24,24.437,21.062,off
10/23/2016 12:05:36,24.437,21.062,off
10/23/2016 12:05:47,24.5,21.062,off
10/23/2016 12:05:59,24.437,21.062,off
