TIME,INSIDE_TEMPERATURE,OUTSIDE_TEMPERATURE,LIGHTS_STATE

07/25/2016 12:03:25,29.812,31.562,off
07/25/2016 12:03:37,29.812,31.562,off
07/25/2016 12:03:49,29.875,31.562,off
07/25/2016 12:04:00,29.812,31.562,off
