TIME,INSIDE_TEMPERATURE,OUTSIDE_TEMPERATURE,LIGHTS_STATE

06/06/2017 12:45:26,23.125,22.937,off
06/06/2017 12:45:38,23.125,22.937,off
06/06/2017 12:45:50,23.125,22.937,off
06/06/2017 12:46:01,23.125,22.937,off
