TIME,INSIDE_TEMPERATURE,OUTSIDE_TEMPERATURE,LIGHTS_STATE

01/29/2018 12:02:25,19.25,15.312,off
01/29/2018 12:02:37,19.25,15.375,off
01/29/2018 12:02:49,19.25,15.375,off
01/29/2018 12:03:00,19.25,15.375,off
