TIME,INSIDE_TEMPERATURE,OUTSIDE_TEMPERATURE,LIGHTS_STATE

12/24/2017 12:41:26,16.75,11.562,off
12/24/2017 12:41:37,16.75,11.562,off
12/24/2017 12:41:49,16.687,11.562,off
12/24/2017 12:42:01,16.687,11.562,off
