TIME,INSIDE_TEMPERATURE,OUTSIDE_TEMPERATURE,LIGHTS_STATE

03/13/2017 12:26:25,27.0,24.062,off
03/13/2017 12:26:37,27.0,24.187,off
03/13/2017 12:26:49,27.062,24.25,off
03/13/2017 12:27:00,27.125,24.187,off
