TIME,INSIDE_TEMPERATURE,OUTSIDE_TEMPERATURE,LIGHTS_STATE

02/17/2017 12:58:25,18.437,14.812,off
02/17/2017 12:58:37,18.437,14.812,off
02/17/2017 12:58:48,18.437,14.812,off
02/17/2017 12:59:00,18.437,14.812,off
