TIME,INSIDE_TEMPERATURE,OUTSIDE_TEMPERATURE,LIGHTS_STATE

04/26/2017 12:02:25,21.437,18.062,off
04/26/2017 12:02:37,21.437,18.062,off
04/26/2017 12:02:49,21.437,18.062,off
04/26/2017 12:03:00,21.5,18.062,off
