TIME,INSIDE_TEMPERATURE,OUTSIDE_TEMPERATURE,LIGHTS_STATE

12/30/2016 12:12:26,16.375,14.312,off
12/30/2016 12:12:37,16.375,14.375,off
12/30/2016 12:12:49,16.375,14.437,off
12/30/2016 12:13:01,16.375,14.5,off
