TIME,INSIDE_TEMPERATURE,OUTSIDE_TEMPERATURE,LIGHTS_STATE

05/24/2017 12:23:25,27.187,24.875,off
05/24/2017 12:23:37,27.25,24.937,off
05/24/2017 12:23:49,27.25,25.0,off
05/24/2017 12:24:00,27.25,25.0,off
