TIME,INSIDE_TEMPERATURE,OUTSIDE_TEMPERATURE,LIGHTS_STATE

11/20/2016 12:43:25,21.937,17.812,off
11/20/2016 12:43:37,21.937,17.812,off
11/20/2016 12:43:48,21.937,17.812,off
11/20/2016 12:44:00,21.937,17.812,off
