TIME,INSIDE_TEMPERATURE,OUTSIDE_TEMPERATURE,LIGHTS_STATE

07/06/2017 12:03:26,32.75,29.562,off
07/06/2017 12:03:38,32.75,29.562,off
07/06/2017 12:03:49,32.75,29.5,off
07/06/2017 12:04:01,32.75,29.5,off
