TIME,INSIDE_TEMPERATURE,OUTSIDE_TEMPERATURE,LIGHTS_STATE

09/11/2017 12:32:26,35.375,33.062,off
09/11/2017 12:32:38,35.375,33.125,off
09/11/2017 12:32:49,35.375,33.125,off
09/11/2017 12:33:01,35.375,33.187,off
