TIME,INSIDE_TEMPERATURE,OUTSIDE_TEMPERATURE,LIGHTS_STATE

10/25/2016 12:29:25,27.937,25.125,off
10/25/2016 12:29:37,27.937,25.062,off
10/25/2016 12:29:48,27.937,25.0,off
10/25/2016 12:30:00,27.875,24.875,off
