TIME,INSIDE_TEMPERATURE,OUTSIDE_TEMPERATURE,LIGHTS_STATE

07/07/2016 12:28:25,22.562,22.0,off
07/07/2016 12:28:37,22.562,22.0,off
07/07/2016 12:28:49,22.562,21.937,off
07/07/2016 12:29:00,22.5,21.875,off
