TIME,INSIDE_TEMPERATURE,OUTSIDE_TEMPERATURE,LIGHTS_STATE

09/24/2017 12:18:25,28.187,25.937,off
09/24/2017 12:18:37,28.187,25.937,off
09/24/2017 12:18:49,28.187,26.0,off
09/24/2017 12:19:00,28.187,26.062,off
