TIME,INSIDE_TEMPERATURE,OUTSIDE_TEMPERATURE,LIGHTS_STATE

07/23/2017 12:11:26,35.625,32.875,off
07/23/2017 12:11:37,35.625,32.875,off
07/23/2017 12:11:49,35.625,32.875,off
07/23/2017 12:12:01,35.625,32.875,off
