TIME,INSIDE_TEMPERATURE,OUTSIDE_TEMPERATURE,LIGHTS_STATE

07/09/2017 12:34:25,34.125,32.375,off
07/09/2017 12:34:37,34.062,32.437,off
07/09/2017 12:34:49,34.125,32.5,off
07/09/2017 12:35:00,34.125,32.5,off
