TIME,INSIDE_TEMPERATURE,OUTSIDE_TEMPERATURE,LIGHTS_STATE

09/28/2017 12:31:26,34.125,32.062,off
09/28/2017 12:31:37,34.125,32.062,off
09/28/2017 12:31:49,34.125,32.062,off
09/28/2017 12:32:01,34.125,32.125,off
