TIME,INSIDE_TEMPERATURE,OUTSIDE_TEMPERATURE,LIGHTS_STATE

01/03/2017 12:38:24,15.0,11.812,off
01/03/2017 12:38:36,15.0,11.812,off
01/03/2017 12:38:48,15.0,11.812,off
01/03/2017 12:38:59,15.0,11.812,off
