TIME,INSIDE_TEMPERATURE,OUTSIDE_TEMPERATURE,LIGHTS_STATE

11/05/2016 12:13:25,31.625,26.25,off
11/05/2016 12:13:36,31.625,26.25,off
11/05/2016 12:13:48,31.625,26.375,off
11/05/2016 12:14:00,31.625,26.375,off
