TIME,INSIDE_TEMPERATURE,OUTSIDE_TEMPERATURE,LIGHTS_STATE

12/31/2016 12:24:25,13.625,10.25,off
12/31/2016 12:24:36,13.625,10.25,off
12/31/2016 12:24:48,13.625,10.312,off
12/31/2016 12:25:00,13.625,10.312,off
