TIME,INSIDE_TEMPERATURE,OUTSIDE_TEMPERATURE,LIGHTS_STATE

05/08/2017 12:26:25,25.687,23.687,off
05/08/2017 12:26:36,25.625,23.75,off
05/08/2017 12:26:48,25.687,23.75,off
05/08/2017 12:27:00,25.687,23.75,off
