TIME,INSIDE_TEMPERATURE,OUTSIDE_TEMPERATURE,LIGHTS_STATE

10/06/2017 12:42:26,31.75,29.875,off
10/06/2017 12:42:37,31.812,29.875,off
10/06/2017 12:42:49,31.812,29.875,off
10/06/2017 12:43:01,31.812,29.875,off
