TIME,INSIDE_TEMPERATURE,OUTSIDE_TEMPERATURE,LIGHTS_STATE

11/14/2016 12:30:25,28.625,30.437,off
11/14/2016 12:30:37,28.625,30.75,off
11/14/2016 12:30:50,28.625,30.812,off
11/14/2016 12:31:02,28.687,30.812,off
