TIME,INSIDE_TEMPERATURE,OUTSIDE_TEMPERATURE,LIGHTS_STATE

09/15/2017 12:36:26,27.312,24.375,off
09/15/2017 12:36:37,27.375,24.437,off
09/15/2017 12:36:49,27.437,24.5,off
09/15/2017 12:37:01,27.437,24.625,off
