TIME,INSIDE_TEMPERATURE,OUTSIDE_TEMPERATURE,LIGHTS_STATE

06/21/2016 12:25:25,31.625,31.75,off
06/21/2016 12:25:37,31.625,31.75,off
06/21/2016 12:25:49,31.625,31.75,off
06/21/2016 12:26:01,31.625,31.687,off
