TIME,INSIDE_TEMPERATURE,OUTSIDE_TEMPERATURE,LIGHTS_STATE

04/06/2017 12:06:25,22.937,19.875,off
04/06/2017 12:06:36,22.937,19.875,off
04/06/2017 12:06:48,22.937,19.937,off
04/06/2017 12:07:00,22.937,19.937,off
