TIME,INSIDE_TEMPERATURE,OUTSIDE_TEMPERATURE,LIGHTS_STATE

08/04/2016 12:07:26,25.0,25.062,off
08/04/2016 12:07:38,25.0,25.062,off
08/04/2016 12:07:50,24.937,25.0,off
08/04/2016 12:08:01,24.937,24.937,off
