TIME,INSIDE_TEMPERATURE,OUTSIDE_TEMPERATURE,LIGHTS_STATE

06/07/2017 12:56:25,22.812,22.312,off
06/07/2017 12:56:37,22.812,22.312,off
06/07/2017 12:56:49,22.875,22.312,off
06/07/2017 12:57:01,22.812,22.312,off
