TIME,INSIDE_TEMPERATURE,OUTSIDE_TEMPERATURE,LIGHTS_STATE

10/27/2016 12:38:25,22.312,18.625,off
10/27/2016 12:38:37,22.312,18.625,off
10/27/2016 12:38:48,22.312,18.562,off
10/27/2016 12:39:00,22.25,18.562,off
