TIME,INSIDE_TEMPERATURE,OUTSIDE_TEMPERATURE,LIGHTS_STATE

02/21/2018 12:07:25,21.125,19.625,off
02/21/2018 12:07:37,21.125,19.687,off
02/21/2018 12:07:49,21.125,19.75,off
02/21/2018 12:08:00,21.187,19.875,off
