TIME,INSIDE_TEMPERATURE,OUTSIDE_TEMPERATURE,LIGHTS_STATE

12/24/2016 12:39:24,19.687,17.0,off
12/24/2016 12:39:36,19.687,17.0,off
12/24/2016 12:39:48,19.687,16.875,off
12/24/2016 12:39:59,19.687,16.875,off
