TIME,INSIDE_TEMPERATURE,OUTSIDE_TEMPERATURE,LIGHTS_STATE

11/23/2016 12:09:25,23.312,17.312,off
11/23/2016 12:09:37,23.312,17.312,off
11/23/2016 12:09:48,23.312,17.312,off
11/23/2016 12:10:00,23.25,17.25,off
