TIME,INSIDE_TEMPERATURE,OUTSIDE_TEMPERATURE,LIGHTS_STATE

08/13/2017 12:44:25,30.187,27.437,off
08/13/2017 12:44:37,30.187,27.375,off
08/13/2017 12:44:49,30.187,27.375,off
08/13/2017 12:45:01,30.125,27.312,off
