TIME,INSIDE_TEMPERATURE,OUTSIDE_TEMPERATURE,LIGHTS_STATE

02/06/2017 12:35:25,18.062,13.875,off
02/06/2017 12:35:36,18.062,13.812,off
02/06/2017 12:35:48,18.062,13.875,off
02/06/2017 12:36:00,18.0,13.875,off
