TIME,INSIDE_TEMPERATURE,OUTSIDE_TEMPERATURE,LIGHTS_STATE

11/05/2016 12:51:25,30.0,33.437,off
11/05/2016 12:51:36,30.0,33.312,off
11/05/2016 12:51:48,30.0,33.437,off
11/05/2016 12:52:00,30.0,33.312,off
