TIME,INSIDE_TEMPERATURE,OUTSIDE_TEMPERATURE,LIGHTS_STATE

03/28/2017 12:25:25,22.937,20.187,off
03/28/2017 12:25:37,22.937,20.125,off
03/28/2017 12:25:50,22.937,20.125,off
03/28/2017 12:26:01,22.937,20.125,off
