TIME,INSIDE_TEMPERATURE,OUTSIDE_TEMPERATURE,LIGHTS_STATE

02/18/2017 12:28:25,16.875,12.812,off
02/18/2017 12:28:37,16.875,12.812,off
02/18/2017 12:28:48,16.875,12.812,off
02/18/2017 12:29:00,16.875,12.875,off
