TIME,INSIDE_TEMPERATURE,OUTSIDE_TEMPERATURE,LIGHTS_STATE

03/13/2018 12:09:25,20.5,13.875,off
03/13/2018 12:09:37,20.437,13.875,off
03/13/2018 12:09:48,20.5,13.875,off
03/13/2018 12:10:00,20.5,13.937,off
