TIME,INSIDE_TEMPERATURE,OUTSIDE_TEMPERATURE,LIGHTS_STATE

07/08/2017 12:28:26,39.062,34.125,off
07/08/2017 12:28:37,39.062,34.125,off
07/08/2017 12:28:49,39.062,34.125,off
07/08/2017 12:29:01,39.062,34.125,off
