TIME,INSIDE_TEMPERATURE,OUTSIDE_TEMPERATURE,LIGHTS_STATE

07/29/2016 12:32:25,32.937,33.25,off
07/29/2016 12:32:37,32.937,33.25,off
07/29/2016 12:32:49,32.937,33.25,off
07/29/2016 12:33:00,32.937,33.312,off
