TIME,INSIDE_TEMPERATURE,OUTSIDE_TEMPERATURE,LIGHTS_STATE

03/14/2017 12:27:25,27.75,24.812,off
03/14/2017 12:27:37,27.812,24.812,off
03/14/2017 12:27:48,27.812,24.937,off
03/14/2017 12:28:00,27.875,24.937,off
