TIME,INSIDE_TEMPERATURE,OUTSIDE_TEMPERATURE,LIGHTS_STATE

07/31/2016 12:14:25,28.5,28.625,off
07/31/2016 12:14:37,28.5,28.687,off
07/31/2016 12:14:49,28.562,28.75,off
07/31/2016 12:15:00,28.562,28.812,off
