TIME,INSIDE_TEMPERATURE,OUTSIDE_TEMPERATURE,LIGHTS_STATE

07/07/2016 12:10:26,22.312,21.75,off
07/07/2016 12:10:38,22.312,21.75,off
07/07/2016 12:10:49,22.312,21.75,off
07/07/2016 12:11:01,22.375,21.812,off
