TIME,INSIDE_TEMPERATURE,OUTSIDE_TEMPERATURE,LIGHTS_STATE

05/16/2017 12:31:25,21.5,16.187,off
05/16/2017 12:31:37,21.437,16.125,off
05/16/2017 12:31:49,21.5,16.187,off
05/16/2017 12:32:01,21.5,16.187,off
