TIME,INSIDE_TEMPERATURE,OUTSIDE_TEMPERATURE,LIGHTS_STATE

07/01/2017 12:15:27,25.312,21.75,off
07/01/2017 12:15:39,25.312,21.75,off
07/01/2017 12:15:50,25.312,21.75,off
07/01/2017 12:16:02,25.375,21.75,off
