TIME,INSIDE_TEMPERATURE,OUTSIDE_TEMPERATURE,LIGHTS_STATE

07/04/2016 12:21:25,28.062,27.687,off
07/04/2016 12:21:37,28.062,27.687,off
07/04/2016 12:21:48,28.062,27.687,off
07/04/2016 12:22:00,28.062,27.687,off
