TIME,INSIDE_TEMPERATURE,OUTSIDE_TEMPERATURE,LIGHTS_STATE

03/24/2018 12:58:25,19.25,14.062,off
03/24/2018 12:58:37,19.25,14.125,off
03/24/2018 12:58:48,19.25,14.187,off
03/24/2018 12:59:00,19.25,14.25,off
