TIME,INSIDE_TEMPERATURE,OUTSIDE_TEMPERATURE,LIGHTS_STATE

02/07/2018 12:06:26,28.75,25.937,off
02/07/2018 12:06:37,28.812,26.0,off
02/07/2018 12:06:49,28.75,26.062,off
02/07/2018 12:07:01,28.75,26.125,off
