TIME,INSIDE_TEMPERATURE,OUTSIDE_TEMPERATURE,LIGHTS_STATE

02/19/2017 12:16:26,17.062,12.75,off
02/19/2017 12:16:38,17.062,12.75,off
02/19/2017 12:16:49,17.062,12.75,off
02/19/2017 12:17:01,17.062,12.75,off
