TIME,INSIDE_TEMPERATURE,OUTSIDE_TEMPERATURE,LIGHTS_STATE

03/16/2018 12:17:25,16.937,11.25,off
03/16/2018 12:17:37,17.0,11.25,off
03/16/2018 12:17:48,16.937,11.312,off
03/16/2018 12:18:00,16.937,11.312,off
