TIME,INSIDE_TEMPERATURE,OUTSIDE_TEMPERATURE,LIGHTS_STATE

02/19/2018 12:23:25,20.437,31.687,off
02/19/2018 12:23:37,20.437,31.562,off
02/19/2018 12:23:48,20.437,31.625,off
02/19/2018 12:24:00,20.437,31.375,off
