TIME,INSIDE_TEMPERATURE,OUTSIDE_TEMPERATURE,LIGHTS_STATE

08/07/2017 12:12:25,27.812,24.562,off
08/07/2017 12:12:37,27.812,24.562,off
08/07/2017 12:12:50,27.875,24.625,off
08/07/2017 12:13:02,27.875,24.625,off
