TIME,INSIDE_TEMPERATURE,OUTSIDE_TEMPERATURE,LIGHTS_STATE

04/08/2017 12:04:25,16.25,11.75,off
04/08/2017 12:04:37,16.25,11.687,off
04/08/2017 12:04:49,16.25,11.687,off
04/08/2017 12:05:00,16.25,11.625,off
