TIME,INSIDE_TEMPERATURE,OUTSIDE_TEMPERATURE,LIGHTS_STATE

01/23/2018 12:48:25,22.687,22.687,off
01/23/2018 12:48:37,22.75,22.437,off
01/23/2018 12:48:49,22.75,22.562,off
01/23/2018 12:49:00,22.75,22.312,off
