TIME,INSIDE_TEMPERATURE,OUTSIDE_TEMPERATURE,LIGHTS_STATE

02/09/2017 12:47:25,19.437,14.5,off
02/09/2017 12:47:37,19.5,14.5,off
02/09/2017 12:47:48,19.437,14.5,off
02/09/2017 12:48:00,19.437,14.5,off
