TIME,INSIDE_TEMPERATURE,OUTSIDE_TEMPERATURE,LIGHTS_STATE

11/06/2016 12:55:24,28.25,23.812,off
11/06/2016 12:55:36,28.25,23.75,off
11/06/2016 12:55:48,28.25,23.687,off
11/06/2016 12:55:59,28.25,23.687,off
