TIME,INSIDE_TEMPERATURE,OUTSIDE_TEMPERATURE,LIGHTS_STATE

07/07/2017 12:45:25,37.437,33.0,off
07/07/2017 12:45:37,37.437,32.937,off
07/07/2017 12:45:49,37.437,32.937,off
07/07/2017 12:46:00,37.5,32.937,off
