TIME,INSIDE_TEMPERATURE,OUTSIDE_TEMPERATURE,LIGHTS_STATE

06/29/2016 12:07:25,27.125,26.625,off
06/29/2016 12:07:36,27.187,26.687,off
06/29/2016 12:07:48,27.125,26.625,off
06/29/2016 12:08:00,27.125,26.625,off
