TIME,INSIDE_TEMPERATURE,OUTSIDE_TEMPERATURE,LIGHTS_STATE

02/06/2018 12:51:25,29.812,45.0,off
02/06/2018 12:51:37,29.812,45.125,off
02/06/2018 12:51:48,29.812,45.25,off
02/06/2018 12:52:00,29.812,45.187,off
