TIME,INSIDE_TEMPERATURE,OUTSIDE_TEMPERATURE,LIGHTS_STATE

07/24/2016 12:22:26,33.062,33.187,off
07/24/2016 12:22:37,33.062,33.187,off
07/24/2016 12:22:49,33.125,33.187,off
07/24/2016 12:23:01,33.125,33.187,off
