TIME,INSIDE_TEMPERATURE,OUTSIDE_TEMPERATURE,LIGHTS_STATE

05/21/2017 12:52:25,32.875,30.375,off
05/21/2017 12:52:37,32.875,30.375,off
05/21/2017 12:52:48,32.875,30.312,off
05/21/2017 12:53:00,32.875,30.375,off
