TIME,INSIDE_TEMPERATURE,OUTSIDE_TEMPERATURE,LIGHTS_STATE

01/06/2018 12:26:25,24.562,30.625,off
01/06/2018 12:26:37,24.562,30.687,off
01/06/2018 12:26:48,24.562,30.812,off
01/06/2018 12:27:00,24.562,30.875,off
