TIME,INSIDE_TEMPERATURE,OUTSIDE_TEMPERATURE,LIGHTS_STATE

03/26/2018 12:50:25,18.5,14.312,off
03/26/2018 12:50:37,18.5,14.312,off
03/26/2018 12:50:49,18.5,14.25,off
03/26/2018 12:51:01,18.5,14.25,off
