TIME,INSIDE_TEMPERATURE,OUTSIDE_TEMPERATURE,LIGHTS_STATE

12/04/2016 12:09:24,23.5,19.687,off
12/04/2016 12:09:36,23.5,19.687,off
12/04/2016 12:09:48,23.5,19.687,off
12/04/2016 12:09:59,23.5,19.625,off
