TIME,INSIDE_TEMPERATURE,OUTSIDE_TEMPERATURE,LIGHTS_STATE

01/14/2017 12:31:25,21.625,18.25,off
01/14/2017 12:31:36,21.625,18.312,off
01/14/2017 12:31:48,21.625,18.312,off
01/14/2017 12:32:00,21.625,18.312,off
