TIME,INSIDE_TEMPERATURE,OUTSIDE_TEMPERATURE,LIGHTS_STATE

12/03/2016 12:04:25,24.75,22.187,off
12/03/2016 12:04:36,24.75,22.125,off
12/03/2016 12:04:48,24.75,22.062,off
12/03/2016 12:05:00,24.75,22.125,off
