TIME,INSIDE_TEMPERATURE,OUTSIDE_TEMPERATURE,LIGHTS_STATE

07/08/2017 12:47:25,39.437,34.375,off
07/08/2017 12:47:37,39.437,34.375,off
07/08/2017 12:47:48,39.437,34.375,off
07/08/2017 12:48:00,39.5,34.375,off
