TIME,INSIDE_TEMPERATURE,OUTSIDE_TEMPERATURE,LIGHTS_STATE

01/26/2018 12:19:25,22.187,17.562,off
01/26/2018 12:19:37,22.187,17.75,off
01/26/2018 12:19:49,22.187,18.0,off
01/26/2018 12:20:01,22.187,18.062,off
