TIME,INSIDE_TEMPERATURE,OUTSIDE_TEMPERATURE,LIGHTS_STATE

09/20/2016 12:37:26,32.5,32.375,off
09/20/2016 12:37:38,32.562,32.375,off
09/20/2016 12:37:49,32.562,32.375,off
09/20/2016 12:38:01,32.562,32.375,off
