TIME,INSIDE_TEMPERATURE,OUTSIDE_TEMPERATURE,LIGHTS_STATE

01/17/2018 12:50:25,20.937,15.062,off
01/17/2018 12:50:37,20.937,15.062,off
01/17/2018 12:50:49,20.937,15.062,off
01/17/2018 12:51:01,21.0,15.0,off
