TIME,INSIDE_TEMPERATURE,OUTSIDE_TEMPERATURE,LIGHTS_STATE

03/14/2017 12:16:26,26.875,23.812,off
03/14/2017 12:16:37,26.875,23.75,off
03/14/2017 12:16:49,26.875,23.812,off
03/14/2017 12:17:01,26.875,23.812,off
