TIME,INSIDE_TEMPERATURE,OUTSIDE_TEMPERATURE,LIGHTS_STATE

05/11/2017 12:19:26,23.25,19.875,off
05/11/2017 12:19:37,23.25,19.875,off
05/11/2017 12:19:49,23.25,19.937,off
05/11/2017 12:20:01,23.25,19.937,off
