TIME,INSIDE_TEMPERATURE,OUTSIDE_TEMPERATURE,LIGHTS_STATE

08/31/2017 12:30:26,34.062,33.687,off
08/31/2017 12:30:37,33.875,33.687,off
08/31/2017 12:30:49,33.937,33.562,off
08/31/2017 12:31:01,33.937,33.5,off
