TIME,INSIDE_TEMPERATURE,OUTSIDE_TEMPERATURE,LIGHTS_STATE

10/28/2016 12:13:25,23.25,20.187,off
10/28/2016 12:13:37,23.25,20.312,off
10/28/2016 12:13:49,23.312,20.312,off
10/28/2016 12:14:01,23.312,20.312,off
