TIME,INSIDE_TEMPERATURE,OUTSIDE_TEMPERATURE,LIGHTS_STATE

01/18/2018 12:29:26,25.25,21.125,off
01/18/2018 12:29:37,25.25,21.062,off
01/18/2018 12:29:49,25.25,20.937,off
01/18/2018 12:30:01,25.25,20.812,off
