TIME,INSIDE_TEMPERATURE,OUTSIDE_TEMPERATURE,LIGHTS_STATE

06/08/2017 12:15:25,25.0,21.937,off
06/08/2017 12:15:36,25.062,21.937,off
06/08/2017 12:15:48,25.0,21.937,off
06/08/2017 12:16:00,25.062,21.875,off
