TIME,INSIDE_TEMPERATURE,OUTSIDE_TEMPERATURE,LIGHTS_STATE

08/26/2017 12:42:25,36.437,34.687,off
08/26/2017 12:42:37,36.437,34.75,off
08/26/2017 12:42:48,36.437,34.75,off
08/26/2017 12:43:00,36.437,34.75,off
