TIME,INSIDE_TEMPERATURE,OUTSIDE_TEMPERATURE,LIGHTS_STATE

08/10/2017 12:29:26,26.937,24.0,off
08/10/2017 12:29:37,27.0,24.0,off
08/10/2017 12:29:49,26.937,24.062,off
08/10/2017 12:30:01,26.937,24.125,off
