TIME,INSIDE_TEMPERATURE,OUTSIDE_TEMPERATURE,LIGHTS_STATE

06/25/2016 12:42:25,31.437,32.812,off
06/25/2016 12:42:37,31.437,32.812,off
06/25/2016 12:42:48,31.437,32.75,off
06/25/2016 12:43:00,31.437,32.812,off
