TIME,INSIDE_TEMPERATURE,OUTSIDE_TEMPERATURE,LIGHTS_STATE

01/09/2018 12:06:25,20.312,14.5,off
01/09/2018 12:06:37,20.375,14.562,off
01/09/2018 12:06:49,20.375,14.5,off
01/09/2018 12:07:01,20.312,14.5,off
