TIME,INSIDE_TEMPERATURE,OUTSIDE_TEMPERATURE,LIGHTS_STATE

08/07/2016 12:18:26,24.812,24.562,off
08/07/2016 12:18:38,24.812,24.5,off
08/07/2016 12:18:49,24.812,24.562,off
08/07/2016 12:19:01,24.812,24.562,off
