TIME,INSIDE_TEMPERATURE,OUTSIDE_TEMPERATURE,LIGHTS_STATE

06/17/2017 12:16:25,33.937,29.25,off
06/17/2017 12:16:37,33.937,29.187,off
06/17/2017 12:16:49,33.937,29.187,off
06/17/2017 12:17:01,33.937,29.25,off
