TIME,INSIDE_TEMPERATURE,OUTSIDE_TEMPERATURE,LIGHTS_STATE

08/28/2017 12:05:26,37.125,35.625,off
08/28/2017 12:05:37,37.125,35.625,off
08/28/2017 12:05:49,37.125,35.625,off
08/28/2017 12:06:01,37.125,35.625,off
