TIME,INSIDE_TEMPERATURE,OUTSIDE_TEMPERATURE,LIGHTS_STATE

09/01/2017 12:55:25,41.125,39.937,off
09/01/2017 12:55:37,41.125,39.937,off
09/01/2017 12:55:49,41.125,39.937,off
09/01/2017 12:56:00,41.125,39.937,off
