TIME,INSIDE_TEMPERATURE,OUTSIDE_TEMPERATURE,LIGHTS_STATE

02/19/2017 12:53:25,16.25,11.875,off
02/19/2017 12:53:37,16.25,11.875,off
02/19/2017 12:53:48,16.25,11.875,off
02/19/2017 12:54:00,16.25,11.875,off
