TIME,INSIDE_TEMPERATURE,OUTSIDE_TEMPERATURE,LIGHTS_STATE

04/15/2017 12:12:25,21.625,18.437,off
04/15/2017 12:12:37,21.625,18.437,off
04/15/2017 12:12:49,21.625,18.375,off
04/15/2017 12:13:00,21.625,18.437,off
