TIME,INSIDE_TEMPERATURE,OUTSIDE_TEMPERATURE,LIGHTS_STATE

07/09/2017 12:54:25,34.937,32.5,off
07/09/2017 12:54:37,34.937,32.562,off
07/09/2017 12:54:49,34.937,32.687,off
07/09/2017 12:55:00,35.0,32.75,off
