TIME,INSIDE_TEMPERATURE,OUTSIDE_TEMPERATURE,LIGHTS_STATE

08/10/2017 12:14:25,26.625,23.687,off
08/10/2017 12:14:37,26.687,23.687,off
08/10/2017 12:14:48,26.687,23.687,off
08/10/2017 12:15:00,26.687,23.687,off
