TIME,INSIDE_TEMPERATURE,OUTSIDE_TEMPERATURE,LIGHTS_STATE

05/10/2017 12:54:26,24.375,21.562,off
05/10/2017 12:54:38,24.312,21.562,off
05/10/2017 12:54:50,24.375,21.5,off
05/10/2017 12:55:01,24.375,21.5,off
