TIME,INSIDE_TEMPERATURE,OUTSIDE_TEMPERATURE,LIGHTS_STATE

03/16/2017 12:30:26,26.0,21.937,off
03/16/2017 12:30:38,26.062,21.875,off
03/16/2017 12:30:49,26.125,21.812,off
03/16/2017 12:31:01,26.187,21.75,off
