TIME,INSIDE_TEMPERATURE,OUTSIDE_TEMPERATURE,LIGHTS_STATE

08/30/2017 12:56:26,30.875,28.75,off
08/30/2017 12:56:37,30.875,28.75,off
08/30/2017 12:56:49,30.875,28.75,off
08/30/2017 12:57:01,30.937,28.75,off
