TIME,INSIDE_TEMPERATURE,OUTSIDE_TEMPERATURE,LIGHTS_STATE

11/02/2016 12:58:25,27.75,30.5,off
11/02/2016 12:58:38,27.812,30.562,off
11/02/2016 12:58:49,27.812,30.625,off
11/02/2016 12:59:01,27.812,30.687,off
