TIME,INSIDE_TEMPERATURE,OUTSIDE_TEMPERATURE,LIGHTS_STATE

12/17/2016 12:09:25,18.375,14.562,off
12/17/2016 12:09:37,18.375,14.562,off
12/17/2016 12:09:49,18.375,14.625,off
12/17/2016 12:10:01,18.375,14.687,off
