TIME,INSIDE_TEMPERATURE,OUTSIDE_TEMPERATURE,LIGHTS_STATE

10/31/2016 12:35:25,25.062,21.437,off
10/31/2016 12:35:37,25.0,21.25,off
10/31/2016 12:35:48,25.0,21.125,off
10/31/2016 12:36:00,25.0,20.937,off
