TIME,INSIDE_TEMPERATURE,OUTSIDE_TEMPERATURE,LIGHTS_STATE

07/22/2017 12:44:25,33.625,29.875,off
07/22/2017 12:44:37,33.625,29.812,off
07/22/2017 12:44:48,33.687,29.812,off
07/22/2017 12:45:00,33.625,29.75,off
