TIME,INSIDE_TEMPERATURE,OUTSIDE_TEMPERATURE,LIGHTS_STATE

04/22/2017 12:54:25,26.5,24.0,off
04/22/2017 12:54:37,26.562,24.062,off
04/22/2017 12:54:48,26.625,24.125,off
04/22/2017 12:55:00,26.625,24.125,off
