TIME,INSIDE_TEMPERATURE,OUTSIDE_TEMPERATURE,LIGHTS_STATE

02/15/2018 12:20:25,25.062,28.625,off
02/15/2018 12:20:37,25.062,28.625,off
02/15/2018 12:20:49,25.062,28.75,off
02/15/2018 12:21:01,25.062,28.875,off
