TIME,INSIDE_TEMPERATURE,OUTSIDE_TEMPERATURE,LIGHTS_STATE

10/03/2017 12:20:25,26.875,24.0,off
10/03/2017 12:20:37,26.875,24.062,off
10/03/2017 12:20:48,26.875,24.125,off
10/03/2017 12:21:00,26.875,24.25,off
