TIME,INSIDE_TEMPERATURE,OUTSIDE_TEMPERATURE,LIGHTS_STATE

12/20/2016 12:05:24,20.125,17.125,off
12/20/2016 12:05:36,20.125,17.062,off
12/20/2016 12:05:48,20.125,16.937,off
12/20/2016 12:06:00,20.125,16.812,off
