TIME,INSIDE_TEMPERATURE,OUTSIDE_TEMPERATURE,LIGHTS_STATE

06/21/2016 12:12:25,31.312,31.375,off
06/21/2016 12:12:36,31.312,31.375,off
06/21/2016 12:12:48,31.312,31.375,off
06/21/2016 12:13:00,31.312,31.375,off
