TIME,INSIDE_TEMPERATURE,OUTSIDE_TEMPERATURE,LIGHTS_STATE

04/06/2017 12:27:25,22.687,19.0,off
04/06/2017 12:27:36,22.687,19.062,off
04/06/2017 12:27:48,22.625,19.0,off
04/06/2017 12:28:00,22.625,18.937,off
