TIME,INSIDE_TEMPERATURE,OUTSIDE_TEMPERATURE,LIGHTS_STATE

02/17/2018 12:22:25,26.812,28.562,off
02/17/2018 12:22:37,26.812,28.375,off
02/17/2018 12:22:48,26.812,28.312,off
02/17/2018 12:23:00,26.812,28.25,off
