TIME,INSIDE_TEMPERATURE,OUTSIDE_TEMPERATURE,LIGHTS_STATE

11/23/2016 12:38:26,23.25,20.25,off
11/23/2016 12:38:37,23.312,20.187,off
11/23/2016 12:38:49,23.312,20.187,off
11/23/2016 12:39:01,23.312,20.187,off
