TIME,INSIDE_TEMPERATURE,OUTSIDE_TEMPERATURE,LIGHTS_STATE

08/16/2017 12:20:25,27.125,24.562,off
08/16/2017 12:20:37,27.125,24.562,off
08/16/2017 12:20:48,27.125,24.625,off
08/16/2017 12:21:00,27.187,24.75,off
