TIME,INSIDE_TEMPERATURE,OUTSIDE_TEMPERATURE,LIGHTS_STATE

05/02/2017 12:54:25,32.187,30.0,off
05/02/2017 12:54:36,32.187,29.937,off
05/02/2017 12:54:48,32.187,29.937,off
05/02/2017 12:55:00,32.187,29.937,off
