TIME,INSIDE_TEMPERATURE,OUTSIDE_TEMPERATURE,LIGHTS_STATE

02/11/2018 12:02:25,22.187,17.812,off
02/11/2018 12:02:37,22.25,17.875,off
02/11/2018 12:02:49,22.25,17.875,off
02/11/2018 12:03:00,22.187,17.937,off
