TIME,INSIDE_TEMPERATURE,OUTSIDE_TEMPERATURE,LIGHTS_STATE

02/10/2017 12:54:25,20.5,15.937,off
02/10/2017 12:54:37,20.5,15.937,off
02/10/2017 12:54:48,20.5,15.875,off
02/10/2017 12:55:00,20.5,15.875,off
