TIME,INSIDE_TEMPERATURE,OUTSIDE_TEMPERATURE,LIGHTS_STATE

10/24/2017 12:26:26,36.25,34.25,off
10/24/2017 12:26:37,36.25,34.312,off
10/24/2017 12:26:49,36.25,34.375,off
10/24/2017 12:27:01,36.25,34.5,off
