TIME,INSIDE_TEMPERATURE,OUTSIDE_TEMPERATURE,LIGHTS_STATE

02/23/2018 12:53:26,18.687,34.75,off
02/23/2018 12:53:37,18.687,34.75,off
02/23/2018 12:53:49,18.687,34.937,off
02/23/2018 12:54:01,18.687,35.062,off
