TIME,INSIDE_TEMPERATURE,OUTSIDE_TEMPERATURE,LIGHTS_STATE

08/12/2017 12:20:25,28.5,25.937,off
08/12/2017 12:20:37,28.5,26.0,off
08/12/2017 12:20:48,28.562,26.0,off
08/12/2017 12:21:00,28.5,26.062,off
