TIME,INSIDE_TEMPERATURE,OUTSIDE_TEMPERATURE,LIGHTS_STATE

09/07/2016 12:45:26,32.437,34.625,off
09/07/2016 12:45:38,32.437,34.812,off
09/07/2016 12:45:50,32.5,35.0,off
09/07/2016 12:46:01,32.5,35.25,off
