TIME,INSIDE_TEMPERATURE,OUTSIDE_TEMPERATURE,LIGHTS_STATE

02/21/2018 12:39:25,21.312,30.937,off
02/21/2018 12:39:36,21.375,30.937,off
02/21/2018 12:39:48,21.375,31.0,off
02/21/2018 12:40:00,21.375,31.0,off
