TIME,INSIDE_TEMPERATURE,OUTSIDE_TEMPERATURE,LIGHTS_STATE

08/10/2017 12:38:25,27.187,24.312,off
08/10/2017 12:38:37,27.187,24.312,off
08/10/2017 12:38:49,27.25,24.312,off
08/10/2017 12:39:00,27.25,24.375,off
