TIME,INSIDE_TEMPERATURE,OUTSIDE_TEMPERATURE,LIGHTS_STATE

12/23/2017 12:55:26,21.0,19.0,off
12/23/2017 12:55:37,21.0,18.937,off
12/23/2017 12:55:49,21.0,18.875,off
12/23/2017 12:56:01,21.0,18.812,off
