TIME,INSIDE_TEMPERATURE,OUTSIDE_TEMPERATURE,LIGHTS_STATE

12/29/2017 12:22:25,22.937,24.25,off
12/29/2017 12:22:37,22.937,24.187,off
12/29/2017 12:22:49,22.937,24.312,off
12/29/2017 12:23:00,22.937,24.5,off
