TIME,INSIDE_TEMPERATURE,OUTSIDE_TEMPERATURE,LIGHTS_STATE

04/07/2017 12:32:25,21.375,17.25,off
04/07/2017 12:32:37,21.375,17.187,off
04/07/2017 12:32:49,21.437,17.187,off
04/07/2017 12:33:00,21.437,17.125,off
