TIME,INSIDE_TEMPERATURE,OUTSIDE_TEMPERATURE,LIGHTS_STATE

09/03/2017 12:07:25,40.0,39.125,off
09/03/2017 12:07:37,39.937,39.062,off
09/03/2017 12:07:49,40.062,39.0,off
09/03/2017 12:08:01,39.937,38.937,off
