TIME,INSIDE_TEMPERATURE,OUTSIDE_TEMPERATURE,LIGHTS_STATE

02/23/2018 12:19:25,18.562,19.062,off
02/23/2018 12:19:37,18.562,19.187,off
02/23/2018 12:19:49,18.625,19.375,off
02/23/2018 12:20:00,18.562,19.5,off
