TIME,INSIDE_TEMPERATURE,OUTSIDE_TEMPERATURE,LIGHTS_STATE

02/19/2018 12:11:25,20.312,30.625,off
02/19/2018 12:11:37,20.312,30.187,off
02/19/2018 12:11:49,20.312,30.125,off
02/19/2018 12:12:00,20.312,30.312,off
