TIME,INSIDE_TEMPERATURE,OUTSIDE_TEMPERATURE,LIGHTS_STATE

03/29/2018 12:08:25,25.187,24.062,off
03/29/2018 12:08:37,25.187,24.062,off
03/29/2018 12:08:49,25.187,24.062,off
03/29/2018 12:09:00,25.25,24.062,off
