TIME,INSIDE_TEMPERATURE,OUTSIDE_TEMPERATURE,LIGHTS_STATE

11/01/2016 12:32:25,28.75,28.875,off
11/01/2016 12:32:38,28.75,29.0,off
11/01/2016 12:32:49,28.75,29.0,off
11/01/2016 12:33:01,28.812,29.312,off
