TIME,INSIDE_TEMPERATURE,OUTSIDE_TEMPERATURE,LIGHTS_STATE

10/24/2016 12:10:25,22.312,18.937,off
10/24/2016 12:10:37,22.25,19.0,off
10/24/2016 12:10:48,22.25,19.0,off
10/24/2016 12:11:00,22.312,19.0,off
