TIME,INSIDE_TEMPERATURE,OUTSIDE_TEMPERATURE,LIGHTS_STATE

01/07/2017 12:57:25,19.625,15.25,off
01/07/2017 12:57:36,19.625,15.25,off
01/07/2017 12:57:48,19.625,15.25,off
01/07/2017 12:58:00,19.625,15.25,off
