TIME,INSIDE_TEMPERATURE,OUTSIDE_TEMPERATURE,LIGHTS_STATE

10/29/2017 12:01:25,23.875,20.375,off
10/29/2017 12:01:37,23.937,20.375,off
10/29/2017 12:01:49,23.875,20.312,off
10/29/2017 12:02:00,23.937,20.375,off
