TIME,INSIDE_TEMPERATURE,OUTSIDE_TEMPERATURE,LIGHTS_STATE

09/13/2016 12:34:25,24.25,21.812,off
09/13/2016 12:34:37,24.312,21.75,off
09/13/2016 12:34:48,24.312,21.812,off
09/13/2016 12:35:00,24.312,21.875,off
