TIME,INSIDE_TEMPERATURE,OUTSIDE_TEMPERATURE,LIGHTS_STATE

09/20/2017 12:09:25,23.437,19.75,off
09/20/2017 12:09:37,23.5,19.75,off
09/20/2017 12:09:49,23.5,19.75,off
09/20/2017 12:10:00,23.5,19.75,off
