TIME,INSIDE_TEMPERATURE,OUTSIDE_TEMPERATURE,LIGHTS_STATE

07/23/2016 12:35:25,33.0,32.062,off
07/23/2016 12:35:36,33.0,32.062,off
07/23/2016 12:35:48,33.0,32.062,off
07/23/2016 12:36:00,33.0,32.062,off
