TIME,INSIDE_TEMPERATURE,OUTSIDE_TEMPERATURE,LIGHTS_STATE

10/02/2017 12:19:25,29.062,25.937,off
10/02/2017 12:19:37,29.062,26.0,off
10/02/2017 12:19:49,29.062,26.062,off
10/02/2017 12:20:01,29.062,26.062,off
