TIME,INSIDE_TEMPERATURE,OUTSIDE_TEMPERATURE,LIGHTS_STATE

05/22/2017 12:55:25,32.187,30.062,off
05/22/2017 12:55:37,32.187,30.062,off
05/22/2017 12:55:49,32.25,30.125,off
05/22/2017 12:56:01,32.25,30.125,off
