TIME,INSIDE_TEMPERATURE,OUTSIDE_TEMPERATURE,LIGHTS_STATE

09/23/2017 12:42:25,27.812,24.875,off
09/23/2017 12:42:37,27.875,24.812,off
09/23/2017 12:42:49,27.875,24.812,off
09/23/2017 12:43:01,27.687,24.687,off
