TIME,INSIDE_TEMPERATURE,OUTSIDE_TEMPERATURE,LIGHTS_STATE

06/22/2017 12:35:25,40.437,36.187,off
06/22/2017 12:35:37,40.437,36.187,off
06/22/2017 12:35:49,40.437,36.25,off
06/22/2017 12:36:00,40.437,36.25,off
