TIME,INSIDE_TEMPERATURE,OUTSIDE_TEMPERATURE,LIGHTS_STATE

01/15/2017 12:04:25,10.687,7.0,off
01/15/2017 12:04:37,10.687,7.062,off
01/15/2017 12:04:48,10.687,7.062,off
01/15/2017 12:05:00,10.687,7.062,off
