TIME,INSIDE_TEMPERATURE,OUTSIDE_TEMPERATURE,LIGHTS_STATE

11/12/2016 12:16:25,31.812,34.812,off
11/12/2016 12:16:37,31.812,34.75,off
11/12/2016 12:16:48,31.75,34.812,off
11/12/2016 12:17:00,31.812,34.875,off
