TIME,INSIDE_TEMPERATURE,OUTSIDE_TEMPERATURE,LIGHTS_STATE

01/13/2018 12:17:25,16.937,12.312,off
01/13/2018 12:17:37,16.937,12.375,off
01/13/2018 12:17:49,16.937,12.312,off
01/13/2018 12:18:01,16.937,12.312,off
