TIME,INSIDE_TEMPERATURE,OUTSIDE_TEMPERATURE,LIGHTS_STATE

01/09/2017 12:04:25,21.25,16.812,off
01/09/2017 12:04:37,21.187,16.812,off
01/09/2017 12:04:48,21.187,16.75,off
01/09/2017 12:05:00,21.125,16.687,off
