TIME,INSIDE_TEMPERATURE,OUTSIDE_TEMPERATURE,LIGHTS_STATE

10/21/2017 12:18:25,27.062,26.312,off
10/21/2017 12:18:37,27.062,26.312,off
10/21/2017 12:18:49,27.062,26.312,off
10/21/2017 12:19:00,27.062,26.312,off
