TIME,INSIDE_TEMPERATURE,OUTSIDE_TEMPERATURE,LIGHTS_STATE

07/15/2016 12:49:26,29.687,29.75,off
07/15/2016 12:49:38,29.75,29.687,off
07/15/2016 12:49:49,29.75,29.75,off
07/15/2016 12:50:01,29.75,29.75,off
