TIME,INSIDE_TEMPERATURE,OUTSIDE_TEMPERATURE,LIGHTS_STATE

08/13/2017 12:54:26,30.437,27.75,off
08/13/2017 12:54:37,30.375,27.812,off
08/13/2017 12:54:49,30.437,27.812,off
08/13/2017 12:55:01,30.437,27.875,off
