TIME,INSIDE_TEMPERATURE,OUTSIDE_TEMPERATURE,LIGHTS_STATE

02/21/2017 12:44:26,23.125,19.75,off
02/21/2017 12:44:37,23.125,19.5,off
02/21/2017 12:44:49,23.062,19.187,off
02/21/2017 12:45:01,23.125,19.0,off
