TIME,INSIDE_TEMPERATURE,OUTSIDE_TEMPERATURE,LIGHTS_STATE

07/24/2016 12:54:25,34.187,33.187,off
07/24/2016 12:54:37,34.25,33.187,off
07/24/2016 12:54:49,34.312,33.187,off
07/24/2016 12:55:00,34.25,33.187,off
