TIME,INSIDE_TEMPERATURE,OUTSIDE_TEMPERATURE,LIGHTS_STATE

06/27/2016 12:04:25,33.375,33.25,off
06/27/2016 12:04:37,33.375,33.25,off
06/27/2016 12:04:48,33.375,33.25,off
06/27/2016 12:05:00,33.437,33.312,off
