TIME,INSIDE_TEMPERATURE,OUTSIDE_TEMPERATURE,LIGHTS_STATE

03/12/2017 12:46:25,27.937,24.812,off
03/12/2017 12:46:37,27.937,24.812,off
03/12/2017 12:46:49,27.937,24.875,off
03/12/2017 12:47:00,27.875,24.812,off
