TIME,INSIDE_TEMPERATURE,OUTSIDE_TEMPERATURE,LIGHTS_STATE

09/11/2017 12:34:25,35.5,33.375,off
09/11/2017 12:34:37,35.5,33.437,off
09/11/2017 12:34:49,35.5,33.437,off
09/11/2017 12:35:01,35.5,33.437,off
