TIME,INSIDE_TEMPERATURE,OUTSIDE_TEMPERATURE,LIGHTS_STATE

03/11/2018 12:08:24,21.875,20.375,off
03/11/2018 12:08:36,21.875,20.812,off
03/11/2018 12:08:48,21.875,21.312,off
03/11/2018 12:08:59,21.875,21.812,off
