TIME,INSIDE_TEMPERATURE,OUTSIDE_TEMPERATURE,LIGHTS_STATE

02/04/2018 12:34:26,26.75,38.875,off
02/04/2018 12:34:37,26.812,38.937,off
02/04/2018 12:34:49,26.812,39.0,off
02/04/2018 12:35:01,26.812,39.062,off
