TIME,INSIDE_TEMPERATURE,OUTSIDE_TEMPERATURE,LIGHTS_STATE

11/03/2016 12:35:25,29.687,29.75,off
11/03/2016 12:35:37,29.687,29.875,off
11/03/2016 12:35:49,29.687,30.0,off
11/03/2016 12:36:00,29.687,30.312,off
