TIME,INSIDE_TEMPERATURE,OUTSIDE_TEMPERATURE,LIGHTS_STATE

11/07/2016 12:46:26,28.875,25.625,off
11/07/2016 12:46:37,28.875,25.562,off
11/07/2016 12:46:49,28.875,25.625,off
11/07/2016 12:47:01,28.875,25.562,off
