TIME,INSIDE_TEMPERATURE,OUTSIDE_TEMPERATURE,LIGHTS_STATE

06/17/2017 12:58:25,35.375,30.312,off
06/17/2017 12:58:37,35.437,30.312,off
06/17/2017 12:58:49,35.437,30.312,off
06/17/2017 12:59:01,35.312,30.375,off
