TIME,INSIDE_TEMPERATURE,OUTSIDE_TEMPERATURE,LIGHTS_STATE

06/29/2016 12:35:25,27.562,26.937,off
06/29/2016 12:35:36,27.562,26.937,off
06/29/2016 12:35:48,27.625,26.937,off
06/29/2016 12:36:00,27.5,26.937,off
