TIME,INSIDE_TEMPERATURE,OUTSIDE_TEMPERATURE,LIGHTS_STATE

09/23/2016 12:33:26,26.187,26.187,off
09/23/2016 12:33:38,26.25,26.25,off
09/23/2016 12:33:49,26.25,26.187,off
09/23/2016 12:34:02,26.25,26.187,off
