TIME,INSIDE_TEMPERATURE,OUTSIDE_TEMPERATURE,LIGHTS_STATE

10/08/2017 12:43:25,30.687,27.625,off
10/08/2017 12:43:37,30.75,27.625,off
10/08/2017 12:43:49,30.437,27.625,off
10/08/2017 12:44:01,30.437,27.625,off
