TIME,INSIDE_TEMPERATURE,OUTSIDE_TEMPERATURE,LIGHTS_STATE

01/30/2018 12:32:25,26.125,22.687,off
01/30/2018 12:32:37,26.125,22.875,off
01/30/2018 12:32:49,26.125,22.937,off
01/30/2018 12:33:01,26.125,22.937,off
