TIME,INSIDE_TEMPERATURE,OUTSIDE_TEMPERATURE,LIGHTS_STATE

03/22/2017 12:11:25,21.0,18.062,off
03/22/2017 12:11:37,21.062,17.937,off
03/22/2017 12:11:49,21.062,17.937,off
03/22/2017 12:12:00,21.062,17.875,off
