TIME,INSIDE_TEMPERATURE,OUTSIDE_TEMPERATURE,LIGHTS_STATE

09/13/2016 12:23:25,24.5,22.125,off
09/13/2016 12:23:37,24.5,22.25,off
09/13/2016 12:23:48,24.5,22.312,off
09/13/2016 12:24:00,24.5,22.312,off
