TIME,INSIDE_TEMPERATURE,OUTSIDE_TEMPERATURE,LIGHTS_STATE

08/21/2017 12:35:25,28.812,26.625,off
08/21/2017 12:35:37,28.812,26.562,off
08/21/2017 12:35:49,28.812,26.562,off
08/21/2017 12:36:00,28.812,26.625,off
