TIME,INSIDE_TEMPERATURE,OUTSIDE_TEMPERATURE,LIGHTS_STATE

10/21/2017 12:58:25,28.0,38.5,off
10/21/2017 12:58:37,28.0,38.562,off
10/21/2017 12:58:49,28.0,38.625,off
10/21/2017 12:59:00,28.0,38.687,off
