TIME,INSIDE_TEMPERATURE,OUTSIDE_TEMPERATURE,LIGHTS_STATE

07/25/2016 12:01:25,29.75,31.625,off
07/25/2016 12:01:38,29.812,31.625,off
07/25/2016 12:01:50,29.812,31.625,off
07/25/2016 12:02:01,29.875,31.625,off
