TIME,INSIDE_TEMPERATURE,OUTSIDE_TEMPERATURE,LIGHTS_STATE

06/21/2017 12:16:26,34.187,31.0,off
06/21/2017 12:16:38,34.187,31.0,off
06/21/2017 12:16:49,34.25,31.0,off
06/21/2017 12:17:01,34.25,31.0,off
