TIME,INSIDE_TEMPERATURE,OUTSIDE_TEMPERATURE,LIGHTS_STATE

12/02/2016 12:21:25,22.5,18.875,off
12/02/2016 12:21:37,22.5,18.812,off
12/02/2016 12:21:48,22.5,18.812,off
12/02/2016 12:22:00,22.5,18.875,off
