TIME,INSIDE_TEMPERATURE,OUTSIDE_TEMPERATURE,LIGHTS_STATE

08/01/2017 12:09:26,35.375,34.25,off
08/01/2017 12:09:37,35.437,34.312,off
08/01/2017 12:09:49,35.375,34.312,off
08/01/2017 12:10:01,35.437,34.312,off
