TIME,INSIDE_TEMPERATURE,OUTSIDE_TEMPERATURE,LIGHTS_STATE

08/31/2017 12:34:25,34.125,33.625,off
08/31/2017 12:34:37,34.0,33.625,off
08/31/2017 12:34:49,34.062,33.625,off
08/31/2017 12:35:00,34.0,33.625,off
