TIME,INSIDE_TEMPERATURE,OUTSIDE_TEMPERATURE,LIGHTS_STATE

09/15/2016 12:51:25,28.875,27.812,off
09/15/2016 12:51:37,28.937,27.75,off
09/15/2016 12:51:48,28.937,27.75,off
09/15/2016 12:52:00,28.937,27.812,off
