TIME,INSIDE_TEMPERATURE,OUTSIDE_TEMPERATURE,LIGHTS_STATE

07/12/2016 12:11:25,24.5,24.062,off
07/12/2016 12:11:36,24.5,24.0,off
07/12/2016 12:11:48,24.5,24.125,off
07/12/2016 12:12:00,24.562,24.187,off
