TIME,INSIDE_TEMPERATURE,OUTSIDE_TEMPERATURE,LIGHTS_STATE

09/15/2017 12:27:25,27.062,24.187,off
09/15/2017 12:27:37,27.062,24.187,off
09/15/2017 12:27:49,27.125,24.187,off
09/15/2017 12:28:00,27.125,24.187,off
