TIME,INSIDE_TEMPERATURE,OUTSIDE_TEMPERATURE,LIGHTS_STATE

01/02/2017 12:24:25,15.437,10.812,off
01/02/2017 12:24:36,15.437,10.875,off
01/02/2017 12:24:48,15.437,10.75,off
01/02/2017 12:25:00,15.437,10.687,off
