TIME,INSIDE_TEMPERATURE,OUTSIDE_TEMPERATURE,LIGHTS_STATE

04/02/2017 12:00:25,23.75,22.062,off
04/02/2017 12:00:37,23.875,22.062,off
04/02/2017 12:00:49,23.875,22.062,off
04/02/2017 12:01:00,23.937,22.125,off
