TIME,INSIDE_TEMPERATURE,OUTSIDE_TEMPERATURE,LIGHTS_STATE

07/29/2016 12:25:26,32.5,32.875,off
07/29/2016 12:25:38,32.5,32.875,off
07/29/2016 12:25:50,32.5,32.937,off
07/29/2016 12:26:02,32.562,33.0,off
