TIME,INSIDE_TEMPERATURE,OUTSIDE_TEMPERATURE,LIGHTS_STATE

01/17/2018 12:05:25,20.437,15.625,off
01/17/2018 12:05:37,20.437,15.625,off
01/17/2018 12:05:49,20.5,15.562,off
01/17/2018 12:06:00,20.5,15.562,off
