TIME,INSIDE_TEMPERATURE,OUTSIDE_TEMPERATURE,LIGHTS_STATE

03/04/2017 12:08:25,23.687,22.812,off
03/04/2017 12:08:37,23.75,22.687,off
03/04/2017 12:08:49,23.75,22.687,off
03/04/2017 12:09:00,23.75,22.75,off
