TIME,INSIDE_TEMPERATURE,OUTSIDE_TEMPERATURE,LIGHTS_STATE

11/04/2016 12:06:25,32.312,27.937,off
11/04/2016 12:06:37,32.312,28.062,off
11/04/2016 12:06:48,32.312,28.125,off
11/04/2016 12:07:00,32.312,28.25,off
