TIME,INSIDE_TEMPERATURE,OUTSIDE_TEMPERATURE,LIGHTS_STATE

05/08/2017 12:04:25,25.187,23.625,off
05/08/2017 12:04:37,25.187,23.625,off
05/08/2017 12:04:49,25.187,23.625,off
05/08/2017 12:05:00,25.187,23.625,off
