TIME,INSIDE_TEMPERATURE,OUTSIDE_TEMPERATURE,LIGHTS_STATE

02/23/2017 12:32:26,22.375,22.687,off
02/23/2017 12:32:38,22.437,22.625,off
02/23/2017 12:32:50,22.375,22.375,off
02/23/2017 12:33:01,22.312,22.062,off
