TIME,INSIDE_TEMPERATURE,OUTSIDE_TEMPERATURE,LIGHTS_STATE

08/10/2017 12:05:25,26.437,23.625,off
08/10/2017 12:05:37,26.437,23.687,off
08/10/2017 12:05:49,26.5,23.687,off
08/10/2017 12:06:01,26.5,23.687,off
