TIME,INSIDE_TEMPERATURE,OUTSIDE_TEMPERATURE,LIGHTS_STATE

06/21/2016 12:11:25,31.375,31.375,off
06/21/2016 12:11:37,31.375,31.375,off
06/21/2016 12:11:49,31.375,31.375,off
06/21/2016 12:12:00,31.312,31.375,off
