TIME,INSIDE_TEMPERATURE,OUTSIDE_TEMPERATURE,LIGHTS_STATE

01/02/2018 12:18:25,20.25,17.125,off
01/02/2018 12:18:37,20.25,17.125,off
01/02/2018 12:18:49,20.25,17.187,off
01/02/2018 12:19:01,20.187,17.187,off
