TIME,INSIDE_TEMPERATURE,OUTSIDE_TEMPERATURE,LIGHTS_STATE

02/25/2017 12:49:26,21.625,24.75,off
02/25/2017 12:49:38,21.562,24.875,off
02/25/2017 12:49:49,21.625,24.875,off
02/25/2017 12:50:01,21.625,24.75,off
