TIME,INSIDE_TEMPERATURE,OUTSIDE_TEMPERATURE,LIGHTS_STATE

09/07/2017 12:23:26,29.25,26.437,off
09/07/2017 12:23:37,29.25,26.437,off
09/07/2017 12:23:49,29.25,26.437,off
09/07/2017 12:24:01,29.312,26.375,off
