TIME,INSIDE_TEMPERATURE,OUTSIDE_TEMPERATURE,LIGHTS_STATE

03/08/2018 12:50:25,28.312,25.062,off
03/08/2018 12:50:37,28.312,25.125,off
03/08/2018 12:50:49,28.312,25.187,off
03/08/2018 12:51:01,28.312,25.25,off
