TIME,INSIDE_TEMPERATURE,OUTSIDE_TEMPERATURE,LIGHTS_STATE

04/14/2017 12:07:25,19.0,16.562,off
04/14/2017 12:07:36,19.0,16.562,off
04/14/2017 12:07:48,19.0,16.625,off
04/14/2017 12:08:00,19.0,16.625,off
