TIME,INSIDE_TEMPERATURE,OUTSIDE_TEMPERATURE,LIGHTS_STATE

03/30/2017 12:26:25,22.187,18.937,off
03/30/2017 12:26:36,22.187,18.937,off
03/30/2017 12:26:48,22.187,18.937,off
03/30/2017 12:27:00,22.187,19.0,off
