TIME,INSIDE_TEMPERATURE,OUTSIDE_TEMPERATURE,LIGHTS_STATE

09/19/2016 12:39:25,34.25,35.937,off
09/19/2016 12:39:37,34.25,36.0,off
09/19/2016 12:39:49,34.25,36.0,off
09/19/2016 12:40:00,34.25,36.187,off
