TIME,INSIDE_TEMPERATURE,OUTSIDE_TEMPERATURE,LIGHTS_STATE

12/16/2016 12:29:25,17.937,14.437,off
12/16/2016 12:29:37,17.937,14.437,off
12/16/2016 12:29:48,17.937,14.562,off
12/16/2016 12:30:00,18.0,14.562,off
