TIME,INSIDE_TEMPERATURE,OUTSIDE_TEMPERATURE,LIGHTS_STATE

04/04/2017 12:24:25,24.062,21.625,off
04/04/2017 12:24:37,24.062,21.625,off
04/04/2017 12:24:48,24.062,21.687,off
04/04/2017 12:25:01,24.062,21.687,off
