TIME,INSIDE_TEMPERATURE,OUTSIDE_TEMPERATURE,LIGHTS_STATE

01/23/2018 12:10:25,22.562,20.125,off
01/23/2018 12:10:37,22.625,20.437,off
01/23/2018 12:10:48,22.562,20.562,off
01/23/2018 12:11:00,22.625,20.75,off
