TIME,INSIDE_TEMPERATURE,OUTSIDE_TEMPERATURE,LIGHTS_STATE

04/15/2017 12:26:25,21.625,18.5,off
04/15/2017 12:26:37,21.625,18.5,off
04/15/2017 12:26:50,21.687,18.437,off
04/15/2017 12:27:02,21.687,18.437,off
