TIME,INSIDE_TEMPERATURE,OUTSIDE_TEMPERATURE,LIGHTS_STATE

07/10/2017 12:21:25,33.687,31.187,off
07/10/2017 12:21:37,33.687,31.187,off
07/10/2017 12:21:49,33.687,31.125,off
07/10/2017 12:22:00,33.687,31.125,off
