TIME,INSIDE_TEMPERATURE,OUTSIDE_TEMPERATURE,LIGHTS_STATE

07/27/2016 12:45:26,37.062,38.187,off
07/27/2016 12:45:38,37.062,38.187,off
07/27/2016 12:45:50,37.062,38.187,off
07/27/2016 12:46:01,37.125,38.312,off
