TIME,INSIDE_TEMPERATURE,OUTSIDE_TEMPERATURE,LIGHTS_STATE

08/11/2017 12:20:25,28.437,26.125,off
08/11/2017 12:20:37,28.437,26.125,off
08/11/2017 12:20:49,28.5,26.125,off
08/11/2017 12:21:00,28.062,26.125,off
