TIME,INSIDE_TEMPERATURE,OUTSIDE_TEMPERATURE,LIGHTS_STATE

02/27/2017 12:38:25,23.687,24.5,off
02/27/2017 12:38:37,23.687,24.312,off
02/27/2017 12:38:48,23.687,24.312,off
02/27/2017 12:39:00,23.687,24.187,off
