TIME,INSIDE_TEMPERATURE,OUTSIDE_TEMPERATURE,LIGHTS_STATE

09/09/2017 12:53:25,31.062,29.0,off
09/09/2017 12:53:37,31.125,29.062,off
09/09/2017 12:53:49,31.125,29.062,off
09/09/2017 12:54:00,31.125,29.062,off
