TIME,INSIDE_TEMPERATURE,OUTSIDE_TEMPERATURE,LIGHTS_STATE

07/19/2017 12:53:25,31.125,28.375,off
07/19/2017 12:53:37,31.125,28.375,off
07/19/2017 12:53:49,31.125,28.375,off
07/19/2017 12:54:01,31.125,28.375,off
