TIME,INSIDE_TEMPERATURE,OUTSIDE_TEMPERATURE,LIGHTS_STATE

08/30/2017 12:54:25,30.75,28.625,off
08/30/2017 12:54:37,30.75,28.625,off
08/30/2017 12:54:49,30.75,28.687,off
08/30/2017 12:55:00,30.75,28.687,off
