TIME,INSIDE_TEMPERATURE,OUTSIDE_TEMPERATURE,LIGHTS_STATE

09/21/2016 12:23:26,27.562,24.75,off
09/21/2016 12:23:38,27.562,24.812,off
09/21/2016 12:23:49,27.562,24.875,off
09/21/2016 12:24:01,27.625,24.937,off
