TIME,INSIDE_TEMPERATURE,OUTSIDE_TEMPERATURE,LIGHTS_STATE

12/13/2016 12:58:25,17.875,13.625,off
12/13/2016 12:58:37,17.875,13.625,off
12/13/2016 12:58:48,17.875,13.625,off
12/13/2016 12:59:00,17.875,13.625,off
