TIME,INSIDE_TEMPERATURE,OUTSIDE_TEMPERATURE,LIGHTS_STATE

06/06/2017 12:50:26,23.125,23.062,off
06/06/2017 12:50:38,23.187,23.062,off
06/06/2017 12:50:50,23.187,23.062,off
06/06/2017 12:51:01,23.187,23.062,off
