TIME,INSIDE_TEMPERATURE,OUTSIDE_TEMPERATURE,LIGHTS_STATE

08/29/2017 12:03:25,30.0,27.875,off
08/29/2017 12:03:37,30.0,27.875,off
08/29/2017 12:03:48,30.0,27.937,off
08/29/2017 12:04:00,30.0,27.937,off
