TIME,INSIDE_TEMPERATURE,OUTSIDE_TEMPERATURE,LIGHTS_STATE

08/24/2017 12:52:25,28.5,25.562,off
08/24/2017 12:52:37,28.562,25.562,off
08/24/2017 12:52:49,28.625,25.562,off
08/24/2017 12:53:00,28.562,25.562,off
