TIME,INSIDE_TEMPERATURE,OUTSIDE_TEMPERATURE,LIGHTS_STATE

06/23/2016 12:24:25,27.125,28.062,off
06/23/2016 12:24:37,27.125,28.062,off
06/23/2016 12:24:48,27.125,28.062,off
06/23/2016 12:25:01,27.125,28.062,off
