TIME,INSIDE_TEMPERATURE,OUTSIDE_TEMPERATURE,LIGHTS_STATE

05/03/2017 12:04:25,32.25,30.187,off
05/03/2017 12:04:37,32.312,30.187,off
05/03/2017 12:04:48,32.312,30.187,off
05/03/2017 12:05:00,32.25,30.187,off
