TIME,INSIDE_TEMPERATURE,OUTSIDE_TEMPERATURE,LIGHTS_STATE

07/14/2016 12:54:26,34.625,34.25,off
07/14/2016 12:54:37,34.625,34.312,off
07/14/2016 12:54:49,34.687,34.312,off
07/14/2016 12:55:01,34.687,34.312,off
