TIME,INSIDE_TEMPERATURE,OUTSIDE_TEMPERATURE,LIGHTS_STATE

02/09/2018 12:58:26,31.437,30.375,off
02/09/2018 12:58:37,31.5,30.562,off
02/09/2018 12:58:49,31.5,30.625,off
02/09/2018 12:59:01,31.5,30.687,off
