TIME,INSIDE_TEMPERATURE,OUTSIDE_TEMPERATURE,LIGHTS_STATE

08/03/2016 12:40:26,29.812,30.0,off
08/03/2016 12:40:37,29.875,30.062,off
08/03/2016 12:40:49,29.875,30.062,off
08/03/2016 12:41:01,29.875,30.062,off
