TIME,INSIDE_TEMPERATURE,OUTSIDE_TEMPERATURE,LIGHTS_STATE

01/01/2018 12:15:25,23.437,19.187,off
01/01/2018 12:15:37,23.437,19.187,off
01/01/2018 12:15:49,23.437,19.187,off
01/01/2018 12:16:01,23.437,19.187,off
