TIME,INSIDE_TEMPERATURE,OUTSIDE_TEMPERATURE,LIGHTS_STATE

01/20/2018 12:17:25,22.562,18.125,off
01/20/2018 12:17:37,22.625,17.687,off
01/20/2018 12:17:49,22.562,17.625,off
01/20/2018 12:18:01,22.625,17.437,off
