TIME,INSIDE_TEMPERATURE,OUTSIDE_TEMPERATURE,LIGHTS_STATE

08/26/2017 12:52:26,36.75,34.937,off
08/26/2017 12:52:37,36.75,34.937,off
08/26/2017 12:52:49,36.812,34.937,off
08/26/2017 12:53:01,36.812,34.937,off
