TIME,INSIDE_TEMPERATURE,OUTSIDE_TEMPERATURE,LIGHTS_STATE

10/01/2017 12:32:25,30.062,28.812,off
10/01/2017 12:32:37,30.062,28.812,off
10/01/2017 12:32:49,30.062,28.875,off
10/01/2017 12:33:01,30.062,28.875,off
