TIME,INSIDE_TEMPERATURE,OUTSIDE_TEMPERATURE,LIGHTS_STATE

01/02/2018 12:19:26,20.25,17.25,off
01/02/2018 12:19:37,20.25,17.25,off
01/02/2018 12:19:49,20.25,17.25,off
01/02/2018 12:20:01,20.25,17.25,off
