TIME,INSIDE_TEMPERATURE,OUTSIDE_TEMPERATURE,LIGHTS_STATE

09/12/2017 12:17:26,35.562,33.0,off
09/12/2017 12:17:37,35.562,33.0,off
09/12/2017 12:17:49,35.625,32.937,off
09/12/2017 12:18:01,35.687,33.0,off
