TIME,INSIDE_TEMPERATURE,OUTSIDE_TEMPERATURE,LIGHTS_STATE

09/16/2017 12:57:25,33.375,29.25,off
09/16/2017 12:57:37,33.5,29.312,off
09/16/2017 12:57:49,33.437,29.375,off
09/16/2017 12:58:00,33.312,29.437,off
