TIME,INSIDE_TEMPERATURE,OUTSIDE_TEMPERATURE,LIGHTS_STATE

03/03/2017 12:21:25,26.375,26.625,off
03/03/2017 12:21:37,26.375,26.562,off
03/03/2017 12:21:49,26.375,26.5,off
03/03/2017 12:22:00,26.375,26.5,off
