TIME,INSIDE_TEMPERATURE,OUTSIDE_TEMPERATURE,LIGHTS_STATE

10/31/2016 12:03:24,23.812,18.687,off
10/31/2016 12:03:36,23.812,18.687,off
10/31/2016 12:03:48,23.812,18.687,off
10/31/2016 12:03:59,23.812,18.812,off
