TIME,INSIDE_TEMPERATURE,OUTSIDE_TEMPERATURE,LIGHTS_STATE

11/20/2016 12:01:24,21.562,16.75,off
11/20/2016 12:01:36,21.562,16.75,off
11/20/2016 12:01:48,21.625,16.75,off
11/20/2016 12:01:59,21.562,16.75,off
