TIME,INSIDE_TEMPERATURE,OUTSIDE_TEMPERATURE,LIGHTS_STATE

08/01/2017 12:14:25,35.625,34.562,off
08/01/2017 12:14:37,35.625,34.562,off
08/01/2017 12:14:48,35.625,34.562,off
08/01/2017 12:15:00,35.625,34.562,off
