TIME,INSIDE_TEMPERATURE,OUTSIDE_TEMPERATURE,LIGHTS_STATE

03/02/2017 12:00:26,24.937,26.062,off
03/02/2017 12:00:37,24.937,25.75,off
03/02/2017 12:00:49,24.937,25.812,off
03/02/2017 12:01:01,24.937,26.125,off
