TIME,INSIDE_TEMPERATURE,OUTSIDE_TEMPERATURE,LIGHTS_STATE

05/13/2017 12:00:25,20.75,18.062,off
05/13/2017 12:00:37,20.75,18.062,off
05/13/2017 12:00:49,20.75,18.062,off
05/13/2017 12:01:00,20.75,18.0,off
