TIME,INSIDE_TEMPERATURE,OUTSIDE_TEMPERATURE,LIGHTS_STATE

02/27/2017 12:51:26,23.437,23.562,off
02/27/2017 12:51:37,23.375,23.687,off
02/27/2017 12:51:49,23.375,23.437,off
02/27/2017 12:52:01,23.375,23.375,off
