TIME,INSIDE_TEMPERATURE,OUTSIDE_TEMPERATURE,LIGHTS_STATE

02/27/2018 12:21:25,20.75,27.187,off
02/27/2018 12:21:37,20.812,27.187,off
02/27/2018 12:21:49,20.812,27.25,off
02/27/2018 12:22:01,20.812,27.25,off
