TIME,INSIDE_TEMPERATURE,OUTSIDE_TEMPERATURE,LIGHTS_STATE

12/28/2017 12:14:25,24.562,27.812,off
12/28/2017 12:14:37,24.562,27.75,off
12/28/2017 12:14:48,24.562,27.812,off
12/28/2017 12:15:00,24.562,27.812,off
