TIME,INSIDE_TEMPERATURE,OUTSIDE_TEMPERATURE,LIGHTS_STATE

05/08/2017 12:28:25,25.687,23.687,off
05/08/2017 12:28:37,25.687,23.625,off
05/08/2017 12:28:49,25.687,23.562,off
05/08/2017 12:29:00,25.687,23.562,off
