TIME,INSIDE_TEMPERATURE,OUTSIDE_TEMPERATURE,LIGHTS_STATE

08/03/2016 12:05:25,28.625,29.187,off
08/03/2016 12:05:37,28.562,29.125,off
08/03/2016 12:05:49,28.625,29.187,off
08/03/2016 12:06:00,28.625,29.25,off
