TIME,INSIDE_TEMPERATURE,OUTSIDE_TEMPERATURE,LIGHTS_STATE

10/09/2017 12:53:25,31.75,29.5,off
10/09/2017 12:53:37,31.75,29.375,off
10/09/2017 12:53:49,31.75,29.125,off
10/09/2017 12:54:01,31.812,28.875,off
