TIME,INSIDE_TEMPERATURE,OUTSIDE_TEMPERATURE,LIGHTS_STATE

05/17/2017 12:12:26,22.312,20.312,off
05/17/2017 12:12:37,22.312,20.312,off
05/17/2017 12:12:49,22.312,20.375,off
05/17/2017 12:13:01,22.312,20.375,off
