TIME,INSIDE_TEMPERATURE,OUTSIDE_TEMPERATURE,LIGHTS_STATE

09/05/2017 12:08:26,33.75,31.25,off
09/05/2017 12:08:37,33.75,31.312,off
09/05/2017 12:08:49,33.812,31.312,off
09/05/2017 12:09:01,33.812,31.312,off
