TIME,INSIDE_TEMPERATURE,OUTSIDE_TEMPERATURE,LIGHTS_STATE

09/06/2017 12:55:25,34.562,32.125,off
09/06/2017 12:55:37,34.562,32.187,off
09/06/2017 12:55:49,34.562,32.25,off
09/06/2017 12:56:00,34.562,32.312,off
