TIME,INSIDE_TEMPERATURE,OUTSIDE_TEMPERATURE,LIGHTS_STATE

03/31/2018 12:52:25,28.062,25.875,off
03/31/2018 12:52:37,28.062,25.812,off
03/31/2018 12:52:48,28.062,25.875,off
03/31/2018 12:53:00,28.062,25.812,off
