TIME,INSIDE_TEMPERATURE,OUTSIDE_TEMPERATURE,LIGHTS_STATE

05/21/2017 12:28:26,32.125,29.937,off
05/21/2017 12:28:37,32.125,29.937,off
05/21/2017 12:28:49,32.125,29.937,off
05/21/2017 12:29:01,32.125,29.875,off
