TIME,INSIDE_TEMPERATURE,OUTSIDE_TEMPERATURE,LIGHTS_STATE

09/21/2017 12:06:26,25.812,22.437,off
09/21/2017 12:06:37,25.812,22.5,off
09/21/2017 12:06:49,25.812,22.562,off
09/21/2017 12:07:01,25.812,22.687,off
