TIME,INSIDE_TEMPERATURE,OUTSIDE_TEMPERATURE,LIGHTS_STATE

02/14/2018 12:36:25,21.875,20.5,off
02/14/2018 12:36:37,21.875,20.562,off
02/14/2018 12:36:49,21.875,20.625,off
02/14/2018 12:37:00,21.875,20.75,off
