TIME,INSIDE_TEMPERATURE,OUTSIDE_TEMPERATURE,LIGHTS_STATE

02/26/2017 12:04:25,25.125,20.875,off
02/26/2017 12:04:37,25.125,20.75,off
02/26/2017 12:04:48,25.125,20.687,off
02/26/2017 12:05:00,25.125,20.625,off
