TIME,INSIDE_TEMPERATURE,OUTSIDE_TEMPERATURE,LIGHTS_STATE

05/06/2017 12:37:25,21.812,17.812,off
05/06/2017 12:37:37,21.812,17.75,off
05/06/2017 12:37:48,21.75,17.75,off
05/06/2017 12:38:00,21.75,17.687,off
