TIME,INSIDE_TEMPERATURE,OUTSIDE_TEMPERATURE,LIGHTS_STATE

01/21/2018 12:35:25,22.0,18.75,off
01/21/2018 12:35:37,22.062,18.875,off
01/21/2018 12:35:49,22.0,18.937,off
01/21/2018 12:36:00,22.0,18.937,off
