TIME,INSIDE_TEMPERATURE,OUTSIDE_TEMPERATURE,LIGHTS_STATE

11/01/2017 12:47:25,30.375,31.375,off
11/01/2017 12:47:36,30.375,31.125,off
11/01/2017 12:47:48,30.375,30.937,off
11/01/2017 12:48:00,30.375,30.75,off
