TIME,INSIDE_TEMPERATURE,OUTSIDE_TEMPERATURE,LIGHTS_STATE

06/25/2017 12:29:25,27.625,24.25,off
06/25/2017 12:29:37,27.625,24.312,off
06/25/2017 12:29:49,27.625,24.312,off
06/25/2017 12:30:00,27.625,24.375,off
