TIME,INSIDE_TEMPERATURE,OUTSIDE_TEMPERATURE,LIGHTS_STATE

03/21/2017 12:16:25,22.187,18.0,off
03/21/2017 12:16:37,22.187,18.062,off
03/21/2017 12:16:49,22.187,18.0,off
03/21/2017 12:17:00,22.187,18.062,off
