TIME,INSIDE_TEMPERATURE,OUTSIDE_TEMPERATURE,LIGHTS_STATE

12/27/2016 12:55:25,19.75,21.25,off
12/27/2016 12:55:37,19.75,21.5,off
12/27/2016 12:55:48,19.75,21.312,off
12/27/2016 12:56:00,19.75,21.25,off
