TIME,INSIDE_TEMPERATURE,OUTSIDE_TEMPERATURE,LIGHTS_STATE

10/30/2017 12:05:25,27.312,22.75,off
10/30/2017 12:05:37,27.312,22.75,off
10/30/2017 12:05:48,27.312,22.812,off
10/30/2017 12:06:00,27.312,22.875,off
