TIME,INSIDE_TEMPERATURE,OUTSIDE_TEMPERATURE,LIGHTS_STATE

03/25/2017 12:42:25,22.937,18.312,off
03/25/2017 12:42:37,22.937,18.312,off
03/25/2017 12:42:49,22.937,18.25,off
03/25/2017 12:43:00,22.937,18.25,off
