TIME,INSIDE_TEMPERATURE,OUTSIDE_TEMPERATURE,LIGHTS_STATE

06/29/2017 12:47:25,28.312,25.562,off
06/29/2017 12:47:37,28.312,25.625,off
06/29/2017 12:47:49,28.375,25.625,off
06/29/2017 12:48:01,28.375,25.562,off
