TIME,INSIDE_TEMPERATURE,OUTSIDE_TEMPERATURE,LIGHTS_STATE

06/07/2017 12:19:26,22.625,22.125,off
06/07/2017 12:19:37,22.625,22.187,off
06/07/2017 12:19:49,22.687,22.125,off
06/07/2017 12:20:01,22.687,22.125,off
