TIME,INSIDE_TEMPERATURE,OUTSIDE_TEMPERATURE,LIGHTS_STATE

02/21/2017 12:27:25,23.437,21.625,off
02/21/2017 12:27:37,23.437,21.937,off
02/21/2017 12:27:49,23.5,22.25,off
02/21/2017 12:28:01,23.5,22.125,off
