TIME,INSIDE_TEMPERATURE,OUTSIDE_TEMPERATURE,LIGHTS_STATE

04/09/2017 12:39:25,19.75,16.687,off
04/09/2017 12:39:36,19.75,16.75,off
04/09/2017 12:39:48,19.75,16.812,off
04/09/2017 12:40:00,19.812,16.812,off
