TIME,INSIDE_TEMPERATURE,OUTSIDE_TEMPERATURE,LIGHTS_STATE

01/23/2018 12:34:25,22.75,22.812,off
01/23/2018 12:34:37,22.75,22.937,off
01/23/2018 12:34:49,22.75,22.875,off
01/23/2018 12:35:01,22.687,23.125,off
