TIME,INSIDE_TEMPERATURE,OUTSIDE_TEMPERATURE,LIGHTS_STATE

04/20/2017 12:24:25,23.437,19.625,off
04/20/2017 12:24:37,23.437,19.687,off
04/20/2017 12:24:49,23.437,19.562,off
04/20/2017 12:25:00,23.437,19.562,off
