TIME,INSIDE_TEMPERATURE,OUTSIDE_TEMPERATURE,LIGHTS_STATE

03/18/2017 12:35:25,20.875,17.312,off
03/18/2017 12:35:36,20.875,17.312,off
03/18/2017 12:35:48,20.875,17.375,off
03/18/2017 12:36:00,20.875,17.375,off
