TIME,INSIDE_TEMPERATURE,OUTSIDE_TEMPERATURE,LIGHTS_STATE

01/11/2018 12:16:25,22.5,18.812,off
01/11/2018 12:16:37,22.5,18.75,off
01/11/2018 12:16:49,22.562,18.75,off
01/11/2018 12:17:00,22.5,18.75,off
