TIME,INSIDE_TEMPERATURE,OUTSIDE_TEMPERATURE,LIGHTS_STATE

03/23/2018 12:54:25,19.187,14.562,off
03/23/2018 12:54:37,19.187,14.562,off
03/23/2018 12:54:49,19.187,14.562,off
03/23/2018 12:55:00,19.187,14.562,off
