TIME,INSIDE_TEMPERATURE,OUTSIDE_TEMPERATURE,LIGHTS_STATE

01/19/2018 12:16:25,25.125,19.937,off
01/19/2018 12:16:37,25.125,19.875,off
01/19/2018 12:16:49,25.125,19.812,off
01/19/2018 12:17:01,25.125,19.687,off
