TIME,INSIDE_TEMPERATURE,OUTSIDE_TEMPERATURE,LIGHTS_STATE

12/26/2016 12:25:25,16.625,12.687,off
12/26/2016 12:25:37,16.625,12.75,off
12/26/2016 12:25:49,16.625,12.687,off
12/26/2016 12:26:00,16.625,12.687,off
