TIME,INSIDE_TEMPERATURE,OUTSIDE_TEMPERATURE,LIGHTS_STATE

07/16/2017 12:25:26,37.875,33.5,off
07/16/2017 12:25:37,37.875,33.5,off
07/16/2017 12:25:49,37.875,33.5,off
07/16/2017 12:26:01,37.875,33.5,off
