TIME,INSIDE_TEMPERATURE,OUTSIDE_TEMPERATURE,LIGHTS_STATE

08/05/2017 12:50:25,33.75,31.5,off
08/05/2017 12:50:37,33.812,31.562,off
08/05/2017 12:50:49,33.812,31.625,off
08/05/2017 12:51:01,33.812,31.625,off
