TIME,INSIDE_TEMPERATURE,OUTSIDE_TEMPERATURE,LIGHTS_STATE

04/22/2017 12:32:25,25.687,23.0,off
04/22/2017 12:32:37,25.75,22.937,off
04/22/2017 12:32:49,25.75,22.937,off
04/22/2017 12:33:00,25.812,22.937,off
