TIME,INSIDE_TEMPERATURE,OUTSIDE_TEMPERATURE,LIGHTS_STATE

09/10/2016 12:43:25,28.687,27.0,off
09/10/2016 12:43:37,28.687,27.0,off
09/10/2016 12:43:48,28.687,27.062,off
09/10/2016 12:44:00,28.687,27.062,off
