TIME,INSIDE_TEMPERATURE,OUTSIDE_TEMPERATURE,LIGHTS_STATE

09/24/2017 12:19:26,28.187,26.062,off
09/24/2017 12:19:37,28.25,26.125,off
09/24/2017 12:19:49,28.25,26.187,off
09/24/2017 12:20:01,28.25,26.25,off
