TIME,INSIDE_TEMPERATURE,OUTSIDE_TEMPERATURE,LIGHTS_STATE

12/08/2016 12:49:25,17.0,15.125,off
12/08/2016 12:49:36,17.0,15.125,off
12/08/2016 12:49:48,17.0,15.187,off
12/08/2016 12:50:00,17.0,15.25,off
