TIME,INSIDE_TEMPERATURE,OUTSIDE_TEMPERATURE,LIGHTS_STATE

03/24/2018 12:17:25,19.062,13.312,off
03/24/2018 12:17:37,19.062,13.125,off
03/24/2018 12:17:48,19.062,13.125,off
03/24/2018 12:18:00,19.062,13.125,off
