TIME,INSIDE_TEMPERATURE,OUTSIDE_TEMPERATURE,LIGHTS_STATE

05/24/2017 12:00:25,26.625,24.625,off
05/24/2017 12:00:37,26.625,24.625,off
05/24/2017 12:00:48,26.687,24.687,off
05/24/2017 12:01:00,26.687,24.75,off
