TIME,INSIDE_TEMPERATURE,OUTSIDE_TEMPERATURE,LIGHTS_STATE

01/30/2018 12:27:26,26.125,22.687,off
01/30/2018 12:27:37,26.125,22.75,off
01/30/2018 12:27:49,26.125,22.625,off
01/30/2018 12:28:01,26.125,22.562,off
