TIME,INSIDE_TEMPERATURE,OUTSIDE_TEMPERATURE,LIGHTS_STATE

05/04/2017 12:56:25,31.875,29.5,off
05/04/2017 12:56:37,31.875,29.437,off
05/04/2017 12:56:49,31.875,29.437,off
05/04/2017 12:57:00,31.875,29.375,off
