TIME,INSIDE_TEMPERATURE,OUTSIDE_TEMPERATURE,LIGHTS_STATE

03/01/2018 12:14:25,18.625,12.375,off
03/01/2018 12:14:37,18.687,12.375,off
03/01/2018 12:14:49,18.687,12.375,off
03/01/2018 12:15:01,18.625,12.375,off
