TIME,INSIDE_TEMPERATURE,OUTSIDE_TEMPERATURE,LIGHTS_STATE

07/30/2017 12:38:25,30.875,27.937,off
07/30/2017 12:38:37,30.875,27.937,off
07/30/2017 12:38:49,30.875,27.937,off
07/30/2017 12:39:01,30.937,27.937,off
