TIME,INSIDE_TEMPERATURE,OUTSIDE_TEMPERATURE,LIGHTS_STATE

07/26/2017 12:01:25,28.312,26.062,off
07/26/2017 12:01:37,28.375,26.125,off
07/26/2017 12:01:48,28.375,26.125,off
07/26/2017 12:02:00,28.375,26.125,off
