TIME,INSIDE_TEMPERATURE,OUTSIDE_TEMPERATURE,LIGHTS_STATE

01/10/2018 12:31:25,17.062,15.125,off
01/10/2018 12:31:37,17.062,15.25,off
01/10/2018 12:31:48,17.062,15.375,off
01/10/2018 12:32:00,17.125,15.437,off
