TIME,INSIDE_TEMPERATURE,OUTSIDE_TEMPERATURE,LIGHTS_STATE

11/02/2017 12:52:25,26.687,22.312,off
11/02/2017 12:52:37,26.75,22.25,off
11/02/2017 12:52:49,26.75,22.125,off
11/02/2017 12:53:00,26.687,22.125,off
