TIME,INSIDE_TEMPERATURE,OUTSIDE_TEMPERATURE,LIGHTS_STATE

01/18/2018 12:51:26,24.937,19.625,off
01/18/2018 12:51:38,24.937,19.562,off
01/18/2018 12:51:50,24.937,19.5,off
01/18/2018 12:52:01,25.0,19.437,off
