TIME,INSIDE_TEMPERATURE,OUTSIDE_TEMPERATURE,LIGHTS_STATE

01/08/2017 12:58:25,18.75,15.437,off
01/08/2017 12:58:37,18.812,15.437,off
01/08/2017 12:58:48,18.812,15.437,off
01/08/2017 12:59:00,18.75,15.437,off
