TIME,INSIDE_TEMPERATURE,OUTSIDE_TEMPERATURE,LIGHTS_STATE

09/29/2017 12:50:26,31.125,29.25,off
09/29/2017 12:50:38,31.187,29.312,off
09/29/2017 12:50:50,31.187,29.375,off
09/29/2017 12:51:01,31.187,29.375,off
