TIME,INSIDE_TEMPERATURE,OUTSIDE_TEMPERATURE,LIGHTS_STATE

08/13/2017 12:57:25,30.5,28.0,off
08/13/2017 12:57:37,30.5,28.062,off
08/13/2017 12:57:49,30.5,28.062,off
08/13/2017 12:58:00,30.5,28.125,off
