TIME,INSIDE_TEMPERATURE,OUTSIDE_TEMPERATURE,LIGHTS_STATE

03/08/2017 12:21:26,24.875,25.437,off
03/08/2017 12:21:37,24.875,25.562,off
03/08/2017 12:21:49,24.812,25.75,off
03/08/2017 12:22:01,24.812,25.937,off
