TIME,INSIDE_TEMPERATURE,OUTSIDE_TEMPERATURE,LIGHTS_STATE

02/26/2018 12:08:25,18.5,17.375,off
02/26/2018 12:08:37,18.5,17.687,off
02/26/2018 12:08:49,18.5,17.937,off
02/26/2018 12:09:01,18.562,18.187,off
