TIME,INSIDE_TEMPERATURE,OUTSIDE_TEMPERATURE,LIGHTS_STATE

09/22/2016 12:55:27,25.812,24.062,off
09/22/2016 12:55:38,25.812,23.875,off
09/22/2016 12:55:50,25.812,23.812,off
09/22/2016 12:56:02,25.875,23.812,off
