TIME,INSIDE_TEMPERATURE,OUTSIDE_TEMPERATURE,LIGHTS_STATE

11/07/2016 12:22:25,28.562,29.062,off
11/07/2016 12:22:36,28.562,29.062,off
11/07/2016 12:22:48,28.562,28.875,off
11/07/2016 12:23:00,28.562,28.812,off
