TIME,INSIDE_TEMPERATURE,OUTSIDE_TEMPERATURE,LIGHTS_STATE

04/03/2017 12:24:25,23.5,21.375,off
04/03/2017 12:24:36,23.5,21.375,off
04/03/2017 12:24:48,23.5,21.312,off
04/03/2017 12:25:00,23.5,21.312,off
