TIME,INSIDE_TEMPERATURE,OUTSIDE_TEMPERATURE,LIGHTS_STATE

12/29/2017 12:57:25,23.125,22.75,off
12/29/2017 12:57:37,23.125,22.75,off
12/29/2017 12:57:49,23.125,22.812,off
12/29/2017 12:58:01,23.125,22.875,off
