TIME,INSIDE_TEMPERATURE,OUTSIDE_TEMPERATURE,LIGHTS_STATE

06/17/2017 12:35:25,34.562,29.5,off
06/17/2017 12:35:38,34.562,29.562,off
06/17/2017 12:35:50,34.562,29.5,off
06/17/2017 12:36:02,34.562,29.562,off
