TIME,INSIDE_TEMPERATURE,OUTSIDE_TEMPERATURE,LIGHTS_STATE

01/05/2017 12:39:25,20.312,14.937,off
01/05/2017 12:39:36,20.312,14.875,off
01/05/2017 12:39:48,20.25,14.875,off
01/05/2017 12:40:00,20.25,14.812,off
