TIME,INSIDE_TEMPERATURE,OUTSIDE_TEMPERATURE,LIGHTS_STATE

02/10/2017 12:14:25,19.875,15.562,off
02/10/2017 12:14:37,19.875,15.562,off
02/10/2017 12:14:48,19.875,15.562,off
02/10/2017 12:15:00,19.875,15.562,off
