TIME,INSIDE_TEMPERATURE,OUTSIDE_TEMPERATURE,LIGHTS_STATE

01/22/2018 12:44:25,22.0,16.25,off
01/22/2018 12:44:37,22.0,16.187,off
01/22/2018 12:44:49,22.062,16.187,off
01/22/2018 12:45:00,22.0,16.25,off
