TIME,INSIDE_TEMPERATURE,OUTSIDE_TEMPERATURE,LIGHTS_STATE

07/12/2016 12:52:25,25.937,25.625,off
07/12/2016 12:52:37,25.937,25.625,off
07/12/2016 12:52:49,25.937,25.625,off
07/12/2016 12:53:00,25.875,25.5,off
