TIME,INSIDE_TEMPERATURE,OUTSIDE_TEMPERATURE,LIGHTS_STATE

10/26/2016 12:54:24,31.812,33.75,off
10/26/2016 12:54:36,31.75,33.625,off
10/26/2016 12:54:48,31.812,33.687,off
10/26/2016 12:54:59,31.812,33.687,off
