TIME,INSIDE_TEMPERATURE,OUTSIDE_TEMPERATURE,LIGHTS_STATE

10/11/2017 12:17:26,26.687,22.062,off
10/11/2017 12:17:37,26.687,21.937,off
10/11/2017 12:17:49,26.687,21.875,off
10/11/2017 12:18:01,26.687,21.875,off
