TIME,INSIDE_TEMPERATURE,OUTSIDE_TEMPERATURE,LIGHTS_STATE

07/22/2017 12:58:25,34.187,29.437,off
07/22/2017 12:58:37,34.187,29.437,off
07/22/2017 12:58:49,34.187,29.437,off
07/22/2017 12:59:00,34.187,29.437,off
