TIME,INSIDE_TEMPERATURE,OUTSIDE_TEMPERATURE,LIGHTS_STATE

07/01/2017 12:47:25,26.312,22.375,off
07/01/2017 12:47:37,26.375,22.437,off
07/01/2017 12:47:48,26.312,22.375,off
07/01/2017 12:48:00,26.375,22.437,off
