TIME,INSIDE_TEMPERATURE,OUTSIDE_TEMPERATURE,LIGHTS_STATE

06/14/2017 12:00:25,28.75,25.5,off
06/14/2017 12:00:37,28.75,25.437,off
06/14/2017 12:00:49,28.812,25.375,off
06/14/2017 12:01:01,28.812,25.312,off
