TIME,INSIDE_TEMPERATURE,OUTSIDE_TEMPERATURE,LIGHTS_STATE

10/31/2017 12:34:25,29.812,26.25,off
10/31/2017 12:34:38,29.812,26.312,off
10/31/2017 12:34:50,29.812,26.312,off
10/31/2017 12:35:01,29.75,25.937,off
