TIME,INSIDE_TEMPERATURE,OUTSIDE_TEMPERATURE,LIGHTS_STATE

02/28/2017 12:19:25,23.125,20.562,off
02/28/2017 12:19:37,23.125,20.625,off
02/28/2017 12:19:48,23.187,20.562,off
02/28/2017 12:20:00,23.187,20.5,off
