TIME,INSIDE_TEMPERATURE,OUTSIDE_TEMPERATURE,LIGHTS_STATE

07/16/2017 12:23:25,37.812,33.312,off
07/16/2017 12:23:37,37.812,33.312,off
07/16/2017 12:23:49,37.812,33.375,off
07/16/2017 12:24:01,37.875,33.375,off
