TIME,INSIDE_TEMPERATURE,OUTSIDE_TEMPERATURE,LIGHTS_STATE

08/29/2017 12:55:26,31.5,29.562,off
08/29/2017 12:55:37,31.5,29.562,off
08/29/2017 12:55:49,31.562,29.562,off
08/29/2017 12:56:01,31.625,29.562,off
