TIME,INSIDE_TEMPERATURE,OUTSIDE_TEMPERATURE,LIGHTS_STATE

02/07/2017 12:36:25,20.687,16.312,off
02/07/2017 12:36:37,20.687,16.312,off
02/07/2017 12:36:49,20.687,16.312,off
02/07/2017 12:37:00,20.687,16.312,off
