TIME,INSIDE_TEMPERATURE,OUTSIDE_TEMPERATURE,LIGHTS_STATE

06/20/2017 12:27:25,35.812,32.875,off
06/20/2017 12:27:37,35.812,32.875,off
06/20/2017 12:27:49,35.875,32.875,off
06/20/2017 12:28:01,35.875,32.875,off
