TIME,INSIDE_TEMPERATURE,OUTSIDE_TEMPERATURE,LIGHTS_STATE

07/10/2017 12:38:25,34.5,32.75,off
07/10/2017 12:38:37,34.5,32.75,off
07/10/2017 12:38:49,34.5,32.687,off
07/10/2017 12:39:00,34.562,32.687,off
