TIME,INSIDE_TEMPERATURE,OUTSIDE_TEMPERATURE,LIGHTS_STATE

05/24/2017 12:18:25,27.0,25.062,off
05/24/2017 12:18:37,26.875,25.062,off
05/24/2017 12:18:48,26.937,25.0,off
05/24/2017 12:19:00,27.0,25.0,off
