TIME,INSIDE_TEMPERATURE,OUTSIDE_TEMPERATURE,LIGHTS_STATE

08/21/2017 12:05:25,27.875,25.312,off
08/21/2017 12:05:37,27.875,25.312,off
08/21/2017 12:05:49,27.875,25.312,off
08/21/2017 12:06:00,27.875,25.375,off
