TIME,INSIDE_TEMPERATURE,OUTSIDE_TEMPERATURE,LIGHTS_STATE

12/09/2016 12:53:25,22.687,22.5,off
12/09/2016 12:53:37,22.687,22.375,off
12/09/2016 12:53:49,22.687,22.125,off
12/09/2016 12:54:00,22.687,21.75,off
