TIME,INSIDE_TEMPERATURE,OUTSIDE_TEMPERATURE,LIGHTS_STATE

07/07/2017 12:12:25,36.312,32.25,off
07/07/2017 12:12:37,36.375,32.25,off
07/07/2017 12:12:49,36.375,32.25,off
07/07/2017 12:13:01,36.375,32.25,off
