TIME,INSIDE_TEMPERATURE,OUTSIDE_TEMPERATURE,LIGHTS_STATE

03/29/2017 12:57:25,26.312,23.25,off
03/29/2017 12:57:37,26.375,23.312,off
03/29/2017 12:57:49,26.312,23.312,off
03/29/2017 12:58:00,26.375,23.312,off
