TIME,INSIDE_TEMPERATURE,OUTSIDE_TEMPERATURE,LIGHTS_STATE

12/17/2016 12:27:25,17.812,13.062,off
12/17/2016 12:27:37,17.812,13.062,off
12/17/2016 12:27:49,17.812,12.937,off
12/17/2016 12:28:00,17.812,12.75,off
