TIME,INSIDE_TEMPERATURE,OUTSIDE_TEMPERATURE,LIGHTS_STATE

11/22/2016 12:30:25,23.687,19.937,off
11/22/2016 12:30:37,23.687,20.062,off
11/22/2016 12:30:49,23.687,20.187,off
11/22/2016 12:31:00,23.687,20.187,off
