TIME,INSIDE_TEMPERATURE,OUTSIDE_TEMPERATURE,LIGHTS_STATE

02/20/2017 12:56:26,17.937,13.125,off
02/20/2017 12:56:37,18.0,13.062,off
02/20/2017 12:56:49,18.0,13.125,off
02/20/2017 12:57:01,18.0,13.062,off
