TIME,INSIDE_TEMPERATURE,OUTSIDE_TEMPERATURE,LIGHTS_STATE

01/15/2018 12:26:25,23.187,20.375,off
01/15/2018 12:26:37,23.25,20.187,off
01/15/2018 12:26:49,23.25,20.125,off
01/15/2018 12:27:00,23.25,20.062,off
