TIME,INSIDE_TEMPERATURE,OUTSIDE_TEMPERATURE,LIGHTS_STATE

06/21/2017 12:40:26,35.5,31.875,off
06/21/2017 12:40:37,35.437,31.937,off
06/21/2017 12:40:49,35.5,31.937,off
06/21/2017 12:41:01,35.5,31.937,off
