TIME,INSIDE_TEMPERATURE,OUTSIDE_TEMPERATURE,LIGHTS_STATE

09/01/2017 12:18:25,39.875,38.687,off
09/01/2017 12:18:37,39.875,38.687,off
09/01/2017 12:18:49,39.812,38.687,off
09/01/2017 12:19:00,39.812,38.687,off
