TIME,INSIDE_TEMPERATURE,OUTSIDE_TEMPERATURE,LIGHTS_STATE

07/21/2017 12:24:25,30.25,27.187,off
07/21/2017 12:24:37,30.312,27.125,off
07/21/2017 12:24:49,30.312,27.187,off
07/21/2017 12:25:01,30.312,27.125,off
