TIME,INSIDE_TEMPERATURE,OUTSIDE_TEMPERATURE,LIGHTS_STATE

09/11/2016 12:04:25,26.812,25.875,off
09/11/2016 12:04:37,26.812,25.875,off
09/11/2016 12:04:50,26.812,25.875,off
09/11/2016 12:05:01,26.812,25.875,off
