TIME,INSIDE_TEMPERATURE,OUTSIDE_TEMPERATURE,LIGHTS_STATE

03/02/2018 12:14:25,18.812,21.687,off
03/02/2018 12:14:37,18.812,21.312,off
03/02/2018 12:14:49,18.875,21.125,off
03/02/2018 12:15:01,18.812,20.875,off
