TIME,INSIDE_TEMPERATURE,OUTSIDE_TEMPERATURE,LIGHTS_STATE

07/29/2016 12:49:26,33.625,34.062,off
07/29/2016 12:49:38,33.625,34.062,off
07/29/2016 12:49:50,33.625,34.0,off
07/29/2016 12:50:02,33.625,34.0,off
