TIME,INSIDE_TEMPERATURE,OUTSIDE_TEMPERATURE,LIGHTS_STATE

02/19/2017 12:12:26,17.125,12.937,off
02/19/2017 12:12:37,17.125,12.937,off
02/19/2017 12:12:49,17.125,12.875,off
02/19/2017 12:13:01,17.125,12.875,off
