TIME,INSIDE_TEMPERATURE,OUTSIDE_TEMPERATURE,LIGHTS_STATE

01/12/2018 12:13:25,20.187,18.125,off
01/12/2018 12:13:37,20.187,17.937,off
01/12/2018 12:13:49,20.187,17.937,off
01/12/2018 12:14:01,20.187,17.812,off
