TIME,INSIDE_TEMPERATURE,OUTSIDE_TEMPERATURE,LIGHTS_STATE

11/20/2016 12:33:25,21.812,18.312,off
11/20/2016 12:33:37,21.875,18.312,off
11/20/2016 12:33:49,21.875,18.375,off
11/20/2016 12:34:00,21.875,18.375,off
