TIME,INSIDE_TEMPERATURE,OUTSIDE_TEMPERATURE,LIGHTS_STATE

03/29/2017 12:35:25,25.5,23.5,off
03/29/2017 12:35:37,25.562,23.562,off
03/29/2017 12:35:48,25.562,23.562,off
03/29/2017 12:36:00,25.562,23.625,off
