TIME,INSIDE_TEMPERATURE,OUTSIDE_TEMPERATURE,LIGHTS_STATE

05/18/2017 12:44:25,25.312,24.125,off
05/18/2017 12:44:37,25.312,24.125,off
05/18/2017 12:44:48,25.312,24.125,off
05/18/2017 12:45:00,25.312,24.062,off
