TIME,INSIDE_TEMPERATURE,OUTSIDE_TEMPERATURE,LIGHTS_STATE

12/26/2016 12:48:25,16.187,12.187,off
12/26/2016 12:48:36,16.125,12.25,off
12/26/2016 12:48:48,16.125,12.312,off
12/26/2016 12:49:00,16.187,12.437,off
