TIME,INSIDE_TEMPERATURE,OUTSIDE_TEMPERATURE,LIGHTS_STATE

03/28/2017 12:20:25,22.937,20.312,off
03/28/2017 12:20:37,22.937,20.312,off
03/28/2017 12:20:49,22.937,20.375,off
03/28/2017 12:21:01,22.937,20.437,off
