TIME,INSIDE_TEMPERATURE,OUTSIDE_TEMPERATURE,LIGHTS_STATE

02/07/2017 12:03:25,20.75,16.187,off
02/07/2017 12:03:37,20.75,16.187,off
02/07/2017 12:03:49,20.75,16.187,off
02/07/2017 12:04:00,20.75,16.125,off
