TIME,INSIDE_TEMPERATURE,OUTSIDE_TEMPERATURE,LIGHTS_STATE

05/20/2017 12:12:25,29.625,29.0,off
05/20/2017 12:12:37,29.687,29.0,off
05/20/2017 12:12:49,29.687,29.0,off
05/20/2017 12:13:00,29.687,28.937,off
