TIME,INSIDE_TEMPERATURE,OUTSIDE_TEMPERATURE,LIGHTS_STATE

07/03/2017 12:55:26,31.812,29.562,off
07/03/2017 12:55:37,31.812,29.625,off
07/03/2017 12:55:49,31.875,29.625,off
07/03/2017 12:56:01,31.875,29.625,off
