TIME,INSIDE_TEMPERATURE,OUTSIDE_TEMPERATURE,LIGHTS_STATE

10/14/2017 12:11:25,30.187,24.375,off
10/14/2017 12:11:37,30.187,24.375,off
10/14/2017 12:11:48,30.187,24.437,off
10/14/2017 12:12:00,30.125,24.312,off
