TIME,INSIDE_TEMPERATURE,OUTSIDE_TEMPERATURE,LIGHTS_STATE

01/22/2018 12:02:25,21.187,16.5,off
01/22/2018 12:02:37,21.187,16.625,off
01/22/2018 12:02:48,21.187,16.687,off
01/22/2018 12:03:00,21.187,16.75,off
