TIME,INSIDE_TEMPERATURE,OUTSIDE_TEMPERATURE,LIGHTS_STATE

08/05/2016 12:04:26,24.187,24.312,off
08/05/2016 12:04:38,24.187,24.375,off
08/05/2016 12:04:50,24.125,24.625,off
08/05/2016 12:05:01,24.187,25.0,off
