TIME,INSIDE_TEMPERATURE,OUTSIDE_TEMPERATURE,LIGHTS_STATE

04/04/2017 12:53:25,25.875,22.375,off
04/04/2017 12:53:37,25.937,22.375,off
04/04/2017 12:53:49,25.937,22.375,off
04/04/2017 12:54:00,25.937,22.375,off
