TIME,INSIDE_TEMPERATURE,OUTSIDE_TEMPERATURE,LIGHTS_STATE

04/01/2017 12:02:25,25.25,22.937,off
04/01/2017 12:02:37,25.25,22.875,off
04/01/2017 12:02:49,25.25,22.812,off
04/01/2017 12:03:00,25.25,22.75,off
