TIME,INSIDE_TEMPERATURE,OUTSIDE_TEMPERATURE,LIGHTS_STATE

10/26/2017 12:19:25,35.937,39.875,off
10/26/2017 12:19:37,35.937,39.687,off
10/26/2017 12:19:49,35.937,39.5,off
10/26/2017 12:20:00,35.937,39.375,off
