TIME,INSIDE_TEMPERATURE,OUTSIDE_TEMPERATURE,LIGHTS_STATE

03/05/2018 12:02:26,19.687,23.937,off
03/05/2018 12:02:37,19.75,24.062,off
03/05/2018 12:02:49,19.687,24.062,off
03/05/2018 12:03:01,19.687,24.125,off
