TIME,INSIDE_TEMPERATURE,OUTSIDE_TEMPERATURE,LIGHTS_STATE

08/01/2017 12:01:25,35.062,34.125,off
08/01/2017 12:01:37,35.125,34.125,off
08/01/2017 12:01:48,35.125,34.125,off
08/01/2017 12:02:00,35.125,34.125,off
