TIME,INSIDE_TEMPERATURE,OUTSIDE_TEMPERATURE,LIGHTS_STATE

08/25/2017 12:45:25,30.75,28.75,off
08/25/2017 12:45:37,30.812,28.812,off
08/25/2017 12:45:49,30.812,28.812,off
08/25/2017 12:46:00,30.812,28.875,off
