TIME,INSIDE_TEMPERATURE,OUTSIDE_TEMPERATURE,LIGHTS_STATE

11/22/2016 12:23:25,23.812,20.375,off
11/22/2016 12:23:36,23.812,20.312,off
11/22/2016 12:23:48,23.812,20.25,off
11/22/2016 12:24:00,23.812,20.25,off
