TIME,INSIDE_TEMPERATURE,OUTSIDE_TEMPERATURE,LIGHTS_STATE

03/15/2017 12:58:26,28.25,24.375,off
03/15/2017 12:58:38,28.187,24.375,off
03/15/2017 12:58:49,28.25,24.437,off
03/15/2017 12:59:01,28.25,24.375,off
