TIME,INSIDE_TEMPERATURE,OUTSIDE_TEMPERATURE,LIGHTS_STATE

03/27/2018 12:37:25,22.625,17.312,off
03/27/2018 12:37:37,22.625,17.375,off
03/27/2018 12:37:48,22.625,17.375,off
03/27/2018 12:38:00,22.625,17.375,off
