TIME,INSIDE_TEMPERATURE,OUTSIDE_TEMPERATURE,LIGHTS_STATE

10/12/2017 12:33:25,27.937,28.625,off
10/12/2017 12:33:37,27.937,28.5,off
10/12/2017 12:33:49,27.937,28.375,off
10/12/2017 12:34:00,27.937,28.437,off
