TIME,INSIDE_TEMPERATURE,OUTSIDE_TEMPERATURE,LIGHTS_STATE

02/17/2018 12:06:25,26.687,23.125,off
02/17/2018 12:06:37,26.687,23.062,off
02/17/2018 12:06:49,26.687,23.062,off
02/17/2018 12:07:00,26.687,23.062,off
