TIME,INSIDE_TEMPERATURE,OUTSIDE_TEMPERATURE,LIGHTS_STATE

12/07/2016 12:34:25,13.75,10.5,off
12/07/2016 12:34:37,13.687,10.5,off
12/07/2016 12:34:48,13.75,10.562,off
12/07/2016 12:35:00,13.687,10.5,off
