TIME,INSIDE_TEMPERATURE,OUTSIDE_TEMPERATURE,LIGHTS_STATE

07/15/2017 12:56:25,35.937,34.687,off
07/15/2017 12:56:37,35.937,34.562,off
07/15/2017 12:56:49,35.937,34.375,off
07/15/2017 12:57:01,35.937,34.187,off
