TIME,INSIDE_TEMPERATURE,OUTSIDE_TEMPERATURE,LIGHTS_STATE

11/02/2017 12:45:25,26.937,21.0,off
11/02/2017 12:45:37,26.937,21.062,off
11/02/2017 12:45:48,26.937,21.125,off
11/02/2017 12:46:00,26.937,21.187,off
