TIME,INSIDE_TEMPERATURE,OUTSIDE_TEMPERATURE,LIGHTS_STATE

07/28/2016 12:07:26,31.187,31.687,off
07/28/2016 12:07:38,31.187,31.625,off
07/28/2016 12:07:49,31.187,31.625,off
07/28/2016 12:08:01,31.25,31.625,off
