TIME,INSIDE_TEMPERATURE,OUTSIDE_TEMPERATURE,LIGHTS_STATE

07/30/2016 12:31:25,30.937,31.375,off
07/30/2016 12:31:37,30.937,31.375,off
07/30/2016 12:31:48,30.937,31.437,off
07/30/2016 12:32:00,30.937,31.437,off
