TIME,INSIDE_TEMPERATURE,OUTSIDE_TEMPERATURE,LIGHTS_STATE

02/07/2017 12:25:25,20.937,16.687,off
02/07/2017 12:25:36,21.0,16.687,off
02/07/2017 12:25:48,21.0,16.75,off
02/07/2017 12:26:00,21.0,16.75,off
