TIME,INSIDE_TEMPERATURE,OUTSIDE_TEMPERATURE,LIGHTS_STATE

04/15/2017 12:31:25,21.625,18.312,off
04/15/2017 12:31:37,21.625,18.312,off
04/15/2017 12:31:49,21.687,18.312,off
04/15/2017 12:32:00,21.687,18.312,off
