TIME,INSIDE_TEMPERATURE,OUTSIDE_TEMPERATURE,LIGHTS_STATE

02/22/2018 12:03:25,22.25,21.75,off
02/22/2018 12:03:37,22.312,21.937,off
02/22/2018 12:03:48,22.312,22.125,off
02/22/2018 12:04:00,22.25,22.25,off
