TIME,INSIDE_TEMPERATURE,OUTSIDE_TEMPERATURE,LIGHTS_STATE

02/22/2017 12:04:25,23.5,18.187,off
02/22/2017 12:04:37,23.562,18.062,off
02/22/2017 12:04:49,23.562,17.875,off
02/22/2017 12:05:00,23.562,17.812,off
