TIME,INSIDE_TEMPERATURE,OUTSIDE_TEMPERATURE,LIGHTS_STATE

06/26/2016 12:06:25,31.375,31.25,off
06/26/2016 12:06:37,31.375,31.25,off
06/26/2016 12:06:49,31.375,31.25,off
06/26/2016 12:07:00,31.375,31.312,off
