TIME,INSIDE_TEMPERATURE,OUTSIDE_TEMPERATURE,LIGHTS_STATE

01/15/2018 12:33:25,23.312,20.75,off
01/15/2018 12:33:37,23.312,20.812,off
01/15/2018 12:33:48,23.312,20.812,off
01/15/2018 12:34:00,23.312,20.812,off
