TIME,INSIDE_TEMPERATURE,OUTSIDE_TEMPERATURE,LIGHTS_STATE

10/02/2017 12:52:25,30.062,27.562,off
10/02/2017 12:52:37,30.062,27.5,off
10/02/2017 12:52:49,30.062,27.437,off
10/02/2017 12:53:00,30.062,27.437,off
