TIME,INSIDE_TEMPERATURE,OUTSIDE_TEMPERATURE,LIGHTS_STATE

01/17/2017 12:21:25,13.687,11.0,off
01/17/2017 12:21:37,13.687,11.125,off
01/17/2017 12:21:48,13.75,11.187,off
01/17/2017 12:22:00,13.75,11.25,off
