TIME,INSIDE_TEMPERATURE,OUTSIDE_TEMPERATURE,LIGHTS_STATE

01/07/2018 12:02:25,18.687,13.312,off
01/07/2018 12:02:37,18.687,13.375,off
01/07/2018 12:02:49,18.687,13.437,off
01/07/2018 12:03:01,18.687,13.375,off
