TIME,INSIDE_TEMPERATURE,OUTSIDE_TEMPERATURE,LIGHTS_STATE

02/26/2018 12:26:25,19.062,20.062,off
02/26/2018 12:26:37,19.125,20.187,off
02/26/2018 12:26:49,19.125,20.312,off
02/26/2018 12:27:01,19.125,20.437,off
