TIME,INSIDE_TEMPERATURE,OUTSIDE_TEMPERATURE,LIGHTS_STATE

12/14/2016 12:48:25,22.0,19.125,off
12/14/2016 12:48:36,22.0,19.125,off
12/14/2016 12:48:48,22.0,19.062,off
12/14/2016 12:49:00,22.0,19.0,off
