TIME,INSIDE_TEMPERATURE,OUTSIDE_TEMPERATURE,LIGHTS_STATE

07/21/2016 12:18:26,24.937,25.312,off
07/21/2016 12:18:37,24.937,25.312,off
07/21/2016 12:18:49,25.0,25.312,off
07/21/2016 12:19:01,25.062,25.375,off
