TIME,INSIDE_TEMPERATURE,OUTSIDE_TEMPERATURE,LIGHTS_STATE

07/11/2017 12:30:26,32.812,29.625,off
07/11/2017 12:30:37,32.812,29.687,off
07/11/2017 12:30:49,32.875,29.875,off
07/11/2017 12:31:01,32.812,30.0,off
