TIME,INSIDE_TEMPERATURE,OUTSIDE_TEMPERATURE,LIGHTS_STATE

11/21/2016 12:49:24,23.312,19.875,off
11/21/2016 12:49:36,23.312,19.937,off
11/21/2016 12:49:48,23.375,19.937,off
11/21/2016 12:49:59,23.375,19.937,off
