TIME,INSIDE_TEMPERATURE,OUTSIDE_TEMPERATURE,LIGHTS_STATE

03/26/2017 12:09:26,23.75,20.625,off
03/26/2017 12:09:37,23.75,20.625,off
03/26/2017 12:09:49,23.75,20.625,off
03/26/2017 12:10:01,23.75,20.562,off
