TIME,INSIDE_TEMPERATURE,OUTSIDE_TEMPERATURE,LIGHTS_STATE

10/28/2017 12:40:25,34.75,45.437,off
10/28/2017 12:40:37,34.75,45.5,off
10/28/2017 12:40:49,34.812,45.562,off
10/28/2017 12:41:00,34.75,45.625,off
