TIME,INSIDE_TEMPERATURE,OUTSIDE_TEMPERATURE,LIGHTS_STATE

08/20/2017 12:11:25,29.625,27.75,off
08/20/2017 12:11:37,29.625,27.687,off
08/20/2017 12:11:49,29.625,27.625,off
08/20/2017 12:12:00,29.625,27.5,off
