TIME,INSIDE_TEMPERATURE,OUTSIDE_TEMPERATURE,LIGHTS_STATE

02/05/2018 12:55:25,30.5,40.0,off
02/05/2018 12:55:36,30.562,39.937,off
02/05/2018 12:55:48,30.562,39.875,off
02/05/2018 12:56:00,30.562,39.75,off
