TIME,INSIDE_TEMPERATURE,OUTSIDE_TEMPERATURE,LIGHTS_STATE

01/14/2017 12:54:24,20.625,15.812,off
01/14/2017 12:54:36,20.625,15.937,off
01/14/2017 12:54:48,20.625,16.062,off
01/14/2017 12:54:59,20.687,16.187,off
