TIME,INSIDE_TEMPERATURE,OUTSIDE_TEMPERATURE,LIGHTS_STATE

01/06/2018 12:25:26,24.562,29.812,off
01/06/2018 12:25:37,24.562,29.875,off
01/06/2018 12:25:49,24.562,30.062,off
01/06/2018 12:26:01,24.625,30.375,off
