TIME,INSIDE_TEMPERATURE,OUTSIDE_TEMPERATURE,LIGHTS_STATE

06/25/2017 12:44:25,27.937,24.687,off
06/25/2017 12:44:37,27.937,24.687,off
06/25/2017 12:44:49,27.937,24.687,off
06/25/2017 12:45:00,27.937,24.687,off
