TIME,INSIDE_TEMPERATURE,OUTSIDE_TEMPERATURE,LIGHTS_STATE

03/08/2018 12:15:25,26.687,22.375,off
03/08/2018 12:15:37,26.687,22.25,off
03/08/2018 12:15:49,26.687,22.187,off
03/08/2018 12:16:01,26.687,22.312,off
