TIME,INSIDE_TEMPERATURE,OUTSIDE_TEMPERATURE,LIGHTS_STATE

10/30/2016 12:02:25,19.125,14.875,off
10/30/2016 12:02:36,19.125,14.875,off
10/30/2016 12:02:48,19.125,14.875,off
10/30/2016 12:03:01,19.125,14.875,off
