TIME,INSIDE_TEMPERATURE,OUTSIDE_TEMPERATURE,LIGHTS_STATE

03/05/2018 12:35:26,20.187,28.625,off
03/05/2018 12:35:37,20.187,28.5,off
03/05/2018 12:35:49,20.187,28.0,off
03/05/2018 12:36:01,20.187,27.75,off
