TIME,INSIDE_TEMPERATURE,OUTSIDE_TEMPERATURE,LIGHTS_STATE

08/26/2017 12:46:25,36.562,34.75,off
08/26/2017 12:46:37,36.562,34.75,off
08/26/2017 12:46:49,36.625,34.75,off
08/26/2017 12:47:01,36.625,34.75,off
