TIME,INSIDE_TEMPERATURE,OUTSIDE_TEMPERATURE,LIGHTS_STATE

03/21/2018 12:27:25,22.937,19.312,off
03/21/2018 12:27:37,22.937,19.312,off
03/21/2018 12:27:48,22.937,19.25,off
03/21/2018 12:28:00,22.937,19.25,off
