TIME,INSIDE_TEMPERATURE,OUTSIDE_TEMPERATURE,LIGHTS_STATE

07/02/2016 12:50:26,29.75,29.25,off
07/02/2016 12:50:38,29.812,29.25,off
07/02/2016 12:50:50,29.812,29.25,off
07/02/2016 12:51:01,29.812,29.25,off
