TIME,INSIDE_TEMPERATURE,OUTSIDE_TEMPERATURE,LIGHTS_STATE

11/09/2016 12:56:25,28.375,25.062,off
11/09/2016 12:56:37,28.437,25.062,off
11/09/2016 12:56:49,28.375,25.125,off
11/09/2016 12:57:01,28.375,25.125,off
