TIME,INSIDE_TEMPERATURE,OUTSIDE_TEMPERATURE,LIGHTS_STATE

04/20/2017 12:32:25,23.062,18.562,off
04/20/2017 12:32:36,23.062,18.562,off
04/20/2017 12:32:48,23.062,18.562,off
04/20/2017 12:33:00,23.062,18.5,off
