TIME,INSIDE_TEMPERATURE,OUTSIDE_TEMPERATURE,LIGHTS_STATE

07/04/2016 12:06:25,27.562,27.437,off
07/04/2016 12:06:36,27.625,27.437,off
07/04/2016 12:06:48,27.625,27.437,off
07/04/2016 12:07:00,27.625,27.5,off
