TIME,INSIDE_TEMPERATURE,OUTSIDE_TEMPERATURE,LIGHTS_STATE

01/15/2018 12:02:25,22.625,20.125,off
01/15/2018 12:02:37,22.625,20.125,off
01/15/2018 12:02:49,22.625,20.187,off
01/15/2018 12:03:01,22.687,20.187,off
