TIME,INSIDE_TEMPERATURE,OUTSIDE_TEMPERATURE,LIGHTS_STATE

03/02/2017 12:50:26,24.062,24.062,off
03/02/2017 12:50:37,24.0,24.062,off
03/02/2017 12:50:49,24.062,24.125,off
03/02/2017 12:51:01,24.0,24.187,off
