TIME,INSIDE_TEMPERATURE,OUTSIDE_TEMPERATURE,LIGHTS_STATE

05/05/2017 12:42:25,22.937,20.062,off
05/05/2017 12:42:36,22.937,20.125,off
05/05/2017 12:42:49,22.937,20.125,off
05/05/2017 12:43:01,23.0,20.187,off
