TIME,INSIDE_TEMPERATURE,OUTSIDE_TEMPERATURE,LIGHTS_STATE

04/07/2017 12:15:25,21.25,16.875,off
04/07/2017 12:15:37,21.25,16.875,off
04/07/2017 12:15:49,21.25,16.875,off
04/07/2017 12:16:00,21.25,16.875,off
