TIME,INSIDE_TEMPERATURE,OUTSIDE_TEMPERATURE,LIGHTS_STATE

02/16/2018 12:23:25,25.5,42.687,off
02/16/2018 12:23:37,25.5,42.937,off
02/16/2018 12:23:49,25.5,43.062,off
02/16/2018 12:24:00,25.5,43.187,off
