TIME,INSIDE_TEMPERATURE,OUTSIDE_TEMPERATURE,LIGHTS_STATE

01/08/2017 12:40:25,18.75,15.187,off
01/08/2017 12:40:37,18.75,15.187,off
01/08/2017 12:40:48,18.75,15.187,off
01/08/2017 12:41:00,18.75,15.187,off
