TIME,INSIDE_TEMPERATURE,OUTSIDE_TEMPERATURE,LIGHTS_STATE

03/17/2018 12:22:25,18.875,14.875,off
03/17/2018 12:22:37,18.812,14.812,off
03/17/2018 12:22:49,18.812,14.812,off
03/17/2018 12:23:01,18.875,14.875,off
