TIME,INSIDE_TEMPERATURE,OUTSIDE_TEMPERATURE,LIGHTS_STATE

03/30/2018 12:04:26,27.187,26.0,off
03/30/2018 12:04:37,27.25,26.0,off
03/30/2018 12:04:49,27.187,26.0,off
03/30/2018 12:05:01,27.187,26.0,off
