TIME,INSIDE_TEMPERATURE,OUTSIDE_TEMPERATURE,LIGHTS_STATE

04/07/2017 12:24:25,21.25,16.812,off
04/07/2017 12:24:37,21.25,16.812,off
04/07/2017 12:24:49,21.25,16.812,off
04/07/2017 12:25:00,21.25,16.812,off
