TIME,INSIDE_TEMPERATURE,OUTSIDE_TEMPERATURE,LIGHTS_STATE

09/22/2017 12:21:26,26.187,22.5,off
09/22/2017 12:21:37,26.187,22.5,off
09/22/2017 12:21:49,26.187,22.437,off
09/22/2017 12:22:01,26.187,22.437,off
