TIME,INSIDE_TEMPERATURE,OUTSIDE_TEMPERATURE,LIGHTS_STATE

06/29/2016 12:56:26,28.312,27.75,off
06/29/2016 12:56:37,28.312,27.75,off
06/29/2016 12:56:49,28.312,27.75,off
06/29/2016 12:57:01,28.312,27.75,off
