TIME,INSIDE_TEMPERATURE,OUTSIDE_TEMPERATURE,LIGHTS_STATE

08/27/2017 12:52:25,38.75,37.062,off
08/27/2017 12:52:37,38.75,37.062,off
08/27/2017 12:52:49,38.812,37.062,off
08/27/2017 12:53:00,38.812,37.125,off
