TIME,INSIDE_TEMPERATURE,OUTSIDE_TEMPERATURE,LIGHTS_STATE

10/02/2017 12:54:25,30.187,27.5,off
10/02/2017 12:54:37,30.187,27.5,off
10/02/2017 12:54:48,30.187,27.625,off
10/02/2017 12:55:00,30.187,27.75,off
