TIME,INSIDE_TEMPERATURE,OUTSIDE_TEMPERATURE,LIGHTS_STATE

12/23/2016 12:43:24,14.437,10.437,off
12/23/2016 12:43:36,14.437,10.437,off
12/23/2016 12:43:47,14.437,10.437,off
12/23/2016 12:43:59,14.437,10.437,off
