TIME,INSIDE_TEMPERATURE,OUTSIDE_TEMPERATURE,LIGHTS_STATE

10/21/2017 12:27:26,27.187,25.437,off
10/21/2017 12:27:37,27.187,25.437,off
10/21/2017 12:27:49,27.187,25.5,off
10/21/2017 12:28:01,27.25,25.562,off
