TIME,INSIDE_TEMPERATURE,OUTSIDE_TEMPERATURE,LIGHTS_STATE

02/17/2018 12:07:25,26.687,23.187,off
02/17/2018 12:07:37,26.687,23.187,off
02/17/2018 12:07:49,26.687,23.312,off
02/17/2018 12:08:01,26.687,23.375,off
