TIME,INSIDE_TEMPERATURE,OUTSIDE_TEMPERATURE,LIGHTS_STATE

09/28/2017 12:57:25,35.687,32.937,off
09/28/2017 12:57:37,35.687,32.937,off
09/28/2017 12:57:49,35.687,32.937,off
09/28/2017 12:58:01,35.75,32.937,off
