TIME,INSIDE_TEMPERATURE,OUTSIDE_TEMPERATURE,LIGHTS_STATE

05/20/2017 12:13:25,29.625,28.937,off
05/20/2017 12:13:38,29.687,28.937,off
05/20/2017 12:13:50,29.687,29.0,off
05/20/2017 12:14:01,29.687,29.0,off
