TIME,INSIDE_TEMPERATURE,OUTSIDE_TEMPERATURE,LIGHTS_STATE

11/02/2016 12:47:25,27.937,30.75,off
11/02/2016 12:47:36,27.937,30.875,off
11/02/2016 12:47:48,27.937,30.937,off
11/02/2016 12:48:00,27.937,30.937,off
