TIME,INSIDE_TEMPERATURE,OUTSIDE_TEMPERATURE,LIGHTS_STATE

07/14/2016 12:24:25,33.5,33.5,off
07/14/2016 12:24:37,33.5,33.5,off
07/14/2016 12:24:48,33.562,33.562,off
07/14/2016 12:25:00,33.625,33.562,off
