TIME,INSIDE_TEMPERATURE,OUTSIDE_TEMPERATURE,LIGHTS_STATE

10/31/2016 12:55:25,25.375,28.25,off
10/31/2016 12:55:36,25.375,28.187,off
10/31/2016 12:55:48,25.437,28.25,off
10/31/2016 12:56:00,25.437,28.375,off
