TIME,INSIDE_TEMPERATURE,OUTSIDE_TEMPERATURE,LIGHTS_STATE

01/28/2018 12:30:25,24.937,22.125,off
01/28/2018 12:30:37,24.937,22.125,off
01/28/2018 12:30:49,24.937,22.375,off
01/28/2018 12:31:01,24.937,22.312,off
