TIME,INSIDE_TEMPERATURE,OUTSIDE_TEMPERATURE,LIGHTS_STATE

12/23/2017 12:47:26,20.875,16.875,off
12/23/2017 12:47:37,20.875,16.812,off
12/23/2017 12:47:49,20.937,16.812,off
12/23/2017 12:48:01,20.875,16.875,off
