TIME,INSIDE_TEMPERATURE,OUTSIDE_TEMPERATURE,LIGHTS_STATE

07/01/2016 12:41:25,28.437,27.75,off
07/01/2016 12:41:36,28.437,27.75,off
07/01/2016 12:41:48,28.375,27.75,off
07/01/2016 12:42:00,28.437,27.75,off
