TIME,INSIDE_TEMPERATURE,OUTSIDE_TEMPERATURE,LIGHTS_STATE

06/09/2017 12:33:25,26.937,21.312,off
06/09/2017 12:33:37,26.875,21.375,off
06/09/2017 12:33:49,26.937,21.375,off
06/09/2017 12:34:00,26.937,21.437,off
