TIME,INSIDE_TEMPERATURE,OUTSIDE_TEMPERATURE,LIGHTS_STATE

09/22/2017 12:42:25,27.0,22.875,off
09/22/2017 12:42:37,27.0,22.875,off
09/22/2017 12:42:49,27.0,22.875,off
09/22/2017 12:43:01,27.0,22.812,off
