TIME,INSIDE_TEMPERATURE,OUTSIDE_TEMPERATURE,LIGHTS_STATE

09/10/2017 12:17:25,36.937,33.062,off
09/10/2017 12:17:37,36.937,33.062,off
09/10/2017 12:17:48,36.937,33.125,off
09/10/2017 12:18:00,37.0,33.125,off
