TIME,INSIDE_TEMPERATURE,OUTSIDE_TEMPERATURE,LIGHTS_STATE

09/13/2016 12:29:25,24.375,21.125,off
09/13/2016 12:29:37,24.437,21.0,off
09/13/2016 12:29:50,24.437,20.875,off
09/13/2016 12:30:01,24.437,20.875,off
