TIME,INSIDE_TEMPERATURE,OUTSIDE_TEMPERATURE,LIGHTS_STATE

01/19/2018 12:50:26,24.75,23.5,off
01/19/2018 12:50:37,24.75,23.375,off
01/19/2018 12:50:49,24.75,22.875,off
01/19/2018 12:51:01,24.75,22.437,off
