TIME,INSIDE_TEMPERATURE,OUTSIDE_TEMPERATURE,LIGHTS_STATE

04/19/2017 12:45:25,23.625,20.687,off
04/19/2017 12:45:37,23.625,20.625,off
04/19/2017 12:45:48,23.625,20.625,off
04/19/2017 12:46:00,23.625,20.562,off
