TIME,INSIDE_TEMPERATURE,OUTSIDE_TEMPERATURE,LIGHTS_STATE

03/23/2018 12:06:26,18.375,15.812,off
03/23/2018 12:06:38,18.375,15.875,off
03/23/2018 12:06:50,18.437,15.812,off
03/23/2018 12:07:01,18.437,15.75,off
