TIME,INSIDE_TEMPERATURE,OUTSIDE_TEMPERATURE,LIGHTS_STATE

03/23/2017 12:48:25,21.125,17.25,off
03/23/2017 12:48:37,21.125,17.312,off
03/23/2017 12:48:48,21.125,17.312,off
03/23/2017 12:49:00,21.125,17.312,off
