TIME,INSIDE_TEMPERATURE,OUTSIDE_TEMPERATURE,LIGHTS_STATE

10/16/2017 12:22:25,34.25,36.687,off
10/16/2017 12:22:37,34.25,36.312,off
10/16/2017 12:22:50,34.25,36.25,off
10/16/2017 12:23:01,34.25,36.25,off
