TIME,INSIDE_TEMPERATURE,OUTSIDE_TEMPERATURE,LIGHTS_STATE

12/24/2017 12:27:25,16.875,12.062,off
12/24/2017 12:27:37,16.875,12.062,off
12/24/2017 12:27:49,16.875,12.0,off
12/24/2017 12:28:00,16.875,12.0,off
