TIME,INSIDE_TEMPERATURE,OUTSIDE_TEMPERATURE,LIGHTS_STATE

12/21/2016 12:44:25,22.937,20.687,off
12/21/2016 12:44:36,22.937,20.75,off
12/21/2016 12:44:48,22.875,20.812,off
12/21/2016 12:45:00,22.875,20.875,off
