TIME,INSIDE_TEMPERATURE,OUTSIDE_TEMPERATURE,LIGHTS_STATE

02/01/2018 12:13:25,27.25,25.75,off
02/01/2018 12:13:37,27.25,25.875,off
02/01/2018 12:13:48,27.25,25.812,off
02/01/2018 12:14:00,27.25,25.812,off
