TIME,INSIDE_TEMPERATURE,OUTSIDE_TEMPERATURE,LIGHTS_STATE

04/18/2017 12:25:25,23.062,18.812,off
04/18/2017 12:25:37,23.062,18.812,off
04/18/2017 12:25:48,23.062,18.812,off
04/18/2017 12:26:00,23.062,18.812,off
