TIME,INSIDE_TEMPERATURE,OUTSIDE_TEMPERATURE,LIGHTS_STATE

07/21/2016 12:57:26,26.187,25.812,off
07/21/2016 12:57:38,26.187,25.812,off
07/21/2016 12:57:49,26.187,25.812,off
07/21/2016 12:58:01,26.25,25.875,off
