TIME,INSIDE_TEMPERATURE,OUTSIDE_TEMPERATURE,LIGHTS_STATE

07/31/2016 12:06:25,28.312,28.5,off
07/31/2016 12:06:37,28.312,28.375,off
07/31/2016 12:06:48,28.312,28.375,off
07/31/2016 12:07:00,28.312,28.437,off
