TIME,INSIDE_TEMPERATURE,OUTSIDE_TEMPERATURE,LIGHTS_STATE

01/09/2018 12:46:26,20.25,14.062,off
01/09/2018 12:46:37,20.25,14.062,off
01/09/2018 12:46:49,20.25,14.0,off
01/09/2018 12:47:01,20.25,14.0,off
