TIME,INSIDE_TEMPERATURE,OUTSIDE_TEMPERATURE,LIGHTS_STATE

03/26/2018 12:46:26,18.375,14.625,off
03/26/2018 12:46:37,18.375,14.625,off
03/26/2018 12:46:49,18.375,14.562,off
03/26/2018 12:47:01,18.437,14.562,off
