TIME,INSIDE_TEMPERATURE,OUTSIDE_TEMPERATURE,LIGHTS_STATE

02/18/2018 12:57:26,24.25,22.312,off
02/18/2018 12:57:37,24.25,22.25,off
02/18/2018 12:57:49,24.25,22.25,off
02/18/2018 12:58:01,24.25,22.312,off
