TIME,INSIDE_TEMPERATURE,OUTSIDE_TEMPERATURE,LIGHTS_STATE

08/05/2016 12:42:26,25.25,24.75,off
08/05/2016 12:42:38,25.25,24.625,off
08/05/2016 12:42:50,25.25,24.625,off
08/05/2016 12:43:01,25.25,24.562,off
