TIME,INSIDE_TEMPERATURE,OUTSIDE_TEMPERATURE,LIGHTS_STATE

03/29/2018 12:22:25,25.625,24.437,off
03/29/2018 12:22:37,25.625,24.437,off
03/29/2018 12:22:49,25.625,24.437,off
03/29/2018 12:23:00,25.625,24.437,off
