TIME,INSIDE_TEMPERATURE,OUTSIDE_TEMPERATURE,LIGHTS_STATE

02/18/2017 12:42:26,16.875,12.75,off
02/18/2017 12:42:37,16.875,12.75,off
02/18/2017 12:42:49,16.875,12.812,off
02/18/2017 12:43:01,16.875,12.812,off
