TIME,INSIDE_TEMPERATURE,OUTSIDE_TEMPERATURE,LIGHTS_STATE

04/18/2017 12:37:25,23.0,18.187,off
04/18/2017 12:37:37,23.062,18.187,off
04/18/2017 12:37:49,23.062,18.125,off
04/18/2017 12:38:00,23.062,18.125,off
