TIME,INSIDE_TEMPERATURE,OUTSIDE_TEMPERATURE,LIGHTS_STATE

10/10/2017 12:30:25,31.562,36.0,off
10/10/2017 12:30:37,31.562,35.75,off
10/10/2017 12:30:49,31.625,35.5,off
10/10/2017 12:31:01,31.562,35.125,off
