TIME,INSIDE_TEMPERATURE,OUTSIDE_TEMPERATURE,LIGHTS_STATE

11/10/2016 12:03:25,29.625,33.562,off
11/10/2016 12:03:38,29.687,33.687,off
11/10/2016 12:03:49,29.75,33.875,off
11/10/2016 12:04:01,29.687,34.187,off
