TIME,INSIDE_TEMPERATURE,OUTSIDE_TEMPERATURE,LIGHTS_STATE

04/09/2017 12:24:25,19.437,16.312,off
04/09/2017 12:24:38,19.437,16.312,off
04/09/2017 12:24:49,19.437,16.375,off
04/09/2017 12:25:01,19.437,16.312,off
