TIME,INSIDE_TEMPERATURE,OUTSIDE_TEMPERATURE,LIGHTS_STATE

08/22/2017 12:38:25,31.187,29.062,off
08/22/2017 12:38:37,31.187,29.062,off
08/22/2017 12:38:48,31.187,29.187,off
08/22/2017 12:39:00,31.187,29.125,off
