TIME,INSIDE_TEMPERATURE,OUTSIDE_TEMPERATURE,LIGHTS_STATE

01/11/2018 12:24:25,22.625,18.375,off
01/11/2018 12:24:37,22.625,18.437,off
01/11/2018 12:24:49,22.625,18.5,off
01/11/2018 12:25:00,22.687,18.562,off
