TIME,INSIDE_TEMPERATURE,OUTSIDE_TEMPERATURE,LIGHTS_STATE

09/10/2016 12:22:25,27.687,26.5,off
09/10/2016 12:22:36,27.687,26.5,off
09/10/2016 12:22:48,27.75,26.5,off
09/10/2016 12:23:00,27.687,26.5,off
