TIME,INSIDE_TEMPERATURE,OUTSIDE_TEMPERATURE,LIGHTS_STATE

09/14/2017 12:06:25,27.062,23.5,off
09/14/2017 12:06:37,27.062,23.562,off
09/14/2017 12:06:49,27.062,23.562,off
09/14/2017 12:07:00,27.062,23.562,off
