TIME,INSIDE_TEMPERATURE,OUTSIDE_TEMPERATURE,LIGHTS_STATE

02/11/2017 12:52:25,22.875,20.437,off
02/11/2017 12:52:37,22.875,20.5,off
02/11/2017 12:52:48,22.875,20.5,off
02/11/2017 12:53:00,22.875,20.5,off
