TIME,INSIDE_TEMPERATURE,OUTSIDE_TEMPERATURE,LIGHTS_STATE

04/05/2017 12:31:25,27.875,25.875,off
04/05/2017 12:31:37,27.875,25.875,off
04/05/2017 12:31:49,27.875,25.812,off
04/05/2017 12:32:00,27.875,25.75,off
