TIME,INSIDE_TEMPERATURE,OUTSIDE_TEMPERATURE,LIGHTS_STATE

02/10/2018 12:53:25,26.875,25.0,off
02/10/2018 12:53:37,27.187,24.937,off
02/10/2018 12:53:49,27.25,24.937,off
02/10/2018 12:54:00,27.375,24.875,off
