TIME,INSIDE_TEMPERATURE,OUTSIDE_TEMPERATURE,LIGHTS_STATE

09/11/2017 12:10:25,34.5,31.875,off
09/11/2017 12:10:37,34.437,31.875,off
09/11/2017 12:10:48,34.5,31.875,off
09/11/2017 12:11:00,34.5,31.875,off
