TIME,INSIDE_TEMPERATURE,OUTSIDE_TEMPERATURE,LIGHTS_STATE

01/16/2017 12:27:25,19.375,14.687,off
01/16/2017 12:27:37,19.375,14.75,off
01/16/2017 12:27:48,19.375,14.75,off
01/16/2017 12:28:00,19.375,14.75,off
