TIME,INSIDE_TEMPERATURE,OUTSIDE_TEMPERATURE,LIGHTS_STATE

03/12/2018 12:25:25,26.812,35.5,off
03/12/2018 12:25:38,26.875,35.812,off
03/12/2018 12:25:49,26.875,36.125,off
03/12/2018 12:26:01,26.875,36.187,off
