TIME,INSIDE_TEMPERATURE,OUTSIDE_TEMPERATURE,LIGHTS_STATE

11/23/2016 12:05:25,23.625,17.812,off
11/23/2016 12:05:36,23.625,17.812,off
11/23/2016 12:05:48,23.625,17.812,off
11/23/2016 12:06:00,23.625,17.812,off
