TIME,INSIDE_TEMPERATURE,OUTSIDE_TEMPERATURE,LIGHTS_STATE

01/31/2018 12:15:25,26.875,22.937,off
01/31/2018 12:15:37,26.875,22.937,off
01/31/2018 12:15:49,26.875,22.875,off
01/31/2018 12:16:01,26.875,22.75,off
