TIME,INSIDE_TEMPERATURE,OUTSIDE_TEMPERATURE,LIGHTS_STATE

07/24/2017 12:31:25,31.187,27.875,off
07/24/2017 12:31:37,31.187,27.875,off
07/24/2017 12:31:49,31.187,27.875,off
07/24/2017 12:32:00,31.187,27.875,off
