TIME,INSIDE_TEMPERATURE,OUTSIDE_TEMPERATURE,LIGHTS_STATE

07/23/2016 12:27:26,32.875,32.125,off
07/23/2016 12:27:37,32.875,32.125,off
07/23/2016 12:27:49,32.875,32.187,off
07/23/2016 12:28:01,32.937,32.125,off
