TIME,INSIDE_TEMPERATURE,OUTSIDE_TEMPERATURE,LIGHTS_STATE

01/03/2017 12:51:25,15.187,12.0,off
01/03/2017 12:51:36,15.187,12.062,off
01/03/2017 12:51:48,15.25,12.062,off
01/03/2017 12:52:00,15.25,12.062,off
