TIME,INSIDE_TEMPERATURE,OUTSIDE_TEMPERATURE,LIGHTS_STATE

10/04/2017 12:30:25,28.937,28.25,off
10/04/2017 12:30:37,28.937,28.25,off
10/04/2017 12:30:49,28.937,28.187,off
10/04/2017 12:31:01,28.937,28.062,off
