TIME,INSIDE_TEMPERATURE,OUTSIDE_TEMPERATURE,LIGHTS_STATE

02/08/2018 12:22:26,29.375,43.937,off
02/08/2018 12:22:37,29.312,44.0,off
02/08/2018 12:22:49,29.375,44.062,off
02/08/2018 12:23:01,29.312,44.187,off
