TIME,INSIDE_TEMPERATURE,OUTSIDE_TEMPERATURE,LIGHTS_STATE

12/02/2016 12:42:25,22.187,19.0,off
12/02/2016 12:42:36,22.187,19.0,off
12/02/2016 12:42:48,22.187,19.062,off
12/02/2016 12:43:00,22.187,19.125,off
