TIME,INSIDE_TEMPERATURE,OUTSIDE_TEMPERATURE,LIGHTS_STATE

04/04/2017 12:11:25,23.875,21.562,off
04/04/2017 12:11:36,23.875,21.625,off
04/04/2017 12:11:48,23.875,21.562,off
04/04/2017 12:12:00,23.875,21.5,off
