TIME,INSIDE_TEMPERATURE,OUTSIDE_TEMPERATURE,LIGHTS_STATE

09/07/2017 12:21:25,29.187,26.562,off
09/07/2017 12:21:37,29.25,26.562,off
09/07/2017 12:21:49,29.25,26.562,off
09/07/2017 12:22:01,29.25,26.5,off
