TIME,INSIDE_TEMPERATURE,OUTSIDE_TEMPERATURE,LIGHTS_STATE

12/24/2017 12:50:25,16.625,11.5,off
12/24/2017 12:50:37,16.625,11.5,off
12/24/2017 12:50:49,16.625,11.5,off
12/24/2017 12:51:00,16.625,11.5,off
