TIME,INSIDE_TEMPERATURE,OUTSIDE_TEMPERATURE,LIGHTS_STATE

01/07/2018 12:01:25,18.687,13.187,off
01/07/2018 12:01:37,18.687,13.25,off
01/07/2018 12:01:49,18.687,13.25,off
01/07/2018 12:02:01,18.687,13.25,off
