TIME,INSIDE_TEMPERATURE,OUTSIDE_TEMPERATURE,LIGHTS_STATE

05/01/2017 12:48:25,29.5,28.562,off
05/01/2017 12:48:36,29.5,28.562,off
05/01/2017 12:48:48,29.5,28.562,off
05/01/2017 12:49:00,29.5,28.562,off
