TIME,INSIDE_TEMPERATURE,OUTSIDE_TEMPERATURE,LIGHTS_STATE

06/20/2017 12:11:25,35.437,32.5,off
06/20/2017 12:11:37,35.437,32.562,off
06/20/2017 12:11:48,35.437,32.625,off
06/20/2017 12:12:00,35.437,32.687,off
