TIME,INSIDE_TEMPERATURE,OUTSIDE_TEMPERATURE,LIGHTS_STATE

08/03/2017 12:10:25,37.687,37.687,off
08/03/2017 12:10:37,37.687,37.687,off
08/03/2017 12:10:49,37.687,37.75,off
08/03/2017 12:11:01,37.687,37.687,off
