TIME,INSIDE_TEMPERATURE,OUTSIDE_TEMPERATURE,LIGHTS_STATE

04/11/2017 12:20:25,25.25,21.625,off
04/11/2017 12:20:36,25.25,21.75,off
04/11/2017 12:20:48,25.25,21.75,off
04/11/2017 12:21:00,25.25,21.75,off
