TIME,INSIDE_TEMPERATURE,OUTSIDE_TEMPERATURE,LIGHTS_STATE

07/08/2017 12:00:25,38.375,34.062,off
07/08/2017 12:00:38,38.375,34.062,off
07/08/2017 12:00:50,38.375,34.062,off
07/08/2017 12:01:01,38.375,34.062,off
