TIME,INSIDE_TEMPERATURE,OUTSIDE_TEMPERATURE,LIGHTS_STATE

01/19/2017 12:54:25,19.687,14.437,off
01/19/2017 12:54:36,19.625,14.437,off
01/19/2017 12:54:48,19.625,14.437,off
01/19/2017 12:55:00,19.625,14.437,off
