TIME,INSIDE_TEMPERATURE,OUTSIDE_TEMPERATURE,LIGHTS_STATE

11/02/2017 12:20:25,27.375,25.125,off
11/02/2017 12:20:37,27.375,25.25,off
11/02/2017 12:20:48,27.312,25.375,off
11/02/2017 12:21:00,27.312,25.5,off
