TIME,INSIDE_TEMPERATURE,OUTSIDE_TEMPERATURE,LIGHTS_STATE

03/19/2018 12:32:26,19.5,16.937,off
03/19/2018 12:32:37,19.5,16.937,off
03/19/2018 12:32:49,19.5,16.812,off
03/19/2018 12:33:01,19.5,16.812,off
