TIME,INSIDE_TEMPERATURE,OUTSIDE_TEMPERATURE,LIGHTS_STATE

09/06/2017 12:33:26,33.562,31.5,off
09/06/2017 12:33:37,33.562,31.5,off
09/06/2017 12:33:49,33.625,31.5,off
09/06/2017 12:34:01,33.625,31.562,off
