TIME,INSIDE_TEMPERATURE,OUTSIDE_TEMPERATURE,LIGHTS_STATE

12/31/2017 12:39:26,22.0,19.687,off
12/31/2017 12:39:37,22.0,19.562,off
12/31/2017 12:39:49,21.937,19.5,off
12/31/2017 12:40:01,22.0,19.5,off
