TIME,INSIDE_TEMPERATURE,OUTSIDE_TEMPERATURE,LIGHTS_STATE

02/15/2018 12:40:25,25.187,27.75,off
02/15/2018 12:40:37,25.187,27.5,off
02/15/2018 12:40:49,25.187,27.625,off
02/15/2018 12:41:01,25.187,27.75,off
