TIME,INSIDE_TEMPERATURE,OUTSIDE_TEMPERATURE,LIGHTS_STATE

02/10/2017 12:51:25,20.5,16.312,off
02/10/2017 12:51:37,20.562,16.25,off
02/10/2017 12:51:49,20.562,16.25,off
02/10/2017 12:52:00,20.562,16.187,off
