TIME,INSIDE_TEMPERATURE,OUTSIDE_TEMPERATURE,LIGHTS_STATE

07/17/2016 12:32:25,26.062,26.125,off
07/17/2016 12:32:37,26.125,26.125,off
07/17/2016 12:32:49,26.125,26.125,off
07/17/2016 12:33:00,26.125,26.125,off
