TIME,INSIDE_TEMPERATURE,OUTSIDE_TEMPERATURE,LIGHTS_STATE

03/31/2017 12:37:25,22.25,18.937,off
03/31/2017 12:37:38,22.25,19.0,off
03/31/2017 12:37:49,22.25,18.875,off
03/31/2017 12:38:01,22.25,18.812,off
