TIME,INSIDE_TEMPERATURE,OUTSIDE_TEMPERATURE,LIGHTS_STATE

04/23/2017 12:20:25,21.812,19.0,off
04/23/2017 12:20:36,21.812,18.937,off
04/23/2017 12:20:48,21.812,18.937,off
04/23/2017 12:21:00,21.812,18.937,off
