TIME,INSIDE_TEMPERATURE,OUTSIDE_TEMPERATURE,LIGHTS_STATE

09/26/2017 12:12:26,31.187,28.937,off
09/26/2017 12:12:37,31.25,28.937,off
09/26/2017 12:12:49,31.25,29.0,off
09/26/2017 12:13:01,31.312,29.0,off
