TIME,INSIDE_TEMPERATURE,OUTSIDE_TEMPERATURE,LIGHTS_STATE

07/27/2017 12:37:25,33.437,30.437,off
07/27/2017 12:37:37,33.5,30.437,off
07/27/2017 12:37:49,33.5,30.437,off
07/27/2017 12:38:01,33.5,30.375,off
