TIME,INSIDE_TEMPERATURE,OUTSIDE_TEMPERATURE,LIGHTS_STATE

02/09/2018 12:57:25,31.437,30.062,off
02/09/2018 12:57:37,31.437,30.062,off
02/09/2018 12:57:49,31.437,30.25,off
02/09/2018 12:58:01,31.5,30.25,off
