TIME,INSIDE_TEMPERATURE,OUTSIDE_TEMPERATURE,LIGHTS_STATE

12/25/2016 12:57:24,18.062,18.562,off
12/25/2016 12:57:36,18.062,18.562,off
12/25/2016 12:57:48,18.062,18.625,off
12/25/2016 12:57:59,18.0,18.437,off
