TIME,INSIDE_TEMPERATURE,OUTSIDE_TEMPERATURE,LIGHTS_STATE

08/09/2017 12:25:26,27.312,24.25,off
08/09/2017 12:25:37,27.312,24.312,off
08/09/2017 12:25:49,27.312,24.312,off
08/09/2017 12:26:01,27.312,24.312,off
