TIME,INSIDE_TEMPERATURE,OUTSIDE_TEMPERATURE,LIGHTS_STATE

05/04/2017 12:25:25,31.25,28.562,off
05/04/2017 12:25:37,31.25,28.562,off
05/04/2017 12:25:48,31.187,28.562,off
05/04/2017 12:26:00,31.187,28.562,off
