TIME,INSIDE_TEMPERATURE,OUTSIDE_TEMPERATURE,LIGHTS_STATE

05/15/2017 12:09:25,21.937,19.187,off
05/15/2017 12:09:36,21.937,19.187,off
05/15/2017 12:09:48,21.937,19.125,off
05/15/2017 12:10:00,21.937,19.062,off
