TIME,INSIDE_TEMPERATURE,OUTSIDE_TEMPERATURE,LIGHTS_STATE

01/20/2017 12:47:24,14.687,8.062,off
01/20/2017 12:47:36,14.687,8.062,off
01/20/2017 12:47:48,14.687,8.062,off
01/20/2017 12:47:59,14.687,8.062,off
