TIME,INSIDE_TEMPERATURE,OUTSIDE_TEMPERATURE,LIGHTS_STATE

04/03/2017 12:41:25,23.937,21.75,off
04/03/2017 12:41:37,23.937,21.75,off
04/03/2017 12:41:48,23.937,21.812,off
04/03/2017 12:42:00,23.937,21.812,off
