TIME,INSIDE_TEMPERATURE,OUTSIDE_TEMPERATURE,LIGHTS_STATE

10/30/2016 12:35:25,20.187,18.187,off
10/30/2016 12:35:36,20.187,18.125,off
10/30/2016 12:35:48,20.187,18.062,off
10/30/2016 12:36:00,20.25,18.0,off
