TIME,INSIDE_TEMPERATURE,OUTSIDE_TEMPERATURE,LIGHTS_STATE

08/06/2016 12:54:26,25.437,25.312,off
08/06/2016 12:54:38,25.437,25.375,off
08/06/2016 12:54:50,25.437,25.312,off
08/06/2016 12:55:02,25.5,25.25,off
