TIME,INSIDE_TEMPERATURE,OUTSIDE_TEMPERATURE,LIGHTS_STATE

02/13/2018 12:34:25,23.375,25.312,off
02/13/2018 12:34:37,23.375,25.0,off
02/13/2018 12:34:49,23.375,24.687,off
02/13/2018 12:35:01,23.375,24.437,off
