TIME,INSIDE_TEMPERATURE,OUTSIDE_TEMPERATURE,LIGHTS_STATE

12/25/2016 12:35:25,18.687,15.75,off
12/25/2016 12:35:37,18.687,15.75,off
12/25/2016 12:35:48,18.687,15.875,off
12/25/2016 12:36:00,18.687,15.875,off
