TIME,INSIDE_TEMPERATURE,OUTSIDE_TEMPERATURE,LIGHTS_STATE

05/03/2017 12:58:25,33.25,31.187,off
05/03/2017 12:58:36,33.25,31.25,off
05/03/2017 12:58:48,33.25,31.312,off
05/03/2017 12:59:00,33.312,31.375,off
