TIME,INSIDE_TEMPERATURE,OUTSIDE_TEMPERATURE,LIGHTS_STATE

10/20/2017 12:28:25,24.687,17.812,off
10/20/2017 12:28:37,24.75,18.0,off
10/20/2017 12:28:49,24.687,18.25,off
10/20/2017 12:29:01,24.687,18.437,off
