TIME,INSIDE_TEMPERATURE,OUTSIDE_TEMPERATURE,LIGHTS_STATE

12/23/2016 12:58:25,14.312,10.312,off
12/23/2016 12:58:37,14.312,10.375,off
12/23/2016 12:58:50,14.312,10.375,off
12/23/2016 12:59:02,14.312,10.375,off
