TIME,INSIDE_TEMPERATURE,OUTSIDE_TEMPERATURE,LIGHTS_STATE

05/20/2017 12:47:26,30.687,29.562,off
05/20/2017 12:47:37,30.687,29.625,off
05/20/2017 12:47:49,30.687,29.687,off
05/20/2017 12:48:01,30.75,29.687,off
