TIME,INSIDE_TEMPERATURE,OUTSIDE_TEMPERATURE,LIGHTS_STATE

09/26/2017 12:40:25,32.312,29.812,off
09/26/2017 12:40:37,32.125,29.75,off
09/26/2017 12:40:49,31.937,29.687,off
09/26/2017 12:41:00,32.125,29.687,off
