TIME,INSIDE_TEMPERATURE,OUTSIDE_TEMPERATURE,LIGHTS_STATE

01/26/2018 12:41:26,22.125,21.437,off
01/26/2018 12:41:37,22.125,21.5,off
01/26/2018 12:41:49,22.125,21.437,off
01/26/2018 12:42:01,22.125,21.375,off
