TIME,INSIDE_TEMPERATURE,OUTSIDE_TEMPERATURE,LIGHTS_STATE

02/09/2018 12:13:26,30.937,34.0,off
02/09/2018 12:13:37,30.937,34.125,off
02/09/2018 12:13:49,31.0,34.187,off
02/09/2018 12:14:01,31.0,34.25,off
