TIME,INSIDE_TEMPERATURE,OUTSIDE_TEMPERATURE,LIGHTS_STATE

04/12/2017 12:03:25,20.437,16.0,off
04/12/2017 12:03:37,20.437,16.0,off
04/12/2017 12:03:48,20.437,16.062,off
04/12/2017 12:04:00,20.5,16.0,off
