TIME,INSIDE_TEMPERATURE,OUTSIDE_TEMPERATURE,LIGHTS_STATE

03/19/2017 12:53:25,24.75,22.5,off
03/19/2017 12:53:37,24.812,22.562,off
03/19/2017 12:53:48,24.812,22.562,off
03/19/2017 12:54:00,24.812,22.625,off
