TIME,INSIDE_TEMPERATURE,OUTSIDE_TEMPERATURE,LIGHTS_STATE

04/07/2017 12:53:25,21.25,16.937,off
04/07/2017 12:53:37,21.25,17.0,off
04/07/2017 12:53:49,21.25,17.062,off
04/07/2017 12:54:00,21.312,17.062,off
