TIME,INSIDE_TEMPERATURE,OUTSIDE_TEMPERATURE,LIGHTS_STATE

11/12/2016 12:36:25,31.5,33.875,off
11/12/2016 12:36:36,31.5,34.0,off
11/12/2016 12:36:48,31.5,33.875,off
11/12/2016 12:37:00,31.5,33.875,off
