TIME,INSIDE_TEMPERATURE,OUTSIDE_TEMPERATURE,LIGHTS_STATE

09/18/2017 12:28:25,30.187,26.687,off
09/18/2017 12:28:37,30.25,26.687,off
09/18/2017 12:28:49,30.25,26.625,off
09/18/2017 12:29:01,30.25,26.625,off
