TIME,INSIDE_TEMPERATURE,OUTSIDE_TEMPERATURE,LIGHTS_STATE

10/26/2016 12:44:25,32.25,36.687,off
10/26/2016 12:44:38,32.25,36.5,off
10/26/2016 12:44:49,32.187,36.5,off
10/26/2016 12:45:01,32.187,36.25,off
