TIME,INSIDE_TEMPERATURE,OUTSIDE_TEMPERATURE,LIGHTS_STATE

09/20/2016 12:49:26,33.125,33.0,off
09/20/2016 12:49:37,33.125,33.0,off
09/20/2016 12:49:49,33.187,33.062,off
09/20/2016 12:50:01,33.187,33.062,off
