TIME,INSIDE_TEMPERATURE,OUTSIDE_TEMPERATURE,LIGHTS_STATE

04/09/2017 12:23:25,19.437,16.187,off
04/09/2017 12:23:37,19.437,16.25,off
04/09/2017 12:23:48,19.437,16.312,off
04/09/2017 12:24:00,19.437,16.312,off
