TIME,INSIDE_TEMPERATURE,OUTSIDE_TEMPERATURE,LIGHTS_STATE

07/25/2016 12:46:25,31.5,31.187,off
07/25/2016 12:46:37,31.5,31.187,off
07/25/2016 12:46:49,31.562,31.187,off
07/25/2016 12:47:00,31.562,31.187,off
