TIME,INSIDE_TEMPERATURE,OUTSIDE_TEMPERATURE,LIGHTS_STATE

05/05/2017 12:06:26,22.312,19.687,off
05/05/2017 12:06:38,22.375,19.687,off
05/05/2017 12:06:49,22.375,19.687,off
05/05/2017 12:07:01,22.375,19.75,off
