TIME,INSIDE_TEMPERATURE,OUTSIDE_TEMPERATURE,LIGHTS_STATE

07/02/2016 12:20:25,29.0,28.75,off
07/02/2016 12:20:37,29.062,28.812,off
07/02/2016 12:20:48,29.062,28.75,off
07/02/2016 12:21:00,29.062,28.812,off
