TIME,INSIDE_TEMPERATURE,OUTSIDE_TEMPERATURE,LIGHTS_STATE

07/17/2016 12:53:25,26.5,26.062,off
07/17/2016 12:53:36,26.5,26.062,off
07/17/2016 12:53:48,26.5,26.062,off
07/17/2016 12:54:00,26.5,26.125,off
