TIME,INSIDE_TEMPERATURE,OUTSIDE_TEMPERATURE,LIGHTS_STATE

10/01/2017 12:21:25,29.5,27.687,off
10/01/2017 12:21:37,29.562,27.75,off
10/01/2017 12:21:49,29.562,27.75,off
10/01/2017 12:22:00,29.562,27.75,off
