TIME,INSIDE_TEMPERATURE,OUTSIDE_TEMPERATURE,LIGHTS_STATE

02/21/2017 12:46:26,23.187,21.125,off
02/21/2017 12:46:37,23.187,21.437,off
02/21/2017 12:46:49,23.187,21.75,off
02/21/2017 12:47:01,23.25,22.062,off
