TIME,INSIDE_TEMPERATURE,OUTSIDE_TEMPERATURE,LIGHTS_STATE

11/29/2016 12:21:25,21.875,18.437,off
11/29/2016 12:21:37,21.875,18.625,off
11/29/2016 12:21:49,21.875,18.687,off
11/29/2016 12:22:00,21.937,18.687,off
