TIME,INSIDE_TEMPERATURE,OUTSIDE_TEMPERATURE,LIGHTS_STATE

02/24/2018 12:10:25,21.75,21.375,off
02/24/2018 12:10:37,21.75,21.375,off
02/24/2018 12:10:49,21.75,21.375,off
02/24/2018 12:11:01,21.75,21.375,off
