TIME,INSIDE_TEMPERATURE,OUTSIDE_TEMPERATURE,LIGHTS_STATE

03/27/2017 12:52:25,22.562,18.687,off
03/27/2017 12:52:36,22.562,18.625,off
03/27/2017 12:52:48,22.562,18.562,off
03/27/2017 12:53:00,22.562,18.5,off
