TIME,INSIDE_TEMPERATURE,OUTSIDE_TEMPERATURE,LIGHTS_STATE

12/30/2016 12:45:25,17.375,15.25,off
12/30/2016 12:45:37,17.375,15.25,off
12/30/2016 12:45:48,17.375,15.25,off
12/30/2016 12:46:00,17.375,15.312,off
