TIME,INSIDE_TEMPERATURE,OUTSIDE_TEMPERATURE,LIGHTS_STATE

05/10/2017 12:46:26,24.125,21.25,off
05/10/2017 12:46:37,24.125,21.187,off
05/10/2017 12:46:49,24.0,21.125,off
05/10/2017 12:47:01,23.875,21.062,off
