TIME,INSIDE_TEMPERATURE,OUTSIDE_TEMPERATURE,LIGHTS_STATE

02/20/2018 12:10:25,19.0,18.937,off
02/20/2018 12:10:36,19.0,19.187,off
02/20/2018 12:10:48,19.0,19.437,off
02/20/2018 12:11:00,19.0,19.687,off
