TIME,INSIDE_TEMPERATURE,OUTSIDE_TEMPERATURE,LIGHTS_STATE

04/22/2017 12:52:26,26.437,23.812,off
04/22/2017 12:52:37,26.437,23.875,off
04/22/2017 12:52:49,26.437,23.937,off
04/22/2017 12:53:01,26.5,23.937,off
