TIME,INSIDE_TEMPERATURE,OUTSIDE_TEMPERATURE,LIGHTS_STATE

06/23/2017 12:35:25,32.937,30.562,off
06/23/2017 12:35:38,32.937,30.625,off
06/23/2017 12:35:49,32.937,30.687,off
06/23/2017 12:36:01,32.937,30.75,off
