TIME,INSIDE_TEMPERATURE,OUTSIDE_TEMPERATURE,LIGHTS_STATE

03/28/2017 12:38:25,23.062,21.0,off
03/28/2017 12:38:38,23.062,20.937,off
03/28/2017 12:38:50,23.062,20.937,off
03/28/2017 12:39:01,23.062,20.937,off
