TIME,INSIDE_TEMPERATURE,OUTSIDE_TEMPERATURE,LIGHTS_STATE

02/27/2018 12:05:25,20.562,21.312,off
02/27/2018 12:05:37,20.562,21.625,off
02/27/2018 12:05:50,20.562,21.875,off
02/27/2018 12:06:02,20.562,22.062,off
