TIME,INSIDE_TEMPERATURE,OUTSIDE_TEMPERATURE,LIGHTS_STATE

01/09/2018 12:42:26,20.312,14.25,off
01/09/2018 12:42:37,20.312,14.187,off
01/09/2018 12:42:49,20.312,14.125,off
01/09/2018 12:43:01,20.312,14.125,off
