TIME,INSIDE_TEMPERATURE,OUTSIDE_TEMPERATURE,LIGHTS_STATE

10/17/2017 12:57:25,30.875,28.437,off
10/17/2017 12:57:37,30.875,28.437,off
10/17/2017 12:57:48,30.875,28.375,off
10/17/2017 12:58:00,30.875,28.375,off
