TIME,INSIDE_TEMPERATURE,OUTSIDE_TEMPERATURE,LIGHTS_STATE

01/14/2018 12:55:25,19.25,13.25,off
01/14/2018 12:55:37,19.25,13.187,off
01/14/2018 12:55:48,19.25,13.125,off
01/14/2018 12:56:00,19.25,13.062,off
