TIME,INSIDE_TEMPERATURE,OUTSIDE_TEMPERATURE,LIGHTS_STATE

03/06/2017 12:09:26,20.312,16.5,off
03/06/2017 12:09:37,20.312,16.375,off
03/06/2017 12:09:49,20.25,16.25,off
03/06/2017 12:10:01,20.25,16.062,off
