TIME,INSIDE_TEMPERATURE,OUTSIDE_TEMPERATURE,LIGHTS_STATE

08/02/2016 12:41:26,28.687,28.687,off
08/02/2016 12:41:37,28.75,28.687,off
08/02/2016 12:41:49,28.687,28.687,off
08/02/2016 12:42:01,28.75,28.687,off
