TIME,INSIDE_TEMPERATURE,OUTSIDE_TEMPERATURE,LIGHTS_STATE

04/19/2017 12:11:25,22.812,20.375,off
04/19/2017 12:11:37,22.812,20.375,off
04/19/2017 12:11:49,22.812,20.25,off
04/19/2017 12:12:00,22.812,20.25,off
