TIME,INSIDE_TEMPERATURE,OUTSIDE_TEMPERATURE,LIGHTS_STATE

04/23/2017 12:24:25,21.812,18.625,off
04/23/2017 12:24:36,21.75,18.687,off
04/23/2017 12:24:48,21.812,18.687,off
04/23/2017 12:25:00,21.875,18.687,off
