TIME,INSIDE_TEMPERATURE,OUTSIDE_TEMPERATURE,LIGHTS_STATE

03/04/2018 12:35:25,20.687,36.187,off
03/04/2018 12:35:37,20.687,35.937,off
03/04/2018 12:35:49,20.687,36.25,off
03/04/2018 12:36:01,20.687,36.437,off
