TIME,INSIDE_TEMPERATURE,OUTSIDE_TEMPERATURE,LIGHTS_STATE

05/11/2017 12:20:25,23.25,19.875,off
05/11/2017 12:20:37,23.312,19.937,off
05/11/2017 12:20:48,23.312,19.937,off
05/11/2017 12:21:00,23.312,19.875,off
