TIME,INSIDE_TEMPERATURE,OUTSIDE_TEMPERATURE,LIGHTS_STATE

01/28/2018 12:21:25,24.812,20.25,off
01/28/2018 12:21:37,24.812,20.25,off
01/28/2018 12:21:48,24.812,20.312,off
01/28/2018 12:22:00,24.812,20.375,off
