TIME,INSIDE_TEMPERATURE,OUTSIDE_TEMPERATURE,LIGHTS_STATE

05/10/2017 12:15:25,23.25,20.875,off
05/10/2017 12:15:37,23.312,20.937,off
05/10/2017 12:15:48,23.375,21.0,off
05/10/2017 12:16:00,23.375,21.0,off
