TIME,INSIDE_TEMPERATURE,OUTSIDE_TEMPERATURE,LIGHTS_STATE

03/30/2017 12:21:25,22.187,18.5,off
03/30/2017 12:21:37,22.187,18.437,off
03/30/2017 12:21:49,22.187,18.375,off
03/30/2017 12:22:00,22.187,18.312,off
