TIME,INSIDE_TEMPERATURE,OUTSIDE_TEMPERATURE,LIGHTS_STATE

03/27/2018 12:03:25,21.687,16.75,off
03/27/2018 12:03:37,21.687,16.812,off
03/27/2018 12:03:48,21.687,16.812,off
03/27/2018 12:04:00,21.687,16.812,off
