TIME,INSIDE_TEMPERATURE,OUTSIDE_TEMPERATURE,LIGHTS_STATE

03/04/2018 12:03:26,20.25,30.0,off
03/04/2018 12:03:37,20.187,30.375,off
03/04/2018 12:03:49,20.187,30.812,off
03/04/2018 12:04:01,20.25,31.375,off
