TIME,INSIDE_TEMPERATURE,OUTSIDE_TEMPERATURE,LIGHTS_STATE

06/12/2017 12:15:25,22.812,18.5,off
06/12/2017 12:15:37,22.812,18.5,off
06/12/2017 12:15:49,22.625,18.375,off
06/12/2017 12:16:00,22.75,18.375,off
