TIME,INSIDE_TEMPERATURE,OUTSIDE_TEMPERATURE,LIGHTS_STATE

06/25/2016 12:38:25,31.25,32.687,off
06/25/2016 12:38:36,31.25,32.687,off
06/25/2016 12:38:48,31.25,32.687,off
06/25/2016 12:39:00,31.312,32.687,off
