TIME,INSIDE_TEMPERATURE,OUTSIDE_TEMPERATURE,LIGHTS_STATE

02/17/2017 12:41:26,18.312,14.812,off
02/17/2017 12:41:38,18.375,14.812,off
02/17/2017 12:41:49,18.375,14.812,off
02/17/2017 12:42:01,18.375,14.875,off
