TIME,INSIDE_TEMPERATURE,OUTSIDE_TEMPERATURE,LIGHTS_STATE

03/27/2017 12:21:25,21.687,17.875,off
03/27/2017 12:21:37,21.75,17.812,off
03/27/2017 12:21:48,21.75,17.75,off
03/27/2017 12:22:00,21.75,17.687,off
