TIME,INSIDE_TEMPERATURE,OUTSIDE_TEMPERATURE,LIGHTS_STATE

08/11/2017 12:42:25,29.125,26.812,off
08/11/2017 12:42:36,29.187,26.812,off
08/11/2017 12:42:48,29.187,26.812,off
08/11/2017 12:43:00,29.187,26.812,off
