TIME,INSIDE_TEMPERATURE,OUTSIDE_TEMPERATURE,LIGHTS_STATE

08/31/2017 12:05:25,33.687,33.5,off
08/31/2017 12:05:37,33.687,33.437,off
08/31/2017 12:05:49,33.687,33.437,off
08/31/2017 12:06:00,33.75,33.437,off
