TIME,INSIDE_TEMPERATURE,OUTSIDE_TEMPERATURE,LIGHTS_STATE

08/23/2017 12:08:26,29.5,27.312,off
08/23/2017 12:08:37,29.5,27.375,off
08/23/2017 12:08:49,29.5,27.437,off
08/23/2017 12:09:01,29.562,27.5,off
