TIME,INSIDE_TEMPERATURE,OUTSIDE_TEMPERATURE,LIGHTS_STATE

02/20/2018 12:13:25,19.062,26.562,off
02/20/2018 12:13:37,19.062,27.0,off
02/20/2018 12:13:49,19.062,27.437,off
02/20/2018 12:14:01,19.125,27.875,off
