TIME,INSIDE_TEMPERATURE,OUTSIDE_TEMPERATURE,LIGHTS_STATE

08/24/2017 12:06:25,28.0,25.187,off
08/24/2017 12:06:37,28.0,25.25,off
08/24/2017 12:06:49,28.0,25.187,off
08/24/2017 12:07:00,28.062,25.125,off
