TIME,INSIDE_TEMPERATURE,OUTSIDE_TEMPERATURE,LIGHTS_STATE

08/09/2017 12:38:26,27.562,24.687,off
08/09/2017 12:38:38,27.562,24.687,off
08/09/2017 12:38:49,27.625,24.687,off
08/09/2017 12:39:02,27.687,24.687,off
