TIME,INSIDE_TEMPERATURE,OUTSIDE_TEMPERATURE,LIGHTS_STATE

11/11/2016 12:13:25,27.375,24.312,off
11/11/2016 12:13:36,27.375,24.25,off
11/11/2016 12:13:48,27.437,24.25,off
11/11/2016 12:14:00,27.437,24.25,off
