TIME,INSIDE_TEMPERATURE,OUTSIDE_TEMPERATURE,LIGHTS_STATE

03/12/2017 12:21:26,26.625,24.187,off
03/12/2017 12:21:37,26.625,24.375,off
03/12/2017 12:21:49,26.687,24.5,off
03/12/2017 12:22:01,26.75,24.625,off
