TIME,INSIDE_TEMPERATURE,OUTSIDE_TEMPERATURE,LIGHTS_STATE

02/17/2018 12:47:25,27.687,25.875,off
02/17/2018 12:47:37,27.687,26.062,off
02/17/2018 12:47:49,27.687,26.187,off
02/17/2018 12:48:00,27.687,26.312,off
