TIME,INSIDE_TEMPERATURE,OUTSIDE_TEMPERATURE,LIGHTS_STATE

04/18/2017 12:13:25,22.875,18.187,off
04/18/2017 12:13:37,22.937,18.25,off
04/18/2017 12:13:49,22.937,18.25,off
04/18/2017 12:14:00,22.937,18.312,off
