TIME,INSIDE_TEMPERATURE,OUTSIDE_TEMPERATURE,LIGHTS_STATE

06/24/2016 12:34:25,26.25,26.5,off
06/24/2016 12:34:37,26.25,26.437,off
06/24/2016 12:34:48,26.25,26.437,off
06/24/2016 12:35:00,26.25,26.437,off
