TIME,INSIDE_TEMPERATURE,OUTSIDE_TEMPERATURE,LIGHTS_STATE

04/23/2017 12:01:25,21.937,19.187,off
04/23/2017 12:01:37,21.937,19.187,off
04/23/2017 12:01:49,21.937,19.125,off
04/23/2017 12:02:00,22.0,19.187,off
