TIME,INSIDE_TEMPERATURE,OUTSIDE_TEMPERATURE,LIGHTS_STATE

04/07/2017 12:49:25,21.25,16.75,off
04/07/2017 12:49:37,21.25,16.75,off
04/07/2017 12:49:49,21.25,16.75,off
04/07/2017 12:50:00,21.25,16.687,off
