TIME,INSIDE_TEMPERATURE,OUTSIDE_TEMPERATURE,LIGHTS_STATE

08/05/2016 12:24:26,24.812,24.687,off
08/05/2016 12:24:38,24.812,24.75,off
08/05/2016 12:24:50,24.812,24.687,off
08/05/2016 12:25:01,24.812,24.687,off
