TIME,INSIDE_TEMPERATURE,OUTSIDE_TEMPERATURE,LIGHTS_STATE

01/09/2018 12:10:26,20.375,14.562,off
01/09/2018 12:10:37,20.375,14.562,off
01/09/2018 12:10:49,20.375,14.562,off
01/09/2018 12:11:01,20.375,14.625,off
