TIME,INSIDE_TEMPERATURE,OUTSIDE_TEMPERATURE,LIGHTS_STATE

05/19/2017 12:18:25,27.687,26.812,off
05/19/2017 12:18:37,27.687,26.812,off
05/19/2017 12:18:49,27.75,26.812,off
05/19/2017 12:19:00,27.75,26.812,off
