TIME,INSIDE_TEMPERATURE,OUTSIDE_TEMPERATURE,LIGHTS_STATE

05/22/2017 12:52:26,32.125,30.062,off
05/22/2017 12:52:37,32.125,30.062,off
05/22/2017 12:52:49,32.125,30.0,off
05/22/2017 12:53:01,32.125,29.937,off
