TIME,INSIDE_TEMPERATURE,OUTSIDE_TEMPERATURE,LIGHTS_STATE

10/06/2017 12:48:25,31.875,29.875,off
10/06/2017 12:48:37,31.875,29.875,off
10/06/2017 12:48:49,31.75,29.875,off
10/06/2017 12:49:01,31.812,29.875,off
