TIME,INSIDE_TEMPERATURE,OUTSIDE_TEMPERATURE,LIGHTS_STATE

01/12/2018 12:50:25,21.25,22.375,off
01/12/2018 12:50:37,21.25,22.25,off
01/12/2018 12:50:49,21.25,22.125,off
01/12/2018 12:51:00,21.25,21.875,off
