TIME,INSIDE_TEMPERATURE,OUTSIDE_TEMPERATURE,LIGHTS_STATE

12/16/2016 12:23:26,17.812,14.312,off
12/16/2016 12:23:37,17.812,14.25,off
12/16/2016 12:23:49,17.812,14.312,off
12/16/2016 12:24:01,17.812,14.437,off
