TIME,INSIDE_TEMPERATURE,OUTSIDE_TEMPERATURE,LIGHTS_STATE

06/20/2017 12:53:25,36.812,33.875,off
06/20/2017 12:53:37,36.812,33.875,off
06/20/2017 12:53:48,36.812,33.875,off
06/20/2017 12:54:00,36.812,33.875,off
