TIME,INSIDE_TEMPERATURE,OUTSIDE_TEMPERATURE,LIGHTS_STATE

07/01/2016 12:11:25,27.625,26.937,off
07/01/2016 12:11:37,27.687,27.0,off
07/01/2016 12:11:49,27.687,27.0,off
07/01/2016 12:12:00,27.75,27.0,off
