TIME,INSIDE_TEMPERATURE,OUTSIDE_TEMPERATURE,LIGHTS_STATE

07/20/2017 12:02:25,28.937,26.125,off
07/20/2017 12:02:37,28.937,26.125,off
07/20/2017 12:02:49,28.937,26.125,off
07/20/2017 12:03:01,28.937,26.125,off
