TIME,INSIDE_TEMPERATURE,OUTSIDE_TEMPERATURE,LIGHTS_STATE

02/16/2018 12:47:26,25.687,41.125,off
02/16/2018 12:47:37,25.687,40.937,off
02/16/2018 12:47:49,25.687,40.937,off
02/16/2018 12:48:01,25.687,41.0,off
