TIME,INSIDE_TEMPERATURE,OUTSIDE_TEMPERATURE,LIGHTS_STATE

01/26/2018 12:34:26,22.187,21.062,off
01/26/2018 12:34:38,22.187,21.125,off
01/26/2018 12:34:49,22.187,21.125,off
01/26/2018 12:35:01,22.187,20.812,off
