TIME,INSIDE_TEMPERATURE,OUTSIDE_TEMPERATURE,LIGHTS_STATE

01/12/2018 12:43:25,21.062,20.437,off
01/12/2018 12:43:37,21.062,20.312,off
01/12/2018 12:43:49,21.062,20.5,off
01/12/2018 12:44:00,21.062,20.687,off
