TIME,INSIDE_TEMPERATURE,OUTSIDE_TEMPERATURE,LIGHTS_STATE

05/02/2017 12:05:25,30.937,29.062,off
05/02/2017 12:05:37,30.937,29.062,off
05/02/2017 12:05:49,30.937,29.062,off
05/02/2017 12:06:00,30.937,29.062,off
