TIME,INSIDE_TEMPERATURE,OUTSIDE_TEMPERATURE,LIGHTS_STATE

09/17/2016 12:01:25,28.562,33.937,off
09/17/2016 12:01:37,28.562,33.875,off
09/17/2016 12:01:48,28.562,33.875,off
09/17/2016 12:02:00,28.562,33.812,off
