TIME,INSIDE_TEMPERATURE,OUTSIDE_TEMPERATURE,LIGHTS_STATE

09/16/2016 12:50:25,27.5,28.312,off
09/16/2016 12:50:37,27.562,28.25,off
09/16/2016 12:50:49,27.562,28.375,off
09/16/2016 12:51:00,27.562,28.437,off
