TIME,INSIDE_TEMPERATURE,OUTSIDE_TEMPERATURE,LIGHTS_STATE

02/25/2018 12:55:26,23.375,23.75,off
02/25/2018 12:55:37,23.375,23.75,off
02/25/2018 12:55:49,23.375,23.625,off
02/25/2018 12:56:01,23.375,23.5,off
