TIME,INSIDE_TEMPERATURE,OUTSIDE_TEMPERATURE,LIGHTS_STATE

09/11/2016 12:14:25,27.187,26.375,off
09/11/2016 12:14:36,27.187,26.437,off
09/11/2016 12:14:48,27.187,26.5,off
09/11/2016 12:15:01,27.187,26.5,off
