TIME,INSIDE_TEMPERATURE,OUTSIDE_TEMPERATURE,LIGHTS_STATE

11/12/2016 12:28:25,31.5,34.187,off
11/12/2016 12:28:37,31.5,34.125,off
11/12/2016 12:28:49,31.5,34.375,off
11/12/2016 12:29:00,31.5,34.625,off
