TIME,INSIDE_TEMPERATURE,OUTSIDE_TEMPERATURE,LIGHTS_STATE

10/06/2017 12:25:25,31.625,29.687,off
10/06/2017 12:25:37,31.687,29.687,off
10/06/2017 12:25:49,31.687,29.687,off
10/06/2017 12:26:01,31.687,29.687,off
