TIME,INSIDE_TEMPERATURE,OUTSIDE_TEMPERATURE,LIGHTS_STATE

08/17/2017 12:43:25,31.187,28.562,off
08/17/2017 12:43:37,31.187,28.625,off
08/17/2017 12:43:49,31.25,28.75,off
08/17/2017 12:44:00,31.25,28.812,off
