TIME,INSIDE_TEMPERATURE,OUTSIDE_TEMPERATURE,LIGHTS_STATE

07/25/2016 12:31:25,30.937,31.187,off
07/25/2016 12:31:37,30.937,31.187,off
07/25/2016 12:31:49,30.937,31.187,off
07/25/2016 12:32:00,30.937,31.187,off
