TIME,INSIDE_TEMPERATURE,OUTSIDE_TEMPERATURE,LIGHTS_STATE

03/20/2018 12:52:25,17.0,11.25,off
03/20/2018 12:52:37,17.062,11.25,off
03/20/2018 12:52:48,17.062,11.25,off
03/20/2018 12:53:00,17.0,11.25,off
