TIME,INSIDE_TEMPERATURE,OUTSIDE_TEMPERATURE,LIGHTS_STATE

08/03/2016 12:25:25,29.375,29.625,off
08/03/2016 12:25:37,29.437,29.625,off
08/03/2016 12:25:49,29.437,29.625,off
08/03/2016 12:26:00,29.437,29.562,off
