TIME,INSIDE_TEMPERATURE,OUTSIDE_TEMPERATURE,LIGHTS_STATE

07/25/2017 12:47:25,30.375,27.312,off
07/25/2017 12:47:37,30.375,27.312,off
07/25/2017 12:47:49,30.375,27.312,off
07/25/2017 12:48:01,30.375,27.312,off
