TIME,INSIDE_TEMPERATURE,OUTSIDE_TEMPERATURE,LIGHTS_STATE

03/11/2018 12:44:25,23.625,36.75,off
03/11/2018 12:44:37,23.625,36.812,off
03/11/2018 12:44:48,23.625,36.812,off
03/11/2018 12:45:00,23.625,36.812,off
