TIME,INSIDE_TEMPERATURE,OUTSIDE_TEMPERATURE,LIGHTS_STATE

03/02/2017 12:14:25,24.875,24.562,off
03/02/2017 12:14:37,24.875,24.562,off
03/02/2017 12:14:48,24.875,24.687,off
03/02/2017 12:15:00,24.875,24.562,off
