TIME,INSIDE_TEMPERATURE,OUTSIDE_TEMPERATURE,LIGHTS_STATE

10/28/2017 12:25:25,34.687,35.0,off
10/28/2017 12:25:37,34.75,34.937,off
10/28/2017 12:25:49,34.75,34.875,off
10/28/2017 12:26:00,34.687,34.875,off
