TIME,INSIDE_TEMPERATURE,OUTSIDE_TEMPERATURE,LIGHTS_STATE

01/14/2018 12:43:25,19.375,13.375,off
01/14/2018 12:43:37,19.375,13.375,off
01/14/2018 12:43:48,19.375,13.375,off
01/14/2018 12:44:00,19.375,13.437,off
