TIME,INSIDE_TEMPERATURE,OUTSIDE_TEMPERATURE,LIGHTS_STATE

05/04/2017 12:44:26,31.625,29.25,off
05/04/2017 12:44:37,31.625,29.25,off
05/04/2017 12:44:49,31.625,29.187,off
05/04/2017 12:45:01,31.625,29.187,off
