TIME,INSIDE_TEMPERATURE,OUTSIDE_TEMPERATURE,LIGHTS_STATE

07/25/2016 12:09:26,30.125,31.375,off
07/25/2016 12:09:37,30.125,31.375,off
07/25/2016 12:09:49,30.125,31.375,off
07/25/2016 12:10:01,30.187,31.375,off
