TIME,INSIDE_TEMPERATURE,OUTSIDE_TEMPERATURE,LIGHTS_STATE

04/03/2017 12:10:25,23.187,21.25,off
04/03/2017 12:10:37,23.187,21.187,off
04/03/2017 12:10:49,23.187,21.187,off
04/03/2017 12:11:00,23.187,21.187,off
