TIME,INSIDE_TEMPERATURE,OUTSIDE_TEMPERATURE,LIGHTS_STATE

11/21/2016 12:31:25,23.5,20.312,off
11/21/2016 12:31:37,23.5,20.375,off
11/21/2016 12:31:48,23.5,20.437,off
11/21/2016 12:32:00,23.5,20.5,off
