TIME,INSIDE_TEMPERATURE,OUTSIDE_TEMPERATURE,LIGHTS_STATE

02/11/2018 12:57:26,22.687,15.937,off
02/11/2018 12:57:37,22.687,15.875,off
02/11/2018 12:57:49,22.687,15.875,off
02/11/2018 12:58:01,22.687,15.812,off
