TIME,INSIDE_TEMPERATURE,OUTSIDE_TEMPERATURE,LIGHTS_STATE

07/06/2016 12:24:25,24.437,24.0,off
07/06/2016 12:24:37,24.437,24.062,off
07/06/2016 12:24:48,24.437,24.062,off
07/06/2016 12:25:00,24.437,24.062,off
