TIME,INSIDE_TEMPERATURE,OUTSIDE_TEMPERATURE,LIGHTS_STATE

09/24/2017 12:08:26,27.625,25.187,off
09/24/2017 12:08:38,27.625,25.125,off
09/24/2017 12:08:50,27.625,25.187,off
09/24/2017 12:09:01,27.625,25.187,off
