TIME,INSIDE_TEMPERATURE,OUTSIDE_TEMPERATURE,LIGHTS_STATE

12/17/2016 12:06:25,18.437,13.875,off
12/17/2016 12:06:37,18.437,14.0,off
12/17/2016 12:06:49,18.437,14.062,off
12/17/2016 12:07:00,18.375,14.125,off
