TIME,INSIDE_TEMPERATURE,OUTSIDE_TEMPERATURE,LIGHTS_STATE

03/28/2018 12:34:25,25.0,19.25,off
03/28/2018 12:34:37,25.0,19.25,off
03/28/2018 12:34:49,25.062,19.187,off
03/28/2018 12:35:00,25.062,19.25,off
