TIME,INSIDE_TEMPERATURE,OUTSIDE_TEMPERATURE,LIGHTS_STATE

09/11/2016 12:32:25,27.812,27.187,off
09/11/2016 12:32:38,27.75,27.187,off
09/11/2016 12:32:50,27.812,27.187,off
09/11/2016 12:33:02,27.812,27.25,off
