TIME,INSIDE_TEMPERATURE,OUTSIDE_TEMPERATURE,LIGHTS_STATE

09/04/2017 12:10:25,32.625,30.062,off
09/04/2017 12:10:38,32.687,30.062,off
09/04/2017 12:10:49,32.687,30.062,off
09/04/2017 12:11:01,32.687,30.062,off
