TIME,INSIDE_TEMPERATURE,OUTSIDE_TEMPERATURE,LIGHTS_STATE

04/20/2017 12:05:25,23.437,19.687,off
04/20/2017 12:05:37,23.437,19.75,off
04/20/2017 12:05:49,23.437,19.687,off
04/20/2017 12:06:00,23.437,19.687,off
