TIME,INSIDE_TEMPERATURE,OUTSIDE_TEMPERATURE,LIGHTS_STATE

06/26/2016 12:40:25,32.437,32.625,off
06/26/2016 12:40:37,32.437,32.625,off
06/26/2016 12:40:49,32.437,32.562,off
06/26/2016 12:41:00,32.437,32.562,off
