TIME,INSIDE_TEMPERATURE,OUTSIDE_TEMPERATURE,LIGHTS_STATE

01/22/2018 12:27:26,22.062,17.312,off
01/22/2018 12:27:37,22.062,17.25,off
01/22/2018 12:27:49,22.125,17.187,off
01/22/2018 12:28:01,22.062,17.125,off
