TIME,INSIDE_TEMPERATURE,OUTSIDE_TEMPERATURE,LIGHTS_STATE

08/16/2017 12:55:26,28.312,25.437,off
08/16/2017 12:55:37,28.312,25.437,off
08/16/2017 12:55:49,28.25,25.375,off
08/16/2017 12:56:01,28.312,25.375,off
