TIME,INSIDE_TEMPERATURE,OUTSIDE_TEMPERATURE,LIGHTS_STATE

03/07/2018 12:31:25,24.75,38.375,off
03/07/2018 12:31:37,24.75,38.312,off
03/07/2018 12:31:49,24.75,38.125,off
03/07/2018 12:32:00,24.75,38.062,off
