TIME,INSIDE_TEMPERATURE,OUTSIDE_TEMPERATURE,LIGHTS_STATE

02/10/2018 12:33:26,27.437,26.0,off
02/10/2018 12:33:37,27.5,26.062,off
02/10/2018 12:33:49,27.5,26.062,off
02/10/2018 12:34:01,27.5,26.0,off
