TIME,INSIDE_TEMPERATURE,OUTSIDE_TEMPERATURE,LIGHTS_STATE

07/14/2016 12:14:25,33.375,33.312,off
07/14/2016 12:14:37,33.375,33.312,off
07/14/2016 12:14:49,33.375,33.312,off
07/14/2016 12:15:00,33.312,33.312,off
