TIME,INSIDE_TEMPERATURE,OUTSIDE_TEMPERATURE,LIGHTS_STATE

11/14/2016 12:38:25,28.437,28.812,off
11/14/2016 12:38:37,28.437,28.75,off
11/14/2016 12:38:49,28.437,28.625,off
11/14/2016 12:39:00,28.437,28.5,off
