TIME,INSIDE_TEMPERATURE,OUTSIDE_TEMPERATURE,LIGHTS_STATE

05/07/2017 12:05:25,23.562,21.5,off
05/07/2017 12:05:36,23.562,21.5,off
05/07/2017 12:05:49,23.625,21.5,off
05/07/2017 12:06:01,23.562,21.437,off
