TIME,INSIDE_TEMPERATURE,OUTSIDE_TEMPERATURE,LIGHTS_STATE

04/21/2017 12:49:25,24.5,22.0,off
04/21/2017 12:49:37,24.562,21.937,off
04/21/2017 12:49:49,24.562,21.937,off
04/21/2017 12:50:00,24.562,22.0,off
