TIME,INSIDE_TEMPERATURE,OUTSIDE_TEMPERATURE,LIGHTS_STATE

10/03/2017 12:17:25,26.75,23.312,off
10/03/2017 12:17:37,26.812,23.437,off
10/03/2017 12:17:49,26.812,23.437,off
10/03/2017 12:18:01,26.812,23.5,off
