TIME,INSIDE_TEMPERATURE,OUTSIDE_TEMPERATURE,LIGHTS_STATE

08/25/2017 12:42:25,30.625,28.437,off
08/25/2017 12:42:37,30.625,28.437,off
08/25/2017 12:42:49,30.625,28.437,off
08/25/2017 12:43:01,30.687,28.5,off
