TIME,INSIDE_TEMPERATURE,OUTSIDE_TEMPERATURE,LIGHTS_STATE

04/27/2017 12:39:25,23.375,20.25,off
04/27/2017 12:39:37,23.375,20.312,off
04/27/2017 12:39:48,23.375,20.375,off
04/27/2017 12:40:00,23.375,20.375,off
