TIME,INSIDE_TEMPERATURE,OUTSIDE_TEMPERATURE,LIGHTS_STATE

07/11/2017 12:58:25,33.437,30.062,off
07/11/2017 12:58:37,33.5,30.062,off
07/11/2017 12:58:49,33.437,30.062,off
07/11/2017 12:59:01,33.5,30.062,off
