TIME,INSIDE_TEMPERATURE,OUTSIDE_TEMPERATURE,LIGHTS_STATE

07/25/2016 12:36:25,30.937,31.125,off
07/25/2016 12:36:37,31.0,31.125,off
07/25/2016 12:36:49,31.0,31.125,off
07/25/2016 12:37:00,31.0,31.125,off
