TIME,INSIDE_TEMPERATURE,OUTSIDE_TEMPERATURE,LIGHTS_STATE

12/30/2016 12:33:25,17.187,15.562,off
12/30/2016 12:33:36,17.187,15.5,off
12/30/2016 12:33:48,17.187,15.5,off
12/30/2016 12:34:00,17.187,15.5,off
