TIME,INSIDE_TEMPERATURE,OUTSIDE_TEMPERATURE,LIGHTS_STATE

04/29/2017 12:24:25,25.25,23.437,off
04/29/2017 12:24:37,25.25,23.375,off
04/29/2017 12:24:48,25.312,23.375,off
04/29/2017 12:25:00,25.312,23.437,off
