TIME,INSIDE_TEMPERATURE,OUTSIDE_TEMPERATURE,LIGHTS_STATE

02/14/2018 12:49:25,22.25,21.937,off
02/14/2018 12:49:37,22.25,21.937,off
02/14/2018 12:49:49,22.312,21.812,off
02/14/2018 12:50:00,22.312,21.875,off
