TIME,INSIDE_TEMPERATURE,OUTSIDE_TEMPERATURE,LIGHTS_STATE

07/22/2017 12:53:25,34.0,29.5,off
07/22/2017 12:53:37,34.0,29.437,off
07/22/2017 12:53:49,34.0,29.437,off
07/22/2017 12:54:01,34.0,29.437,off
