TIME,INSIDE_TEMPERATURE,OUTSIDE_TEMPERATURE,LIGHTS_STATE

12/03/2016 12:21:25,24.812,21.937,off
12/03/2016 12:21:36,24.812,22.0,off
12/03/2016 12:21:48,24.812,22.0,off
12/03/2016 12:22:00,24.812,21.937,off
