TIME,INSIDE_TEMPERATURE,OUTSIDE_TEMPERATURE,LIGHTS_STATE

12/27/2016 12:39:24,20.187,15.812,off
12/27/2016 12:39:36,20.187,15.812,off
12/27/2016 12:39:48,20.187,15.937,off
12/27/2016 12:39:59,20.187,16.0,off
