TIME,INSIDE_TEMPERATURE,OUTSIDE_TEMPERATURE,LIGHTS_STATE

01/04/2017 12:11:25,17.062,12.687,off
01/04/2017 12:11:37,17.0,12.687,off
01/04/2017 12:11:49,17.062,12.687,off
01/04/2017 12:12:00,17.062,12.687,off
