TIME,INSIDE_TEMPERATURE,OUTSIDE_TEMPERATURE,LIGHTS_STATE

12/04/2016 12:46:25,23.437,20.625,off
12/04/2016 12:46:37,23.437,20.625,off
12/04/2016 12:46:48,23.437,20.562,off
12/04/2016 12:47:00,23.437,20.625,off
