TIME,INSIDE_TEMPERATURE,OUTSIDE_TEMPERATURE,LIGHTS_STATE

09/21/2016 12:48:26,28.687,25.062,off
09/21/2016 12:48:38,28.687,25.0,off
09/21/2016 12:48:49,28.625,24.937,off
09/21/2016 12:49:01,28.687,24.875,off
