TIME,INSIDE_TEMPERATURE,OUTSIDE_TEMPERATURE,LIGHTS_STATE

06/16/2017 12:46:25,33.875,29.937,off
06/16/2017 12:46:37,33.937,29.937,off
06/16/2017 12:46:48,33.937,29.937,off
06/16/2017 12:47:00,33.937,30.0,off
