TIME,INSIDE_TEMPERATURE,OUTSIDE_TEMPERATURE,LIGHTS_STATE

01/02/2017 12:43:24,14.625,10.187,off
01/02/2017 12:43:36,14.625,10.125,off
01/02/2017 12:43:48,14.625,10.125,off
01/02/2017 12:43:59,14.625,10.125,off
