TIME,INSIDE_TEMPERATURE,OUTSIDE_TEMPERATURE,LIGHTS_STATE

05/04/2017 12:04:25,31.0,28.687,off
05/04/2017 12:04:37,30.937,28.687,off
05/04/2017 12:04:48,31.0,28.687,off
05/04/2017 12:05:00,31.0,28.687,off
