TIME,INSIDE_TEMPERATURE,OUTSIDE_TEMPERATURE,LIGHTS_STATE

09/01/2017 12:30:25,40.062,39.062,off
09/01/2017 12:30:37,40.062,39.062,off
09/01/2017 12:30:49,40.062,39.062,off
09/01/2017 12:31:00,40.125,39.062,off
