TIME,INSIDE_TEMPERATURE,OUTSIDE_TEMPERATURE,LIGHTS_STATE

07/05/2017 12:40:25,29.5,27.0,off
07/05/2017 12:40:37,29.5,27.062,off
07/05/2017 12:40:49,29.562,27.062,off
07/05/2017 12:41:00,29.5,27.062,off
