TIME,INSIDE_TEMPERATURE,OUTSIDE_TEMPERATURE,LIGHTS_STATE

08/02/2016 12:05:27,27.437,28.062,off
08/02/2016 12:05:39,27.375,28.0,off
08/02/2016 12:05:50,27.375,28.0,off
08/02/2016 12:06:02,27.437,27.937,off
