TIME,INSIDE_TEMPERATURE,OUTSIDE_TEMPERATURE,LIGHTS_STATE

01/08/2018 12:13:25,17.0,11.312,off
01/08/2018 12:13:37,17.0,11.312,off
01/08/2018 12:13:49,17.0,11.312,off
01/08/2018 12:14:00,17.0,11.312,off
