TIME,INSIDE_TEMPERATURE,OUTSIDE_TEMPERATURE,LIGHTS_STATE

07/26/2016 12:53:25,35.375,33.562,off
07/26/2016 12:53:37,35.437,33.625,off
07/26/2016 12:53:49,35.437,33.625,off
07/26/2016 12:54:01,35.437,33.562,off
