TIME,INSIDE_TEMPERATURE,OUTSIDE_TEMPERATURE,LIGHTS_STATE

12/31/2016 12:12:24,13.312,10.375,off
12/31/2016 12:12:36,13.312,10.375,off
12/31/2016 12:12:48,13.312,10.312,off
12/31/2016 12:12:59,13.312,10.25,off
