TIME,INSIDE_TEMPERATURE,OUTSIDE_TEMPERATURE,LIGHTS_STATE

11/12/2016 12:09:25,31.812,34.0,off
11/12/2016 12:09:36,31.75,34.187,off
11/12/2016 12:09:48,31.812,34.375,off
11/12/2016 12:10:00,31.75,34.5,off
