TIME,INSIDE_TEMPERATURE,OUTSIDE_TEMPERATURE,LIGHTS_STATE

03/08/2018 12:57:25,28.625,24.312,off
03/08/2018 12:57:37,28.625,24.187,off
03/08/2018 12:57:49,28.625,24.125,off
03/08/2018 12:58:00,28.687,24.062,off
