TIME,INSIDE_TEMPERATURE,OUTSIDE_TEMPERATURE,LIGHTS_STATE

07/13/2016 12:21:25,30.375,30.5,off
07/13/2016 12:21:37,30.437,30.5,off
07/13/2016 12:21:48,30.437,30.437,off
07/13/2016 12:22:00,30.437,30.437,off
