TIME,INSIDE_TEMPERATURE,OUTSIDE_TEMPERATURE,LIGHTS_STATE

11/02/2017 12:42:25,27.062,21.812,off
11/02/2017 12:42:37,27.062,21.812,off
11/02/2017 12:42:49,27.062,21.812,off
11/02/2017 12:43:00,27.062,21.75,off
