TIME,INSIDE_TEMPERATURE,OUTSIDE_TEMPERATURE,LIGHTS_STATE

11/03/2016 12:29:26,30.187,29.437,off
11/03/2016 12:29:37,30.187,29.437,off
11/03/2016 12:29:49,30.125,29.437,off
11/03/2016 12:30:01,30.187,29.687,off
