TIME,INSIDE_TEMPERATURE,OUTSIDE_TEMPERATURE,LIGHTS_STATE

08/07/2017 12:33:25,28.0,24.812,off
08/07/2017 12:33:37,28.0,24.875,off
08/07/2017 12:33:49,28.062,24.937,off
08/07/2017 12:34:01,28.0,24.937,off
