TIME,INSIDE_TEMPERATURE,OUTSIDE_TEMPERATURE,LIGHTS_STATE

09/28/2017 12:40:25,34.625,32.5,off
09/28/2017 12:40:37,34.687,32.5,off
09/28/2017 12:40:49,34.687,32.5,off
09/28/2017 12:41:01,34.687,32.5,off
