TIME,INSIDE_TEMPERATURE,OUTSIDE_TEMPERATURE,LIGHTS_STATE

09/16/2016 12:16:26,25.5,26.312,off
09/16/2016 12:16:37,25.5,26.312,off
09/16/2016 12:16:49,25.5,26.187,off
09/16/2016 12:17:01,25.5,26.062,off
