TIME,INSIDE_TEMPERATURE,OUTSIDE_TEMPERATURE,LIGHTS_STATE

04/03/2017 12:55:25,24.562,21.937,off
04/03/2017 12:55:37,24.562,22.0,off
04/03/2017 12:55:48,24.562,22.062,off
04/03/2017 12:56:00,24.562,22.0,off
