TIME,INSIDE_TEMPERATURE,OUTSIDE_TEMPERATURE,LIGHTS_STATE

07/09/2017 12:56:25,35.0,32.875,off
07/09/2017 12:56:37,35.0,32.875,off
07/09/2017 12:56:49,35.062,32.812,off
07/09/2017 12:57:01,35.062,32.75,off
