TIME,INSIDE_TEMPERATURE,OUTSIDE_TEMPERATURE,LIGHTS_STATE

09/04/2017 12:25:25,33.187,29.562,off
09/04/2017 12:25:37,33.25,29.562,off
09/04/2017 12:25:49,33.25,29.562,off
09/04/2017 12:26:01,33.25,29.562,off
