TIME,INSIDE_TEMPERATURE,OUTSIDE_TEMPERATURE,LIGHTS_STATE

08/19/2017 12:38:25,30.437,28.062,off
08/19/2017 12:38:37,30.5,28.062,off
08/19/2017 12:38:49,30.562,28.0,off
08/19/2017 12:39:01,30.562,28.062,off
