TIME,INSIDE_TEMPERATURE,OUTSIDE_TEMPERATURE,LIGHTS_STATE

10/30/2016 12:09:25,19.062,15.25,off
10/30/2016 12:09:37,19.062,15.25,off
10/30/2016 12:09:48,19.062,15.25,off
10/30/2016 12:10:00,19.062,15.25,off
