TIME,INSIDE_TEMPERATURE,OUTSIDE_TEMPERATURE,LIGHTS_STATE

02/14/2018 12:16:25,21.312,19.687,off
02/14/2018 12:16:37,21.312,19.625,off
02/14/2018 12:16:49,21.312,19.625,off
02/14/2018 12:17:00,21.312,19.687,off
