TIME,INSIDE_TEMPERATURE,OUTSIDE_TEMPERATURE,LIGHTS_STATE

02/12/2017 12:28:25,25.812,22.937,off
02/12/2017 12:28:37,25.812,22.875,off
02/12/2017 12:28:48,25.812,22.812,off
02/12/2017 12:29:00,25.812,22.687,off
