TIME,INSIDE_TEMPERATURE,OUTSIDE_TEMPERATURE,LIGHTS_STATE

08/13/2017 12:05:25,29.125,26.437,off
08/13/2017 12:05:37,29.125,26.5,off
08/13/2017 12:05:49,29.125,26.562,off
08/13/2017 12:06:00,29.125,26.5,off
