TIME,INSIDE_TEMPERATURE,OUTSIDE_TEMPERATURE,LIGHTS_STATE

12/29/2016 12:58:25,19.312,18.5,off
12/29/2016 12:58:37,19.312,18.562,off
12/29/2016 12:58:48,19.312,18.687,off
12/29/2016 12:59:00,19.312,18.75,off
