TIME,INSIDE_TEMPERATURE,OUTSIDE_TEMPERATURE,LIGHTS_STATE

07/19/2016 12:55:25,25.375,25.125,off
07/19/2016 12:55:37,25.375,25.187,off
07/19/2016 12:55:48,25.437,25.187,off
07/19/2016 12:56:00,25.437,25.187,off
