TIME,INSIDE_TEMPERATURE,OUTSIDE_TEMPERATURE,LIGHTS_STATE

07/30/2017 12:56:25,31.125,28.25,off
07/30/2017 12:56:37,31.25,28.25,off
07/30/2017 12:56:49,31.375,28.25,off
07/30/2017 12:57:01,31.375,28.25,off
