TIME,INSIDE_TEMPERATURE,OUTSIDE_TEMPERATURE,LIGHTS_STATE

09/05/2017 12:17:25,33.937,31.562,off
09/05/2017 12:17:37,34.0,31.625,off
09/05/2017 12:17:49,34.0,31.625,off
09/05/2017 12:18:00,34.0,31.687,off
