TIME,INSIDE_TEMPERATURE,OUTSIDE_TEMPERATURE,LIGHTS_STATE

05/13/2017 12:02:25,20.75,17.75,off
05/13/2017 12:02:36,20.75,17.75,off
05/13/2017 12:02:48,20.75,17.687,off
05/13/2017 12:03:00,20.75,17.687,off
