TIME,INSIDE_TEMPERATURE,OUTSIDE_TEMPERATURE,LIGHTS_STATE

04/06/2017 12:12:25,23.125,20.0,off
04/06/2017 12:12:37,23.125,20.0,off
04/06/2017 12:12:48,23.125,20.0,off
04/06/2017 12:13:00,23.125,20.062,off
