TIME,INSIDE_TEMPERATURE,OUTSIDE_TEMPERATURE,LIGHTS_STATE

12/04/2016 12:02:25,23.437,20.875,off
12/04/2016 12:02:37,23.5,20.75,off
12/04/2016 12:02:49,23.5,20.687,off
12/04/2016 12:03:00,23.437,20.625,off
