TIME,INSIDE_TEMPERATURE,OUTSIDE_TEMPERATURE,LIGHTS_STATE

12/23/2016 12:40:25,14.375,10.5,off
12/23/2016 12:40:36,14.375,10.5,off
12/23/2016 12:40:48,14.375,10.5,off
12/23/2016 12:41:00,14.375,10.437,off
