TIME,INSIDE_TEMPERATURE,OUTSIDE_TEMPERATURE,LIGHTS_STATE

03/14/2017 12:13:25,26.812,23.875,off
03/14/2017 12:13:37,26.875,23.875,off
03/14/2017 12:13:49,26.875,23.875,off
03/14/2017 12:14:00,26.875,23.937,off
