TIME,INSIDE_TEMPERATURE,OUTSIDE_TEMPERATURE,LIGHTS_STATE

08/05/2016 12:56:26,25.312,24.75,off
08/05/2016 12:56:39,25.375,24.812,off
08/05/2016 12:56:50,25.312,24.812,off
08/05/2016 12:57:02,25.375,24.812,off
