TIME,INSIDE_TEMPERATURE,OUTSIDE_TEMPERATURE,LIGHTS_STATE

07/08/2016 12:10:25,23.0,22.812,off
07/08/2016 12:10:37,23.0,22.75,off
07/08/2016 12:10:48,22.937,22.75,off
07/08/2016 12:11:00,23.0,22.75,off
