TIME,INSIDE_TEMPERATURE,OUTSIDE_TEMPERATURE,LIGHTS_STATE

08/14/2017 12:56:25,26.25,22.75,off
08/14/2017 12:56:37,26.312,22.812,off
08/14/2017 12:56:48,26.312,22.812,off
08/14/2017 12:57:00,26.375,22.875,off
