TIME,INSIDE_TEMPERATURE,OUTSIDE_TEMPERATURE,LIGHTS_STATE

10/23/2017 12:37:26,35.0,30.375,off
10/23/2017 12:37:37,35.0,30.562,off
10/23/2017 12:37:49,35.0,30.812,off
10/23/2017 12:38:01,35.0,31.062,off
