TIME,INSIDE_TEMPERATURE,OUTSIDE_TEMPERATURE,LIGHTS_STATE

08/29/2017 12:09:25,30.187,27.875,off
08/29/2017 12:09:37,30.187,27.875,off
08/29/2017 12:09:49,30.187,27.875,off
08/29/2017 12:10:00,30.187,27.812,off
