TIME,INSIDE_TEMPERATURE,OUTSIDE_TEMPERATURE,LIGHTS_STATE

03/08/2017 12:33:26,24.937,26.0,off
03/08/2017 12:33:37,24.937,26.0,off
03/08/2017 12:33:49,24.937,25.875,off
03/08/2017 12:34:01,24.937,25.812,off
