TIME,INSIDE_TEMPERATURE,OUTSIDE_TEMPERATURE,LIGHTS_STATE

03/25/2017 12:56:25,23.0,18.125,off
03/25/2017 12:56:37,23.0,18.125,off
03/25/2017 12:56:48,23.0,18.187,off
03/25/2017 12:57:00,23.062,18.25,off
