TIME,INSIDE_TEMPERATURE,OUTSIDE_TEMPERATURE,LIGHTS_STATE

09/12/2017 12:58:25,37.875,33.687,off
09/12/2017 12:58:37,37.937,33.687,off
09/12/2017 12:58:48,37.937,33.687,off
09/12/2017 12:59:00,38.0,33.687,off
