TIME,INSIDE_TEMPERATURE,OUTSIDE_TEMPERATURE,LIGHTS_STATE

03/05/2017 12:50:25,17.25,12.562,off
03/05/2017 12:50:37,17.25,12.5,off
03/05/2017 12:50:49,17.25,12.437,off
03/05/2017 12:51:00,17.25,12.5,off
