TIME,INSIDE_TEMPERATURE,OUTSIDE_TEMPERATURE,LIGHTS_STATE

07/14/2017 12:10:26,32.187,29.75,off
07/14/2017 12:10:37,32.187,29.75,off
07/14/2017 12:10:49,32.25,29.812,off
07/14/2017 12:11:01,32.312,29.812,off
