TIME,INSIDE_TEMPERATURE,OUTSIDE_TEMPERATURE,LIGHTS_STATE

09/26/2017 12:44:25,32.375,30.125,off
09/26/2017 12:44:37,32.375,30.125,off
09/26/2017 12:44:49,32.375,30.062,off
09/26/2017 12:45:01,32.375,30.062,off
