TIME,INSIDE_TEMPERATURE,OUTSIDE_TEMPERATURE,LIGHTS_STATE

03/09/2018 12:49:25,26.25,22.937,off
03/09/2018 12:49:37,26.312,23.0,off
03/09/2018 12:49:49,26.312,22.937,off
03/09/2018 12:50:01,26.312,22.937,off
