TIME,INSIDE_TEMPERATURE,OUTSIDE_TEMPERATURE,LIGHTS_STATE

06/09/2017 12:04:25,26.0,20.875,off
06/09/2017 12:04:37,26.0,20.937,off
06/09/2017 12:04:48,26.0,21.0,off
06/09/2017 12:05:00,26.062,21.125,off
