TIME,INSIDE_TEMPERATURE,OUTSIDE_TEMPERATURE,LIGHTS_STATE

03/10/2017 12:03:25,27.562,23.125,off
03/10/2017 12:03:37,27.562,23.125,off
03/10/2017 12:03:48,27.562,23.062,off
03/10/2017 12:04:00,27.562,23.062,off
