TIME,INSIDE_TEMPERATURE,OUTSIDE_TEMPERATURE,LIGHTS_STATE

06/22/2016 12:36:25,28.25,28.312,off
06/22/2016 12:36:36,28.25,28.375,off
06/22/2016 12:36:48,28.25,28.375,off
06/22/2016 12:37:00,28.25,28.375,off
