TIME,INSIDE_TEMPERATURE,OUTSIDE_TEMPERATURE,LIGHTS_STATE

11/06/2016 12:21:25,28.687,27.75,off
11/06/2016 12:21:37,28.625,27.812,off
11/06/2016 12:21:48,28.687,27.812,off
11/06/2016 12:22:00,28.687,27.875,off
