TIME,INSIDE_TEMPERATURE,OUTSIDE_TEMPERATURE,LIGHTS_STATE

11/17/2016 12:26:25,23.75,23.812,off
11/17/2016 12:26:37,23.75,23.625,off
11/17/2016 12:26:48,23.75,23.687,off
11/17/2016 12:27:00,23.75,23.562,off
