TIME,INSIDE_TEMPERATURE,OUTSIDE_TEMPERATURE,LIGHTS_STATE

01/03/2018 12:51:25,17.062,12.812,off
01/03/2018 12:51:37,17.062,12.75,off
01/03/2018 12:51:49,17.062,12.812,off
01/03/2018 12:52:00,17.062,12.812,off
