TIME,INSIDE_TEMPERATURE,OUTSIDE_TEMPERATURE,LIGHTS_STATE

12/29/2016 12:40:25,20.187,16.687,off
12/29/2016 12:40:37,20.187,16.562,off
12/29/2016 12:40:49,20.125,16.5,off
12/29/2016 12:41:00,20.125,16.312,off
