TIME,INSIDE_TEMPERATURE,OUTSIDE_TEMPERATURE,LIGHTS_STATE

03/12/2018 12:29:25,27.0,38.562,off
03/12/2018 12:29:37,27.0,38.75,off
03/12/2018 12:29:48,27.062,38.937,off
03/12/2018 12:30:00,27.062,38.875,off
