TIME,INSIDE_TEMPERATURE,OUTSIDE_TEMPERATURE,LIGHTS_STATE

11/16/2016 12:24:25,24.562,25.25,off
11/16/2016 12:24:38,24.562,25.375,off
11/16/2016 12:24:49,24.562,25.437,off
11/16/2016 12:25:01,24.562,25.75,off
