TIME,INSIDE_TEMPERATURE,OUTSIDE_TEMPERATURE,LIGHTS_STATE

08/17/2017 12:21:25,30.875,28.0,off
08/17/2017 12:21:37,30.875,28.062,off
08/17/2017 12:21:49,30.812,28.187,off
08/17/2017 12:22:01,30.812,28.25,off
