TIME,INSIDE_TEMPERATURE,OUTSIDE_TEMPERATURE,LIGHTS_STATE

03/22/2018 12:03:25,20.125,12.25,off
03/22/2018 12:03:37,20.125,12.187,off
03/22/2018 12:03:49,20.125,12.187,off
03/22/2018 12:04:00,20.062,12.187,off
