TIME,INSIDE_TEMPERATURE,OUTSIDE_TEMPERATURE,LIGHTS_STATE

01/16/2018 12:07:26,23.625,21.5,off
01/16/2018 12:07:38,23.625,21.562,off
01/16/2018 12:07:49,23.625,21.625,off
01/16/2018 12:08:01,23.625,21.375,off
