TIME,INSIDE_TEMPERATURE,OUTSIDE_TEMPERATURE,LIGHTS_STATE

03/02/2017 12:58:25,23.812,22.75,off
03/02/2017 12:58:37,23.875,22.562,off
03/02/2017 12:58:49,23.875,22.25,off
03/02/2017 12:59:00,23.875,22.125,off
