TIME,INSIDE_TEMPERATURE,OUTSIDE_TEMPERATURE,LIGHTS_STATE

03/07/2017 12:15:26,23.5,18.875,off
03/07/2017 12:15:37,23.437,18.937,off
03/07/2017 12:15:49,23.437,18.937,off
03/07/2017 12:16:01,23.375,18.937,off
