TIME,INSIDE_TEMPERATURE,OUTSIDE_TEMPERATURE,LIGHTS_STATE

06/27/2017 12:57:25,27.25,23.312,off
06/27/2017 12:57:37,27.25,23.375,off
06/27/2017 12:57:49,27.25,23.437,off
06/27/2017 12:58:01,27.25,23.437,off
