TIME,INSIDE_TEMPERATURE,OUTSIDE_TEMPERATURE,LIGHTS_STATE

03/16/2017 12:46:26,26.375,22.75,off
03/16/2017 12:46:38,26.375,22.812,off
03/16/2017 12:46:49,26.375,22.875,off
03/16/2017 12:47:01,26.375,22.875,off
