TIME,INSIDE_TEMPERATURE,OUTSIDE_TEMPERATURE,LIGHTS_STATE

10/30/2017 12:48:25,26.75,26.125,off
10/30/2017 12:48:37,26.75,26.375,off
10/30/2017 12:48:49,26.75,26.625,off
10/30/2017 12:49:01,26.75,26.75,off
