TIME,INSIDE_TEMPERATURE,OUTSIDE_TEMPERATURE,LIGHTS_STATE

04/26/2017 12:53:25,23.937,20.375,off
04/26/2017 12:53:36,23.937,20.312,off
04/26/2017 12:53:48,23.937,20.375,off
04/26/2017 12:54:00,23.937,20.312,off
