TIME,INSIDE_TEMPERATURE,OUTSIDE_TEMPERATURE,LIGHTS_STATE

08/09/2017 12:39:25,27.625,24.75,off
08/09/2017 12:39:37,27.625,24.687,off
08/09/2017 12:39:49,27.625,24.625,off
08/09/2017 12:40:00,27.625,24.687,off
