TIME,INSIDE_TEMPERATURE,OUTSIDE_TEMPERATURE,LIGHTS_STATE

10/25/2016 12:39:25,28.0,26.125,off
10/25/2016 12:39:37,28.125,26.312,off
10/25/2016 12:39:48,28.25,26.687,off
10/25/2016 12:40:00,28.125,26.937,off
