TIME,INSIDE_TEMPERATURE,OUTSIDE_TEMPERATURE,LIGHTS_STATE

12/18/2016 12:11:25,16.25,3.062,off
12/18/2016 12:11:37,16.312,3.062,off
12/18/2016 12:11:49,16.312,3.0,off
12/18/2016 12:12:01,16.312,3.0,off
