TIME,INSIDE_TEMPERATURE,OUTSIDE_TEMPERATURE,LIGHTS_STATE

08/04/2017 12:03:25,31.812,28.062,off
08/04/2017 12:03:37,31.875,28.125,off
08/04/2017 12:03:49,31.875,28.125,off
08/04/2017 12:04:00,31.875,28.125,off
