TIME,INSIDE_TEMPERATURE,OUTSIDE_TEMPERATURE,LIGHTS_STATE

06/06/2017 12:10:25,22.625,22.5,off
06/06/2017 12:10:37,22.625,22.5,off
06/06/2017 12:10:49,22.687,22.5,off
06/06/2017 12:11:00,22.625,22.5,off
