TIME,INSIDE_TEMPERATURE,OUTSIDE_TEMPERATURE,LIGHTS_STATE

02/20/2018 12:53:26,19.375,25.5,off
02/20/2018 12:53:37,19.375,25.25,off
02/20/2018 12:53:49,19.375,25.125,off
02/20/2018 12:54:01,19.375,25.0,off
