TIME,INSIDE_TEMPERATURE,OUTSIDE_TEMPERATURE,LIGHTS_STATE

08/11/2017 12:54:25,29.625,27.562,off
08/11/2017 12:54:37,29.625,27.5,off
08/11/2017 12:54:49,29.687,27.5,off
08/11/2017 12:55:00,29.687,27.437,off
