TIME,INSIDE_TEMPERATURE,OUTSIDE_TEMPERATURE,LIGHTS_STATE

02/27/2018 12:12:25,20.687,25.937,off
02/27/2018 12:12:37,20.687,26.0,off
02/27/2018 12:12:49,20.687,26.062,off
02/27/2018 12:13:00,20.687,26.062,off
