TIME,INSIDE_TEMPERATURE,OUTSIDE_TEMPERATURE,LIGHTS_STATE

02/27/2018 12:04:25,20.562,19.937,off
02/27/2018 12:04:37,20.562,20.25,off
02/27/2018 12:04:49,20.562,20.5,off
02/27/2018 12:05:00,20.562,20.812,off
