TIME,INSIDE_TEMPERATURE,OUTSIDE_TEMPERATURE,LIGHTS_STATE

12/23/2017 12:10:25,19.875,16.875,off
12/23/2017 12:10:37,19.875,16.875,off
12/23/2017 12:10:49,19.875,16.812,off
12/23/2017 12:11:00,19.875,16.875,off
