TIME,INSIDE_TEMPERATURE,OUTSIDE_TEMPERATURE,LIGHTS_STATE

03/25/2017 12:33:25,22.687,18.75,off
03/25/2017 12:33:37,22.625,18.812,off
03/25/2017 12:33:49,22.687,18.875,off
03/25/2017 12:34:01,22.687,18.937,off
