TIME,INSIDE_TEMPERATURE,OUTSIDE_TEMPERATURE,LIGHTS_STATE

11/19/2016 12:45:24,20.437,15.875,off
11/19/2016 12:45:36,20.437,15.937,off
11/19/2016 12:45:48,20.437,15.937,off
11/19/2016 12:45:59,20.437,16.0,off
