TIME,INSIDE_TEMPERATURE,OUTSIDE_TEMPERATURE,LIGHTS_STATE

03/31/2018 12:17:25,27.062,25.5,off
03/31/2018 12:17:37,27.062,25.562,off
03/31/2018 12:17:48,27.062,25.562,off
03/31/2018 12:18:00,27.062,25.562,off
