TIME,INSIDE_TEMPERATURE,OUTSIDE_TEMPERATURE,LIGHTS_STATE

09/08/2017 12:19:26,28.312,26.25,off
09/08/2017 12:19:37,28.312,26.25,off
09/08/2017 12:19:49,28.312,26.312,off
09/08/2017 12:20:01,28.187,26.312,off
