TIME,INSIDE_TEMPERATURE,OUTSIDE_TEMPERATURE,LIGHTS_STATE

09/02/2017 12:07:25,39.625,38.687,off
09/02/2017 12:07:37,39.687,38.687,off
09/02/2017 12:07:49,39.687,38.75,off
09/02/2017 12:08:01,39.687,38.687,off
