TIME,INSIDE_TEMPERATURE,OUTSIDE_TEMPERATURE,LIGHTS_STATE

10/07/2017 12:43:25,33.75,29.25,off
10/07/2017 12:43:37,33.75,29.25,off
10/07/2017 12:43:49,33.75,29.312,off
10/07/2017 12:44:01,33.75,29.312,off
