TIME,INSIDE_TEMPERATURE,OUTSIDE_TEMPERATURE,LIGHTS_STATE

08/21/2017 12:49:25,29.125,26.562,off
08/21/2017 12:49:37,29.0,26.562,off
08/21/2017 12:49:49,29.062,26.625,off
08/21/2017 12:50:00,29.125,26.625,off
