TIME,INSIDE_TEMPERATURE,OUTSIDE_TEMPERATURE,LIGHTS_STATE

03/06/2017 12:55:25,20.437,15.187,off
03/06/2017 12:55:37,20.375,15.25,off
03/06/2017 12:55:49,20.375,15.25,off
03/06/2017 12:56:00,20.437,15.312,off
