TIME,INSIDE_TEMPERATURE,OUTSIDE_TEMPERATURE,LIGHTS_STATE

02/19/2017 12:41:26,16.312,11.812,off
02/19/2017 12:41:38,16.312,11.812,off
02/19/2017 12:41:49,16.312,11.812,off
02/19/2017 12:42:01,16.312,11.75,off
