TIME,INSIDE_TEMPERATURE,OUTSIDE_TEMPERATURE,LIGHTS_STATE

10/23/2017 12:46:26,34.875,36.687,off
10/23/2017 12:46:38,34.812,36.687,off
10/23/2017 12:46:49,34.812,36.687,off
10/23/2017 12:47:01,34.812,36.562,off
