TIME,INSIDE_TEMPERATURE,OUTSIDE_TEMPERATURE,LIGHTS_STATE

02/05/2017 12:06:25,21.562,19.437,off
02/05/2017 12:06:36,21.562,19.625,off
02/05/2017 12:06:48,21.625,19.75,off
02/05/2017 12:07:00,21.625,19.875,off
