TIME,INSIDE_TEMPERATURE,OUTSIDE_TEMPERATURE,LIGHTS_STATE

02/17/2017 12:24:26,18.75,15.312,off
02/17/2017 12:24:37,18.75,15.312,off
02/17/2017 12:24:49,18.75,15.312,off
02/17/2017 12:25:01,18.75,15.312,off
