TIME,INSIDE_TEMPERATURE,OUTSIDE_TEMPERATURE,LIGHTS_STATE

07/28/2016 12:46:25,32.812,33.062,off
07/28/2016 12:46:37,32.875,33.062,off
07/28/2016 12:46:48,32.875,33.062,off
07/28/2016 12:47:00,32.875,33.062,off
