TIME,INSIDE_TEMPERATURE,OUTSIDE_TEMPERATURE,LIGHTS_STATE

02/05/2018 12:11:25,30.437,32.875,off
02/05/2018 12:11:37,30.437,33.0,off
02/05/2018 12:11:49,30.437,33.125,off
02/05/2018 12:12:00,30.375,33.187,off
