TIME,INSIDE_TEMPERATURE,OUTSIDE_TEMPERATURE,LIGHTS_STATE

03/19/2018 12:30:25,19.375,16.687,off
03/19/2018 12:30:37,19.437,16.687,off
03/19/2018 12:30:49,19.437,16.687,off
03/19/2018 12:31:00,19.437,16.687,off
