TIME,INSIDE_TEMPERATURE,OUTSIDE_TEMPERATURE,LIGHTS_STATE

05/24/2017 12:19:25,27.062,25.0,off
05/24/2017 12:19:37,27.062,25.0,off
05/24/2017 12:19:49,27.062,25.062,off
05/24/2017 12:20:00,26.937,25.062,off
