TIME,INSIDE_TEMPERATURE,OUTSIDE_TEMPERATURE,LIGHTS_STATE

10/15/2017 12:28:25,30.375,32.25,off
10/15/2017 12:28:37,30.437,32.125,off
10/15/2017 12:28:49,30.437,32.187,off
10/15/2017 12:29:01,30.437,32.375,off
