TIME,INSIDE_TEMPERATURE,OUTSIDE_TEMPERATURE,LIGHTS_STATE

03/01/2017 12:53:25,22.812,24.125,off
03/01/2017 12:53:37,22.812,24.312,off
03/01/2017 12:53:49,22.812,24.437,off
03/01/2017 12:54:00,22.812,24.562,off
