TIME,INSIDE_TEMPERATURE,OUTSIDE_TEMPERATURE,LIGHTS_STATE

02/20/2018 12:27:26,19.437,33.625,off
02/20/2018 12:27:37,19.437,33.75,off
02/20/2018 12:27:49,19.437,33.812,off
02/20/2018 12:28:01,19.5,33.812,off
