TIME,INSIDE_TEMPERATURE,OUTSIDE_TEMPERATURE,LIGHTS_STATE

07/25/2017 12:27:25,29.937,26.937,off
07/25/2017 12:27:37,29.937,26.937,off
07/25/2017 12:27:49,29.937,26.937,off
07/25/2017 12:28:01,30.0,26.937,off
