TIME,INSIDE_TEMPERATURE,OUTSIDE_TEMPERATURE,LIGHTS_STATE

02/10/2017 12:48:26,20.437,16.25,off
02/10/2017 12:48:37,20.5,16.25,off
02/10/2017 12:48:49,20.5,16.25,off
02/10/2017 12:49:01,20.5,16.25,off
