TIME,INSIDE_TEMPERATURE,OUTSIDE_TEMPERATURE,LIGHTS_STATE

06/26/2017 12:30:25,27.687,24.187,off
06/26/2017 12:30:37,27.687,24.25,off
06/26/2017 12:30:49,27.687,24.25,off
06/26/2017 12:31:01,27.687,24.125,off
