TIME,INSIDE_TEMPERATURE,OUTSIDE_TEMPERATURE,LIGHTS_STATE

02/22/2017 12:56:26,21.375,16.187,off
02/22/2017 12:56:38,21.312,16.187,off
02/22/2017 12:56:49,21.312,16.187,off
02/22/2017 12:57:01,21.312,16.187,off
