TIME,INSIDE_TEMPERATURE,OUTSIDE_TEMPERATURE,LIGHTS_STATE

09/22/2017 12:16:25,26.0,21.937,off
09/22/2017 12:16:37,26.0,21.875,off
09/22/2017 12:16:48,26.0,22.0,off
09/22/2017 12:17:00,26.0,22.125,off
