TIME,INSIDE_TEMPERATURE,OUTSIDE_TEMPERATURE,LIGHTS_STATE

08/28/2017 12:02:26,37.0,35.687,off
08/28/2017 12:02:37,37.0,35.687,off
08/28/2017 12:02:49,37.0,35.687,off
08/28/2017 12:03:01,37.0,35.625,off
