TIME,INSIDE_TEMPERATURE,OUTSIDE_TEMPERATURE,LIGHTS_STATE

09/21/2016 12:27:26,27.812,25.75,off
09/21/2016 12:27:38,27.875,25.687,off
09/21/2016 12:27:50,27.875,25.5,off
09/21/2016 12:28:01,27.875,25.375,off
