TIME,INSIDE_TEMPERATURE,OUTSIDE_TEMPERATURE,LIGHTS_STATE

07/26/2017 12:03:25,28.375,26.062,off
07/26/2017 12:03:37,28.437,26.062,off
07/26/2017 12:03:48,28.437,26.062,off
07/26/2017 12:04:00,28.375,26.062,off
