TIME,INSIDE_TEMPERATURE,OUTSIDE_TEMPERATURE,LIGHTS_STATE

05/18/2017 12:31:25,24.812,23.875,off
05/18/2017 12:31:37,24.875,23.875,off
05/18/2017 12:31:49,24.812,23.875,off
05/18/2017 12:32:00,24.875,23.875,off
