TIME,INSIDE_TEMPERATURE,OUTSIDE_TEMPERATURE,LIGHTS_STATE

02/23/2018 12:54:25,18.687,35.312,off
02/23/2018 12:54:37,18.687,35.375,off
02/23/2018 12:54:48,18.75,35.375,off
02/23/2018 12:55:00,18.687,35.312,off
