TIME,INSIDE_TEMPERATURE,OUTSIDE_TEMPERATURE,LIGHTS_STATE

10/27/2016 12:15:25,22.125,19.0,off
10/27/2016 12:15:37,22.125,19.0,off
10/27/2016 12:15:49,22.125,19.0,off
10/27/2016 12:16:00,22.125,19.0,off
