TIME,INSIDE_TEMPERATURE,OUTSIDE_TEMPERATURE,LIGHTS_STATE

02/04/2018 12:58:26,27.687,40.437,off
02/04/2018 12:58:37,27.687,40.5,off
02/04/2018 12:58:49,27.687,40.625,off
02/04/2018 12:59:01,27.687,40.687,off
