TIME,INSIDE_TEMPERATURE,OUTSIDE_TEMPERATURE,LIGHTS_STATE

07/08/2016 12:05:25,22.812,22.562,off
07/08/2016 12:05:37,22.812,22.562,off
07/08/2016 12:05:48,22.812,22.625,off
07/08/2016 12:06:00,22.812,22.625,off
