TIME,INSIDE_TEMPERATURE,OUTSIDE_TEMPERATURE,LIGHTS_STATE

01/07/2018 12:42:25,18.75,13.0,off
01/07/2018 12:42:37,18.75,12.937,off
01/07/2018 12:42:49,18.75,12.937,off
01/07/2018 12:43:01,18.75,12.875,off
