TIME,INSIDE_TEMPERATURE,OUTSIDE_TEMPERATURE,LIGHTS_STATE

08/16/2017 12:44:26,27.812,25.625,off
08/16/2017 12:44:37,27.812,25.625,off
08/16/2017 12:44:49,27.875,25.625,off
08/16/2017 12:45:01,27.875,25.687,off
