TIME,INSIDE_TEMPERATURE,OUTSIDE_TEMPERATURE,LIGHTS_STATE

02/14/2017 12:23:25,26.437,24.187,off
02/14/2017 12:23:37,26.437,24.25,off
02/14/2017 12:23:48,26.437,24.312,off
02/14/2017 12:24:00,26.437,24.312,off
