TIME,INSIDE_TEMPERATURE,OUTSIDE_TEMPERATURE,LIGHTS_STATE

09/12/2016 12:46:25,25.187,22.937,off
09/12/2016 12:46:37,25.187,22.937,off
09/12/2016 12:46:49,25.187,23.062,off
09/12/2016 12:47:02,25.25,23.062,off
