TIME,INSIDE_TEMPERATURE,OUTSIDE_TEMPERATURE,LIGHTS_STATE

11/18/2016 12:24:25,24.875,25.187,off
11/18/2016 12:24:36,24.875,24.937,off
11/18/2016 12:24:48,24.875,24.687,off
11/18/2016 12:25:00,24.812,24.437,off
