TIME,INSIDE_TEMPERATURE,OUTSIDE_TEMPERATURE,LIGHTS_STATE

12/11/2016 12:20:25,17.0,13.375,off
12/11/2016 12:20:37,17.0,13.312,off
12/11/2016 12:20:49,17.0,13.312,off
12/11/2016 12:21:01,17.0,13.375,off
