TIME,INSIDE_TEMPERATURE,OUTSIDE_TEMPERATURE,LIGHTS_STATE

05/22/2017 12:31:25,31.187,29.187,off
05/22/2017 12:31:37,31.187,29.187,off
05/22/2017 12:31:49,31.187,29.187,off
05/22/2017 12:32:00,31.187,29.25,off
