TIME,INSIDE_TEMPERATURE,OUTSIDE_TEMPERATURE,LIGHTS_STATE

07/13/2016 12:53:25,31.375,31.5,off
07/13/2016 12:53:37,31.437,31.5,off
07/13/2016 12:53:48,31.437,31.5,off
07/13/2016 12:54:00,31.437,31.5,off
