TIME,INSIDE_TEMPERATURE,OUTSIDE_TEMPERATURE,LIGHTS_STATE

11/17/2016 12:32:25,23.687,22.0,off
11/17/2016 12:32:37,23.687,21.937,off
11/17/2016 12:32:49,23.625,21.875,off
11/17/2016 12:33:00,23.625,21.812,off
