TIME,INSIDE_TEMPERATURE,OUTSIDE_TEMPERATURE,LIGHTS_STATE

03/24/2017 12:39:25,16.625,10.937,off
03/24/2017 12:39:37,16.625,10.937,off
03/24/2017 12:39:49,16.625,10.937,off
03/24/2017 12:40:00,16.625,10.937,off
