TIME,INSIDE_TEMPERATURE,OUTSIDE_TEMPERATURE,LIGHTS_STATE

11/06/2016 12:44:25,28.437,24.125,off
11/06/2016 12:44:36,28.437,24.125,off
11/06/2016 12:44:48,28.437,24.125,off
11/06/2016 12:45:00,28.437,24.062,off
