TIME,INSIDE_TEMPERATURE,OUTSIDE_TEMPERATURE,LIGHTS_STATE

09/07/2016 12:38:26,32.062,33.875,off
09/07/2016 12:38:38,32.062,33.875,off
09/07/2016 12:38:50,32.062,33.875,off
09/07/2016 12:39:01,32.062,33.875,off
