TIME,INSIDE_TEMPERATURE,OUTSIDE_TEMPERATURE,LIGHTS_STATE

08/05/2017 12:13:25,33.062,30.625,off
08/05/2017 12:13:37,33.125,30.625,off
08/05/2017 12:13:49,33.125,30.562,off
08/05/2017 12:14:01,33.187,30.562,off
