TIME,INSIDE_TEMPERATURE,OUTSIDE_TEMPERATURE,LIGHTS_STATE

07/29/2016 12:50:26,33.625,34.0,off
07/29/2016 12:50:38,33.625,34.0,off
07/29/2016 12:50:49,33.687,34.0,off
07/29/2016 12:51:01,33.625,34.062,off
