TIME,INSIDE_TEMPERATURE,OUTSIDE_TEMPERATURE,LIGHTS_STATE

09/12/2017 12:49:25,37.187,32.937,off
09/12/2017 12:49:37,37.312,32.937,off
09/12/2017 12:49:49,37.312,33.0,off
09/12/2017 12:50:00,37.312,32.937,off
