TIME,INSIDE_TEMPERATURE,OUTSIDE_TEMPERATURE,LIGHTS_STATE

12/30/2016 12:14:25,16.437,14.625,off
12/30/2016 12:14:37,16.437,14.562,off
12/30/2016 12:14:48,16.5,14.562,off
12/30/2016 12:15:00,16.437,14.437,off
