TIME,INSIDE_TEMPERATURE,OUTSIDE_TEMPERATURE,LIGHTS_STATE

03/08/2018 12:51:26,28.312,25.312,off
03/08/2018 12:51:37,28.312,25.375,off
03/08/2018 12:51:49,28.312,25.375,off
03/08/2018 12:52:01,28.375,25.375,off
