TIME,INSIDE_TEMPERATURE,OUTSIDE_TEMPERATURE,LIGHTS_STATE

02/24/2018 12:38:25,22.187,26.937,off
02/24/2018 12:38:37,22.187,27.0,off
02/24/2018 12:38:48,22.187,27.125,off
02/24/2018 12:39:00,22.187,27.187,off
