TIME,INSIDE_TEMPERATURE,OUTSIDE_TEMPERATURE,LIGHTS_STATE

07/17/2016 12:13:25,25.687,26.0,off
07/17/2016 12:13:36,25.687,26.0,off
07/17/2016 12:13:48,25.75,26.062,off
07/17/2016 12:14:00,25.75,26.062,off
