TIME,INSIDE_TEMPERATURE,OUTSIDE_TEMPERATURE,LIGHTS_STATE

02/20/2017 12:24:26,18.75,14.437,off
02/20/2017 12:24:37,18.75,14.437,off
02/20/2017 12:24:49,18.812,14.437,off
02/20/2017 12:25:01,18.812,14.5,off
