TIME,INSIDE_TEMPERATURE,OUTSIDE_TEMPERATURE,LIGHTS_STATE

07/30/2017 12:14:26,30.125,27.375,off
07/30/2017 12:14:37,30.125,27.437,off
07/30/2017 12:14:49,30.125,27.375,off
07/30/2017 12:15:01,30.125,27.375,off
