TIME,INSIDE_TEMPERATURE,OUTSIDE_TEMPERATURE,LIGHTS_STATE

02/12/2018 12:55:25,23.5,20.937,off
02/12/2018 12:55:37,23.5,20.625,off
02/12/2018 12:55:49,23.5,20.625,off
02/12/2018 12:56:01,23.5,20.75,off
