TIME,INSIDE_TEMPERATURE,OUTSIDE_TEMPERATURE,LIGHTS_STATE

12/28/2016 12:22:25,19.875,16.5,off
12/28/2016 12:22:37,19.875,16.437,off
12/28/2016 12:22:48,19.875,16.437,off
12/28/2016 12:23:00,19.937,16.437,off
