TIME,INSIDE_TEMPERATURE,OUTSIDE_TEMPERATURE,LIGHTS_STATE

12/23/2017 12:39:25,20.812,18.25,off
12/23/2017 12:39:37,20.812,18.0,off
12/23/2017 12:39:49,20.812,17.875,off
12/23/2017 12:40:00,20.812,17.75,off
