TIME,INSIDE_TEMPERATURE,OUTSIDE_TEMPERATURE,LIGHTS_STATE

01/06/2017 12:55:24,15.812,11.0,off
01/06/2017 12:55:36,15.812,11.062,off
01/06/2017 12:55:48,15.812,11.187,off
01/06/2017 12:55:59,15.812,11.312,off
