TIME,INSIDE_TEMPERATURE,OUTSIDE_TEMPERATURE,LIGHTS_STATE

08/02/2017 12:05:25,36.125,34.562,off
08/02/2017 12:05:37,36.125,34.562,off
08/02/2017 12:05:48,36.125,34.625,off
08/02/2017 12:06:00,36.187,34.625,off
