TIME,INSIDE_TEMPERATURE,OUTSIDE_TEMPERATURE,LIGHTS_STATE

12/22/2017 12:11:26,19.5,19.5,off
12/22/2017 12:11:37,19.5,19.437,off
12/22/2017 12:11:49,19.5,19.562,off
12/22/2017 12:12:01,19.5,19.562,off
