TIME,INSIDE_TEMPERATURE,OUTSIDE_TEMPERATURE,LIGHTS_STATE

05/25/2017 12:18:25,22.437,20.062,off
05/25/2017 12:18:36,22.375,20.062,off
05/25/2017 12:18:48,22.437,20.062,off
05/25/2017 12:19:00,22.437,20.125,off
