TIME,INSIDE_TEMPERATURE,OUTSIDE_TEMPERATURE,LIGHTS_STATE

01/05/2018 12:55:25,22.125,18.062,off
01/05/2018 12:55:37,22.125,18.062,off
01/05/2018 12:55:49,22.125,18.062,off
01/05/2018 12:56:01,22.125,18.062,off
