TIME,INSIDE_TEMPERATURE,OUTSIDE_TEMPERATURE,LIGHTS_STATE

05/18/2017 12:53:25,25.562,24.625,off
05/18/2017 12:53:36,25.562,24.687,off
05/18/2017 12:53:48,25.562,24.687,off
05/18/2017 12:54:00,25.625,24.75,off
