TIME,INSIDE_TEMPERATURE,OUTSIDE_TEMPERATURE,LIGHTS_STATE

02/14/2017 12:22:25,26.5,23.875,off
02/14/2017 12:22:37,26.5,23.937,off
02/14/2017 12:22:49,26.437,24.0,off
02/14/2017 12:23:00,26.437,24.062,off
