TIME,INSIDE_TEMPERATURE,OUTSIDE_TEMPERATURE,LIGHTS_STATE

07/28/2017 12:56:25,33.937,31.0,off
07/28/2017 12:56:37,33.937,31.0,off
07/28/2017 12:56:49,33.937,31.0,off
07/28/2017 12:57:01,34.0,31.062,off
