TIME,INSIDE_TEMPERATURE,OUTSIDE_TEMPERATURE,LIGHTS_STATE

02/06/2017 12:07:25,18.312,14.5,off
02/06/2017 12:07:37,18.312,14.437,off
02/06/2017 12:07:49,18.312,14.437,off
02/06/2017 12:08:01,18.312,14.437,off
