TIME,INSIDE_TEMPERATURE,OUTSIDE_TEMPERATURE,LIGHTS_STATE

01/31/2018 12:04:26,26.875,22.875,off
01/31/2018 12:04:37,26.875,22.812,off
01/31/2018 12:04:49,26.875,22.937,off
01/31/2018 12:05:01,26.875,23.0,off
