TIME,INSIDE_TEMPERATURE,OUTSIDE_TEMPERATURE,LIGHTS_STATE

05/02/2017 12:02:25,30.875,29.062,off
05/02/2017 12:02:37,30.875,29.062,off
05/02/2017 12:02:49,30.937,29.062,off
05/02/2017 12:03:00,30.937,29.062,off
