TIME,INSIDE_TEMPERATURE,OUTSIDE_TEMPERATURE,LIGHTS_STATE

01/30/2018 12:54:26,26.125,23.125,off
01/30/2018 12:54:37,26.125,23.187,off
01/30/2018 12:54:49,26.125,23.25,off
01/30/2018 12:55:01,26.125,23.125,off
