TIME,INSIDE_TEMPERATURE,OUTSIDE_TEMPERATURE,LIGHTS_STATE

07/05/2016 12:40:26,25.812,25.5,off
07/05/2016 12:40:37,25.875,25.5,off
07/05/2016 12:40:49,25.875,25.5,off
07/05/2016 12:41:01,25.875,25.5,off
