TIME,INSIDE_TEMPERATURE,OUTSIDE_TEMPERATURE,LIGHTS_STATE

11/06/2016 12:00:26,28.062,30.687,off
11/06/2016 12:00:37,28.125,30.875,off
11/06/2016 12:00:49,28.125,30.937,off
11/06/2016 12:01:01,28.125,31.062,off
