TIME,INSIDE_TEMPERATURE,OUTSIDE_TEMPERATURE,LIGHTS_STATE

03/16/2017 12:13:26,25.5,21.625,off
03/16/2017 12:13:37,25.5,21.5,off
03/16/2017 12:13:49,25.562,21.5,off
03/16/2017 12:14:01,25.562,21.437,off
