TIME,INSIDE_TEMPERATURE,OUTSIDE_TEMPERATURE,LIGHTS_STATE

07/17/2016 12:47:25,26.5,26.125,off
07/17/2016 12:47:36,26.5,26.125,off
07/17/2016 12:47:48,26.5,26.125,off
07/17/2016 12:48:00,26.5,26.062,off
