TIME,INSIDE_TEMPERATURE,OUTSIDE_TEMPERATURE,LIGHTS_STATE

01/18/2018 12:07:25,24.625,22.937,off
01/18/2018 12:07:37,24.625,23.0,off
01/18/2018 12:07:49,24.625,23.062,off
01/18/2018 12:08:00,24.625,23.187,off
