TIME,INSIDE_TEMPERATURE,OUTSIDE_TEMPERATURE,LIGHTS_STATE

03/24/2018 12:08:26,19.187,14.0,off
03/24/2018 12:08:37,19.25,13.937,off
03/24/2018 12:08:49,19.187,13.937,off
03/24/2018 12:09:01,19.187,13.937,off
