TIME,INSIDE_TEMPERATURE,OUTSIDE_TEMPERATURE,LIGHTS_STATE

10/24/2016 12:18:25,22.312,19.25,off
10/24/2016 12:18:37,22.312,19.312,off
10/24/2016 12:18:48,22.312,19.312,off
10/24/2016 12:19:00,22.312,19.312,off
