TIME,INSIDE_TEMPERATURE,OUTSIDE_TEMPERATURE,LIGHTS_STATE

04/13/2017 12:03:25,21.437,17.125,off
04/13/2017 12:03:37,21.437,17.125,off
04/13/2017 12:03:48,21.437,17.062,off
04/13/2017 12:04:00,21.5,17.062,off
