TIME,INSIDE_TEMPERATURE,OUTSIDE_TEMPERATURE,LIGHTS_STATE

11/13/2016 12:50:25,30.062,27.312,off
11/13/2016 12:50:37,30.062,27.312,off
11/13/2016 12:50:48,30.062,27.312,off
11/13/2016 12:51:00,30.062,27.25,off
