TIME,INSIDE_TEMPERATURE,OUTSIDE_TEMPERATURE,LIGHTS_STATE

07/04/2016 12:38:25,28.312,28.312,off
07/04/2016 12:38:37,28.312,28.312,off
07/04/2016 12:38:49,28.312,28.312,off
07/04/2016 12:39:00,28.25,28.312,off
