TIME,INSIDE_TEMPERATURE,OUTSIDE_TEMPERATURE,LIGHTS_STATE

10/17/2017 12:00:27,29.625,30.125,off
10/17/2017 12:00:38,29.687,30.25,off
10/17/2017 12:00:50,29.687,30.375,off
10/17/2017 12:01:02,29.687,30.5,off
