TIME,INSIDE_TEMPERATURE,OUTSIDE_TEMPERATURE,LIGHTS_STATE

12/04/2016 12:43:25,23.437,21.125,off
12/04/2016 12:43:36,23.437,21.125,off
12/04/2016 12:43:48,23.437,21.187,off
12/04/2016 12:44:00,23.437,21.062,off
