TIME,INSIDE_TEMPERATURE,OUTSIDE_TEMPERATURE,LIGHTS_STATE

04/07/2017 12:43:25,21.5,17.062,off
04/07/2017 12:43:37,21.5,17.125,off
04/07/2017 12:43:48,21.437,17.125,off
04/07/2017 12:44:00,21.437,17.125,off
