TIME,INSIDE_TEMPERATURE,OUTSIDE_TEMPERATURE,LIGHTS_STATE

01/16/2017 12:47:25,18.812,13.625,off
01/16/2017 12:47:37,18.812,13.5,off
01/16/2017 12:47:48,18.812,13.437,off
01/16/2017 12:48:00,18.75,13.437,off
