TIME,INSIDE_TEMPERATURE,OUTSIDE_TEMPERATURE,LIGHTS_STATE

09/23/2017 12:34:25,27.312,24.562,off
09/23/2017 12:34:37,27.312,24.5,off
09/23/2017 12:34:49,27.312,24.5,off
09/23/2017 12:35:00,27.312,24.437,off
