TIME,INSIDE_TEMPERATURE,OUTSIDE_TEMPERATURE,LIGHTS_STATE

03/01/2017 12:51:25,22.875,24.0,off
03/01/2017 12:51:37,22.937,24.125,off
03/01/2017 12:51:49,22.875,24.25,off
03/01/2017 12:52:00,22.875,24.0,off
