TIME,INSIDE_TEMPERATURE,OUTSIDE_TEMPERATURE,LIGHTS_STATE

02/21/2017 12:30:26,23.562,21.625,off
02/21/2017 12:30:37,23.562,21.687,off
02/21/2017 12:30:49,23.562,21.812,off
02/21/2017 12:31:01,23.562,22.125,off
