TIME,INSIDE_TEMPERATURE,OUTSIDE_TEMPERATURE,LIGHTS_STATE

02/07/2017 12:44:25,20.5,16.312,off
02/07/2017 12:44:37,20.562,16.312,off
02/07/2017 12:44:49,20.562,16.312,off
02/07/2017 12:45:00,20.562,16.312,off
