TIME,INSIDE_TEMPERATURE,OUTSIDE_TEMPERATURE,LIGHTS_STATE

04/21/2017 12:43:26,24.437,22.375,off
04/21/2017 12:43:37,24.437,22.375,off
04/21/2017 12:43:49,24.437,22.312,off
04/21/2017 12:44:01,24.437,22.25,off
