TIME,INSIDE_TEMPERATURE,OUTSIDE_TEMPERATURE,LIGHTS_STATE

11/15/2016 12:58:25,26.812,22.0,off
11/15/2016 12:58:37,26.812,21.937,off
11/15/2016 12:58:48,26.812,22.0,off
11/15/2016 12:59:00,26.812,22.0,off
