TIME,INSIDE_TEMPERATURE,OUTSIDE_TEMPERATURE,LIGHTS_STATE

07/11/2016 12:37:25,29.062,28.875,off
07/11/2016 12:37:37,29.062,28.875,off
07/11/2016 12:37:48,29.0,28.875,off
07/11/2016 12:38:00,29.0,28.875,off
