TIME,INSIDE_TEMPERATURE,OUTSIDE_TEMPERATURE,LIGHTS_STATE

08/28/2017 12:41:25,38.437,36.562,off
08/28/2017 12:41:37,38.437,36.562,off
08/28/2017 12:41:49,38.437,36.562,off
08/28/2017 12:42:00,38.437,36.562,off
