TIME,INSIDE_TEMPERATURE,OUTSIDE_TEMPERATURE,LIGHTS_STATE

01/20/2017 12:25:25,16.187,10.25,off
01/20/2017 12:25:36,16.187,10.187,off
01/20/2017 12:25:48,16.187,10.125,off
01/20/2017 12:26:00,16.187,10.062,off
