TIME,INSIDE_TEMPERATURE,OUTSIDE_TEMPERATURE,LIGHTS_STATE

07/14/2017 12:20:25,32.437,30.125,off
07/14/2017 12:20:37,32.5,30.062,off
07/14/2017 12:20:49,32.5,30.062,off
07/14/2017 12:21:01,32.5,30.062,off
