TIME,INSIDE_TEMPERATURE,OUTSIDE_TEMPERATURE,LIGHTS_STATE

07/31/2017 12:15:25,31.125,29.312,off
07/31/2017 12:15:37,31.125,29.312,off
07/31/2017 12:15:49,31.125,29.312,off
07/31/2017 12:16:01,31.187,29.312,off
