TIME,INSIDE_TEMPERATURE,OUTSIDE_TEMPERATURE,LIGHTS_STATE

02/05/2018 12:28:25,30.312,35.0,off
02/05/2018 12:28:37,30.312,34.937,off
02/05/2018 12:28:48,30.25,34.875,off
02/05/2018 12:29:00,30.312,34.875,off
