TIME,INSIDE_TEMPERATURE,OUTSIDE_TEMPERATURE,LIGHTS_STATE

08/18/2017 12:50:25,32.187,30.0,off
08/18/2017 12:50:37,32.187,30.0,off
08/18/2017 12:50:49,32.25,29.937,off
08/18/2017 12:51:01,32.187,30.0,off
