TIME,INSIDE_TEMPERATURE,OUTSIDE_TEMPERATURE,LIGHTS_STATE

10/08/2017 12:32:25,30.5,27.437,off
10/08/2017 12:32:37,30.5,27.437,off
10/08/2017 12:32:49,30.562,27.437,off
10/08/2017 12:33:01,30.5,27.437,off
