TIME,INSIDE_TEMPERATURE,OUTSIDE_TEMPERATURE,LIGHTS_STATE

03/03/2018 12:03:25,18.937,12.0,off
03/03/2018 12:03:37,18.937,11.937,off
03/03/2018 12:03:49,19.0,11.937,off
03/03/2018 12:04:01,18.937,11.937,off
