TIME,INSIDE_TEMPERATURE,OUTSIDE_TEMPERATURE,LIGHTS_STATE

10/28/2017 12:26:25,34.687,34.812,off
10/28/2017 12:26:37,34.75,34.75,off
10/28/2017 12:26:49,34.687,34.687,off
10/28/2017 12:27:01,34.687,34.687,off
