TIME,INSIDE_TEMPERATURE,OUTSIDE_TEMPERATURE,LIGHTS_STATE

02/05/2017 12:40:26,21.625,16.937,off
02/05/2017 12:40:37,21.625,17.0,off
02/05/2017 12:40:49,21.562,17.062,off
02/05/2017 12:41:01,21.562,17.125,off
