TIME,INSIDE_TEMPERATURE,OUTSIDE_TEMPERATURE,LIGHTS_STATE

03/12/2018 12:21:25,26.687,33.312,off
03/12/2018 12:21:37,26.687,33.75,off
03/12/2018 12:21:49,26.75,34.125,off
03/12/2018 12:22:00,26.75,34.25,off
