TIME,INSIDE_TEMPERATURE,OUTSIDE_TEMPERATURE,LIGHTS_STATE

05/14/2017 12:27:25,21.312,18.437,off
05/14/2017 12:27:37,21.312,18.5,off
05/14/2017 12:27:48,21.375,18.562,off
05/14/2017 12:28:00,21.312,18.562,off
