TIME,INSIDE_TEMPERATURE,OUTSIDE_TEMPERATURE,LIGHTS_STATE

10/22/2017 12:56:25,30.5,33.312,off
10/22/2017 12:56:37,30.5,33.437,off
10/22/2017 12:56:48,30.5,33.5,off
10/22/2017 12:57:00,30.5,33.562,off
