TIME,INSIDE_TEMPERATURE,OUTSIDE_TEMPERATURE,LIGHTS_STATE

09/12/2016 12:34:26,24.812,22.687,off
09/12/2016 12:34:38,24.875,22.625,off
09/12/2016 12:34:50,24.812,22.687,off
09/12/2016 12:35:02,24.875,22.625,off
