TIME,INSIDE_TEMPERATURE,OUTSIDE_TEMPERATURE,LIGHTS_STATE

03/04/2017 12:25:25,24.0,24.562,off
03/04/2017 12:25:37,24.0,24.687,off
03/04/2017 12:25:48,24.0,24.75,off
03/04/2017 12:26:00,24.062,24.937,off
