TIME,INSIDE_TEMPERATURE,OUTSIDE_TEMPERATURE,LIGHTS_STATE

05/16/2017 12:44:25,21.25,16.312,off
05/16/2017 12:44:36,21.25,16.25,off
05/16/2017 12:44:48,21.25,16.25,off
05/16/2017 12:45:00,21.25,16.187,off
