TIME,INSIDE_TEMPERATURE,OUTSIDE_TEMPERATURE,LIGHTS_STATE

02/17/2017 12:13:26,19.0,15.625,off
02/17/2017 12:13:38,19.0,15.625,off
02/17/2017 12:13:50,19.0,15.562,off
02/17/2017 12:14:01,18.937,15.562,off
