TIME,INSIDE_TEMPERATURE,OUTSIDE_TEMPERATURE,LIGHTS_STATE

06/19/2017 12:23:25,38.812,34.5,off
06/19/2017 12:23:36,38.875,34.562,off
06/19/2017 12:23:48,38.875,34.562,off
06/19/2017 12:24:00,38.875,34.562,off
