TIME,INSIDE_TEMPERATURE,OUTSIDE_TEMPERATURE,LIGHTS_STATE

02/09/2018 12:14:25,31.0,34.625,off
02/09/2018 12:14:37,31.0,34.687,off
02/09/2018 12:14:48,31.0,34.812,off
02/09/2018 12:15:00,31.0,34.812,off
