TIME,INSIDE_TEMPERATURE,OUTSIDE_TEMPERATURE,LIGHTS_STATE

08/06/2016 12:14:26,24.062,24.0,off
08/06/2016 12:14:38,24.125,23.937,off
08/06/2016 12:14:50,24.125,23.937,off
08/06/2016 12:15:01,24.125,23.937,off
