TIME,INSIDE_TEMPERATURE,OUTSIDE_TEMPERATURE,LIGHTS_STATE

11/12/2016 12:33:25,31.437,33.875,off
11/12/2016 12:33:36,31.437,33.625,off
11/12/2016 12:33:48,31.437,33.437,off
11/12/2016 12:34:00,31.437,33.312,off
