TIME,INSIDE_TEMPERATURE,OUTSIDE_TEMPERATURE,LIGHTS_STATE

09/16/2017 12:03:25,30.687,27.312,off
09/16/2017 12:03:38,30.625,27.375,off
09/16/2017 12:03:49,30.187,27.375,off
09/16/2017 12:04:01,30.312,27.375,off
