TIME,INSIDE_TEMPERATURE,OUTSIDE_TEMPERATURE,LIGHTS_STATE

08/29/2017 12:26:25,30.562,28.375,off
08/29/2017 12:26:37,30.562,28.375,off
08/29/2017 12:26:49,30.625,28.437,off
08/29/2017 12:27:00,30.625,28.437,off
