TIME,INSIDE_TEMPERATURE,OUTSIDE_TEMPERATURE,LIGHTS_STATE

08/01/2016 12:06:26,27.25,27.437,off
08/01/2016 12:06:38,27.25,27.375,off
08/01/2016 12:06:49,27.25,27.437,off
08/01/2016 12:07:01,27.25,27.437,off
