TIME,INSIDE_TEMPERATURE,OUTSIDE_TEMPERATURE,LIGHTS_STATE

09/11/2016 12:01:26,26.75,25.5,off
09/11/2016 12:01:37,26.75,25.625,off
09/11/2016 12:01:49,26.812,25.687,off
09/11/2016 12:02:01,26.812,25.75,off
