TIME,INSIDE_TEMPERATURE,OUTSIDE_TEMPERATURE,LIGHTS_STATE

07/14/2016 12:49:25,34.375,34.062,off
07/14/2016 12:49:37,34.375,34.062,off
07/14/2016 12:49:49,34.375,34.062,off
07/14/2016 12:50:00,34.375,34.062,off
