TIME,INSIDE_TEMPERATURE,OUTSIDE_TEMPERATURE,LIGHTS_STATE

10/19/2017 12:16:25,25.25,19.687,off
10/19/2017 12:16:37,25.25,19.687,off
10/19/2017 12:16:49,25.25,19.75,off
10/19/2017 12:17:00,25.25,19.687,off
