TIME,INSIDE_TEMPERATURE,OUTSIDE_TEMPERATURE,LIGHTS_STATE

07/30/2017 12:29:25,30.562,27.625,off
07/30/2017 12:29:37,30.562,27.625,off
07/30/2017 12:29:49,30.562,27.625,off
07/30/2017 12:30:01,30.562,27.625,off
