TIME,INSIDE_TEMPERATURE,OUTSIDE_TEMPERATURE,LIGHTS_STATE

01/22/2018 12:50:26,22.0,16.437,off
01/22/2018 12:50:37,22.0,16.437,off
01/22/2018 12:50:49,22.0,16.437,off
01/22/2018 12:51:01,22.0,16.437,off
