TIME,INSIDE_TEMPERATURE,OUTSIDE_TEMPERATURE,LIGHTS_STATE

07/25/2017 12:34:25,30.062,26.937,off
07/25/2017 12:34:37,30.062,27.0,off
07/25/2017 12:34:49,30.125,26.937,off
07/25/2017 12:35:01,30.125,27.0,off
