TIME,INSIDE_TEMPERATURE,OUTSIDE_TEMPERATURE,LIGHTS_STATE

04/24/2017 12:02:25,19.812,15.75,off
04/24/2017 12:02:36,19.875,15.687,off
04/24/2017 12:02:48,19.875,15.75,off
04/24/2017 12:03:00,19.875,15.687,off
