TIME,INSIDE_TEMPERATURE,OUTSIDE_TEMPERATURE,LIGHTS_STATE

07/22/2016 12:38:25,29.625,28.687,off
07/22/2016 12:38:37,29.625,28.687,off
07/22/2016 12:38:49,29.625,28.625,off
07/22/2016 12:39:00,29.625,28.625,off
