TIME,INSIDE_TEMPERATURE,OUTSIDE_TEMPERATURE,LIGHTS_STATE

05/07/2017 12:56:25,24.187,21.562,off
05/07/2017 12:56:37,24.187,21.5,off
05/07/2017 12:56:48,24.187,21.5,off
05/07/2017 12:57:00,24.25,21.5,off
