TIME,INSIDE_TEMPERATURE,OUTSIDE_TEMPERATURE,LIGHTS_STATE

10/31/2017 12:25:25,29.75,30.812,off
10/31/2017 12:25:37,29.75,30.875,off
10/31/2017 12:25:48,29.75,30.75,off
10/31/2017 12:26:00,29.75,30.5,off
