TIME,INSIDE_TEMPERATURE,OUTSIDE_TEMPERATURE,LIGHTS_STATE

03/05/2017 12:40:25,17.437,14.125,off
03/05/2017 12:40:37,17.5,14.062,off
03/05/2017 12:40:49,17.5,14.062,off
03/05/2017 12:41:00,17.437,14.062,off
