TIME,INSIDE_TEMPERATURE,OUTSIDE_TEMPERATURE,LIGHTS_STATE

09/16/2016 12:20:25,25.625,25.625,off
09/16/2016 12:20:37,25.687,25.75,off
09/16/2016 12:20:49,25.687,25.875,off
09/16/2016 12:21:00,25.687,25.937,off
