TIME,INSIDE_TEMPERATURE,OUTSIDE_TEMPERATURE,LIGHTS_STATE

07/07/2017 12:41:25,37.25,33.875,off
07/07/2017 12:41:37,37.312,33.812,off
07/07/2017 12:41:49,37.312,33.75,off
07/07/2017 12:42:00,37.25,33.75,off
