TIME,INSIDE_TEMPERATURE,OUTSIDE_TEMPERATURE,LIGHTS_STATE

10/03/2017 12:04:25,26.25,22.437,off
10/03/2017 12:04:37,26.25,22.5,off
10/03/2017 12:04:49,26.312,22.562,off
10/03/2017 12:05:01,26.312,22.625,off
