TIME,INSIDE_TEMPERATURE,OUTSIDE_TEMPERATURE,LIGHTS_STATE

09/06/2017 12:30:26,33.5,31.437,off
09/06/2017 12:30:38,33.5,31.375,off
09/06/2017 12:30:49,33.562,31.375,off
09/06/2017 12:31:01,33.562,31.375,off
