TIME,INSIDE_TEMPERATURE,OUTSIDE_TEMPERATURE,LIGHTS_STATE

12/20/2016 12:46:25,19.437,15.625,off
12/20/2016 12:46:37,19.437,15.687,off
12/20/2016 12:46:49,19.437,15.75,off
12/20/2016 12:47:01,19.437,15.875,off
