TIME,INSIDE_TEMPERATURE,OUTSIDE_TEMPERATURE,LIGHTS_STATE

08/16/2017 12:38:26,27.625,25.125,off
08/16/2017 12:38:37,27.625,25.062,off
08/16/2017 12:38:49,27.625,25.125,off
08/16/2017 12:39:01,27.625,25.062,off
