TIME,INSIDE_TEMPERATURE,OUTSIDE_TEMPERATURE,LIGHTS_STATE

07/24/2016 12:06:26,33.0,33.625,off
07/24/2016 12:06:37,33.0,33.625,off
07/24/2016 12:06:49,33.0,33.625,off
07/24/2016 12:07:01,33.0,33.625,off
