TIME,INSIDE_TEMPERATURE,OUTSIDE_TEMPERATURE,LIGHTS_STATE

01/04/2017 12:09:25,17.0,12.625,off
01/04/2017 12:09:36,17.0,12.625,off
01/04/2017 12:09:48,17.0,12.562,off
01/04/2017 12:10:00,17.0,12.625,off
