TIME,INSIDE_TEMPERATURE,OUTSIDE_TEMPERATURE,LIGHTS_STATE

03/13/2018 12:19:25,20.437,14.125,off
03/13/2018 12:19:37,20.437,14.125,off
03/13/2018 12:19:48,20.437,14.062,off
03/13/2018 12:20:00,20.437,14.125,off
