TIME,INSIDE_TEMPERATURE,OUTSIDE_TEMPERATURE,LIGHTS_STATE

04/22/2017 12:49:26,26.312,23.562,off
04/22/2017 12:49:37,26.312,23.687,off
04/22/2017 12:49:49,26.375,23.687,off
04/22/2017 12:50:01,26.312,23.75,off
