TIME,INSIDE_TEMPERATURE,OUTSIDE_TEMPERATURE,LIGHTS_STATE

05/08/2017 12:23:25,25.625,23.812,off
05/08/2017 12:23:37,25.625,23.75,off
05/08/2017 12:23:48,25.625,23.75,off
05/08/2017 12:24:00,25.625,23.687,off
