TIME,INSIDE_TEMPERATURE,OUTSIDE_TEMPERATURE,LIGHTS_STATE

11/30/2016 12:16:25,20.125,19.875,off
11/30/2016 12:16:37,20.125,19.812,off
11/30/2016 12:16:49,20.125,19.625,off
11/30/2016 12:17:00,20.125,19.5,off
