TIME,INSIDE_TEMPERATURE,OUTSIDE_TEMPERATURE,LIGHTS_STATE

09/05/2017 12:43:26,34.687,32.062,off
09/05/2017 12:43:37,34.75,32.062,off
09/05/2017 12:43:50,34.75,32.062,off
09/05/2017 12:44:01,34.75,32.062,off
