TIME,INSIDE_TEMPERATURE,OUTSIDE_TEMPERATURE,LIGHTS_STATE

08/10/2017 12:56:25,27.687,25.0,off
08/10/2017 12:56:37,27.75,25.062,off
08/10/2017 12:56:49,27.75,25.062,off
08/10/2017 12:57:00,27.75,25.0,off
