TIME,INSIDE_TEMPERATURE,OUTSIDE_TEMPERATURE,LIGHTS_STATE

07/20/2017 12:56:25,29.562,26.312,off
07/20/2017 12:56:37,29.562,26.312,off
07/20/2017 12:56:48,29.625,26.312,off
07/20/2017 12:57:00,29.625,26.312,off
