TIME,INSIDE_TEMPERATURE,OUTSIDE_TEMPERATURE,LIGHTS_STATE

01/20/2018 12:25:25,22.562,23.312,off
01/20/2018 12:25:37,22.562,23.125,off
01/20/2018 12:25:49,22.562,22.937,off
01/20/2018 12:26:01,22.562,22.812,off
