TIME,INSIDE_TEMPERATURE,OUTSIDE_TEMPERATURE,LIGHTS_STATE

10/31/2017 12:19:25,29.75,29.625,off
10/31/2017 12:19:37,29.812,29.625,off
10/31/2017 12:19:49,29.75,29.812,off
10/31/2017 12:20:01,29.812,30.0,off
