TIME,INSIDE_TEMPERATURE,OUTSIDE_TEMPERATURE,LIGHTS_STATE

05/08/2017 12:18:26,25.437,23.437,off
05/08/2017 12:18:37,25.437,23.5,off
05/08/2017 12:18:49,25.437,23.5,off
05/08/2017 12:19:01,25.437,23.562,off
