TIME,INSIDE_TEMPERATURE,OUTSIDE_TEMPERATURE,LIGHTS_STATE

12/27/2017 12:39:25,23.562,25.437,off
12/27/2017 12:39:37,23.562,25.5,off
12/27/2017 12:39:49,23.562,25.5,off
12/27/2017 12:40:01,23.562,25.5,off
