TIME,INSIDE_TEMPERATURE,OUTSIDE_TEMPERATURE,LIGHTS_STATE

06/27/2016 12:54:25,34.812,34.625,off
06/27/2016 12:54:36,34.812,34.625,off
06/27/2016 12:54:48,34.812,34.625,off
06/27/2016 12:55:00,34.812,34.625,off
