TIME,INSIDE_TEMPERATURE,OUTSIDE_TEMPERATURE,LIGHTS_STATE

02/07/2018 12:34:26,28.812,38.812,off
02/07/2018 12:34:37,28.875,38.75,off
02/07/2018 12:34:49,28.875,38.687,off
02/07/2018 12:35:01,28.875,38.75,off
