TIME,INSIDE_TEMPERATURE,OUTSIDE_TEMPERATURE,LIGHTS_STATE

09/01/2017 12:32:26,40.125,39.125,off
09/01/2017 12:32:37,40.187,39.125,off
09/01/2017 12:32:49,40.187,39.125,off
09/01/2017 12:33:01,40.187,39.187,off
