TIME,INSIDE_TEMPERATURE,OUTSIDE_TEMPERATURE,LIGHTS_STATE

11/22/2016 12:57:24,23.625,18.937,off
11/22/2016 12:57:36,23.625,18.937,off
11/22/2016 12:57:48,23.625,18.875,off
11/22/2016 12:57:59,23.625,18.75,off
