TIME,INSIDE_TEMPERATURE,OUTSIDE_TEMPERATURE,LIGHTS_STATE

12/23/2017 12:56:25,21.0,18.562,off
12/23/2017 12:56:37,21.0,18.437,off
12/23/2017 12:56:49,21.0,18.312,off
12/23/2017 12:57:00,21.062,18.125,off
