TIME,INSIDE_TEMPERATURE,OUTSIDE_TEMPERATURE,LIGHTS_STATE

09/13/2017 12:47:25,30.75,27.75,off
09/13/2017 12:47:37,30.75,27.75,off
09/13/2017 12:47:49,30.75,27.812,off
09/13/2017 12:48:01,30.812,27.75,off
