TIME,INSIDE_TEMPERATURE,OUTSIDE_TEMPERATURE,LIGHTS_STATE

03/02/2018 12:45:25,19.187,15.687,off
03/02/2018 12:45:37,19.187,15.875,off
03/02/2018 12:45:49,19.187,16.062,off
03/02/2018 12:46:01,19.187,16.187,off
