TIME,INSIDE_TEMPERATURE,OUTSIDE_TEMPERATURE,LIGHTS_STATE

04/27/2017 12:31:25,23.25,20.562,off
04/27/2017 12:31:37,23.312,20.625,off
04/27/2017 12:31:48,23.312,20.687,off
04/27/2017 12:32:00,23.25,20.75,off
