TIME,INSIDE_TEMPERATURE,OUTSIDE_TEMPERATURE,LIGHTS_STATE

03/31/2017 12:04:25,21.75,18.375,off
03/31/2017 12:04:37,21.812,18.375,off
03/31/2017 12:04:49,21.812,18.375,off
03/31/2017 12:05:01,21.812,18.375,off
