TIME,INSIDE_TEMPERATURE,OUTSIDE_TEMPERATURE,LIGHTS_STATE

05/24/2017 12:26:25,27.25,25.187,off
05/24/2017 12:26:37,27.25,25.187,off
05/24/2017 12:26:49,27.25,25.187,off
05/24/2017 12:27:00,27.25,25.187,off
