TIME,INSIDE_TEMPERATURE,OUTSIDE_TEMPERATURE,LIGHTS_STATE

12/22/2017 12:47:25,19.5,18.25,off
12/22/2017 12:47:37,19.5,18.312,off
12/22/2017 12:47:49,19.5,18.437,off
12/22/2017 12:48:01,19.5,18.375,off
