TIME,INSIDE_TEMPERATURE,OUTSIDE_TEMPERATURE,LIGHTS_STATE

07/27/2017 12:22:26,32.937,29.937,off
07/27/2017 12:22:37,32.937,29.937,off
07/27/2017 12:22:49,32.937,29.937,off
07/27/2017 12:23:01,32.937,30.0,off
