TIME,INSIDE_TEMPERATURE,OUTSIDE_TEMPERATURE,LIGHTS_STATE

05/19/2017 12:54:25,28.75,27.5,off
05/19/2017 12:54:36,28.75,27.562,off
05/19/2017 12:54:48,28.75,27.562,off
05/19/2017 12:55:00,28.75,27.562,off
