TIME,INSIDE_TEMPERATURE,OUTSIDE_TEMPERATURE,LIGHTS_STATE

04/22/2017 12:47:25,26.062,23.125,off
04/22/2017 12:47:37,26.062,23.187,off
04/22/2017 12:47:48,26.125,23.187,off
04/22/2017 12:48:00,26.187,23.187,off
