TIME,INSIDE_TEMPERATURE,OUTSIDE_TEMPERATURE,LIGHTS_STATE

02/15/2017 12:45:25,21.75,18.25,off
02/15/2017 12:45:37,21.75,18.25,off
02/15/2017 12:45:49,21.75,18.312,off
02/15/2017 12:46:00,21.75,18.312,off
