TIME,INSIDE_TEMPERATURE,OUTSIDE_TEMPERATURE,LIGHTS_STATE

01/01/2017 12:23:25,20.687,21.312,off
01/01/2017 12:23:37,20.687,21.062,off
01/01/2017 12:23:49,20.687,21.062,off
01/01/2017 12:24:00,20.687,21.0,off
