TIME,INSIDE_TEMPERATURE,OUTSIDE_TEMPERATURE,LIGHTS_STATE

11/29/2016 12:10:25,21.812,18.25,off
11/29/2016 12:10:37,21.812,18.375,off
11/29/2016 12:10:48,21.812,18.5,off
11/29/2016 12:11:00,21.875,18.437,off
