TIME,INSIDE_TEMPERATURE,OUTSIDE_TEMPERATURE,LIGHTS_STATE

12/06/2016 12:28:25,19.937,16.937,off
12/06/2016 12:28:37,20.0,16.937,off
12/06/2016 12:28:48,20.0,17.0,off
12/06/2016 12:29:00,20.0,17.0,off
