TIME,INSIDE_TEMPERATURE,OUTSIDE_TEMPERATURE,LIGHTS_STATE

12/03/2016 12:51:25,24.125,20.625,off
12/03/2016 12:51:37,24.125,20.687,off
12/03/2016 12:51:49,24.125,20.812,off
12/03/2016 12:52:00,24.125,20.875,off
