TIME,INSIDE_TEMPERATURE,OUTSIDE_TEMPERATURE,LIGHTS_STATE

01/01/2017 12:25:25,20.687,20.375,off
01/01/2017 12:25:37,20.687,20.437,off
01/01/2017 12:25:49,20.75,20.562,off
01/01/2017 12:26:00,20.75,20.562,off
