TIME,INSIDE_TEMPERATURE,OUTSIDE_TEMPERATURE,LIGHTS_STATE

09/09/2016 12:48:25,28.75,30.562,off
09/09/2016 12:48:37,28.75,30.562,off
09/09/2016 12:48:48,28.812,30.562,off
09/09/2016 12:49:00,28.75,30.625,off
