TIME,INSIDE_TEMPERATURE,OUTSIDE_TEMPERATURE,LIGHTS_STATE

01/04/2018 12:47:25,22.562,26.312,off
01/04/2018 12:47:37,22.562,26.437,off
01/04/2018 12:47:48,22.625,26.5,off
01/04/2018 12:48:00,22.625,26.625,off
