TIME,INSIDE_TEMPERATURE,OUTSIDE_TEMPERATURE,LIGHTS_STATE

07/25/2017 12:04:25,29.312,26.625,off
07/25/2017 12:04:37,29.312,26.625,off
07/25/2017 12:04:49,29.375,26.687,off
07/25/2017 12:05:01,29.312,26.687,off
