TIME,INSIDE_TEMPERATURE,OUTSIDE_TEMPERATURE,LIGHTS_STATE

02/28/2018 12:27:25,20.75,26.437,off
02/28/2018 12:27:36,20.75,26.5,off
02/28/2018 12:27:48,20.75,26.625,off
02/28/2018 12:28:00,20.75,26.687,off
