TIME,INSIDE_TEMPERATURE,OUTSIDE_TEMPERATURE,LIGHTS_STATE

09/13/2017 12:52:25,30.812,27.375,off
09/13/2017 12:52:37,30.812,27.375,off
09/13/2017 12:52:48,30.812,27.312,off
09/13/2017 12:53:00,30.812,27.375,off
