TIME,INSIDE_TEMPERATURE,OUTSIDE_TEMPERATURE,LIGHTS_STATE

11/01/2016 12:56:25,27.687,29.125,off
11/01/2016 12:56:37,27.687,29.187,off
11/01/2016 12:56:48,27.687,29.375,off
11/01/2016 12:57:00,27.687,29.437,off
