TIME,INSIDE_TEMPERATURE,OUTSIDE_TEMPERATURE,LIGHTS_STATE

11/06/2016 12:12:25,28.25,27.5,off
11/06/2016 12:12:37,28.312,27.875,off
11/06/2016 12:12:48,28.312,28.062,off
11/06/2016 12:13:00,28.312,28.062,off
