TIME,INSIDE_TEMPERATURE,OUTSIDE_TEMPERATURE,LIGHTS_STATE

03/26/2017 12:29:25,23.562,19.625,off
03/26/2017 12:29:37,23.562,19.5,off
03/26/2017 12:29:48,23.562,19.437,off
03/26/2017 12:30:00,23.562,19.437,off
