TIME,INSIDE_TEMPERATURE,OUTSIDE_TEMPERATURE,LIGHTS_STATE

03/13/2018 12:56:25,20.812,14.375,off
03/13/2018 12:56:37,20.812,14.375,off
03/13/2018 12:56:49,20.812,14.312,off
03/13/2018 12:57:00,20.812,14.375,off
