TIME,INSIDE_TEMPERATURE,OUTSIDE_TEMPERATURE,LIGHTS_STATE

09/02/2017 12:14:26,39.875,38.625,off
09/02/2017 12:14:38,39.875,38.625,off
09/02/2017 12:14:49,39.875,38.687,off
09/02/2017 12:15:01,39.937,38.687,off
