TIME,INSIDE_TEMPERATURE,OUTSIDE_TEMPERATURE,LIGHTS_STATE

03/05/2018 12:56:25,20.312,27.687,off
03/05/2018 12:56:37,20.375,27.687,off
03/05/2018 12:56:50,20.375,27.687,off
03/05/2018 12:57:01,20.312,27.625,off
