TIME,INSIDE_TEMPERATURE,OUTSIDE_TEMPERATURE,LIGHTS_STATE

01/13/2018 12:20:25,17.0,12.125,off
01/13/2018 12:20:37,17.0,12.125,off
01/13/2018 12:20:49,17.0,12.125,off
01/13/2018 12:21:01,17.0,12.125,off
