TIME,INSIDE_TEMPERATURE,OUTSIDE_TEMPERATURE,LIGHTS_STATE

09/13/2017 12:35:25,30.375,27.75,off
09/13/2017 12:35:37,30.375,27.75,off
09/13/2017 12:35:49,30.375,27.625,off
09/13/2017 12:36:01,30.437,27.625,off
