TIME,INSIDE_TEMPERATURE,OUTSIDE_TEMPERATURE,LIGHTS_STATE

10/31/2016 12:34:25,25.187,22.625,off
10/31/2016 12:34:37,25.187,22.562,off
10/31/2016 12:34:48,25.187,22.375,off
10/31/2016 12:35:00,25.125,22.125,off
