TIME,INSIDE_TEMPERATURE,OUTSIDE_TEMPERATURE,LIGHTS_STATE

09/14/2016 12:03:25,25.812,24.875,off
09/14/2016 12:03:37,25.812,24.937,off
09/14/2016 12:03:49,25.812,25.062,off
09/14/2016 12:04:00,25.812,25.125,off
