TIME,INSIDE_TEMPERATURE,OUTSIDE_TEMPERATURE,LIGHTS_STATE

10/16/2017 12:04:25,33.0,35.437,off
10/16/2017 12:04:37,33.0,35.375,off
10/16/2017 12:04:49,33.062,35.187,off
10/16/2017 12:05:01,33.062,34.875,off
