TIME,INSIDE_TEMPERATURE,OUTSIDE_TEMPERATURE,LIGHTS_STATE

04/23/2017 12:49:25,22.25,19.062,off
04/23/2017 12:49:37,22.25,19.062,off
04/23/2017 12:49:49,22.25,19.125,off
04/23/2017 12:50:00,22.312,19.062,off
