TIME,INSIDE_TEMPERATURE,OUTSIDE_TEMPERATURE,LIGHTS_STATE

11/11/2016 12:50:25,27.937,25.25,off
11/11/2016 12:50:36,27.937,25.187,off
11/11/2016 12:50:48,27.937,25.187,off
11/11/2016 12:51:00,27.937,25.187,off
