TIME,INSIDE_TEMPERATURE,OUTSIDE_TEMPERATURE,LIGHTS_STATE

08/11/2017 12:25:25,28.5,26.437,off
08/11/2017 12:25:37,28.5,26.437,off
08/11/2017 12:25:49,28.375,26.5,off
08/11/2017 12:26:01,28.437,26.437,off
