TIME,INSIDE_TEMPERATURE,OUTSIDE_TEMPERATURE,LIGHTS_STATE

11/01/2017 12:53:25,30.375,30.812,off
11/01/2017 12:53:37,30.375,30.875,off
11/01/2017 12:53:48,30.375,30.937,off
11/01/2017 12:54:00,30.375,30.937,off
