TIME,INSIDE_TEMPERATURE,OUTSIDE_TEMPERATURE,LIGHTS_STATE

08/23/2017 12:24:25,29.75,27.437,off
08/23/2017 12:24:37,29.75,27.437,off
08/23/2017 12:24:49,29.812,27.312,off
08/23/2017 12:25:01,29.812,27.375,off
