TIME,INSIDE_TEMPERATURE,OUTSIDE_TEMPERATURE,LIGHTS_STATE

08/24/2017 12:13:25,28.062,25.25,off
08/24/2017 12:13:37,28.125,25.312,off
08/24/2017 12:13:48,28.125,25.312,off
08/24/2017 12:14:00,28.125,25.312,off
