TIME,INSIDE_TEMPERATURE,OUTSIDE_TEMPERATURE,LIGHTS_STATE

07/08/2016 12:39:25,24.0,23.875,off
07/08/2016 12:39:37,24.0,23.937,off
07/08/2016 12:39:49,23.937,23.875,off
07/08/2016 12:40:00,23.937,23.812,off
