TIME,INSIDE_TEMPERATURE,OUTSIDE_TEMPERATURE,LIGHTS_STATE

08/01/2017 12:19:25,35.812,34.687,off
08/01/2017 12:19:37,35.812,34.687,off
08/01/2017 12:19:49,35.812,34.687,off
08/01/2017 12:20:01,35.812,34.687,off
