TIME,INSIDE_TEMPERATURE,OUTSIDE_TEMPERATURE,LIGHTS_STATE

01/07/2018 12:46:25,18.75,12.937,off
01/07/2018 12:46:37,18.75,13.0,off
01/07/2018 12:46:49,18.75,12.937,off
01/07/2018 12:47:00,18.75,12.937,off
