TIME,INSIDE_TEMPERATURE,OUTSIDE_TEMPERATURE,LIGHTS_STATE

09/23/2017 12:18:25,26.437,24.375,off
09/23/2017 12:18:37,26.437,24.375,off
09/23/2017 12:18:49,26.5,24.375,off
09/23/2017 12:19:01,26.5,24.375,off
