TIME,INSIDE_TEMPERATURE,OUTSIDE_TEMPERATURE,LIGHTS_STATE

01/13/2017 12:38:25,21.0,16.375,off
01/13/2017 12:38:37,21.062,16.437,off
01/13/2017 12:38:48,21.0,16.562,off
01/13/2017 12:39:00,21.062,16.687,off
