TIME,INSIDE_TEMPERATURE,OUTSIDE_TEMPERATURE,LIGHTS_STATE

01/13/2018 12:21:25,17.0,12.062,off
01/13/2018 12:21:37,17.0,12.062,off
01/13/2018 12:21:49,17.062,12.062,off
01/13/2018 12:22:02,17.062,12.125,off
