TIME,INSIDE_TEMPERATURE,OUTSIDE_TEMPERATURE,LIGHTS_STATE

09/21/2017 12:32:26,26.25,21.875,off
09/21/2017 12:32:37,26.25,21.875,off
09/21/2017 12:32:49,26.25,21.937,off
09/21/2017 12:33:01,26.25,21.937,off
