TIME,INSIDE_TEMPERATURE,OUTSIDE_TEMPERATURE,LIGHTS_STATE

02/19/2017 12:47:25,16.25,11.75,off
02/19/2017 12:47:37,16.25,11.75,off
02/19/2017 12:47:48,16.25,11.812,off
02/19/2017 12:48:00,16.25,11.812,off
