TIME,INSIDE_TEMPERATURE,OUTSIDE_TEMPERATURE,LIGHTS_STATE

01/10/2017 12:41:25,16.375,12.562,off
01/10/2017 12:41:37,16.375,12.562,off
01/10/2017 12:41:49,16.437,12.625,off
01/10/2017 12:42:01,16.375,12.562,off
