TIME,INSIDE_TEMPERATURE,OUTSIDE_TEMPERATURE,LIGHTS_STATE

03/27/2018 12:23:25,22.187,18.062,off
03/27/2018 12:23:37,22.187,18.125,off
03/27/2018 12:23:49,22.187,18.187,off
03/27/2018 12:24:00,22.25,18.25,off
