TIME,INSIDE_TEMPERATURE,OUTSIDE_TEMPERATURE,LIGHTS_STATE

05/10/2017 12:13:26,23.062,20.437,off
05/10/2017 12:13:37,23.062,20.5,off
05/10/2017 12:13:49,23.125,20.5,off
05/10/2017 12:14:01,23.125,20.562,off
