TIME,INSIDE_TEMPERATURE,OUTSIDE_TEMPERATURE,LIGHTS_STATE

12/14/2016 12:13:25,21.312,17.875,off
12/14/2016 12:13:37,21.312,17.937,off
12/14/2016 12:13:49,21.312,17.937,off
12/14/2016 12:14:01,21.312,17.875,off
