TIME,INSIDE_TEMPERATURE,OUTSIDE_TEMPERATURE,LIGHTS_STATE

03/18/2018 12:38:25,17.875,14.625,off
03/18/2018 12:38:37,17.875,14.687,off
03/18/2018 12:38:49,17.875,14.625,off
03/18/2018 12:39:01,17.875,14.625,off
