TIME,INSIDE_TEMPERATURE,OUTSIDE_TEMPERATURE,LIGHTS_STATE

03/16/2017 12:16:25,25.562,21.687,off
03/16/2017 12:16:37,25.562,21.625,off
03/16/2017 12:16:49,25.625,21.625,off
03/16/2017 12:17:00,25.625,21.625,off
