TIME,INSIDE_TEMPERATURE,OUTSIDE_TEMPERATURE,LIGHTS_STATE

08/27/2017 12:49:25,38.625,37.0,off
08/27/2017 12:49:37,38.625,36.937,off
08/27/2017 12:49:49,38.625,36.937,off
08/27/2017 12:50:01,38.625,36.937,off
