TIME,INSIDE_TEMPERATURE,OUTSIDE_TEMPERATURE,LIGHTS_STATE

12/26/2016 12:03:25,17.062,12.312,off
12/26/2016 12:03:36,17.062,12.25,off
12/26/2016 12:03:48,17.062,12.125,off
12/26/2016 12:04:00,17.062,12.062,off
