TIME,INSIDE_TEMPERATURE,OUTSIDE_TEMPERATURE,LIGHTS_STATE

10/11/2017 12:52:26,27.75,25.875,off
10/11/2017 12:52:37,27.75,25.812,off
10/11/2017 12:52:49,27.75,25.875,off
10/11/2017 12:53:01,27.75,25.937,off
