TIME,INSIDE_TEMPERATURE,OUTSIDE_TEMPERATURE,LIGHTS_STATE

06/13/2017 12:02:25,25.625,22.625,off
06/13/2017 12:02:36,25.687,22.625,off
06/13/2017 12:02:48,25.687,22.625,off
06/13/2017 12:03:01,25.687,22.625,off
