TIME,INSIDE_TEMPERATURE,OUTSIDE_TEMPERATURE,LIGHTS_STATE

08/20/2017 12:31:26,29.937,28.562,off
08/20/2017 12:31:38,30.0,28.562,off
08/20/2017 12:31:50,30.0,28.562,off
08/20/2017 12:32:01,30.0,28.5,off
