TIME,INSIDE_TEMPERATURE,OUTSIDE_TEMPERATURE,LIGHTS_STATE

05/10/2017 12:08:25,23.062,20.625,off
05/10/2017 12:08:37,23.0,20.625,off
05/10/2017 12:08:48,23.0,20.562,off
05/10/2017 12:09:00,23.0,20.562,off
