TIME,INSIDE_TEMPERATURE,OUTSIDE_TEMPERATURE,LIGHTS_STATE

02/21/2018 12:01:25,21.125,20.875,off
02/21/2018 12:01:36,21.125,20.812,off
02/21/2018 12:01:48,21.125,20.687,off
02/21/2018 12:02:00,21.187,20.625,off
