TIME,INSIDE_TEMPERATURE,OUTSIDE_TEMPERATURE,LIGHTS_STATE

03/01/2017 12:36:26,23.437,21.125,off
03/01/2017 12:36:37,23.437,21.125,off
03/01/2017 12:36:49,23.437,21.125,off
03/01/2017 12:37:01,23.375,21.25,off
