TIME,INSIDE_TEMPERATURE,OUTSIDE_TEMPERATURE,LIGHTS_STATE

03/06/2018 12:42:25,22.812,33.312,off
03/06/2018 12:42:37,22.812,33.5,off
03/06/2018 12:42:49,22.812,33.75,off
03/06/2018 12:43:01,22.812,33.562,off
