TIME,INSIDE_TEMPERATURE,OUTSIDE_TEMPERATURE,LIGHTS_STATE

08/26/2017 12:10:25,35.25,33.937,off
08/26/2017 12:10:37,35.25,34.0,off
08/26/2017 12:10:49,35.25,34.0,off
08/26/2017 12:11:01,35.25,34.0,off
