TIME,INSIDE_TEMPERATURE,OUTSIDE_TEMPERATURE,LIGHTS_STATE

09/03/2017 12:53:26,43.0,40.437,off
09/03/2017 12:53:37,43.0,40.375,off
09/03/2017 12:53:49,43.0,40.375,off
09/03/2017 12:54:01,43.0,40.375,off
