TIME,INSIDE_TEMPERATURE,OUTSIDE_TEMPERATURE,LIGHTS_STATE

01/29/2018 12:30:26,19.562,15.562,off
01/29/2018 12:30:37,19.562,15.562,off
01/29/2018 12:30:49,19.625,15.625,off
01/29/2018 12:31:01,19.562,15.687,off
