TIME,INSIDE_TEMPERATURE,OUTSIDE_TEMPERATURE,LIGHTS_STATE

12/16/2016 12:34:26,18.0,14.812,off
12/16/2016 12:34:37,18.0,14.875,off
12/16/2016 12:34:49,18.0,14.812,off
12/16/2016 12:35:01,18.0,14.812,off
