TIME,INSIDE_TEMPERATURE,OUTSIDE_TEMPERATURE,LIGHTS_STATE

07/19/2016 12:12:25,24.125,25.25,off
07/19/2016 12:12:37,24.062,25.187,off
07/19/2016 12:12:49,24.125,25.187,off
07/19/2016 12:13:00,24.125,25.187,off
