TIME,INSIDE_TEMPERATURE,OUTSIDE_TEMPERATURE,LIGHTS_STATE

09/12/2016 12:00:25,24.187,22.25,off
09/12/2016 12:00:36,24.187,22.312,off
09/12/2016 12:00:48,24.25,22.375,off
09/12/2016 12:01:00,24.312,22.437,off
