TIME,INSIDE_TEMPERATURE,OUTSIDE_TEMPERATURE,LIGHTS_STATE

10/24/2016 12:20:25,22.375,19.5,off
10/24/2016 12:20:36,22.375,19.5,off
10/24/2016 12:20:48,22.375,19.5,off
10/24/2016 12:21:00,22.375,19.437,off
