TIME,INSIDE_TEMPERATURE,OUTSIDE_TEMPERATURE,LIGHTS_STATE

01/01/2018 12:16:26,23.437,19.25,off
01/01/2018 12:16:38,23.437,19.25,off
01/01/2018 12:16:49,23.437,19.312,off
01/01/2018 12:17:01,23.5,19.312,off
