TIME,INSIDE_TEMPERATURE,OUTSIDE_TEMPERATURE,LIGHTS_STATE

02/13/2018 12:30:26,23.375,26.375,off
02/13/2018 12:30:37,23.375,26.437,off
02/13/2018 12:30:49,23.375,26.437,off
02/13/2018 12:31:01,23.437,26.375,off
