TIME,INSIDE_TEMPERATURE,OUTSIDE_TEMPERATURE,LIGHTS_STATE

01/14/2017 12:38:24,21.437,17.687,off
01/14/2017 12:38:36,21.437,17.625,off
01/14/2017 12:38:48,21.437,17.625,off
01/14/2017 12:38:59,21.437,17.625,off
