TIME,INSIDE_TEMPERATURE,OUTSIDE_TEMPERATURE,LIGHTS_STATE

06/22/2016 12:48:25,28.562,28.875,off
06/22/2016 12:48:37,28.562,28.875,off
06/22/2016 12:48:48,28.562,28.812,off
06/22/2016 12:49:00,28.562,28.812,off
