TIME,INSIDE_TEMPERATURE,OUTSIDE_TEMPERATURE,LIGHTS_STATE

02/06/2017 12:47:25,18.0,13.812,off
02/06/2017 12:47:37,18.0,13.812,off
02/06/2017 12:47:49,18.0,13.812,off
02/06/2017 12:48:00,18.0,13.875,off
