TIME,INSIDE_TEMPERATURE,OUTSIDE_TEMPERATURE,LIGHTS_STATE

12/14/2016 12:28:25,21.5,19.0,off
12/14/2016 12:28:37,21.5,19.125,off
12/14/2016 12:28:48,21.5,19.187,off
12/14/2016 12:29:00,21.5,19.312,off
