TIME,INSIDE_TEMPERATURE,OUTSIDE_TEMPERATURE,LIGHTS_STATE

09/02/2017 12:35:26,40.875,39.375,off
09/02/2017 12:35:38,40.875,39.312,off
09/02/2017 12:35:50,40.875,39.375,off
09/02/2017 12:36:01,40.875,39.375,off
