TIME,INSIDE_TEMPERATURE,OUTSIDE_TEMPERATURE,LIGHTS_STATE

07/10/2017 12:46:26,34.937,31.25,off
07/10/2017 12:46:37,34.937,31.25,off
07/10/2017 12:46:49,34.937,31.25,off
07/10/2017 12:47:01,35.0,31.25,off
