TIME,INSIDE_TEMPERATURE,OUTSIDE_TEMPERATURE,LIGHTS_STATE

07/20/2016 12:18:25,26.5,27.125,off
07/20/2016 12:18:37,26.5,27.125,off
07/20/2016 12:18:49,26.5,27.125,off
07/20/2016 12:19:00,26.5,27.125,off
