TIME,INSIDE_TEMPERATURE,OUTSIDE_TEMPERATURE,LIGHTS_STATE

09/03/2016 12:25:25,24.25,23.375,off
09/03/2016 12:25:37,24.25,23.437,off
09/03/2016 12:25:49,24.25,23.437,off
09/03/2016 12:26:01,24.25,23.437,off
09/03/2016 12:19:25,24.125,23.5,off
09/03/2016 12:19:36,24.125,23.5,off
09/03/2016 12:19:48,24.125,23.5,off
09/03/2016 12:20:00,24.125,23.5,off
09/03/2016 12:26:26,24.25,23.5,off
09/03/2016 12:26:37,24.25,23.562,off
09/03/2016 12:26:49,24.25,23.562,off
09/03/2016 12:27:01,24.25,23.5,off
09/03/2016 12:27:25,24.25,23.5,off
09/03/2016 12:27:36,24.25,23.5,off
09/03/2016 12:27:48,24.25,23.5,off
09/03/2016 12:28:00,24.312,23.562,off
09/03/2016 12:49:25,25.0,24.625,off
09/03/2016 12:49:37,24.937,24.625,off
09/03/2016 12:49:49,25.0,24.562,off
09/03/2016 12:50:00,25.0,24.562,off
09/03/2016 12:50:25,25.0,24.562,off
09/03/2016 12:50:37,25.062,24.625,off
09/03/2016 12:50:48,25.062,24.625,off
09/03/2016 12:51:00,25.062,24.625,off
09/03/2016 12:51:25,25.062,24.687,off
09/03/2016 12:51:37,25.125,24.625,off
09/03/2016 12:51:49,25.125,24.625,off
09/03/2016 12:52:00,25.125,24.687,off
09/03/2016 12:52:26,25.125,24.687,off
09/03/2016 12:52:37,25.187,24.687,off
09/03/2016 12:52:49,25.125,24.687,off
09/03/2016 12:53:01,25.125,24.687,off
09/03/2016 12:57:25,25.312,24.562,off
09/03/2016 12:57:37,25.312,24.562,off
09/03/2016 12:57:49,25.312,24.625,off
09/03/2016 12:58:00,25.375,24.687,off
09/03/2016 12:58:25,25.375,24.812,off
09/03/2016 12:58:37,25.375,25.0,off
09/03/2016 12:58:48,25.375,25.0,off
09/03/2016 12:59:00,25.375,25.062,off
09/04/2016 12:01:25,23.875,23.812,off
09/04/2016 12:01:37,23.875,23.812,off
09/04/2016 12:01:49,23.937,23.812,off
09/04/2016 12:02:00,23.875,23.812,off
09/04/2016 12:02:25,23.937,23.812,off
09/04/2016 12:02:37,23.937,23.875,off
09/04/2016 12:02:49,23.875,23.875,off
09/04/2016 12:03:00,23.937,23.937,off
09/08/2016 12:04:26,28.25,28.75,off
09/08/2016 12:04:37,28.25,28.812,off
09/08/2016 12:04:49,28.25,28.875,off
09/08/2016 12:05:02,28.25,29.0,off
09/08/2016 12:05:26,28.187,29.25,off
09/08/2016 12:05:38,28.25,29.375,off
09/08/2016 12:05:49,28.25,29.437,off
09/08/2016 12:06:01,28.25,29.5,off
09/08/2016 12:06:27,28.25,29.5,off
09/08/2016 12:06:38,28.25,29.437,off
09/08/2016 12:06:50,28.25,29.437,off
09/08/2016 12:07:02,28.25,29.437,off
09/08/2016 12:07:26,28.25,29.562,off
09/08/2016 12:07:38,28.25,29.562,off
09/08/2016 12:07:49,28.312,29.625,off
09/08/2016 12:08:01,28.312,29.687,off
09/08/2016 12:08:26,28.312,29.687,off
09/08/2016 12:08:37,28.312,29.75,off
09/08/2016 12:08:49,28.25,29.875,off
09/08/2016 12:09:01,28.312,29.812,off
09/08/2016 12:09:25,28.25,29.625,off
09/08/2016 12:09:37,28.312,29.562,off
09/08/2016 12:09:49,28.312,29.562,off
09/08/2016 12:10:00,28.312,29.5,off
09/08/2016 12:10:26,28.312,29.562,off
09/08/2016 12:10:39,28.312,29.937,off
09/08/2016 12:10:51,28.312,30.437,off
09/08/2016 12:11:25,28.312,31.0,off
09/08/2016 12:11:37,28.312,31.312,off
09/08/2016 12:11:49,28.312,31.625,off
09/08/2016 12:12:00,28.312,31.937,off
09/08/2016 12:12:25,28.312,32.75,off
09/08/2016 12:12:37,28.375,32.937,off
09/08/2016 12:12:49,28.312,33.125,off
09/08/2016 12:13:01,28.375,33.312,off
09/08/2016 12:13:26,28.312,33.875,off
09/08/2016 12:13:38,28.375,34.187,off
09/08/2016 12:13:50,28.375,34.5,off
09/08/2016 12:14:02,28.375,34.875,off
09/08/2016 12:14:25,28.375,35.562,off
09/08/2016 12:14:38,28.312,35.812,off
09/08/2016 12:14:49,28.312,35.812,off
09/08/2016 12:15:01,28.312,35.812,off
09/08/2016 12:15:25,28.375,36.125,off
09/08/2016 12:15:37,28.375,36.5,off
09/08/2016 12:15:48,28.375,36.75,off
09/08/2016 12:16:00,28.375,37.062,off
09/08/2016 12:16:26,28.375,37.562,off
09/08/2016 12:16:38,28.437,37.75,off
09/08/2016 12:16:50,28.437,37.875,off
09/08/2016 12:17:25,28.375,38.0,off
09/08/2016 12:17:37,28.437,38.062,off
09/08/2016 12:17:49,28.437,38.125,off
09/08/2016 12:18:01,28.437,38.062,off
09/08/2016 12:18:26,28.437,37.75,off
09/08/2016 12:18:38,28.437,37.562,off
09/08/2016 12:18:50,28.437,37.5,off
09/08/2016 12:19:01,28.437,37.5,off
09/08/2016 12:19:25,28.437,37.312,off
09/08/2016 12:19:37,28.5,37.25,off
09/08/2016 12:19:49,28.5,37.187,off
09/08/2016 12:20:01,28.5,37.0,off
09/11/2016 12:00:25,26.812,25.625,off
09/11/2016 12:00:37,26.812,25.625,off
09/11/2016 12:00:49,26.812,25.562,off
09/11/2016 12:01:01,26.812,25.562,off
09/04/2016 12:00:25,23.875,23.75,off
09/04/2016 12:00:37,23.875,23.75,off
09/04/2016 12:00:48,23.875,23.75,off
09/04/2016 12:01:00,23.875,23.75,off
09/04/2016 12:03:25,23.937,23.937,off
09/04/2016 12:03:36,23.937,24.0,off
09/04/2016 12:03:48,23.937,24.0,off
09/04/2016 12:04:00,23.937,24.0,off
09/04/2016 12:04:25,23.937,24.0,off
09/04/2016 12:04:37,23.937,24.0,off
09/04/2016 12:04:48,23.937,24.0,off
09/04/2016 12:05:00,23.937,24.0,off
09/03/2016 12:32:25,24.437,23.812,off
09/03/2016 12:32:37,24.437,23.75,off
09/03/2016 12:32:49,24.437,23.75,off
09/03/2016 12:33:00,24.437,23.687,off
09/03/2016 12:33:26,24.437,23.625,off
09/03/2016 12:33:37,24.437,23.5,off
09/03/2016 12:33:49,24.437,23.437,off
09/03/2016 12:34:01,24.437,23.5,off
09/05/2016 12:01:26,25.437,27.625,off
09/05/2016 12:01:38,25.437,27.687,off
09/05/2016 12:01:49,25.437,27.625,off
09/05/2016 12:02:01,25.437,27.687,off
09/05/2016 12:02:25,25.437,27.687,off
09/05/2016 12:02:37,25.437,27.687,off
09/05/2016 12:02:49,25.437,27.687,off
09/05/2016 12:03:00,25.437,27.75,off
09/05/2016 12:03:25,25.437,27.75,off
09/05/2016 12:03:36,25.437,27.75,off
09/05/2016 12:03:48,25.437,27.75,off
09/05/2016 12:04:00,25.437,27.812,off
09/05/2016 12:04:25,25.437,27.75,off
09/05/2016 12:04:36,25.5,27.75,off
09/05/2016 12:04:48,25.5,27.75,off
09/05/2016 12:05:00,25.5,27.812,off
09/05/2016 12:05:25,25.5,27.812,off
09/05/2016 12:05:37,25.5,27.812,off
09/05/2016 12:05:48,25.5,27.812,off
09/05/2016 12:06:00,25.5,27.812,off
09/05/2016 12:06:26,25.5,27.875,off
09/05/2016 12:06:37,25.5,27.937,off
09/05/2016 12:06:49,25.562,27.937,off
09/05/2016 12:07:01,25.562,27.937,off
09/05/2016 12:07:25,25.562,28.0,off
09/05/2016 12:07:37,25.562,28.0,off
09/05/2016 12:07:49,25.562,28.0,off
09/05/2016 12:08:00,25.562,28.0,off
09/05/2016 12:08:25,25.562,28.062,off
09/05/2016 12:08:36,25.562,28.062,off
09/05/2016 12:08:49,25.625,28.125,off
09/05/2016 12:09:00,25.625,28.125,off
09/04/2016 12:12:25,24.187,24.437,off
09/04/2016 12:12:37,24.187,24.437,off
09/04/2016 12:12:49,24.187,24.437,off
09/04/2016 12:13:00,24.187,24.437,off
09/04/2016 12:13:25,24.187,24.5,off
09/04/2016 12:13:36,24.187,24.5,off
09/04/2016 12:13:48,24.187,24.562,off
09/04/2016 12:14:00,24.187,24.562,off
09/04/2016 12:14:25,24.187,24.75,off
09/04/2016 12:14:38,24.187,24.875,off
09/04/2016 12:14:50,24.25,25.0,off
09/04/2016 12:15:02,24.25,25.062,off
09/04/2016 12:15:25,24.25,25.25,off
09/04/2016 12:15:37,24.25,25.25,off
09/04/2016 12:15:48,24.25,25.312,off
09/04/2016 12:16:00,24.25,25.312,off
09/05/2016 12:14:27,25.75,28.437,off
09/05/2016 12:14:38,25.812,28.5,off
09/05/2016 12:14:50,25.812,28.5,off
09/05/2016 12:15:02,25.812,28.562,off
09/05/2016 12:15:25,25.812,28.687,off
09/05/2016 12:15:37,25.812,28.75,off
09/05/2016 12:15:48,25.812,28.75,off
09/05/2016 12:16:00,25.875,28.812,off
09/05/2016 12:16:25,25.875,28.812,off
09/05/2016 12:16:37,25.875,28.875,off
09/05/2016 12:16:49,25.875,28.875,off
09/05/2016 12:17:00,25.937,28.812,off
09/05/2016 12:17:26,25.937,28.875,off
09/05/2016 12:17:37,25.937,28.812,off
09/05/2016 12:17:49,26.0,28.875,off
09/05/2016 12:18:01,26.0,28.937,off
09/05/2016 12:18:25,26.0,29.0,off
09/05/2016 12:18:37,25.937,29.0,off
09/05/2016 12:18:49,26.0,29.062,off
09/05/2016 12:19:00,26.0,29.125,off
09/05/2016 12:19:25,26.0,29.187,off
09/05/2016 12:19:37,26.0,29.25,off
09/05/2016 12:19:49,26.0,29.25,off
09/05/2016 12:20:01,26.0,29.25,off
09/05/2016 12:20:25,26.0,29.25,off
09/05/2016 12:20:37,26.0,29.25,off
09/05/2016 12:20:48,26.062,29.25,off
09/05/2016 12:21:00,26.0,29.25,off
09/05/2016 12:21:26,26.0,29.187,off
09/05/2016 12:21:38,26.0,29.187,off
09/05/2016 12:21:49,26.062,29.187,off
09/05/2016 12:22:01,26.062,29.125,off
09/03/2016 12:46:25,24.812,24.5,off
09/03/2016 12:46:37,24.812,24.5,off
09/03/2016 12:46:49,24.875,24.5,off
09/03/2016 12:47:00,24.875,24.5,off
09/03/2016 12:47:26,24.875,24.562,off
09/03/2016 12:47:37,24.937,24.562,off
09/03/2016 12:47:49,24.937,24.562,off
09/03/2016 12:48:01,24.937,24.562,off
