TIME,INSIDE_TEMPERATURE,OUTSIDE_TEMPERATURE,LIGHTS_STATE

01/14/2018 12:10:25,19.25,13.812,off
01/14/2018 12:10:37,19.25,13.875,off
01/14/2018 12:10:49,19.25,13.937,off
01/14/2018 12:11:01,19.25,13.937,off
