TIME,INSIDE_TEMPERATURE,OUTSIDE_TEMPERATURE,LIGHTS_STATE

12/31/2016 12:48:25,13.125,9.562,off
12/31/2016 12:48:37,13.125,9.562,off
12/31/2016 12:48:48,13.125,9.562,off
12/31/2016 12:49:00,13.125,9.625,off
