TIME,INSIDE_TEMPERATURE,OUTSIDE_TEMPERATURE,LIGHTS_STATE

10/05/2017 12:42:25,30.687,28.75,off
10/05/2017 12:42:37,30.75,28.75,off
10/05/2017 12:42:49,30.75,28.75,off
10/05/2017 12:43:01,30.75,28.687,off
