TIME,INSIDE_TEMPERATURE,OUTSIDE_TEMPERATURE,LIGHTS_STATE

03/06/2018 12:57:25,23.125,31.812,off
03/06/2018 12:57:37,23.125,31.437,off
03/06/2018 12:57:48,23.125,31.5,off
03/06/2018 12:58:00,23.125,31.437,off
