TIME,INSIDE_TEMPERATURE,OUTSIDE_TEMPERATURE,LIGHTS_STATE

04/13/2017 12:19:25,21.812,16.812,off
04/13/2017 12:19:37,21.812,16.75,off
04/13/2017 12:19:48,21.812,16.75,off
04/13/2017 12:20:00,21.812,16.687,off
