TIME,INSIDE_TEMPERATURE,OUTSIDE_TEMPERATURE,LIGHTS_STATE

02/19/2018 12:26:26,20.5,31.937,off
02/19/2018 12:26:37,20.5,31.875,off
02/19/2018 12:26:49,20.5,31.5,off
02/19/2018 12:27:01,20.5,31.437,off
