TIME,INSIDE_TEMPERATURE,OUTSIDE_TEMPERATURE,LIGHTS_STATE

02/28/2018 12:05:25,19.562,20.0,off
02/28/2018 12:05:37,19.562,20.25,off
02/28/2018 12:05:49,19.562,20.5,off
02/28/2018 12:06:01,19.562,20.75,off
