TIME,INSIDE_TEMPERATURE,OUTSIDE_TEMPERATURE,LIGHTS_STATE

11/12/2016 12:41:25,31.562,31.812,off
11/12/2016 12:41:36,31.562,31.625,off
11/12/2016 12:41:48,31.562,31.375,off
11/12/2016 12:42:00,31.562,31.062,off
