TIME,INSIDE_TEMPERATURE,OUTSIDE_TEMPERATURE,LIGHTS_STATE

01/12/2018 12:09:25,20.0,17.375,off
01/12/2018 12:09:37,20.0,17.437,off
01/12/2018 12:09:49,20.0,17.562,off
01/12/2018 12:10:01,20.062,17.625,off
