TIME,INSIDE_TEMPERATURE,OUTSIDE_TEMPERATURE,LIGHTS_STATE

06/25/2016 12:11:25,30.562,31.875,off
06/25/2016 12:11:37,30.562,31.875,off
06/25/2016 12:11:48,30.562,31.875,off
06/25/2016 12:12:00,30.562,31.875,off
