TIME,INSIDE_TEMPERATURE,OUTSIDE_TEMPERATURE,LIGHTS_STATE

09/26/2017 12:06:26,31.062,28.562,off
09/26/2017 12:06:37,31.062,28.625,off
09/26/2017 12:06:49,31.062,28.625,off
09/26/2017 12:07:01,31.062,28.625,off
