TIME,INSIDE_TEMPERATURE,OUTSIDE_TEMPERATURE,LIGHTS_STATE

08/19/2017 12:09:25,29.812,27.562,off
08/19/2017 12:09:37,29.812,27.625,off
08/19/2017 12:09:48,29.875,27.687,off
08/19/2017 12:10:00,29.5,27.625,off
