TIME,INSIDE_TEMPERATURE,OUTSIDE_TEMPERATURE,LIGHTS_STATE

01/02/2018 12:05:25,20.125,17.25,off
01/02/2018 12:05:37,20.125,17.187,off
01/02/2018 12:05:48,20.125,17.187,off
01/02/2018 12:06:00,20.187,17.125,off
