TIME,INSIDE_TEMPERATURE,OUTSIDE_TEMPERATURE,LIGHTS_STATE

08/19/2017 12:14:25,29.687,27.625,off
08/19/2017 12:14:37,29.687,27.562,off
08/19/2017 12:14:49,29.437,27.5,off
08/19/2017 12:15:01,29.625,27.562,off
