TIME,INSIDE_TEMPERATURE,OUTSIDE_TEMPERATURE,LIGHTS_STATE

08/05/2017 12:36:25,33.562,31.25,off
08/05/2017 12:36:37,33.562,31.187,off
08/05/2017 12:36:48,33.562,31.187,off
08/05/2017 12:37:00,33.562,31.125,off
