TIME,INSIDE_TEMPERATURE,OUTSIDE_TEMPERATURE,LIGHTS_STATE

03/27/2017 12:54:25,22.625,18.437,off
03/27/2017 12:54:37,22.687,18.5,off
03/27/2017 12:54:49,22.687,18.562,off
03/27/2017 12:55:00,22.687,18.5,off
