TIME,INSIDE_TEMPERATURE,OUTSIDE_TEMPERATURE,LIGHTS_STATE

03/25/2018 12:49:26,17.687,14.125,off
03/25/2018 12:49:37,17.687,14.125,off
03/25/2018 12:49:49,17.687,14.062,off
03/25/2018 12:50:01,17.687,14.062,off
