TIME,INSIDE_TEMPERATURE,OUTSIDE_TEMPERATURE,LIGHTS_STATE

02/27/2018 12:02:26,20.562,18.437,off
02/27/2018 12:02:37,20.562,18.437,off
02/27/2018 12:02:49,20.562,18.5,off
02/27/2018 12:03:01,20.562,18.562,off
