TIME,INSIDE_TEMPERATURE,OUTSIDE_TEMPERATURE,LIGHTS_STATE

07/25/2017 12:32:25,30.062,26.937,off
07/25/2017 12:32:37,30.062,26.937,off
07/25/2017 12:32:48,30.062,26.937,off
07/25/2017 12:33:00,30.062,26.937,off
