TIME,INSIDE_TEMPERATURE,OUTSIDE_TEMPERATURE,LIGHTS_STATE

11/03/2016 12:05:25,30.937,26.0,off
11/03/2016 12:05:37,30.937,26.0,off
11/03/2016 12:05:48,30.937,26.0,off
11/03/2016 12:06:01,31.0,25.812,off
