TIME,INSIDE_TEMPERATURE,OUTSIDE_TEMPERATURE,LIGHTS_STATE

02/25/2017 12:45:26,21.562,24.187,off
02/25/2017 12:45:37,21.562,24.25,off
02/25/2017 12:45:49,21.625,24.312,off
02/25/2017 12:46:01,21.625,24.375,off
