TIME,INSIDE_TEMPERATURE,OUTSIDE_TEMPERATURE,LIGHTS_STATE

05/02/2017 12:37:25,31.625,29.625,off
05/02/2017 12:37:37,31.562,29.625,off
05/02/2017 12:37:48,31.625,29.625,off
05/02/2017 12:38:00,31.625,29.625,off
