TIME,INSIDE_TEMPERATURE,OUTSIDE_TEMPERATURE,LIGHTS_STATE

02/18/2018 12:58:25,24.25,22.625,off
02/18/2018 12:58:37,24.25,22.437,off
02/18/2018 12:58:48,24.25,22.312,off
02/18/2018 12:59:00,24.25,22.375,off
