TIME,INSIDE_TEMPERATURE,OUTSIDE_TEMPERATURE,LIGHTS_STATE

10/29/2017 12:19:25,23.75,19.75,off
10/29/2017 12:19:37,23.75,19.75,off
10/29/2017 12:19:48,23.75,19.875,off
10/29/2017 12:20:00,23.75,19.937,off
