TIME,INSIDE_TEMPERATURE,OUTSIDE_TEMPERATURE,LIGHTS_STATE

07/05/2016 12:18:25,25.75,25.562,off
07/05/2016 12:18:37,25.75,25.562,off
07/05/2016 12:18:48,25.812,25.562,off
07/05/2016 12:19:00,25.812,25.562,off
