TIME,INSIDE_TEMPERATURE,OUTSIDE_TEMPERATURE,LIGHTS_STATE

03/16/2017 12:34:25,26.125,22.437,off
03/16/2017 12:34:37,26.125,22.437,off
03/16/2017 12:34:49,26.125,22.437,off
03/16/2017 12:35:00,26.125,22.5,off
