TIME,INSIDE_TEMPERATURE,OUTSIDE_TEMPERATURE,LIGHTS_STATE

08/03/2016 12:08:25,28.812,29.312,off
08/03/2016 12:08:38,28.812,29.312,off
08/03/2016 12:08:49,28.875,29.375,off
08/03/2016 12:09:02,28.875,29.437,off
