TIME,INSIDE_TEMPERATURE,OUTSIDE_TEMPERATURE,LIGHTS_STATE

01/14/2017 12:13:25,21.687,16.5,off
01/14/2017 12:13:36,21.687,16.625,off
01/14/2017 12:13:48,21.687,16.687,off
01/14/2017 12:14:00,21.687,16.812,off
