TIME,INSIDE_TEMPERATURE,OUTSIDE_TEMPERATURE,LIGHTS_STATE

07/20/2016 12:21:25,26.375,27.062,off
07/20/2016 12:21:38,26.437,27.062,off
07/20/2016 12:21:50,26.437,27.062,off
07/20/2016 12:22:01,26.437,27.062,off
