TIME,INSIDE_TEMPERATURE,OUTSIDE_TEMPERATURE,LIGHTS_STATE

02/21/2017 12:06:25,26.0,19.062,off
02/21/2017 12:06:37,26.0,19.0,off
02/21/2017 12:06:49,26.0,18.875,off
02/21/2017 12:07:00,26.062,18.875,off
