TIME,INSIDE_TEMPERATURE,OUTSIDE_TEMPERATURE,LIGHTS_STATE

07/12/2016 12:04:25,24.375,23.687,off
07/12/2016 12:04:37,24.312,23.562,off
07/12/2016 12:04:48,24.312,23.562,off
07/12/2016 12:05:00,24.312,23.562,off
