TIME,INSIDE_TEMPERATURE,OUTSIDE_TEMPERATURE,LIGHTS_STATE

07/22/2017 12:57:25,34.187,29.437,off
07/22/2017 12:57:37,34.187,29.437,off
07/22/2017 12:57:49,34.187,29.437,off
07/22/2017 12:58:00,34.187,29.437,off
