TIME,INSIDE_TEMPERATURE,OUTSIDE_TEMPERATURE,LIGHTS_STATE

03/31/2018 12:31:25,27.5,26.062,off
03/31/2018 12:31:37,27.5,26.0,off
03/31/2018 12:31:48,27.562,25.937,off
03/31/2018 12:32:00,27.562,25.937,off
