TIME,INSIDE_TEMPERATURE,OUTSIDE_TEMPERATURE,LIGHTS_STATE

08/14/2017 12:55:26,26.312,22.687,off
08/14/2017 12:55:37,26.312,22.625,off
08/14/2017 12:55:49,25.937,22.625,off
08/14/2017 12:56:01,26.125,22.625,off
