TIME,INSIDE_TEMPERATURE,OUTSIDE_TEMPERATURE,LIGHTS_STATE

10/27/2016 12:53:25,22.0,18.187,off
10/27/2016 12:53:36,22.0,18.187,off
10/27/2016 12:53:48,22.0,18.187,off
10/27/2016 12:54:00,22.0,18.187,off
