TIME,INSIDE_TEMPERATURE,OUTSIDE_TEMPERATURE,LIGHTS_STATE

06/26/2017 12:54:26,28.187,24.437,off
06/26/2017 12:54:37,28.187,24.437,off
06/26/2017 12:54:49,28.25,24.437,off
06/26/2017 12:55:01,28.25,24.5,off
