TIME,INSIDE_TEMPERATURE,OUTSIDE_TEMPERATURE,LIGHTS_STATE

10/23/2016 12:47:24,24.875,21.5,off
10/23/2016 12:47:36,24.875,21.5,off
10/23/2016 12:47:47,24.875,21.5,off
10/23/2016 12:47:59,24.875,21.5,off
