TIME,INSIDE_TEMPERATURE,OUTSIDE_TEMPERATURE,LIGHTS_STATE

03/07/2017 12:04:25,23.125,19.125,off
03/07/2017 12:04:37,23.125,19.187,off
03/07/2017 12:04:48,23.125,19.25,off
03/07/2017 12:05:00,23.125,19.25,off
