TIME,INSIDE_TEMPERATURE,OUTSIDE_TEMPERATURE,LIGHTS_STATE

04/20/2017 12:39:26,23.187,19.312,off
04/20/2017 12:39:37,23.187,19.312,off
04/20/2017 12:39:49,23.187,19.375,off
04/20/2017 12:40:01,23.187,19.437,off
