TIME,INSIDE_TEMPERATURE,OUTSIDE_TEMPERATURE,LIGHTS_STATE

07/17/2017 12:22:25,36.187,33.375,off
07/17/2017 12:22:37,36.25,33.375,off
07/17/2017 12:22:49,36.25,33.375,off
07/17/2017 12:23:01,36.25,33.375,off
