TIME,INSIDE_TEMPERATURE,OUTSIDE_TEMPERATURE,LIGHTS_STATE

01/19/2018 12:52:25,24.75,21.687,off
01/19/2018 12:52:37,24.687,21.5,off
01/19/2018 12:52:49,24.75,21.062,off
01/19/2018 12:53:00,24.687,20.875,off
