TIME,INSIDE_TEMPERATURE,OUTSIDE_TEMPERATURE,LIGHTS_STATE

07/06/2017 12:14:26,33.0,28.937,off
07/06/2017 12:14:37,33.0,28.937,off
07/06/2017 12:14:49,33.0,28.937,off
07/06/2017 12:15:01,33.062,28.937,off
