TIME,INSIDE_TEMPERATURE,OUTSIDE_TEMPERATURE,LIGHTS_STATE

11/22/2016 12:04:25,23.375,20.25,off
11/22/2016 12:04:36,23.375,20.062,off
11/22/2016 12:04:48,23.312,19.75,off
11/22/2016 12:05:00,23.312,19.562,off
