TIME,INSIDE_TEMPERATURE,OUTSIDE_TEMPERATURE,LIGHTS_STATE

09/10/2016 12:16:25,27.5,26.562,off
09/10/2016 12:16:38,27.5,26.562,off
09/10/2016 12:16:50,27.5,26.562,off
09/10/2016 12:17:02,27.5,26.562,off
