TIME,INSIDE_TEMPERATURE,OUTSIDE_TEMPERATURE,LIGHTS_STATE

10/15/2017 12:06:25,29.875,29.687,off
10/15/2017 12:06:37,29.875,29.687,off
10/15/2017 12:06:49,29.875,29.687,off
10/15/2017 12:07:01,29.875,29.562,off
