TIME,INSIDE_TEMPERATURE,OUTSIDE_TEMPERATURE,LIGHTS_STATE

10/02/2017 12:47:25,29.812,27.437,off
10/02/2017 12:47:37,29.812,27.437,off
10/02/2017 12:47:48,29.812,27.5,off
10/02/2017 12:48:00,29.812,27.5,off
