TIME,INSIDE_TEMPERATURE,OUTSIDE_TEMPERATURE,LIGHTS_STATE

08/19/2017 12:58:26,30.687,28.5,off
08/19/2017 12:58:37,30.75,28.5,off
08/19/2017 12:58:49,30.812,28.562,off
08/19/2017 12:59:01,30.812,28.562,off
