TIME,INSIDE_TEMPERATURE,OUTSIDE_TEMPERATURE,LIGHTS_STATE

12/24/2016 12:06:24,19.937,14.312,off
12/24/2016 12:06:36,19.937,14.375,off
12/24/2016 12:06:48,19.937,14.437,off
12/24/2016 12:06:59,19.937,14.375,off
