TIME,INSIDE_TEMPERATURE,OUTSIDE_TEMPERATURE,LIGHTS_STATE

02/22/2017 12:22:25,22.5,19.875,off
02/22/2017 12:22:38,22.5,19.687,off
02/22/2017 12:22:49,22.5,19.562,off
02/22/2017 12:23:01,22.5,19.625,off
