TIME,INSIDE_TEMPERATURE,OUTSIDE_TEMPERATURE,LIGHTS_STATE

06/29/2017 12:25:26,27.812,25.062,off
06/29/2017 12:25:37,27.75,25.062,off
06/29/2017 12:25:49,27.75,25.062,off
06/29/2017 12:26:01,27.812,25.062,off
