TIME,INSIDE_TEMPERATURE,OUTSIDE_TEMPERATURE,LIGHTS_STATE

10/08/2017 12:37:25,30.25,27.375,off
10/08/2017 12:37:37,30.312,27.375,off
10/08/2017 12:37:49,30.312,27.437,off
10/08/2017 12:38:01,30.187,27.375,off
