TIME,INSIDE_TEMPERATURE,OUTSIDE_TEMPERATURE,LIGHTS_STATE

07/28/2017 12:02:26,33.187,30.312,off
07/28/2017 12:02:37,33.25,30.312,off
07/28/2017 12:02:49,33.25,30.312,off
07/28/2017 12:03:01,33.25,30.312,off
