TIME,INSIDE_TEMPERATURE,OUTSIDE_TEMPERATURE,LIGHTS_STATE

11/12/2016 12:40:25,31.562,32.687,off
11/12/2016 12:40:37,31.5,32.5,off
11/12/2016 12:40:48,31.562,32.375,off
11/12/2016 12:41:00,31.562,32.25,off
