TIME,INSIDE_TEMPERATURE,OUTSIDE_TEMPERATURE,LIGHTS_STATE

02/02/2018 12:30:25,28.437,25.937,off
02/02/2018 12:30:37,28.437,26.062,off
02/02/2018 12:30:49,28.437,26.125,off
02/02/2018 12:31:00,28.437,26.187,off
