TIME,INSIDE_TEMPERATURE,OUTSIDE_TEMPERATURE,LIGHTS_STATE

12/01/2016 12:51:25,21.312,17.625,off
12/01/2016 12:51:37,21.312,17.562,off
12/01/2016 12:51:48,21.312,17.562,off
12/01/2016 12:52:00,21.312,17.625,off
