TIME,INSIDE_TEMPERATURE,OUTSIDE_TEMPERATURE,LIGHTS_STATE

03/04/2017 12:26:25,24.0,25.0,off
03/04/2017 12:26:37,24.062,24.875,off
03/04/2017 12:26:49,24.062,24.812,off
03/04/2017 12:27:00,24.062,24.625,off
