TIME,INSIDE_TEMPERATURE,OUTSIDE_TEMPERATURE,LIGHTS_STATE

03/18/2017 12:14:25,20.312,17.437,off
03/18/2017 12:14:37,20.312,17.437,off
03/18/2017 12:14:48,20.312,17.437,off
03/18/2017 12:15:00,20.312,17.375,off
