TIME,INSIDE_TEMPERATURE,OUTSIDE_TEMPERATURE,LIGHTS_STATE

01/24/2018 12:17:25,19.5,16.0,off
01/24/2018 12:17:37,19.562,16.0,off
01/24/2018 12:17:49,19.562,15.937,off
01/24/2018 12:18:01,19.562,15.937,off
