TIME,INSIDE_TEMPERATURE,OUTSIDE_TEMPERATURE,LIGHTS_STATE

01/28/2018 12:18:25,24.812,20.437,off
01/28/2018 12:18:37,24.812,20.375,off
01/28/2018 12:18:49,24.812,20.437,off
01/28/2018 12:19:00,24.812,20.5,off
