TIME,INSIDE_TEMPERATURE,OUTSIDE_TEMPERATURE,LIGHTS_STATE

12/10/2016 12:11:24,19.437,15.062,off
12/10/2016 12:11:36,19.437,15.062,off
12/10/2016 12:11:48,19.437,15.125,off
12/10/2016 12:11:59,19.437,15.125,off
