TIME,INSIDE_TEMPERATURE,OUTSIDE_TEMPERATURE,LIGHTS_STATE

10/22/2017 12:58:26,30.562,33.75,off
10/22/2017 12:58:37,30.5,33.875,off
10/22/2017 12:58:49,30.562,33.812,off
10/22/2017 12:59:01,30.562,33.562,off
