TIME,INSIDE_TEMPERATURE,OUTSIDE_TEMPERATURE,LIGHTS_STATE

09/11/2016 12:49:25,28.562,27.937,off
09/11/2016 12:49:37,28.562,27.937,off
09/11/2016 12:49:49,28.562,28.0,off
09/11/2016 12:50:00,28.562,28.062,off
