TIME,INSIDE_TEMPERATURE,OUTSIDE_TEMPERATURE,LIGHTS_STATE

08/06/2016 12:56:26,25.437,25.125,off
08/06/2016 12:56:38,25.437,25.062,off
08/06/2016 12:56:50,25.375,25.062,off
08/06/2016 12:57:01,25.375,25.062,off
