TIME,INSIDE_TEMPERATURE,OUTSIDE_TEMPERATURE,LIGHTS_STATE

09/14/2017 12:42:25,27.812,24.187,off
09/14/2017 12:42:37,27.812,24.312,off
09/14/2017 12:42:49,27.812,24.312,off
09/14/2017 12:43:00,27.812,24.375,off
