TIME,INSIDE_TEMPERATURE,OUTSIDE_TEMPERATURE,LIGHTS_STATE

05/17/2017 12:53:25,22.812,20.062,off
05/17/2017 12:53:37,22.812,20.062,off
05/17/2017 12:53:48,22.812,20.125,off
05/17/2017 12:54:00,22.812,20.125,off
