TIME,INSIDE_TEMPERATURE,OUTSIDE_TEMPERATURE,LIGHTS_STATE

08/14/2017 12:30:25,26.125,22.125,off
08/14/2017 12:30:37,26.125,22.125,off
08/14/2017 12:30:49,26.125,22.187,off
08/14/2017 12:31:01,26.187,22.187,off
