TIME,INSIDE_TEMPERATURE,OUTSIDE_TEMPERATURE,LIGHTS_STATE

07/26/2016 12:25:26,34.5,33.437,off
07/26/2016 12:25:37,34.5,33.437,off
07/26/2016 12:25:49,34.5,33.437,off
07/26/2016 12:26:01,34.562,33.437,off
