TIME,INSIDE_TEMPERATURE,OUTSIDE_TEMPERATURE,LIGHTS_STATE

11/18/2016 12:51:25,24.625,22.25,off
11/18/2016 12:51:36,24.625,22.375,off
11/18/2016 12:51:48,24.625,22.375,off
11/18/2016 12:52:00,24.625,22.312,off
