TIME,INSIDE_TEMPERATURE,OUTSIDE_TEMPERATURE,LIGHTS_STATE

03/09/2017 12:54:26,28.25,26.312,off
03/09/2017 12:54:37,28.25,26.187,off
03/09/2017 12:54:49,28.25,26.062,off
03/09/2017 12:55:01,28.187,26.0,off
