TIME,INSIDE_TEMPERATURE,OUTSIDE_TEMPERATURE,LIGHTS_STATE

11/13/2016 12:28:25,30.187,32.375,off
11/13/2016 12:28:36,30.125,32.312,off
11/13/2016 12:28:48,30.187,32.562,off
11/13/2016 12:29:00,30.125,32.687,off
