TIME,INSIDE_TEMPERATURE,OUTSIDE_TEMPERATURE,LIGHTS_STATE

02/19/2017 12:17:26,17.062,12.687,off
02/19/2017 12:17:37,17.062,12.687,off
02/19/2017 12:17:49,17.062,12.625,off
02/19/2017 12:18:01,17.0,12.625,off
