TIME,INSIDE_TEMPERATURE,OUTSIDE_TEMPERATURE,LIGHTS_STATE

01/17/2017 12:30:25,14.562,12.562,off
01/17/2017 12:30:36,14.562,12.5,off
01/17/2017 12:30:48,14.562,12.437,off
01/17/2017 12:31:00,14.562,12.437,off
