TIME,INSIDE_TEMPERATURE,OUTSIDE_TEMPERATURE,LIGHTS_STATE

11/01/2016 12:25:25,27.437,22.937,off
11/01/2016 12:25:36,27.375,22.75,off
11/01/2016 12:25:48,27.375,22.562,off
11/01/2016 12:26:00,27.312,22.375,off
