TIME,INSIDE_TEMPERATURE,OUTSIDE_TEMPERATURE,LIGHTS_STATE

09/18/2017 12:42:25,30.625,26.25,off
09/18/2017 12:42:37,30.625,26.25,off
09/18/2017 12:42:48,30.625,26.25,off
09/18/2017 12:43:00,30.687,26.25,off
