TIME,INSIDE_TEMPERATURE,OUTSIDE_TEMPERATURE,LIGHTS_STATE

02/27/2017 12:07:25,25.375,20.187,off
02/27/2017 12:07:37,25.375,20.125,off
02/27/2017 12:07:49,25.375,20.125,off
02/27/2017 12:08:00,25.375,20.0,off
