TIME,INSIDE_TEMPERATURE,OUTSIDE_TEMPERATURE,LIGHTS_STATE

06/28/2017 12:33:26,27.125,24.437,off
06/28/2017 12:33:37,27.25,24.437,off
06/28/2017 12:33:49,27.062,24.5,off
06/28/2017 12:34:01,26.875,24.437,off
