TIME,INSIDE_TEMPERATURE,OUTSIDE_TEMPERATURE,LIGHTS_STATE

07/22/2017 12:02:25,32.062,28.812,off
07/22/2017 12:02:37,32.062,28.75,off
07/22/2017 12:02:48,32.062,28.75,off
07/22/2017 12:03:00,32.125,28.75,off
