TIME,INSIDE_TEMPERATURE,OUTSIDE_TEMPERATURE,LIGHTS_STATE

02/13/2018 12:32:25,23.375,25.75,off
02/13/2018 12:32:37,23.437,25.875,off
02/13/2018 12:32:49,23.437,26.062,off
02/13/2018 12:33:00,23.437,26.312,off
