TIME,INSIDE_TEMPERATURE,OUTSIDE_TEMPERATURE,LIGHTS_STATE

05/18/2017 12:29:25,24.75,23.687,off
05/18/2017 12:29:36,24.75,23.687,off
05/18/2017 12:29:48,24.75,23.687,off
05/18/2017 12:30:00,24.75,23.75,off
