TIME,INSIDE_TEMPERATURE,OUTSIDE_TEMPERATURE,LIGHTS_STATE

01/13/2018 12:51:25,17.5,12.562,off
01/13/2018 12:51:37,17.562,12.5,off
01/13/2018 12:51:49,17.562,12.5,off
01/13/2018 12:52:01,17.562,12.5,off
