TIME,INSIDE_TEMPERATURE,OUTSIDE_TEMPERATURE,LIGHTS_STATE

01/19/2017 12:23:26,21.812,18.625,off
01/19/2017 12:23:38,21.875,18.25,off
01/19/2017 12:23:50,21.812,17.937,off
01/19/2017 12:24:01,21.75,17.625,off
