TIME,INSIDE_TEMPERATURE,OUTSIDE_TEMPERATURE,LIGHTS_STATE

09/06/2016 12:27:25,29.062,33.625,off
09/06/2016 12:27:37,29.125,33.625,off
09/06/2016 12:27:48,29.125,33.562,off
09/06/2016 12:28:00,29.125,33.5,off
