TIME,INSIDE_TEMPERATURE,OUTSIDE_TEMPERATURE,LIGHTS_STATE

04/28/2017 12:49:25,23.375,21.812,off
04/28/2017 12:49:37,23.375,21.812,off
04/28/2017 12:49:48,23.375,21.812,off
04/28/2017 12:50:00,23.437,21.75,off
