TIME,INSIDE_TEMPERATURE,OUTSIDE_TEMPERATURE,LIGHTS_STATE

02/22/2018 12:38:25,21.687,20.0,off
02/22/2018 12:38:37,21.687,19.875,off
02/22/2018 12:38:49,21.687,19.687,off
02/22/2018 12:39:01,21.687,19.562,off
