TIME,INSIDE_TEMPERATURE,OUTSIDE_TEMPERATURE,LIGHTS_STATE

05/18/2017 12:07:26,24.25,23.437,off
05/18/2017 12:07:38,24.25,23.5,off
05/18/2017 12:07:49,24.25,23.5,off
05/18/2017 12:08:01,24.25,23.5,off
