TIME,INSIDE_TEMPERATURE,OUTSIDE_TEMPERATURE,LIGHTS_STATE

08/05/2017 12:33:25,33.5,31.375,off
08/05/2017 12:33:37,33.5,31.437,off
08/05/2017 12:33:49,33.437,31.437,off
08/05/2017 12:34:01,33.5,31.437,off
