TIME,INSIDE_TEMPERATURE,OUTSIDE_TEMPERATURE,LIGHTS_STATE

10/27/2016 12:23:26,22.187,18.812,off
10/27/2016 12:23:38,22.187,18.75,off
10/27/2016 12:23:49,22.187,18.75,off
10/27/2016 12:24:01,22.187,18.75,off
