TIME,INSIDE_TEMPERATURE,OUTSIDE_TEMPERATURE,LIGHTS_STATE

07/04/2016 12:41:25,28.312,28.25,off
07/04/2016 12:41:37,28.437,28.25,off
07/04/2016 12:41:48,28.437,28.25,off
07/04/2016 12:42:00,28.437,28.25,off
