TIME,INSIDE_TEMPERATURE,OUTSIDE_TEMPERATURE,LIGHTS_STATE

06/14/2017 12:10:25,28.937,25.812,off
06/14/2017 12:10:37,29.0,25.75,off
06/14/2017 12:10:49,28.937,25.75,off
06/14/2017 12:11:01,29.0,25.75,off
