TIME,INSIDE_TEMPERATURE,OUTSIDE_TEMPERATURE,LIGHTS_STATE

05/01/2017 12:33:25,29.062,28.375,off
05/01/2017 12:33:36,29.062,28.375,off
05/01/2017 12:33:48,29.062,28.375,off
05/01/2017 12:34:00,29.062,28.312,off
