TIME,INSIDE_TEMPERATURE,OUTSIDE_TEMPERATURE,LIGHTS_STATE

02/10/2018 12:19:25,26.687,24.562,off
02/10/2018 12:19:37,26.75,24.562,off
02/10/2018 12:19:49,26.75,24.5,off
02/10/2018 12:20:01,26.75,24.437,off
