TIME,INSIDE_TEMPERATURE,OUTSIDE_TEMPERATURE,LIGHTS_STATE

06/24/2017 12:34:25,30.312,28.0,off
06/24/2017 12:34:37,30.312,28.0,off
06/24/2017 12:34:48,30.312,28.0,off
06/24/2017 12:35:00,30.312,28.062,off
