TIME,INSIDE_TEMPERATURE,OUTSIDE_TEMPERATURE,LIGHTS_STATE

03/03/2017 12:44:25,26.125,23.25,off
03/03/2017 12:44:37,26.125,23.312,off
03/03/2017 12:44:48,26.125,23.437,off
03/03/2017 12:45:00,26.125,23.5,off
