TIME,INSIDE_TEMPERATURE,OUTSIDE_TEMPERATURE,LIGHTS_STATE

02/03/2018 12:03:25,29.25,26.562,off
02/03/2018 12:03:37,29.25,26.625,off
02/03/2018 12:03:49,29.25,26.625,off
02/03/2018 12:04:01,29.312,26.75,off
