TIME,INSIDE_TEMPERATURE,OUTSIDE_TEMPERATURE,LIGHTS_STATE

10/30/2016 12:51:25,21.312,20.812,off
10/30/2016 12:51:37,21.375,21.187,off
10/30/2016 12:51:48,21.437,21.562,off
10/30/2016 12:52:00,21.437,21.875,off
