TIME,INSIDE_TEMPERATURE,OUTSIDE_TEMPERATURE,LIGHTS_STATE

01/02/2018 12:44:25,20.375,17.125,off
01/02/2018 12:44:37,20.375,17.125,off
01/02/2018 12:44:49,20.375,17.125,off
01/02/2018 12:45:01,20.375,17.125,off
