TIME,INSIDE_TEMPERATURE,OUTSIDE_TEMPERATURE,LIGHTS_STATE

10/11/2017 12:24:26,26.75,24.687,off
10/11/2017 12:24:37,26.687,24.75,off
10/11/2017 12:24:49,26.75,24.875,off
10/11/2017 12:25:01,26.75,24.937,off
