TIME,INSIDE_TEMPERATURE,OUTSIDE_TEMPERATURE,LIGHTS_STATE

04/19/2017 12:31:25,23.125,20.312,off
04/19/2017 12:31:36,23.125,20.25,off
04/19/2017 12:31:48,23.125,20.25,off
04/19/2017 12:32:00,23.125,20.25,off
