TIME,INSIDE_TEMPERATURE,OUTSIDE_TEMPERATURE,LIGHTS_STATE

03/28/2018 12:23:25,24.687,19.437,off
03/28/2018 12:23:37,24.687,19.437,off
03/28/2018 12:23:48,24.687,19.437,off
03/28/2018 12:24:00,24.687,19.375,off
