TIME,INSIDE_TEMPERATURE,OUTSIDE_TEMPERATURE,LIGHTS_STATE

12/01/2016 12:41:25,21.687,18.25,off
12/01/2016 12:41:36,21.687,18.25,off
12/01/2016 12:41:48,21.687,18.312,off
12/01/2016 12:42:00,21.687,18.187,off
