TIME,INSIDE_TEMPERATURE,OUTSIDE_TEMPERATURE,LIGHTS_STATE

08/15/2017 12:19:26,26.375,23.375,off
08/15/2017 12:19:37,26.437,23.375,off
08/15/2017 12:19:49,26.437,23.437,off
08/15/2017 12:20:01,26.437,23.5,off
