TIME,INSIDE_TEMPERATURE,OUTSIDE_TEMPERATURE,LIGHTS_STATE

05/16/2017 12:01:25,22.437,17.937,off
05/16/2017 12:01:37,22.375,17.937,off
05/16/2017 12:01:49,22.437,17.875,off
05/16/2017 12:02:00,22.375,18.0,off
