TIME,INSIDE_TEMPERATURE,OUTSIDE_TEMPERATURE,LIGHTS_STATE

01/18/2018 12:03:25,24.312,23.5,off
01/18/2018 12:03:37,24.312,23.625,off
01/18/2018 12:03:49,24.375,23.75,off
01/18/2018 12:04:00,24.375,23.812,off
