TIME,INSIDE_TEMPERATURE,OUTSIDE_TEMPERATURE,LIGHTS_STATE

08/05/2016 12:13:26,24.437,24.875,off
08/05/2016 12:13:38,24.5,24.875,off
08/05/2016 12:13:49,24.5,24.937,off
08/05/2016 12:14:01,24.5,24.937,off
