TIME,INSIDE_TEMPERATURE,OUTSIDE_TEMPERATURE,LIGHTS_STATE

10/28/2016 12:39:25,24.562,21.875,off
10/28/2016 12:39:38,24.562,21.875,off
10/28/2016 12:39:49,24.562,21.75,off
10/28/2016 12:40:01,24.562,21.687,off
