TIME,INSIDE_TEMPERATURE,OUTSIDE_TEMPERATURE,LIGHTS_STATE

10/03/2017 12:49:25,27.875,25.937,off
10/03/2017 12:49:37,27.875,25.937,off
10/03/2017 12:49:49,27.875,25.937,off
10/03/2017 12:50:01,27.875,26.0,off
