TIME,INSIDE_TEMPERATURE,OUTSIDE_TEMPERATURE,LIGHTS_STATE

04/12/2017 12:04:25,20.5,16.062,off
04/12/2017 12:04:37,20.5,16.062,off
04/12/2017 12:04:49,20.5,16.125,off
04/12/2017 12:05:00,20.5,16.125,off
