TIME,INSIDE_TEMPERATURE,OUTSIDE_TEMPERATURE,LIGHTS_STATE

08/15/2017 12:07:26,26.187,22.75,off
08/15/2017 12:07:37,26.187,22.812,off
08/15/2017 12:07:49,26.25,22.875,off
08/15/2017 12:08:01,26.25,22.937,off
