TIME,INSIDE_TEMPERATURE,OUTSIDE_TEMPERATURE,LIGHTS_STATE

02/17/2018 12:42:26,27.562,24.375,off
02/17/2018 12:42:37,27.5,24.437,off
02/17/2018 12:42:49,27.562,24.437,off
02/17/2018 12:43:01,27.562,24.5,off
