TIME,INSIDE_TEMPERATURE,OUTSIDE_TEMPERATURE,LIGHTS_STATE

09/14/2017 12:09:25,27.062,23.562,off
09/14/2017 12:09:37,27.062,23.562,off
09/14/2017 12:09:48,27.062,23.5,off
09/14/2017 12:10:00,27.125,23.5,off
