TIME,INSIDE_TEMPERATURE,OUTSIDE_TEMPERATURE,LIGHTS_STATE

03/02/2018 12:36:25,19.187,16.062,off
03/02/2018 12:36:37,19.187,16.125,off
03/02/2018 12:36:49,19.187,16.062,off
03/02/2018 12:37:00,19.187,16.062,off
