TIME,INSIDE_TEMPERATURE,OUTSIDE_TEMPERATURE,LIGHTS_STATE

11/22/2016 12:35:25,23.625,20.125,off
11/22/2016 12:35:36,23.687,20.187,off
11/22/2016 12:35:48,23.625,20.25,off
11/22/2016 12:36:00,23.625,20.187,off
