TIME,INSIDE_TEMPERATURE,OUTSIDE_TEMPERATURE,LIGHTS_STATE

01/20/2018 12:14:26,22.562,20.312,off
01/20/2018 12:14:37,22.562,20.062,off
01/20/2018 12:14:49,22.562,19.937,off
01/20/2018 12:15:01,22.562,19.937,off
