TIME,INSIDE_TEMPERATURE,OUTSIDE_TEMPERATURE,LIGHTS_STATE

06/20/2017 12:19:26,35.687,33.0,off
06/20/2017 12:19:37,35.687,33.0,off
06/20/2017 12:19:49,35.687,33.062,off
06/20/2017 12:20:01,35.687,33.062,off
