TIME,INSIDE_TEMPERATURE,OUTSIDE_TEMPERATURE,LIGHTS_STATE

09/03/2016 12:40:25,24.625,25.0,off
09/03/2016 12:40:37,24.625,25.0,off
09/03/2016 12:40:49,24.625,25.0,off
09/03/2016 12:41:00,24.625,24.875,off
