TIME,INSIDE_TEMPERATURE,OUTSIDE_TEMPERATURE,LIGHTS_STATE

11/05/2016 12:43:25,30.375,32.937,off
11/05/2016 12:43:37,30.312,33.062,off
11/05/2016 12:43:48,30.312,33.187,off
11/05/2016 12:44:00,30.312,33.312,off
