TIME,INSIDE_TEMPERATURE,OUTSIDE_TEMPERATURE,LIGHTS_STATE

08/06/2017 12:49:25,31.625,29.25,off
08/06/2017 12:49:36,31.625,29.25,off
08/06/2017 12:49:48,31.625,29.25,off
08/06/2017 12:50:00,31.625,29.25,off
