TIME,INSIDE_TEMPERATURE,OUTSIDE_TEMPERATURE,LIGHTS_STATE

03/22/2018 12:29:25,19.687,14.75,off
03/22/2018 12:29:37,19.687,14.625,off
03/22/2018 12:29:49,19.687,14.5,off
03/22/2018 12:30:00,19.687,14.562,off
