TIME,INSIDE_TEMPERATURE,OUTSIDE_TEMPERATURE,LIGHTS_STATE

07/28/2016 12:51:25,33.125,33.437,off
07/28/2016 12:51:37,33.187,33.437,off
07/28/2016 12:51:49,33.187,33.437,off
07/28/2016 12:52:00,33.125,33.437,off
