TIME,INSIDE_TEMPERATURE,OUTSIDE_TEMPERATURE,LIGHTS_STATE

02/18/2018 12:18:26,24.75,18.937,off
02/18/2018 12:18:37,24.625,19.375,off
02/18/2018 12:18:49,24.687,19.812,off
02/18/2018 12:19:01,24.687,20.25,off
