TIME,INSIDE_TEMPERATURE,OUTSIDE_TEMPERATURE,LIGHTS_STATE

03/27/2018 12:18:25,22.062,16.812,off
03/27/2018 12:18:37,22.062,16.812,off
03/27/2018 12:18:49,22.125,16.812,off
03/27/2018 12:19:00,22.062,16.875,off
