TIME,INSIDE_TEMPERATURE,OUTSIDE_TEMPERATURE,LIGHTS_STATE

12/02/2016 12:09:25,22.5,18.375,off
12/02/2016 12:09:37,22.5,18.375,off
12/02/2016 12:09:48,22.5,18.375,off
12/02/2016 12:10:00,22.5,18.375,off
