TIME,INSIDE_TEMPERATURE,OUTSIDE_TEMPERATURE,LIGHTS_STATE

03/20/2017 12:12:25,20.937,18.062,off
03/20/2017 12:12:37,20.937,18.0,off
03/20/2017 12:12:48,21.0,18.0,off
03/20/2017 12:13:00,21.0,18.0,off
