TIME,INSIDE_TEMPERATURE,OUTSIDE_TEMPERATURE,LIGHTS_STATE

03/27/2018 12:20:26,22.125,17.187,off
03/27/2018 12:20:37,22.125,17.25,off
03/27/2018 12:20:49,22.125,17.375,off
03/27/2018 12:21:01,22.125,17.437,off
