TIME,INSIDE_TEMPERATURE,OUTSIDE_TEMPERATURE,LIGHTS_STATE

10/07/2017 12:29:25,33.062,28.437,off
10/07/2017 12:29:37,33.062,28.437,off
10/07/2017 12:29:49,33.062,28.437,off
10/07/2017 12:30:01,33.062,28.437,off
