TIME,INSIDE_TEMPERATURE,OUTSIDE_TEMPERATURE,LIGHTS_STATE

09/15/2017 12:32:25,27.375,24.75,off
09/15/2017 12:32:37,27.375,24.812,off
09/15/2017 12:32:49,27.375,24.75,off
09/15/2017 12:33:00,27.437,24.75,off
