TIME,INSIDE_TEMPERATURE,OUTSIDE_TEMPERATURE,LIGHTS_STATE

07/09/2017 12:18:25,33.562,31.062,off
07/09/2017 12:18:37,33.562,31.125,off
07/09/2017 12:18:49,33.562,31.125,off
07/09/2017 12:19:00,33.562,31.125,off
