TIME,INSIDE_TEMPERATURE,OUTSIDE_TEMPERATURE,LIGHTS_STATE

06/14/2017 12:45:25,30.125,27.437,off
06/14/2017 12:45:37,30.125,27.437,off
06/14/2017 12:45:49,30.187,27.437,off
06/14/2017 12:46:01,30.187,27.5,off
