TIME,INSIDE_TEMPERATURE,OUTSIDE_TEMPERATURE,LIGHTS_STATE

07/06/2017 12:22:25,33.25,29.875,off
07/06/2017 12:22:37,33.25,29.875,off
07/06/2017 12:22:49,33.25,29.937,off
07/06/2017 12:23:01,33.312,29.937,off
