TIME,INSIDE_TEMPERATURE,OUTSIDE_TEMPERATURE,LIGHTS_STATE

03/01/2018 12:49:26,19.062,13.187,off
03/01/2018 12:49:37,19.062,13.187,off
03/01/2018 12:49:49,19.125,13.125,off
03/01/2018 12:50:01,19.125,13.187,off
