TIME,INSIDE_TEMPERATURE,OUTSIDE_TEMPERATURE,LIGHTS_STATE

03/11/2017 12:46:25,29.687,25.812,off
03/11/2017 12:46:37,29.687,25.812,off
03/11/2017 12:46:49,29.687,25.875,off
03/11/2017 12:47:00,29.75,26.0,off
