TIME,INSIDE_TEMPERATURE,OUTSIDE_TEMPERATURE,LIGHTS_STATE

01/27/2018 12:18:25,24.25,20.687,off
01/27/2018 12:18:37,24.25,20.625,off
01/27/2018 12:18:49,24.25,20.687,off
01/27/2018 12:19:01,24.25,20.687,off
