TIME,INSIDE_TEMPERATURE,OUTSIDE_TEMPERATURE,LIGHTS_STATE

03/13/2017 12:32:26,28.25,24.062,off
03/13/2017 12:32:37,28.312,24.062,off
03/13/2017 12:32:49,28.375,24.062,off
03/13/2017 12:33:01,28.312,24.062,off
