TIME,INSIDE_TEMPERATURE,OUTSIDE_TEMPERATURE,LIGHTS_STATE

01/06/2017 12:15:25,16.625,11.625,off
01/06/2017 12:15:36,16.625,11.5,off
01/06/2017 12:15:48,16.625,11.5,off
01/06/2017 12:16:00,16.625,11.437,off
