TIME,INSIDE_TEMPERATURE,OUTSIDE_TEMPERATURE,LIGHTS_STATE

03/25/2018 12:19:25,16.875,12.375,off
03/25/2018 12:19:37,16.875,12.375,off
03/25/2018 12:19:49,16.875,12.375,off
03/25/2018 12:20:00,16.875,12.375,off
