TIME,INSIDE_TEMPERATURE,OUTSIDE_TEMPERATURE,LIGHTS_STATE

07/25/2016 12:35:26,30.937,31.187,off
07/25/2016 12:35:37,30.937,31.125,off
07/25/2016 12:35:49,31.0,31.187,off
07/25/2016 12:36:01,31.0,31.187,off
