TIME,INSIDE_TEMPERATURE,OUTSIDE_TEMPERATURE,LIGHTS_STATE

05/14/2017 12:06:25,21.0,17.875,off
05/14/2017 12:06:37,21.0,17.937,off
05/14/2017 12:06:48,21.0,17.937,off
05/14/2017 12:07:00,21.062,17.937,off
