TIME,INSIDE_TEMPERATURE,OUTSIDE_TEMPERATURE,LIGHTS_STATE

05/05/2017 12:17:25,22.562,19.5,off
05/05/2017 12:17:37,22.562,19.5,off
05/05/2017 12:17:49,22.562,19.562,off
05/05/2017 12:18:00,22.562,19.625,off
