TIME,INSIDE_TEMPERATURE,OUTSIDE_TEMPERATURE,LIGHTS_STATE

09/08/2016 12:40:26,29.062,28.375,off
09/08/2016 12:40:38,29.062,28.375,off
09/08/2016 12:40:49,29.125,28.375,off
09/08/2016 12:41:01,29.125,28.437,off
