TIME,INSIDE_TEMPERATURE,OUTSIDE_TEMPERATURE,LIGHTS_STATE

07/04/2017 12:35:26,30.125,26.5,off
07/04/2017 12:35:37,30.125,26.5,off
07/04/2017 12:35:49,30.125,26.5,off
07/04/2017 12:36:01,30.125,26.5,off
