TIME,INSIDE_TEMPERATURE,OUTSIDE_TEMPERATURE,LIGHTS_STATE

07/10/2017 12:52:25,35.25,31.687,off
07/10/2017 12:52:37,35.187,31.687,off
07/10/2017 12:52:49,35.25,31.75,off
07/10/2017 12:53:00,35.25,31.812,off
