TIME,INSIDE_TEMPERATURE,OUTSIDE_TEMPERATURE,LIGHTS_STATE

06/11/2017 12:08:25,22.937,19.062,off
06/11/2017 12:08:37,22.937,19.0,off
06/11/2017 12:08:48,22.937,19.0,off
06/11/2017 12:09:00,22.937,19.0,off
