TIME,INSIDE_TEMPERATURE,OUTSIDE_TEMPERATURE,LIGHTS_STATE

10/12/2017 12:42:25,27.875,28.187,off
10/12/2017 12:42:37,27.875,28.375,off
10/12/2017 12:42:49,27.875,28.5,off
10/12/2017 12:43:01,27.875,28.687,off
