TIME,INSIDE_TEMPERATURE,OUTSIDE_TEMPERATURE,LIGHTS_STATE

02/20/2018 12:02:25,18.812,16.187,off
02/20/2018 12:02:37,18.812,16.125,off
02/20/2018 12:02:48,18.812,16.187,off
02/20/2018 12:03:00,18.875,16.25,off
