TIME,INSIDE_TEMPERATURE,OUTSIDE_TEMPERATURE,LIGHTS_STATE

03/27/2018 12:34:25,22.5,17.437,off
03/27/2018 12:34:37,22.5,17.437,off
03/27/2018 12:34:50,22.562,17.5,off
03/27/2018 12:35:01,22.562,17.437,off
