TIME,INSIDE_TEMPERATURE,OUTSIDE_TEMPERATURE,LIGHTS_STATE

03/02/2017 12:20:25,24.687,22.687,off
03/02/2017 12:20:37,24.75,22.562,off
03/02/2017 12:20:48,24.75,22.375,off
03/02/2017 12:21:00,24.687,22.375,off
