TIME,INSIDE_TEMPERATURE,OUTSIDE_TEMPERATURE,LIGHTS_STATE

03/03/2018 12:15:25,18.812,12.375,off
03/03/2018 12:15:37,18.812,12.312,off
03/03/2018 12:15:49,18.812,12.312,off
03/03/2018 12:16:00,18.75,12.312,off
