TIME,INSIDE_TEMPERATURE,OUTSIDE_TEMPERATURE,LIGHTS_STATE

03/01/2018 12:18:26,18.625,12.375,off
03/01/2018 12:18:37,18.625,12.437,off
03/01/2018 12:18:49,18.625,12.437,off
03/01/2018 12:19:01,18.625,12.5,off
