TIME,INSIDE_TEMPERATURE,OUTSIDE_TEMPERATURE,LIGHTS_STATE

12/22/2016 12:25:25,22.75,20.625,off
12/22/2016 12:25:37,22.75,20.75,off
12/22/2016 12:25:49,22.812,20.875,off
12/22/2016 12:26:00,22.812,20.937,off
