TIME,INSIDE_TEMPERATURE,OUTSIDE_TEMPERATURE,LIGHTS_STATE

08/04/2017 12:37:25,32.062,27.5,off
08/04/2017 12:37:37,32.062,27.437,off
08/04/2017 12:37:49,32.0,27.375,off
08/04/2017 12:38:01,32.062,27.312,off
