TIME,INSIDE_TEMPERATURE,OUTSIDE_TEMPERATURE,LIGHTS_STATE

09/21/2016 12:35:26,28.25,25.562,off
09/21/2016 12:35:37,28.25,25.562,off
09/21/2016 12:35:49,28.25,25.562,off
09/21/2016 12:36:01,28.25,25.5,off
