TIME,INSIDE_TEMPERATURE,OUTSIDE_TEMPERATURE,LIGHTS_STATE

03/14/2018 12:50:26,16.875,7.875,off
03/14/2018 12:50:37,16.875,7.875,off
03/14/2018 12:50:49,16.875,7.875,off
03/14/2018 12:51:01,16.812,7.875,off
