TIME,INSIDE_TEMPERATURE,OUTSIDE_TEMPERATURE,LIGHTS_STATE

12/22/2016 12:09:24,23.062,18.875,off
12/22/2016 12:09:36,23.062,18.75,off
12/22/2016 12:09:48,23.062,18.625,off
12/22/2016 12:09:59,23.0,18.5,off
