TIME,INSIDE_TEMPERATURE,OUTSIDE_TEMPERATURE,LIGHTS_STATE

12/15/2016 12:28:25,21.125,17.875,off
12/15/2016 12:28:37,21.125,17.875,off
12/15/2016 12:28:48,21.125,17.875,off
12/15/2016 12:29:01,21.125,17.875,off
