TIME,INSIDE_TEMPERATURE,OUTSIDE_TEMPERATURE,LIGHTS_STATE

12/27/2016 12:58:25,19.687,20.937,off
12/27/2016 12:58:36,19.687,20.687,off
12/27/2016 12:58:48,19.687,20.812,off
12/27/2016 12:59:00,19.625,20.937,off
