TIME,INSIDE_TEMPERATURE,OUTSIDE_TEMPERATURE,LIGHTS_STATE

02/12/2018 12:35:25,23.437,27.562,off
02/12/2018 12:35:37,23.437,27.437,off
02/12/2018 12:35:49,23.437,27.187,off
02/12/2018 12:36:00,23.437,27.062,off
