TIME,INSIDE_TEMPERATURE,OUTSIDE_TEMPERATURE,LIGHTS_STATE

12/28/2016 12:41:25,19.687,16.125,off
12/28/2016 12:41:37,19.687,16.187,off
12/28/2016 12:41:48,19.687,16.25,off
12/28/2016 12:42:00,19.687,16.375,off
