TIME,INSIDE_TEMPERATURE,OUTSIDE_TEMPERATURE,LIGHTS_STATE

12/31/2017 12:35:25,21.875,20.937,off
12/31/2017 12:35:37,21.937,20.875,off
12/31/2017 12:35:49,21.937,20.75,off
12/31/2017 12:36:01,21.937,20.687,off
