TIME,INSIDE_TEMPERATURE,OUTSIDE_TEMPERATURE,LIGHTS_STATE

07/11/2017 12:09:25,32.375,29.062,off
07/11/2017 12:09:37,32.375,29.125,off
07/11/2017 12:09:49,32.437,29.125,off
07/11/2017 12:10:00,32.437,29.187,off
