TIME,INSIDE_TEMPERATURE,OUTSIDE_TEMPERATURE,LIGHTS_STATE

08/07/2016 12:08:26,24.5,24.25,off
08/07/2016 12:08:38,24.562,24.312,off
08/07/2016 12:08:49,24.5,24.312,off
08/07/2016 12:09:01,24.5,24.312,off
