TIME,INSIDE_TEMPERATURE,OUTSIDE_TEMPERATURE,LIGHTS_STATE

03/21/2018 12:48:25,23.625,19.625,off
03/21/2018 12:48:37,23.625,19.625,off
03/21/2018 12:48:48,23.625,19.625,off
03/21/2018 12:49:00,23.562,19.687,off
