TIME,INSIDE_TEMPERATURE,OUTSIDE_TEMPERATURE,LIGHTS_STATE

11/21/2016 12:52:24,23.375,20.25,off
11/21/2016 12:52:36,23.375,20.25,off
11/21/2016 12:52:48,23.375,20.25,off
11/21/2016 12:52:59,23.375,20.187,off
