TIME,INSIDE_TEMPERATURE,OUTSIDE_TEMPERATURE,LIGHTS_STATE

11/17/2016 12:50:25,23.375,19.312,off
11/17/2016 12:50:36,23.375,19.437,off
11/17/2016 12:50:48,23.375,19.562,off
11/17/2016 12:51:00,23.437,19.562,off
