TIME,INSIDE_TEMPERATURE,OUTSIDE_TEMPERATURE,LIGHTS_STATE

07/01/2017 12:01:25,24.937,21.562,off
07/01/2017 12:01:37,25.0,21.562,off
07/01/2017 12:01:48,24.937,21.562,off
07/01/2017 12:02:00,24.937,21.562,off
