TIME,INSIDE_TEMPERATURE,OUTSIDE_TEMPERATURE,LIGHTS_STATE

11/16/2016 12:09:24,25.125,27.5,off
11/16/2016 12:09:36,25.125,27.687,off
11/16/2016 12:09:48,25.125,27.875,off
11/16/2016 12:09:59,25.125,27.937,off
