TIME,INSIDE_TEMPERATURE,OUTSIDE_TEMPERATURE,LIGHTS_STATE

11/17/2016 12:04:25,24.312,25.937,off
11/17/2016 12:04:36,24.312,25.625,off
11/17/2016 12:04:48,24.312,25.375,off
11/17/2016 12:05:00,24.312,25.375,off
