TIME,INSIDE_TEMPERATURE,OUTSIDE_TEMPERATURE,LIGHTS_STATE

07/11/2016 12:38:25,29.0,28.875,off
07/11/2016 12:38:37,29.0,28.875,off
07/11/2016 12:38:49,29.0,28.875,off
07/11/2016 12:39:00,29.0,28.875,off
