TIME,INSIDE_TEMPERATURE,OUTSIDE_TEMPERATURE,LIGHTS_STATE

11/21/2016 12:20:25,23.687,19.625,off
11/21/2016 12:20:36,23.625,19.687,off
11/21/2016 12:20:48,23.625,19.687,off
11/21/2016 12:21:00,23.625,19.687,off
