TIME,INSIDE_TEMPERATURE,OUTSIDE_TEMPERATURE,LIGHTS_STATE

12/09/2016 12:01:25,21.75,18.625,off
12/09/2016 12:01:37,21.75,18.562,off
12/09/2016 12:01:49,21.75,18.562,off
12/09/2016 12:02:00,21.75,18.562,off
