TIME,INSIDE_TEMPERATURE,OUTSIDE_TEMPERATURE,LIGHTS_STATE

10/13/2017 12:22:25,28.687,30.0,off
10/13/2017 12:22:37,28.687,30.062,off
10/13/2017 12:22:48,28.687,30.25,off
10/13/2017 12:23:00,28.687,30.437,off
