TIME,INSIDE_TEMPERATURE,OUTSIDE_TEMPERATURE,LIGHTS_STATE

07/05/2016 12:41:25,25.812,25.5,off
07/05/2016 12:41:36,25.875,25.562,off
07/05/2016 12:41:48,25.875,25.5,off
07/05/2016 12:42:01,25.875,25.562,off
