TIME,INSIDE_TEMPERATURE,OUTSIDE_TEMPERATURE,LIGHTS_STATE

11/02/2016 12:21:25,29.687,29.375,off
11/02/2016 12:21:37,29.687,29.187,off
11/02/2016 12:21:48,29.75,29.187,off
11/02/2016 12:22:00,29.75,28.875,off
