TIME,INSIDE_TEMPERATURE,OUTSIDE_TEMPERATURE,LIGHTS_STATE

06/23/2016 12:48:25,27.875,28.812,off
06/23/2016 12:48:37,27.875,28.875,off
06/23/2016 12:48:48,27.875,28.875,off
06/23/2016 12:49:00,27.875,28.875,off
