TIME,INSIDE_TEMPERATURE,OUTSIDE_TEMPERATURE,LIGHTS_STATE

12/07/2016 12:01:25,13.312,10.562,off
12/07/2016 12:01:37,13.312,10.5,off
12/07/2016 12:01:48,13.312,10.437,off
12/07/2016 12:02:00,13.312,10.375,off
