TIME,INSIDE_TEMPERATURE,OUTSIDE_TEMPERATURE,LIGHTS_STATE

01/26/2018 12:38:25,22.125,22.125,off
01/26/2018 12:38:37,22.187,22.125,off
01/26/2018 12:38:48,22.125,22.062,off
01/26/2018 12:39:00,22.125,21.937,off
