TIME,INSIDE_TEMPERATURE,OUTSIDE_TEMPERATURE,LIGHTS_STATE

08/01/2016 12:36:26,27.937,27.937,off
08/01/2016 12:36:37,28.0,28.0,off
08/01/2016 12:36:49,28.0,28.0,off
08/01/2016 12:37:01,28.0,27.937,off
