TIME,INSIDE_TEMPERATURE,OUTSIDE_TEMPERATURE,LIGHTS_STATE

08/26/2017 12:01:25,34.875,33.437,off
08/26/2017 12:01:37,34.812,33.437,off
08/26/2017 12:01:48,34.875,33.437,off
08/26/2017 12:02:00,34.875,33.5,off
