TIME,INSIDE_TEMPERATURE,OUTSIDE_TEMPERATURE,LIGHTS_STATE

03/04/2017 12:58:25,23.812,19.125,off
03/04/2017 12:58:37,23.812,19.0,off
03/04/2017 12:58:49,23.812,18.937,off
03/04/2017 12:59:01,23.812,18.875,off
