TIME,INSIDE_TEMPERATURE,OUTSIDE_TEMPERATURE,LIGHTS_STATE

02/07/2018 12:52:25,28.687,41.937,off
02/07/2018 12:52:37,28.687,41.937,off
02/07/2018 12:52:49,28.687,42.0,off
02/07/2018 12:53:01,28.687,42.062,off
