TIME,INSIDE_TEMPERATURE,OUTSIDE_TEMPERATURE,LIGHTS_STATE

07/19/2017 12:18:25,30.312,27.687,off
07/19/2017 12:18:37,30.312,27.687,off
07/19/2017 12:18:48,30.312,27.687,off
07/19/2017 12:19:00,30.312,27.687,off
