TIME,INSIDE_TEMPERATURE,OUTSIDE_TEMPERATURE,LIGHTS_STATE

04/08/2017 12:26:25,17.0,12.687,off
04/08/2017 12:26:37,17.062,12.562,off
04/08/2017 12:26:49,17.0,12.562,off
04/08/2017 12:27:00,17.062,12.562,off
