TIME,INSIDE_TEMPERATURE,OUTSIDE_TEMPERATURE,LIGHTS_STATE

01/07/2017 12:08:25,19.75,15.812,off
01/07/2017 12:08:36,19.75,15.875,off
01/07/2017 12:08:48,19.75,15.875,off
01/07/2017 12:09:00,19.812,15.937,off
