TIME,INSIDE_TEMPERATURE,OUTSIDE_TEMPERATURE,LIGHTS_STATE

09/05/2017 12:55:26,35.0,32.125,off
09/05/2017 12:55:37,35.062,32.187,off
09/05/2017 12:55:49,35.062,32.25,off
09/05/2017 12:56:01,35.062,32.25,off
