TIME,INSIDE_TEMPERATURE,OUTSIDE_TEMPERATURE,LIGHTS_STATE

05/12/2017 12:37:25,21.062,18.375,off
05/12/2017 12:37:37,21.062,18.375,off
05/12/2017 12:37:49,21.062,18.437,off
05/12/2017 12:38:00,21.062,18.437,off
