TIME,INSIDE_TEMPERATURE,OUTSIDE_TEMPERATURE,LIGHTS_STATE

06/19/2017 12:44:25,39.562,35.5,off
06/19/2017 12:44:37,39.562,35.5,off
06/19/2017 12:44:49,39.562,35.5,off
06/19/2017 12:45:01,39.562,35.5,off
