TIME,INSIDE_TEMPERATURE,OUTSIDE_TEMPERATURE,LIGHTS_STATE

07/24/2017 12:41:25,31.312,28.437,off
07/24/2017 12:41:36,31.312,28.437,off
07/24/2017 12:41:48,31.312,28.437,off
07/24/2017 12:42:00,31.375,28.437,off
