TIME,INSIDE_TEMPERATURE,OUTSIDE_TEMPERATURE,LIGHTS_STATE

12/23/2016 12:14:24,13.187,9.375,off
12/23/2016 12:14:36,13.187,9.375,off
12/23/2016 12:14:48,13.25,9.375,off
12/23/2016 12:14:59,13.187,9.375,off
