TIME,INSIDE_TEMPERATURE,OUTSIDE_TEMPERATURE,LIGHTS_STATE

09/28/2017 12:20:25,33.437,31.125,off
09/28/2017 12:20:37,33.437,31.125,off
09/28/2017 12:20:49,33.437,31.125,off
09/28/2017 12:21:00,33.5,31.125,off
