TIME,INSIDE_TEMPERATURE,OUTSIDE_TEMPERATURE,LIGHTS_STATE

02/07/2018 12:27:25,28.812,34.937,off
02/07/2018 12:27:37,28.812,35.0,off
02/07/2018 12:27:49,28.812,35.062,off
02/07/2018 12:28:00,28.875,35.187,off
