TIME,INSIDE_TEMPERATURE,OUTSIDE_TEMPERATURE,LIGHTS_STATE

01/09/2017 12:06:25,20.937,16.562,off
01/09/2017 12:06:36,20.937,16.562,off
01/09/2017 12:06:48,20.937,16.5,off
01/09/2017 12:07:00,20.937,16.5,off
