TIME,INSIDE_TEMPERATURE,OUTSIDE_TEMPERATURE,LIGHTS_STATE

12/28/2016 12:13:25,20.0,16.25,off
12/28/2016 12:13:37,20.062,16.5,off
12/28/2016 12:13:49,20.062,16.625,off
12/28/2016 12:14:00,20.0,16.75,off
