TIME,INSIDE_TEMPERATURE,OUTSIDE_TEMPERATURE,LIGHTS_STATE

08/25/2017 12:48:25,30.937,29.0,off
08/25/2017 12:48:37,31.0,28.937,off
08/25/2017 12:48:49,31.0,28.875,off
08/25/2017 12:49:00,31.0,28.875,off
