TIME,INSIDE_TEMPERATURE,OUTSIDE_TEMPERATURE,LIGHTS_STATE

01/07/2017 12:32:25,20.437,16.687,off
01/07/2017 12:32:36,20.5,16.625,off
01/07/2017 12:32:48,20.5,16.687,off
01/07/2017 12:33:00,20.562,16.687,off
