TIME,INSIDE_TEMPERATURE,OUTSIDE_TEMPERATURE,LIGHTS_STATE

04/30/2017 12:19:26,25.625,24.562,off
04/30/2017 12:19:38,25.625,24.562,off
04/30/2017 12:19:49,25.687,24.562,off
04/30/2017 12:20:01,25.687,24.562,off
