TIME,INSIDE_TEMPERATURE,OUTSIDE_TEMPERATURE,LIGHTS_STATE

09/20/2017 12:55:25,24.875,20.875,off
09/20/2017 12:55:37,24.812,20.875,off
09/20/2017 12:55:49,24.875,20.812,off
09/20/2017 12:56:01,24.875,20.875,off
