TIME,INSIDE_TEMPERATURE,OUTSIDE_TEMPERATURE,LIGHTS_STATE

07/19/2016 12:26:25,24.375,25.0,off
07/19/2016 12:26:37,24.375,25.0,off
07/19/2016 12:26:49,24.375,25.0,off
07/19/2016 12:27:00,24.375,25.0,off
