TIME,INSIDE_TEMPERATURE,OUTSIDE_TEMPERATURE,LIGHTS_STATE

01/03/2017 12:53:24,15.25,12.125,off
01/03/2017 12:53:36,15.25,12.125,off
01/03/2017 12:53:48,15.312,12.125,off
01/03/2017 12:53:59,15.25,12.125,off
