TIME,INSIDE_TEMPERATURE,OUTSIDE_TEMPERATURE,LIGHTS_STATE

07/30/2017 12:54:25,31.5,28.312,off
07/30/2017 12:54:37,31.5,28.25,off
07/30/2017 12:54:49,31.5,28.25,off
07/30/2017 12:55:00,31.5,28.312,off
