TIME,INSIDE_TEMPERATURE,OUTSIDE_TEMPERATURE,LIGHTS_STATE

10/18/2017 12:08:26,30.625,31.312,off
10/18/2017 12:08:37,30.625,31.125,off
10/18/2017 12:08:49,30.625,31.125,off
10/18/2017 12:09:01,30.625,31.312,off
