TIME,INSIDE_TEMPERATURE,OUTSIDE_TEMPERATURE,LIGHTS_STATE

09/11/2016 12:02:25,26.812,25.875,off
09/11/2016 12:02:36,26.812,25.937,off
09/11/2016 12:02:48,26.812,25.875,off
09/11/2016 12:03:00,26.812,25.875,off
