TIME,INSIDE_TEMPERATURE,OUTSIDE_TEMPERATURE,LIGHTS_STATE

01/12/2018 12:28:25,20.687,18.187,off
01/12/2018 12:28:37,20.75,18.125,off
01/12/2018 12:28:49,20.687,18.062,off
01/12/2018 12:29:01,20.75,18.125,off
