TIME,INSIDE_TEMPERATURE,OUTSIDE_TEMPERATURE,LIGHTS_STATE

06/10/2017 12:22:25,24.625,20.75,off
06/10/2017 12:22:37,24.625,20.812,off
06/10/2017 12:22:49,24.625,20.812,off
06/10/2017 12:23:01,24.625,20.812,off
