TIME,INSIDE_TEMPERATURE,OUTSIDE_TEMPERATURE,LIGHTS_STATE

07/20/2017 12:20:25,29.125,26.125,off
07/20/2017 12:20:37,29.062,26.125,off
07/20/2017 12:20:49,29.125,26.125,off
07/20/2017 12:21:00,29.125,26.125,off
