TIME,INSIDE_TEMPERATURE,OUTSIDE_TEMPERATURE,LIGHTS_STATE

09/14/2016 12:12:25,25.812,25.125,off
09/14/2016 12:12:37,25.812,25.062,off
09/14/2016 12:12:48,25.875,25.125,off
09/14/2016 12:13:00,25.875,25.125,off
