TIME,INSIDE_TEMPERATURE,OUTSIDE_TEMPERATURE,LIGHTS_STATE

05/05/2017 12:12:25,22.5,19.875,off
05/05/2017 12:12:37,22.562,19.875,off
05/05/2017 12:12:48,22.5,20.0,off
05/05/2017 12:13:00,22.5,19.937,off
