TIME,INSIDE_TEMPERATURE,OUTSIDE_TEMPERATURE,LIGHTS_STATE

03/26/2018 12:42:25,18.25,14.812,off
03/26/2018 12:42:37,18.25,14.812,off
03/26/2018 12:42:48,18.312,14.812,off
03/26/2018 12:43:00,18.25,14.875,off
