TIME,INSIDE_TEMPERATURE,OUTSIDE_TEMPERATURE,LIGHTS_STATE

12/04/2016 12:36:25,23.437,20.125,off
12/04/2016 12:36:36,23.437,20.062,off
12/04/2016 12:36:48,23.437,20.062,off
12/04/2016 12:37:00,23.437,20.062,off
