TIME,INSIDE_TEMPERATURE,OUTSIDE_TEMPERATURE,LIGHTS_STATE

12/23/2017 12:32:26,20.625,19.625,off
12/23/2017 12:32:37,20.625,19.687,off
12/23/2017 12:32:49,20.625,19.625,off
12/23/2017 12:33:01,20.625,19.562,off
