TIME,INSIDE_TEMPERATURE,OUTSIDE_TEMPERATURE,LIGHTS_STATE

03/10/2017 12:00:25,27.562,23.562,off
03/10/2017 12:00:37,27.562,23.437,off
03/10/2017 12:00:49,27.562,23.437,off
03/10/2017 12:01:00,27.562,23.375,off
