TIME,INSIDE_TEMPERATURE,OUTSIDE_TEMPERATURE,LIGHTS_STATE

02/13/2018 12:13:26,23.375,25.437,off
02/13/2018 12:13:37,23.375,25.562,off
02/13/2018 12:13:49,23.375,25.625,off
02/13/2018 12:14:01,23.375,25.937,off
