TIME,INSIDE_TEMPERATURE,OUTSIDE_TEMPERATURE,LIGHTS_STATE

07/02/2016 12:31:25,29.25,28.875,off
07/02/2016 12:31:37,29.25,28.875,off
07/02/2016 12:31:49,29.312,28.937,off
07/02/2016 12:32:00,29.312,28.937,off
