TIME,INSIDE_TEMPERATURE,OUTSIDE_TEMPERATURE,LIGHTS_STATE

09/15/2017 12:37:25,27.5,24.687,off
09/15/2017 12:37:37,27.5,24.687,off
09/15/2017 12:37:49,27.5,24.562,off
09/15/2017 12:38:00,27.562,24.562,off
