TIME,INSIDE_TEMPERATURE,OUTSIDE_TEMPERATURE,LIGHTS_STATE

07/18/2017 12:23:25,28.937,26.0,off
07/18/2017 12:23:37,28.937,26.0,off
07/18/2017 12:23:50,28.812,26.0,off
07/18/2017 12:24:01,28.812,26.0,off
