TIME,INSIDE_TEMPERATURE,OUTSIDE_TEMPERATURE,LIGHTS_STATE

01/30/2018 12:29:25,26.125,23.0,off
01/30/2018 12:29:37,26.125,22.937,off
01/30/2018 12:29:50,26.125,23.0,off
01/30/2018 12:30:02,26.187,23.0,off
