TIME,INSIDE_TEMPERATURE,OUTSIDE_TEMPERATURE,LIGHTS_STATE

07/10/2016 12:54:25,25.187,24.687,off
07/10/2016 12:54:36,25.187,24.75,off
07/10/2016 12:54:48,25.187,24.687,off
07/10/2016 12:55:00,25.187,24.687,off
