TIME,INSIDE_TEMPERATURE,OUTSIDE_TEMPERATURE,LIGHTS_STATE

10/01/2017 12:22:25,29.562,27.875,off
10/01/2017 12:22:37,29.562,27.812,off
10/01/2017 12:22:49,29.562,27.875,off
10/01/2017 12:23:00,29.562,27.937,off
