TIME,INSIDE_TEMPERATURE,OUTSIDE_TEMPERATURE,LIGHTS_STATE

05/02/2017 12:42:25,31.687,29.687,off
05/02/2017 12:42:37,31.687,29.75,off
05/02/2017 12:42:49,31.75,29.75,off
05/02/2017 12:43:00,31.75,29.75,off
