TIME,INSIDE_TEMPERATURE,OUTSIDE_TEMPERATURE,LIGHTS_STATE

05/24/2017 12:39:25,28.0,25.75,off
05/24/2017 12:39:37,28.0,25.687,off
05/24/2017 12:39:49,28.0,25.687,off
05/24/2017 12:40:00,28.0,25.687,off
