TIME,INSIDE_TEMPERATURE,OUTSIDE_TEMPERATURE,LIGHTS_STATE

06/29/2016 12:39:26,27.625,26.937,off
06/29/2016 12:39:37,27.625,26.937,off
06/29/2016 12:39:49,27.687,26.937,off
06/29/2016 12:40:01,27.687,27.0,off
