TIME,INSIDE_TEMPERATURE,OUTSIDE_TEMPERATURE,LIGHTS_STATE

05/11/2017 12:52:25,23.625,20.0,off
05/11/2017 12:52:37,23.687,20.125,off
05/11/2017 12:52:48,23.687,20.125,off
05/11/2017 12:53:00,23.625,20.187,off
