TIME,INSIDE_TEMPERATURE,OUTSIDE_TEMPERATURE,LIGHTS_STATE

11/07/2016 12:27:26,28.687,31.812,off
11/07/2016 12:27:38,28.687,31.812,off
11/07/2016 12:27:50,28.687,31.937,off
11/07/2016 12:28:01,28.687,31.937,off
