TIME,INSIDE_TEMPERATURE,OUTSIDE_TEMPERATURE,LIGHTS_STATE

01/09/2017 12:50:25,19.875,15.375,off
01/09/2017 12:50:37,19.875,15.375,off
01/09/2017 12:50:48,19.875,15.437,off
01/09/2017 12:51:00,19.875,15.437,off
