TIME,INSIDE_TEMPERATURE,OUTSIDE_TEMPERATURE,LIGHTS_STATE

05/10/2017 12:32:25,23.875,21.375,off
05/10/2017 12:32:37,23.875,21.375,off
05/10/2017 12:32:48,23.875,21.437,off
05/10/2017 12:33:00,23.937,21.5,off
