TIME,INSIDE_TEMPERATURE,OUTSIDE_TEMPERATURE,LIGHTS_STATE

09/16/2016 12:35:26,26.562,27.437,off
09/16/2016 12:35:37,26.625,27.5,off
09/16/2016 12:35:49,26.625,27.625,off
09/16/2016 12:36:01,26.625,27.75,off
