TIME,INSIDE_TEMPERATURE,OUTSIDE_TEMPERATURE,LIGHTS_STATE

12/25/2017 12:55:25,20.75,17.875,off
12/25/2017 12:55:37,20.687,17.875,off
12/25/2017 12:55:49,20.75,17.937,off
12/25/2017 12:56:01,20.75,17.937,off
