TIME,INSIDE_TEMPERATURE,OUTSIDE_TEMPERATURE,LIGHTS_STATE

04/24/2017 12:54:25,20.687,16.75,off
04/24/2017 12:54:37,20.687,16.75,off
04/24/2017 12:54:48,20.687,16.75,off
04/24/2017 12:55:00,20.75,16.75,off
