TIME,INSIDE_TEMPERATURE,OUTSIDE_TEMPERATURE,LIGHTS_STATE

01/16/2017 12:38:25,19.062,14.562,off
01/16/2017 12:38:37,19.062,14.5,off
01/16/2017 12:38:49,19.062,14.5,off
01/16/2017 12:39:00,19.062,14.5,off
