TIME,INSIDE_TEMPERATURE,OUTSIDE_TEMPERATURE,LIGHTS_STATE

04/22/2017 12:39:25,25.937,23.5,off
04/22/2017 12:39:37,25.875,23.375,off
04/22/2017 12:39:48,25.875,23.312,off
04/22/2017 12:40:00,25.875,23.312,off
