TIME,INSIDE_TEMPERATURE,OUTSIDE_TEMPERATURE,LIGHTS_STATE

03/07/2018 12:03:25,23.687,27.875,off
03/07/2018 12:03:37,23.75,28.5,off
03/07/2018 12:03:48,23.75,29.062,off
03/07/2018 12:04:00,23.75,29.625,off
