TIME,INSIDE_TEMPERATURE,OUTSIDE_TEMPERATURE,LIGHTS_STATE

08/08/2017 12:54:25,30.062,27.562,off
08/08/2017 12:54:37,30.125,27.562,off
08/08/2017 12:54:49,30.062,27.562,off
08/08/2017 12:55:01,30.125,27.562,off
