TIME,INSIDE_TEMPERATURE,OUTSIDE_TEMPERATURE,LIGHTS_STATE

02/05/2017 12:08:25,21.625,19.75,off
02/05/2017 12:08:37,21.625,19.75,off
02/05/2017 12:08:49,21.687,19.687,off
02/05/2017 12:09:00,21.625,19.625,off
