TIME,INSIDE_TEMPERATURE,OUTSIDE_TEMPERATURE,LIGHTS_STATE

08/04/2016 12:08:26,24.875,24.875,off
08/04/2016 12:08:39,24.875,24.812,off
08/04/2016 12:08:51,24.875,24.75,off
08/04/2016 12:09:02,24.937,24.75,off
