TIME,INSIDE_TEMPERATURE,OUTSIDE_TEMPERATURE,LIGHTS_STATE

12/22/2016 12:44:25,22.375,19.187,off
12/22/2016 12:44:37,22.375,19.125,off
12/22/2016 12:44:48,22.312,19.062,off
12/22/2016 12:45:00,22.312,18.937,off
