TIME,INSIDE_TEMPERATURE,OUTSIDE_TEMPERATURE,LIGHTS_STATE

07/11/2016 12:24:25,28.875,28.875,off
07/11/2016 12:24:37,28.937,28.875,off
07/11/2016 12:24:49,28.937,28.875,off
07/11/2016 12:25:00,29.0,28.875,off
