TIME,INSIDE_TEMPERATURE,OUTSIDE_TEMPERATURE,LIGHTS_STATE

03/21/2017 12:13:25,22.25,18.5,off
03/21/2017 12:13:37,22.25,18.375,off
03/21/2017 12:13:49,22.25,18.375,off
03/21/2017 12:14:00,22.25,18.25,off
