TIME,INSIDE_TEMPERATURE,OUTSIDE_TEMPERATURE,LIGHTS_STATE

02/07/2018 12:00:25,28.875,25.062,off
02/07/2018 12:00:37,28.875,25.062,off
02/07/2018 12:00:49,28.875,25.062,off
02/07/2018 12:01:00,28.875,25.125,off
