TIME,INSIDE_TEMPERATURE,OUTSIDE_TEMPERATURE,LIGHTS_STATE

06/10/2017 12:14:25,24.562,20.312,off
06/10/2017 12:14:37,24.562,20.25,off
06/10/2017 12:14:49,24.562,20.25,off
06/10/2017 12:15:01,24.562,20.25,off
