TIME,INSIDE_TEMPERATURE,OUTSIDE_TEMPERATURE,LIGHTS_STATE

06/18/2017 12:37:25,38.437,33.437,off
06/18/2017 12:37:37,38.437,33.437,off
06/18/2017 12:37:49,38.437,33.437,off
06/18/2017 12:38:00,38.5,33.375,off
