TIME,INSIDE_TEMPERATURE,OUTSIDE_TEMPERATURE,LIGHTS_STATE

08/01/2016 12:27:26,27.687,27.812,off
08/01/2016 12:27:37,27.687,27.812,off
08/01/2016 12:27:49,27.75,27.875,off
08/01/2016 12:28:01,27.75,27.937,off
