TIME,INSIDE_TEMPERATURE,OUTSIDE_TEMPERATURE,LIGHTS_STATE

07/10/2016 12:28:25,24.25,23.562,off
07/10/2016 12:28:37,24.312,23.625,off
07/10/2016 12:28:48,24.312,23.625,off
07/10/2016 12:29:00,24.375,23.75,off
