TIME,INSIDE_TEMPERATURE,OUTSIDE_TEMPERATURE,LIGHTS_STATE

12/15/2016 12:49:25,20.812,17.062,off
12/15/2016 12:49:36,20.812,17.125,off
12/15/2016 12:49:48,20.812,17.062,off
12/15/2016 12:50:00,20.812,17.062,off
