TIME,INSIDE_TEMPERATURE,OUTSIDE_TEMPERATURE,LIGHTS_STATE

09/10/2016 12:36:25,28.312,26.75,off
09/10/2016 12:36:36,28.312,26.75,off
09/10/2016 12:36:48,28.312,26.812,off
09/10/2016 12:37:00,28.312,26.812,off
