TIME,INSIDE_TEMPERATURE,OUTSIDE_TEMPERATURE,LIGHTS_STATE

07/12/2016 12:13:25,24.625,24.375,off
07/12/2016 12:13:37,24.625,24.312,off
07/12/2016 12:13:49,24.625,24.312,off
07/12/2016 12:14:00,24.687,24.312,off
