TIME,INSIDE_TEMPERATURE,OUTSIDE_TEMPERATURE,LIGHTS_STATE

04/05/2017 12:00:25,26.75,24.875,off
04/05/2017 12:00:37,26.75,24.937,off
04/05/2017 12:00:48,26.812,24.875,off
04/05/2017 12:01:00,26.812,24.812,off
