TIME,INSIDE_TEMPERATURE,OUTSIDE_TEMPERATURE,LIGHTS_STATE

03/15/2017 12:44:25,27.875,24.5,off
03/15/2017 12:44:37,27.875,24.625,off
03/15/2017 12:44:49,27.875,24.625,off
03/15/2017 12:45:00,27.875,24.687,off
