TIME,INSIDE_TEMPERATURE,OUTSIDE_TEMPERATURE,LIGHTS_STATE

09/21/2016 12:22:26,27.5,24.75,off
09/21/2016 12:22:38,27.5,24.75,off
09/21/2016 12:22:49,27.5,24.75,off
09/21/2016 12:23:01,27.562,24.687,off
