TIME,INSIDE_TEMPERATURE,OUTSIDE_TEMPERATURE,LIGHTS_STATE

03/05/2018 12:36:25,20.187,27.5,off
03/05/2018 12:36:37,20.25,27.312,off
03/05/2018 12:36:48,20.187,27.437,off
03/05/2018 12:37:00,20.187,27.625,off
