TIME,INSIDE_TEMPERATURE,OUTSIDE_TEMPERATURE,LIGHTS_STATE

06/30/2016 12:07:25,28.437,28.437,off
06/30/2016 12:07:37,28.437,28.375,off
06/30/2016 12:07:49,28.437,28.437,off
06/30/2016 12:08:00,28.437,28.375,off
