TIME,INSIDE_TEMPERATURE,OUTSIDE_TEMPERATURE,LIGHTS_STATE

02/25/2018 12:52:25,23.312,24.125,off
02/25/2018 12:52:37,23.312,24.125,off
02/25/2018 12:52:48,23.312,24.125,off
02/25/2018 12:53:01,23.312,24.125,off
