TIME,INSIDE_TEMPERATURE,OUTSIDE_TEMPERATURE,LIGHTS_STATE

06/22/2017 12:17:25,40.125,35.312,off
06/22/2017 12:17:37,40.125,35.312,off
06/22/2017 12:17:48,40.125,35.375,off
06/22/2017 12:18:00,40.125,35.375,off
