TIME,INSIDE_TEMPERATURE,OUTSIDE_TEMPERATURE,LIGHTS_STATE

11/29/2016 12:34:25,21.375,17.562,off
11/29/2016 12:34:37,21.375,17.625,off
11/29/2016 12:34:48,21.375,17.75,off
11/29/2016 12:35:00,21.375,17.937,off
