TIME,INSIDE_TEMPERATURE,OUTSIDE_TEMPERATURE,LIGHTS_STATE

03/23/2017 12:21:25,20.812,18.75,off
03/23/2017 12:21:37,20.812,18.812,off
03/23/2017 12:21:48,20.812,18.75,off
03/23/2017 12:22:00,20.812,18.687,off
