TIME,INSIDE_TEMPERATURE,OUTSIDE_TEMPERATURE,LIGHTS_STATE

07/23/2017 12:31:26,36.25,33.125,off
07/23/2017 12:31:37,36.25,33.125,off
07/23/2017 12:31:49,36.25,33.187,off
07/23/2017 12:32:01,36.25,33.187,off
