TIME,INSIDE_TEMPERATURE,OUTSIDE_TEMPERATURE,LIGHTS_STATE

06/29/2017 12:31:25,27.875,25.312,off
06/29/2017 12:31:37,27.875,25.312,off
06/29/2017 12:31:48,27.875,25.25,off
06/29/2017 12:32:00,27.875,25.25,off
