TIME,INSIDE_TEMPERATURE,OUTSIDE_TEMPERATURE,LIGHTS_STATE

05/10/2017 12:10:25,23.0,20.687,off
05/10/2017 12:10:36,23.125,20.75,off
05/10/2017 12:10:48,23.125,20.875,off
05/10/2017 12:11:00,23.125,20.875,off
