TIME,INSIDE_TEMPERATURE,OUTSIDE_TEMPERATURE,LIGHTS_STATE

03/20/2018 12:21:26,17.0,10.875,off
03/20/2018 12:21:37,17.0,10.875,off
03/20/2018 12:21:49,17.0,10.937,off
03/20/2018 12:22:01,17.0,10.937,off
