TIME,INSIDE_TEMPERATURE,OUTSIDE_TEMPERATURE,LIGHTS_STATE

07/23/2017 12:32:25,36.25,33.187,off
07/23/2017 12:32:37,36.25,33.187,off
07/23/2017 12:32:48,36.25,33.125,off
07/23/2017 12:33:00,36.25,33.125,off
