TIME,INSIDE_TEMPERATURE,OUTSIDE_TEMPERATURE,LIGHTS_STATE

03/06/2017 12:19:26,20.312,18.312,off
03/06/2017 12:19:38,20.312,18.687,off
03/06/2017 12:19:50,20.375,19.0,off
03/06/2017 12:20:01,20.375,19.125,off
