TIME,INSIDE_TEMPERATURE,OUTSIDE_TEMPERATURE,LIGHTS_STATE

07/12/2016 12:46:26,25.687,25.437,off
07/12/2016 12:46:38,25.687,25.5,off
07/12/2016 12:46:50,25.687,25.5,off
07/12/2016 12:47:02,25.687,25.5,off
