TIME,INSIDE_TEMPERATURE,OUTSIDE_TEMPERATURE,LIGHTS_STATE

06/23/2017 12:18:26,32.5,29.437,off
06/23/2017 12:18:37,32.5,29.437,off
06/23/2017 12:18:49,32.5,29.375,off
06/23/2017 12:19:01,32.5,29.375,off
