TIME,INSIDE_TEMPERATURE,OUTSIDE_TEMPERATURE,LIGHTS_STATE

12/27/2017 12:11:25,22.875,24.937,off
12/27/2017 12:11:37,22.875,25.062,off
12/27/2017 12:11:49,22.875,25.125,off
12/27/2017 12:12:00,22.937,25.25,off
