TIME,INSIDE_TEMPERATURE,OUTSIDE_TEMPERATURE,LIGHTS_STATE

01/15/2017 12:52:24,11.875,8.187,off
01/15/2017 12:52:36,11.875,8.125,off
01/15/2017 12:52:48,11.875,8.062,off
01/15/2017 12:52:59,11.937,8.062,off
