TIME,INSIDE_TEMPERATURE,OUTSIDE_TEMPERATURE,LIGHTS_STATE

11/30/2016 12:17:25,20.125,19.312,off
11/30/2016 12:17:37,20.125,19.312,off
11/30/2016 12:17:49,20.125,19.0,off
11/30/2016 12:18:00,20.125,18.937,off
