TIME,INSIDE_TEMPERATURE,OUTSIDE_TEMPERATURE,LIGHTS_STATE

12/21/2016 12:27:24,23.062,21.687,off
12/21/2016 12:27:36,23.062,21.75,off
12/21/2016 12:27:48,23.062,21.75,off
12/21/2016 12:27:59,23.062,21.75,off
