TIME,INSIDE_TEMPERATURE,OUTSIDE_TEMPERATURE,LIGHTS_STATE

02/20/2018 12:55:25,19.375,24.0,off
02/20/2018 12:55:37,19.375,23.687,off
02/20/2018 12:55:49,19.375,23.5,off
02/20/2018 12:56:01,19.375,23.312,off
