TIME,INSIDE_TEMPERATURE,OUTSIDE_TEMPERATURE,LIGHTS_STATE

03/21/2018 12:49:25,23.625,19.687,off
03/21/2018 12:49:37,23.625,19.625,off
03/21/2018 12:49:49,23.625,19.687,off
03/21/2018 12:50:01,23.625,19.687,off
