TIME,INSIDE_TEMPERATURE,OUTSIDE_TEMPERATURE,LIGHTS_STATE

02/25/2017 12:11:26,23.25,18.5,off
02/25/2017 12:11:37,23.125,18.5,off
02/25/2017 12:11:49,23.062,18.375,off
02/25/2017 12:12:01,22.937,18.062,off
