TIME,INSIDE_TEMPERATURE,OUTSIDE_TEMPERATURE,LIGHTS_STATE

09/07/2016 12:15:25,31.25,40.0,off
09/07/2016 12:15:37,31.25,40.187,off
09/07/2016 12:15:49,31.25,40.375,off
09/07/2016 12:16:00,31.312,40.5,off
