TIME,INSIDE_TEMPERATURE,OUTSIDE_TEMPERATURE,LIGHTS_STATE

10/23/2017 12:47:25,34.812,36.562,off
10/23/2017 12:47:37,34.812,36.625,off
10/23/2017 12:47:49,34.812,36.75,off
10/23/2017 12:48:00,34.812,36.937,off
