TIME,INSIDE_TEMPERATURE,OUTSIDE_TEMPERATURE,LIGHTS_STATE

07/03/2016 12:37:25,29.562,29.5,off
07/03/2016 12:37:37,29.625,29.5,off
07/03/2016 12:37:49,29.625,29.5,off
07/03/2016 12:38:01,29.625,29.5,off
