TIME,INSIDE_TEMPERATURE,OUTSIDE_TEMPERATURE,LIGHTS_STATE

01/16/2018 12:32:25,23.75,18.687,off
01/16/2018 12:32:38,23.75,18.812,off
01/16/2018 12:32:50,23.75,18.875,off
01/16/2018 12:33:02,23.75,19.0,off
