TIME,INSIDE_TEMPERATURE,OUTSIDE_TEMPERATURE,LIGHTS_STATE

06/17/2017 12:23:25,34.125,29.187,off
06/17/2017 12:23:37,34.125,29.187,off
06/17/2017 12:23:48,34.125,29.187,off
06/17/2017 12:24:00,34.187,29.25,off
