TIME,INSIDE_TEMPERATURE,OUTSIDE_TEMPERATURE,LIGHTS_STATE

03/22/2017 12:50:25,21.187,17.062,off
03/22/2017 12:50:37,21.187,17.125,off
03/22/2017 12:50:48,21.25,17.125,off
03/22/2017 12:51:00,21.187,17.187,off
