TIME,INSIDE_TEMPERATURE,OUTSIDE_TEMPERATURE,LIGHTS_STATE

08/28/2017 12:14:25,37.375,35.625,off
08/28/2017 12:14:37,37.375,35.562,off
08/28/2017 12:14:49,37.375,35.625,off
08/28/2017 12:15:01,37.375,35.625,off
