TIME,INSIDE_TEMPERATURE,OUTSIDE_TEMPERATURE,LIGHTS_STATE

07/08/2017 12:40:25,39.312,34.5,off
07/08/2017 12:40:37,39.312,34.5,off
07/08/2017 12:40:49,39.375,34.5,off
07/08/2017 12:41:01,39.375,34.562,off
