TIME,INSIDE_TEMPERATURE,OUTSIDE_TEMPERATURE,LIGHTS_STATE

02/22/2017 12:41:25,21.875,18.875,off
02/22/2017 12:41:37,21.875,18.875,off
02/22/2017 12:41:49,21.875,18.875,off
02/22/2017 12:42:00,21.875,18.875,off
