TIME,INSIDE_TEMPERATURE,OUTSIDE_TEMPERATURE,LIGHTS_STATE

09/19/2016 12:22:26,33.187,35.25,off
09/19/2016 12:22:38,33.187,35.25,off
09/19/2016 12:22:50,33.187,35.187,off
09/19/2016 12:23:01,33.25,35.187,off
