TIME,INSIDE_TEMPERATURE,OUTSIDE_TEMPERATURE,LIGHTS_STATE

12/30/2017 12:37:26,22.062,20.687,off
12/30/2017 12:37:37,22.0,20.75,off
12/30/2017 12:37:49,22.062,20.625,off
12/30/2017 12:38:01,22.062,20.562,off
