TIME,INSIDE_TEMPERATURE,OUTSIDE_TEMPERATURE,LIGHTS_STATE

03/19/2018 12:43:25,19.937,16.625,off
03/19/2018 12:43:37,19.937,16.687,off
03/19/2018 12:43:49,19.937,16.625,off
03/19/2018 12:44:00,19.937,16.625,off
