TIME,INSIDE_TEMPERATURE,OUTSIDE_TEMPERATURE,LIGHTS_STATE

07/14/2017 12:25:25,32.687,30.25,off
07/14/2017 12:25:37,32.687,30.25,off
07/14/2017 12:25:49,32.687,30.187,off
07/14/2017 12:26:01,32.687,30.187,off
