TIME,INSIDE_TEMPERATURE,OUTSIDE_TEMPERATURE,LIGHTS_STATE

04/18/2017 12:57:25,23.437,19.187,off
04/18/2017 12:57:37,23.5,19.25,off
04/18/2017 12:57:48,23.5,19.312,off
04/18/2017 12:58:00,23.5,19.312,off
