TIME,INSIDE_TEMPERATURE,OUTSIDE_TEMPERATURE,LIGHTS_STATE

04/27/2017 12:14:25,23.0,20.187,off
04/27/2017 12:14:36,23.0,20.187,off
04/27/2017 12:14:48,23.0,20.187,off
04/27/2017 12:15:00,23.062,20.25,off
