TIME,INSIDE_TEMPERATURE,OUTSIDE_TEMPERATURE,LIGHTS_STATE

06/16/2017 12:55:25,34.187,29.937,off
06/16/2017 12:55:37,34.25,29.937,off
06/16/2017 12:55:49,34.25,29.937,off
06/16/2017 12:56:01,34.25,29.875,off
