TIME,INSIDE_TEMPERATURE,OUTSIDE_TEMPERATURE,LIGHTS_STATE

09/12/2017 12:33:25,36.312,32.562,off
09/12/2017 12:33:37,36.375,32.562,off
09/12/2017 12:33:49,36.437,32.562,off
09/12/2017 12:34:00,36.5,32.5,off
