TIME,INSIDE_TEMPERATURE,OUTSIDE_TEMPERATURE,LIGHTS_STATE

04/20/2017 12:38:25,23.062,19.187,off
04/20/2017 12:38:37,23.125,19.187,off
04/20/2017 12:38:49,23.125,19.25,off
04/20/2017 12:39:00,23.125,19.25,off
