TIME,INSIDE_TEMPERATURE,OUTSIDE_TEMPERATURE,LIGHTS_STATE

04/27/2017 12:03:25,23.0,20.375,off
04/27/2017 12:03:36,23.0,20.375,off
04/27/2017 12:03:49,23.062,20.437,off
04/27/2017 12:04:00,23.062,20.437,off
