TIME,INSIDE_TEMPERATURE,OUTSIDE_TEMPERATURE,LIGHTS_STATE

10/17/2017 12:48:26,30.75,29.062,off
10/17/2017 12:48:37,30.75,28.937,off
10/17/2017 12:48:49,30.75,28.812,off
10/17/2017 12:49:01,30.75,28.75,off
