TIME,INSIDE_TEMPERATURE,OUTSIDE_TEMPERATURE,LIGHTS_STATE

02/11/2018 12:24:25,22.25,17.375,off
02/11/2018 12:24:37,22.25,17.375,off
02/11/2018 12:24:49,22.25,17.437,off
02/11/2018 12:25:01,22.25,17.5,off
