TIME,INSIDE_TEMPERATURE,OUTSIDE_TEMPERATURE,LIGHTS_STATE

03/15/2018 12:01:25,18.5,12.75,off
03/15/2018 12:01:37,18.437,12.75,off
03/15/2018 12:01:49,18.437,12.812,off
03/15/2018 12:02:01,18.437,12.812,off
