TIME,INSIDE_TEMPERATURE,OUTSIDE_TEMPERATURE,LIGHTS_STATE

01/24/2018 12:33:26,19.625,15.5,off
01/24/2018 12:33:37,19.625,15.5,off
01/24/2018 12:33:49,19.625,15.5,off
01/24/2018 12:34:01,19.625,15.5,off
