TIME,INSIDE_TEMPERATURE,OUTSIDE_TEMPERATURE,LIGHTS_STATE

12/30/2017 12:43:25,22.062,19.437,off
12/30/2017 12:43:37,22.062,19.562,off
12/30/2017 12:43:49,22.062,19.625,off
12/30/2017 12:44:01,22.125,19.562,off
