TIME,INSIDE_TEMPERATURE,OUTSIDE_TEMPERATURE,LIGHTS_STATE

03/30/2017 12:12:25,22.25,18.5,off
03/30/2017 12:12:37,22.25,18.5,off
03/30/2017 12:12:49,22.25,18.437,off
03/30/2017 12:13:00,22.25,18.375,off
