TIME,INSIDE_TEMPERATURE,OUTSIDE_TEMPERATURE,LIGHTS_STATE

09/29/2017 12:54:26,31.437,29.625,off
09/29/2017 12:54:37,31.5,29.562,off
09/29/2017 12:54:49,31.437,29.5,off
09/29/2017 12:55:01,31.375,29.187,off
