TIME,INSIDE_TEMPERATURE,OUTSIDE_TEMPERATURE,LIGHTS_STATE

07/29/2016 12:08:26,31.812,32.125,off
07/29/2016 12:08:37,31.75,32.125,off
07/29/2016 12:08:49,31.812,32.062,off
07/29/2016 12:09:01,31.812,32.125,off
