TIME,INSIDE_TEMPERATURE,OUTSIDE_TEMPERATURE,LIGHTS_STATE

03/05/2017 12:47:25,17.437,12.75,off
03/05/2017 12:47:37,17.375,12.75,off
03/05/2017 12:47:48,17.375,12.75,off
03/05/2017 12:48:00,17.375,12.75,off
