TIME,INSIDE_TEMPERATURE,OUTSIDE_TEMPERATURE,LIGHTS_STATE

10/02/2017 12:41:26,29.625,26.687,off
10/02/2017 12:41:37,29.625,26.562,off
10/02/2017 12:41:49,29.625,26.5,off
10/02/2017 12:42:01,29.625,26.625,off
