TIME,INSIDE_TEMPERATURE,OUTSIDE_TEMPERATURE,LIGHTS_STATE

04/08/2017 12:05:25,16.312,11.687,off
04/08/2017 12:05:37,16.312,11.687,off
04/08/2017 12:05:49,16.312,11.687,off
04/08/2017 12:06:00,16.312,11.812,off
