TIME,INSIDE_TEMPERATURE,OUTSIDE_TEMPERATURE,LIGHTS_STATE

01/13/2017 12:15:25,21.187,16.25,off
01/13/2017 12:15:37,21.187,16.25,off
01/13/2017 12:15:48,21.187,16.375,off
01/13/2017 12:16:00,21.25,16.375,off
