TIME,INSIDE_TEMPERATURE,OUTSIDE_TEMPERATURE,LIGHTS_STATE

07/07/2016 12:29:25,22.5,21.937,off
07/07/2016 12:29:37,22.562,22.0,off
07/07/2016 12:29:49,22.562,22.062,off
07/07/2016 12:30:00,22.562,22.062,off
