TIME,INSIDE_TEMPERATURE,OUTSIDE_TEMPERATURE,LIGHTS_STATE

04/25/2017 12:53:25,24.562,21.25,off
04/25/2017 12:53:37,24.625,21.312,off
04/25/2017 12:53:49,24.625,21.312,off
04/25/2017 12:54:00,24.625,21.375,off
