TIME,INSIDE_TEMPERATURE,OUTSIDE_TEMPERATURE,LIGHTS_STATE

09/25/2017 12:04:26,28.937,26.937,off
09/25/2017 12:04:37,29.0,26.937,off
09/25/2017 12:04:49,29.0,26.937,off
09/25/2017 12:05:01,29.062,26.937,off
