TIME,INSIDE_TEMPERATURE,OUTSIDE_TEMPERATURE,LIGHTS_STATE

10/23/2016 12:07:24,24.5,21.062,off
10/23/2016 12:07:36,24.5,21.062,off
10/23/2016 12:07:48,24.5,21.125,off
10/23/2016 12:07:59,24.5,21.125,off
