TIME,INSIDE_TEMPERATURE,OUTSIDE_TEMPERATURE,LIGHTS_STATE

09/06/2017 12:41:26,33.937,31.812,off
09/06/2017 12:41:37,33.937,31.812,off
09/06/2017 12:41:49,33.937,31.875,off
09/06/2017 12:42:01,33.937,31.875,off
