TIME,INSIDE_TEMPERATURE,OUTSIDE_TEMPERATURE,LIGHTS_STATE

09/15/2017 12:11:25,26.687,23.937,off
09/15/2017 12:11:37,26.687,23.875,off
09/15/2017 12:11:49,26.687,23.937,off
09/15/2017 12:12:01,26.75,23.875,off
