TIME,INSIDE_TEMPERATURE,OUTSIDE_TEMPERATURE,LIGHTS_STATE

06/16/2017 12:15:25,33.062,29.687,off
06/16/2017 12:15:37,33.062,29.687,off
06/16/2017 12:15:49,33.062,29.687,off
06/16/2017 12:16:00,33.125,29.687,off
