TIME,INSIDE_TEMPERATURE,OUTSIDE_TEMPERATURE,LIGHTS_STATE

01/19/2018 12:41:25,24.875,25.125,off
01/19/2018 12:41:37,24.812,25.25,off
01/19/2018 12:41:49,24.875,25.312,off
01/19/2018 12:42:00,24.875,25.25,off
