TIME,INSIDE_TEMPERATURE,OUTSIDE_TEMPERATURE,LIGHTS_STATE

06/14/2017 12:12:25,29.0,25.75,off
06/14/2017 12:12:37,29.0,25.812,off
06/14/2017 12:12:49,29.0,25.812,off
06/14/2017 12:13:01,29.0,25.812,off
