TIME,INSIDE_TEMPERATURE,OUTSIDE_TEMPERATURE,LIGHTS_STATE

07/01/2016 12:42:25,28.437,27.75,off
07/01/2016 12:42:36,28.437,27.75,off
07/01/2016 12:42:48,28.437,27.812,off
07/01/2016 12:43:01,28.5,27.875,off
