TIME,INSIDE_TEMPERATURE,OUTSIDE_TEMPERATURE,LIGHTS_STATE

12/06/2016 12:08:25,19.687,16.75,off
12/06/2016 12:08:37,19.687,16.75,off
12/06/2016 12:08:48,19.687,16.875,off
12/06/2016 12:09:00,19.687,17.0,off
