TIME,INSIDE_TEMPERATURE,OUTSIDE_TEMPERATURE,LIGHTS_STATE

04/15/2017 12:09:25,21.562,18.562,off
04/15/2017 12:09:37,21.562,18.562,off
04/15/2017 12:09:49,21.625,18.562,off
04/15/2017 12:10:00,21.625,18.562,off
