TIME,INSIDE_TEMPERATURE,OUTSIDE_TEMPERATURE,LIGHTS_STATE

09/10/2017 12:49:25,39.125,34.437,off
09/10/2017 12:49:37,39.125,34.437,off
09/10/2017 12:49:49,39.062,34.437,off
09/10/2017 12:50:01,39.062,34.5,off
