TIME,INSIDE_TEMPERATURE,OUTSIDE_TEMPERATURE,LIGHTS_STATE

02/14/2018 12:54:25,22.437,23.5,off
02/14/2018 12:54:37,22.437,23.5,off
02/14/2018 12:54:49,22.437,23.562,off
02/14/2018 12:55:01,22.5,23.687,off
