TIME,INSIDE_TEMPERATURE,OUTSIDE_TEMPERATURE,LIGHTS_STATE

04/30/2017 12:38:26,26.187,25.125,off
04/30/2017 12:38:37,26.187,25.187,off
04/30/2017 12:38:49,26.25,25.187,off
04/30/2017 12:39:01,26.25,25.25,off
