TIME,INSIDE_TEMPERATURE,OUTSIDE_TEMPERATURE,LIGHTS_STATE

04/22/2017 12:24:25,25.937,23.812,off
04/22/2017 12:24:37,25.875,23.812,off
04/22/2017 12:24:48,25.937,23.812,off
04/22/2017 12:25:00,25.937,23.75,off
