TIME,INSIDE_TEMPERATURE,OUTSIDE_TEMPERATURE,LIGHTS_STATE

03/02/2018 12:08:25,18.625,21.312,off
03/02/2018 12:08:37,18.625,21.187,off
03/02/2018 12:08:48,18.625,21.062,off
03/02/2018 12:09:00,18.625,21.312,off
