TIME,INSIDE_TEMPERATURE,OUTSIDE_TEMPERATURE,LIGHTS_STATE

11/07/2016 12:53:25,28.812,24.937,off
11/07/2016 12:53:37,28.875,24.937,off
11/07/2016 12:53:48,28.812,25.0,off
11/07/2016 12:54:00,28.875,24.875,off
