TIME,INSIDE_TEMPERATURE,OUTSIDE_TEMPERATURE,LIGHTS_STATE

07/10/2016 12:56:25,25.187,24.75,off
07/10/2016 12:56:37,25.25,24.75,off
07/10/2016 12:56:49,25.187,24.75,off
07/10/2016 12:57:00,25.25,24.687,off
