TIME,INSIDE_TEMPERATURE,OUTSIDE_TEMPERATURE,LIGHTS_STATE

09/06/2016 12:12:26,28.375,32.687,off
09/06/2016 12:12:38,28.375,32.75,off
09/06/2016 12:12:49,28.375,32.812,off
09/06/2016 12:13:01,28.437,32.937,off
