TIME,INSIDE_TEMPERATURE,OUTSIDE_TEMPERATURE,LIGHTS_STATE

07/07/2016 12:19:25,22.562,21.937,off
07/07/2016 12:19:37,22.5,21.937,off
07/07/2016 12:19:49,22.562,21.937,off
07/07/2016 12:20:01,22.562,22.0,off
