TIME,INSIDE_TEMPERATURE,OUTSIDE_TEMPERATURE,LIGHTS_STATE

10/27/2017 12:12:25,35.812,49.875,off
10/27/2017 12:12:37,35.75,49.812,off
10/27/2017 12:12:49,35.812,49.75,off
10/27/2017 12:13:00,35.812,49.687,off
