TIME,INSIDE_TEMPERATURE,OUTSIDE_TEMPERATURE,LIGHTS_STATE

07/10/2017 12:39:25,34.562,32.625,off
07/10/2017 12:39:37,34.562,32.625,off
07/10/2017 12:39:50,34.625,32.562,off
07/10/2017 12:40:02,34.625,32.562,off
