TIME,INSIDE_TEMPERATURE,OUTSIDE_TEMPERATURE,LIGHTS_STATE

12/19/2016 12:07:25,18.562,14.312,off
12/19/2016 12:07:37,18.562,14.437,off
12/19/2016 12:07:48,18.5,14.5,off
12/19/2016 12:08:00,18.562,14.437,off
