TIME,INSIDE_TEMPERATURE,OUTSIDE_TEMPERATURE,LIGHTS_STATE

11/16/2016 12:12:25,25.125,27.0,off
11/16/2016 12:12:37,25.125,26.937,off
11/16/2016 12:12:49,25.125,26.812,off
11/16/2016 12:13:00,25.062,26.5,off
