TIME,INSIDE_TEMPERATURE,OUTSIDE_TEMPERATURE,LIGHTS_STATE

07/06/2016 12:31:26,24.437,24.125,off
07/06/2016 12:31:38,24.5,24.125,off
07/06/2016 12:31:49,24.5,24.125,off
07/06/2016 12:32:02,24.5,24.125,off
