TIME,INSIDE_TEMPERATURE,OUTSIDE_TEMPERATURE,LIGHTS_STATE

02/19/2018 12:00:26,20.5,29.312,off
02/19/2018 12:00:38,20.5,29.312,off
02/19/2018 12:00:49,20.25,28.937,off
02/19/2018 12:01:01,20.375,28.687,off
