TIME,INSIDE_TEMPERATURE,OUTSIDE_TEMPERATURE,LIGHTS_STATE

05/12/2017 12:51:25,21.375,18.75,off
05/12/2017 12:51:36,21.375,18.75,off
05/12/2017 12:51:48,21.375,18.812,off
05/12/2017 12:52:00,21.375,18.812,off
