TIME,INSIDE_TEMPERATURE,OUTSIDE_TEMPERATURE,LIGHTS_STATE

02/28/2017 12:38:25,22.812,23.312,off
02/28/2017 12:38:37,22.812,23.312,off
02/28/2017 12:38:48,22.812,23.312,off
02/28/2017 12:39:00,22.75,23.312,off
