TIME,INSIDE_TEMPERATURE,OUTSIDE_TEMPERATURE,LIGHTS_STATE

01/26/2018 12:02:25,22.375,18.937,off
01/26/2018 12:02:37,22.375,18.875,off
01/26/2018 12:02:48,22.375,18.812,off
01/26/2018 12:03:00,22.375,18.812,off
