TIME,INSIDE_TEMPERATURE,OUTSIDE_TEMPERATURE,LIGHTS_STATE

03/27/2018 12:56:25,23.312,17.562,off
03/27/2018 12:56:37,23.312,17.562,off
03/27/2018 12:56:49,23.312,17.5,off
03/27/2018 12:57:01,23.312,17.5,off
