TIME,INSIDE_TEMPERATURE,OUTSIDE_TEMPERATURE,LIGHTS_STATE

06/15/2017 12:18:25,28.812,25.437,off
06/15/2017 12:18:37,28.812,25.437,off
06/15/2017 12:18:48,28.812,25.437,off
06/15/2017 12:19:00,28.812,25.437,off
