TIME,INSIDE_TEMPERATURE,OUTSIDE_TEMPERATURE,LIGHTS_STATE

09/10/2017 12:36:26,38.0,33.875,off
09/10/2017 12:36:37,38.062,33.937,off
09/10/2017 12:36:49,38.125,33.937,off
09/10/2017 12:37:01,38.062,34.0,off
