TIME,INSIDE_TEMPERATURE,OUTSIDE_TEMPERATURE,LIGHTS_STATE

07/11/2017 12:51:25,33.312,30.562,off
07/11/2017 12:51:37,33.375,30.875,off
07/11/2017 12:51:49,33.375,31.0,off
07/11/2017 12:52:01,33.312,31.0,off
