TIME,INSIDE_TEMPERATURE,OUTSIDE_TEMPERATURE,LIGHTS_STATE

02/12/2017 12:05:25,28.625,24.125,off
02/12/2017 12:05:37,28.687,24.125,off
02/12/2017 12:05:49,28.625,24.125,off
02/12/2017 12:06:00,28.687,24.125,off
