TIME,INSIDE_TEMPERATURE,OUTSIDE_TEMPERATURE,LIGHTS_STATE

07/13/2017 12:00:25,31.812,28.625,off
07/13/2017 12:00:37,31.812,28.625,off
07/13/2017 12:00:49,31.812,28.625,off
07/13/2017 12:01:01,31.812,28.625,off
