TIME,INSIDE_TEMPERATURE,OUTSIDE_TEMPERATURE,LIGHTS_STATE

12/20/2016 12:19:25,19.875,16.25,off
12/20/2016 12:19:36,19.937,16.187,off
12/20/2016 12:19:48,19.875,16.25,off
12/20/2016 12:20:00,19.875,16.375,off
