TIME,INSIDE_TEMPERATURE,OUTSIDE_TEMPERATURE,LIGHTS_STATE

02/23/2017 12:51:25,20.25,14.25,off
02/23/2017 12:51:37,20.187,14.25,off
02/23/2017 12:51:48,20.25,14.187,off
02/23/2017 12:52:00,20.187,14.187,off
