TIME,INSIDE_TEMPERATURE,OUTSIDE_TEMPERATURE,LIGHTS_STATE

08/15/2017 12:03:25,26.375,23.312,off
08/15/2017 12:03:37,26.437,23.375,off
08/15/2017 12:03:48,26.437,23.437,off
08/15/2017 12:04:00,26.437,23.5,off
