TIME,INSIDE_TEMPERATURE,OUTSIDE_TEMPERATURE,LIGHTS_STATE

03/14/2017 12:56:25,28.875,26.0,off
03/14/2017 12:56:37,28.875,26.062,off
03/14/2017 12:56:48,28.875,26.0,off
03/14/2017 12:57:00,28.875,26.0,off
