TIME,INSIDE_TEMPERATURE,OUTSIDE_TEMPERATURE,LIGHTS_STATE

08/08/2017 12:55:25,30.125,27.687,off
08/08/2017 12:55:37,30.125,27.687,off
08/08/2017 12:55:48,30.125,27.687,off
08/08/2017 12:56:00,30.187,27.687,off
