TIME,INSIDE_TEMPERATURE,OUTSIDE_TEMPERATURE,LIGHTS_STATE

08/31/2017 12:10:26,33.375,33.125,off
08/31/2017 12:10:38,33.375,33.125,off
08/31/2017 12:10:49,33.437,33.125,off
08/31/2017 12:11:01,33.5,33.125,off
