TIME,INSIDE_TEMPERATURE,OUTSIDE_TEMPERATURE,LIGHTS_STATE

09/03/2016 12:51:25,25.062,24.687,off
09/03/2016 12:51:37,25.125,24.625,off
09/03/2016 12:51:49,25.125,24.625,off
09/03/2016 12:52:00,25.125,24.687,off
