TIME,INSIDE_TEMPERATURE,OUTSIDE_TEMPERATURE,LIGHTS_STATE

02/19/2018 12:03:25,20.437,29.562,off
02/19/2018 12:03:37,20.375,29.812,off
02/19/2018 12:03:49,20.375,29.937,off
02/19/2018 12:04:01,20.437,29.937,off
