TIME,INSIDE_TEMPERATURE,OUTSIDE_TEMPERATURE,LIGHTS_STATE

09/16/2017 12:08:25,30.5,27.562,off
09/16/2017 12:08:37,30.625,27.5,off
09/16/2017 12:08:48,30.625,27.5,off
09/16/2017 12:09:00,30.687,27.437,off
