TIME,INSIDE_TEMPERATURE,OUTSIDE_TEMPERATURE,LIGHTS_STATE

02/17/2018 12:49:26,27.625,26.625,off
02/17/2018 12:49:37,27.687,26.562,off
02/17/2018 12:49:49,27.687,26.625,off
02/17/2018 12:50:01,27.687,26.5,off
