TIME,INSIDE_TEMPERATURE,OUTSIDE_TEMPERATURE,LIGHTS_STATE

08/11/2017 12:14:25,28.312,26.062,off
08/11/2017 12:14:37,28.312,26.062,off
08/11/2017 12:14:48,28.312,26.062,off
08/11/2017 12:15:00,28.312,26.062,off
