TIME,INSIDE_TEMPERATURE,OUTSIDE_TEMPERATURE,LIGHTS_STATE

03/04/2018 12:26:25,20.625,32.75,off
03/04/2018 12:26:37,20.562,33.125,off
03/04/2018 12:26:49,20.625,33.5,off
03/04/2018 12:27:00,20.625,33.75,off
