TIME,INSIDE_TEMPERATURE,OUTSIDE_TEMPERATURE,LIGHTS_STATE

11/09/2016 12:28:25,28.812,30.937,off
11/09/2016 12:28:37,28.875,30.812,off
11/09/2016 12:28:48,28.875,30.812,off
11/09/2016 12:29:00,28.875,30.875,off
