TIME,INSIDE_TEMPERATURE,OUTSIDE_TEMPERATURE,LIGHTS_STATE

04/28/2017 12:33:25,23.0,21.25,off
04/28/2017 12:33:36,23.0,21.25,off
04/28/2017 12:33:48,23.062,21.25,off
04/28/2017 12:34:00,23.0,21.187,off
