TIME,INSIDE_TEMPERATURE,OUTSIDE_TEMPERATURE,LIGHTS_STATE

08/13/2017 12:21:25,29.625,27.25,off
08/13/2017 12:21:38,29.687,27.25,off
08/13/2017 12:21:50,29.625,27.25,off
08/13/2017 12:22:02,29.625,27.25,off
