TIME,INSIDE_TEMPERATURE,OUTSIDE_TEMPERATURE,LIGHTS_STATE

03/15/2018 12:18:26,18.437,12.687,off
03/15/2018 12:18:37,18.437,12.687,off
03/15/2018 12:18:49,18.437,12.687,off
03/15/2018 12:19:01,18.375,12.375,off
