TIME,INSIDE_TEMPERATURE,OUTSIDE_TEMPERATURE,LIGHTS_STATE

08/02/2016 12:06:26,27.437,27.875,off
08/02/2016 12:06:38,27.437,27.875,off
08/02/2016 12:06:50,27.437,27.812,off
08/02/2016 12:07:01,27.437,27.875,off
