TIME,INSIDE_TEMPERATURE,OUTSIDE_TEMPERATURE,LIGHTS_STATE

01/04/2017 12:54:24,16.937,12.25,off
01/04/2017 12:54:36,16.937,12.25,off
01/04/2017 12:54:48,16.937,12.25,off
01/04/2017 12:54:59,16.937,12.25,off
