TIME,INSIDE_TEMPERATURE,OUTSIDE_TEMPERATURE,LIGHTS_STATE

02/06/2018 12:29:25,29.687,42.062,off
02/06/2018 12:29:37,29.687,42.187,off
02/06/2018 12:29:49,29.687,42.25,off
02/06/2018 12:30:01,29.687,42.312,off
