TIME,INSIDE_TEMPERATURE,OUTSIDE_TEMPERATURE,LIGHTS_STATE

12/29/2016 12:08:25,20.625,15.812,off
12/29/2016 12:08:37,20.625,15.562,off
12/29/2016 12:08:49,20.625,15.437,off
12/29/2016 12:09:01,20.562,15.5,off
