TIME,INSIDE_TEMPERATURE,OUTSIDE_TEMPERATURE,LIGHTS_STATE

11/08/2016 12:42:25,30.437,28.062,off
11/08/2016 12:42:37,30.375,27.875,off
11/08/2016 12:42:48,30.437,27.562,off
11/08/2016 12:43:00,30.437,27.375,off
