TIME,INSIDE_TEMPERATURE,OUTSIDE_TEMPERATURE,LIGHTS_STATE

02/09/2018 12:05:25,30.812,29.625,off
02/09/2018 12:05:37,30.812,29.75,off
02/09/2018 12:05:49,30.812,29.812,off
02/09/2018 12:06:01,30.812,29.812,off
