TIME,INSIDE_TEMPERATURE,OUTSIDE_TEMPERATURE,LIGHTS_STATE

12/15/2016 12:02:25,20.312,17.375,off
12/15/2016 12:02:37,20.312,17.375,off
12/15/2016 12:02:49,20.312,17.375,off
12/15/2016 12:03:00,20.312,17.375,off
