TIME,INSIDE_TEMPERATURE,OUTSIDE_TEMPERATURE,LIGHTS_STATE

04/10/2017 12:26:25,22.375,18.562,off
04/10/2017 12:26:37,22.312,18.562,off
04/10/2017 12:26:48,22.375,18.625,off
04/10/2017 12:27:00,22.375,18.687,off
