TIME,INSIDE_TEMPERATURE,OUTSIDE_TEMPERATURE,LIGHTS_STATE

01/01/2017 12:24:25,20.687,20.437,off
01/01/2017 12:24:37,20.687,20.312,off
01/01/2017 12:24:49,20.687,20.062,off
01/01/2017 12:25:00,20.75,20.125,off
