TIME,INSIDE_TEMPERATURE,OUTSIDE_TEMPERATURE,LIGHTS_STATE

02/16/2017 12:46:25,24.812,21.062,off
02/16/2017 12:46:37,24.812,21.0,off
02/16/2017 12:46:49,24.812,21.0,off
02/16/2017 12:47:00,24.812,20.937,off
