TIME,INSIDE_TEMPERATURE,OUTSIDE_TEMPERATURE,LIGHTS_STATE

02/05/2018 12:16:25,30.375,34.75,off
02/05/2018 12:16:37,30.375,34.75,off
02/05/2018 12:16:49,30.375,34.812,off
02/05/2018 12:17:01,30.375,34.875,off
