TIME,INSIDE_TEMPERATURE,OUTSIDE_TEMPERATURE,LIGHTS_STATE

09/22/2017 12:01:25,25.5,20.937,off
09/22/2017 12:01:37,25.5,20.937,off
09/22/2017 12:01:49,25.562,20.937,off
09/22/2017 12:02:01,25.562,21.0,off
