TIME,INSIDE_TEMPERATURE,OUTSIDE_TEMPERATURE,LIGHTS_STATE

02/25/2017 12:24:25,22.437,24.187,off
02/25/2017 12:24:37,22.437,24.312,off
02/25/2017 12:24:48,22.437,24.437,off
02/25/2017 12:25:00,22.437,24.562,off
