TIME,INSIDE_TEMPERATURE,OUTSIDE_TEMPERATURE,LIGHTS_STATE

12/26/2017 12:36:25,24.625,25.687,off
12/26/2017 12:36:37,24.625,26.0,off
12/26/2017 12:36:50,24.687,25.875,off
12/26/2017 12:37:01,24.687,25.875,off
