TIME,INSIDE_TEMPERATURE,OUTSIDE_TEMPERATURE,LIGHTS_STATE

08/17/2017 12:05:25,30.625,28.25,off
08/17/2017 12:05:37,30.562,28.187,off
08/17/2017 12:05:49,30.625,28.25,off
08/17/2017 12:06:01,30.625,28.187,off
