TIME,INSIDE_TEMPERATURE,OUTSIDE_TEMPERATURE,LIGHTS_STATE

06/29/2017 12:48:25,28.375,25.75,off
06/29/2017 12:48:37,28.375,25.812,off
06/29/2017 12:48:48,28.375,25.875,off
06/29/2017 12:49:00,28.375,25.937,off
