TIME,INSIDE_TEMPERATURE,OUTSIDE_TEMPERATURE,LIGHTS_STATE

11/12/2016 12:20:25,31.687,33.625,off
11/12/2016 12:20:37,31.687,33.437,off
11/12/2016 12:20:49,31.687,33.125,off
11/12/2016 12:21:00,31.687,32.75,off
