TIME,INSIDE_TEMPERATURE,OUTSIDE_TEMPERATURE,LIGHTS_STATE

01/19/2018 12:53:25,24.687,20.5,off
01/19/2018 12:53:37,24.687,20.312,off
01/19/2018 12:53:49,24.687,20.062,off
01/19/2018 12:54:01,24.687,20.0,off
