TIME,INSIDE_TEMPERATURE,OUTSIDE_TEMPERATURE,LIGHTS_STATE

03/08/2017 12:57:26,24.562,23.562,off
03/08/2017 12:57:38,24.562,23.437,off
03/08/2017 12:57:49,24.625,23.437,off
03/08/2017 12:58:01,24.625,23.312,off
