TIME,INSIDE_TEMPERATURE,OUTSIDE_TEMPERATURE,LIGHTS_STATE

02/09/2017 12:17:25,20.187,15.375,off
02/09/2017 12:17:37,20.187,15.375,off
02/09/2017 12:17:48,20.25,15.375,off
02/09/2017 12:18:00,20.25,15.375,off
