TIME,INSIDE_TEMPERATURE,OUTSIDE_TEMPERATURE,LIGHTS_STATE

09/10/2016 12:20:25,27.687,26.5,off
09/10/2016 12:20:37,27.687,26.5,off
09/10/2016 12:20:49,27.687,26.5,off
09/10/2016 12:21:00,27.687,26.5,off
