TIME,INSIDE_TEMPERATURE,OUTSIDE_TEMPERATURE,LIGHTS_STATE

06/17/2017 12:41:26,34.812,29.75,off
06/17/2017 12:41:37,34.812,29.687,off
06/17/2017 12:41:49,34.812,29.687,off
06/17/2017 12:42:01,34.875,29.75,off
