TIME,INSIDE_TEMPERATURE,OUTSIDE_TEMPERATURE,LIGHTS_STATE

09/02/2017 12:31:25,40.625,39.25,off
09/02/2017 12:31:37,40.625,39.25,off
09/02/2017 12:31:49,40.687,39.187,off
09/02/2017 12:32:00,40.687,39.187,off
