TIME,INSIDE_TEMPERATURE,OUTSIDE_TEMPERATURE,LIGHTS_STATE

03/20/2017 12:09:25,20.75,18.0,off
03/20/2017 12:09:37,20.812,18.0,off
03/20/2017 12:09:49,20.812,17.937,off
03/20/2017 12:10:00,20.812,17.875,off
