TIME,INSIDE_TEMPERATURE,OUTSIDE_TEMPERATURE,LIGHTS_STATE

12/28/2016 12:56:25,19.437,20.875,off
12/28/2016 12:56:37,19.437,20.687,off
12/28/2016 12:56:48,19.437,20.375,off
12/28/2016 12:57:00,19.375,20.312,off
