TIME,INSIDE_TEMPERATURE,OUTSIDE_TEMPERATURE,LIGHTS_STATE

03/08/2017 12:31:26,24.937,27.5,off
03/08/2017 12:31:37,24.937,27.437,off
03/08/2017 12:31:49,24.937,27.187,off
03/08/2017 12:32:01,24.937,26.875,off
