TIME,INSIDE_TEMPERATURE,OUTSIDE_TEMPERATURE,LIGHTS_STATE

11/01/2016 12:06:24,29.187,27.0,off
11/01/2016 12:06:36,29.375,27.312,off
11/01/2016 12:06:48,29.437,27.687,off
11/01/2016 12:06:59,29.562,27.812,off
