TIME,INSIDE_TEMPERATURE,OUTSIDE_TEMPERATURE,LIGHTS_STATE

06/21/2017 12:47:25,35.75,32.375,off
06/21/2017 12:47:37,35.75,32.375,off
06/21/2017 12:47:49,35.75,32.375,off
06/21/2017 12:48:00,35.75,32.437,off
