TIME,INSIDE_TEMPERATURE,OUTSIDE_TEMPERATURE,LIGHTS_STATE

09/18/2016 12:37:26,33.125,34.687,off
09/18/2016 12:37:38,33.125,34.687,off
09/18/2016 12:37:49,33.125,34.75,off
09/18/2016 12:38:01,33.187,34.812,off
