TIME,INSIDE_TEMPERATURE,OUTSIDE_TEMPERATURE,LIGHTS_STATE

01/15/2017 12:21:25,11.25,7.687,off
01/15/2017 12:21:37,11.25,7.625,off
01/15/2017 12:21:49,11.25,7.625,off
01/15/2017 12:22:00,11.25,7.625,off
