TIME,INSIDE_TEMPERATURE,OUTSIDE_TEMPERATURE,LIGHTS_STATE

07/02/2016 12:34:25,29.437,29.0,off
07/02/2016 12:34:37,29.437,29.0,off
07/02/2016 12:34:48,29.437,29.0,off
07/02/2016 12:35:00,29.437,29.0,off
