TIME,INSIDE_TEMPERATURE,OUTSIDE_TEMPERATURE,LIGHTS_STATE

03/21/2017 12:34:25,22.437,18.687,off
03/21/2017 12:34:37,22.437,18.687,off
03/21/2017 12:34:49,22.437,18.625,off
03/21/2017 12:35:00,22.437,18.562,off
