TIME,INSIDE_TEMPERATURE,OUTSIDE_TEMPERATURE,LIGHTS_STATE

02/06/2018 12:49:26,29.812,44.937,off
02/06/2018 12:49:37,29.75,45.125,off
02/06/2018 12:49:49,29.75,45.187,off
02/06/2018 12:50:01,29.812,45.062,off
