TIME,INSIDE_TEMPERATURE,OUTSIDE_TEMPERATURE,LIGHTS_STATE

03/15/2018 12:02:26,18.437,12.937,off
03/15/2018 12:02:37,18.437,12.937,off
03/15/2018 12:02:49,18.437,12.937,off
03/15/2018 12:03:01,18.437,12.937,off
