TIME,INSIDE_TEMPERATURE,OUTSIDE_TEMPERATURE,LIGHTS_STATE

02/09/2017 12:34:25,19.937,14.937,off
02/09/2017 12:34:37,19.937,14.937,off
02/09/2017 12:34:49,19.937,14.875,off
02/09/2017 12:35:00,19.937,14.875,off
