TIME,INSIDE_TEMPERATURE,OUTSIDE_TEMPERATURE,LIGHTS_STATE

03/22/2017 12:53:26,21.375,17.437,off
03/22/2017 12:53:38,21.375,17.437,off
03/22/2017 12:53:50,21.375,17.375,off
03/22/2017 12:54:02,21.437,17.312,off
