TIME,INSIDE_TEMPERATURE,OUTSIDE_TEMPERATURE,LIGHTS_STATE

08/16/2017 12:27:25,27.375,24.5,off
08/16/2017 12:27:37,27.25,24.5,off
08/16/2017 12:27:49,27.25,24.5,off
08/16/2017 12:28:00,27.312,24.5,off
