TIME,INSIDE_TEMPERATURE,OUTSIDE_TEMPERATURE,LIGHTS_STATE

07/14/2016 12:00:25,33.0,33.25,off
07/14/2016 12:00:37,32.937,33.25,off
07/14/2016 12:00:48,32.875,33.187,off
07/14/2016 12:01:00,32.937,33.187,off
