TIME,INSIDE_TEMPERATURE,OUTSIDE_TEMPERATURE,LIGHTS_STATE

12/31/2016 12:14:25,13.312,10.125,off
12/31/2016 12:14:36,13.375,10.125,off
12/31/2016 12:14:48,13.375,10.062,off
12/31/2016 12:15:00,13.375,10.125,off
