TIME,INSIDE_TEMPERATURE,OUTSIDE_TEMPERATURE,LIGHTS_STATE

02/27/2018 12:03:25,20.562,18.75,off
02/27/2018 12:03:36,20.562,18.937,off
02/27/2018 12:03:48,20.562,19.187,off
02/27/2018 12:04:00,20.562,19.437,off
