TIME,INSIDE_TEMPERATURE,OUTSIDE_TEMPERATURE,LIGHTS_STATE

06/22/2017 12:37:26,40.5,36.375,off
06/22/2017 12:37:37,40.5,36.312,off
06/22/2017 12:37:49,40.5,36.25,off
06/22/2017 12:38:01,40.5,36.25,off
