TIME,INSIDE_TEMPERATURE,OUTSIDE_TEMPERATURE,LIGHTS_STATE

07/16/2016 12:14:26,27.687,27.75,off
07/16/2016 12:14:38,27.687,27.687,off
07/16/2016 12:14:49,27.687,27.687,off
07/16/2016 12:15:01,27.687,27.687,off
