TIME,INSIDE_TEMPERATURE,OUTSIDE_TEMPERATURE,LIGHTS_STATE

09/09/2016 12:53:26,29.062,31.75,off
09/09/2016 12:53:37,29.062,32.125,off
09/09/2016 12:53:49,29.062,32.562,off
09/09/2016 12:54:01,29.062,32.937,off
