TIME,INSIDE_TEMPERATURE,OUTSIDE_TEMPERATURE,LIGHTS_STATE

10/28/2016 12:52:25,24.25,20.687,off
10/28/2016 12:52:37,24.25,20.687,off
10/28/2016 12:52:49,24.25,20.687,off
10/28/2016 12:53:00,24.25,20.625,off
