TIME,INSIDE_TEMPERATURE,OUTSIDE_TEMPERATURE,LIGHTS_STATE

04/01/2017 12:29:26,25.625,22.937,off
04/01/2017 12:29:37,25.562,22.937,off
04/01/2017 12:29:49,25.562,22.875,off
04/01/2017 12:30:01,25.562,22.875,off
