TIME,INSIDE_TEMPERATURE,OUTSIDE_TEMPERATURE,LIGHTS_STATE

06/28/2016 12:12:25,32.062,31.687,off
06/28/2016 12:12:37,32.125,31.687,off
06/28/2016 12:12:50,32.125,31.75,off
06/28/2016 12:13:02,32.125,31.75,off
