TIME,INSIDE_TEMPERATURE,OUTSIDE_TEMPERATURE,LIGHTS_STATE

04/28/2017 12:48:26,23.312,21.625,off
04/28/2017 12:48:37,23.312,21.625,off
04/28/2017 12:48:49,23.375,21.625,off
04/28/2017 12:49:01,23.375,21.75,off
