TIME,INSIDE_TEMPERATURE,OUTSIDE_TEMPERATURE,LIGHTS_STATE

01/23/2018 12:32:25,22.75,21.625,off
01/23/2018 12:32:37,22.687,21.812,off
01/23/2018 12:32:48,22.687,21.937,off
01/23/2018 12:33:00,22.75,22.187,off
