TIME,INSIDE_TEMPERATURE,OUTSIDE_TEMPERATURE,LIGHTS_STATE

07/02/2016 12:41:25,29.625,29.125,off
07/02/2016 12:41:37,29.625,29.187,off
07/02/2016 12:41:49,29.625,29.125,off
07/02/2016 12:42:00,29.625,29.187,off
