TIME,INSIDE_TEMPERATURE,OUTSIDE_TEMPERATURE,LIGHTS_STATE

09/08/2017 12:35:25,28.875,26.687,off
09/08/2017 12:35:37,28.875,26.687,off
09/08/2017 12:35:48,28.875,26.75,off
09/08/2017 12:36:00,28.875,26.75,off
