TIME,INSIDE_TEMPERATURE,OUTSIDE_TEMPERATURE,LIGHTS_STATE

03/31/2018 12:08:25,26.75,25.062,off
03/31/2018 12:08:37,26.75,25.125,off
03/31/2018 12:08:48,26.75,25.125,off
03/31/2018 12:09:00,26.812,25.187,off
