TIME,INSIDE_TEMPERATURE,OUTSIDE_TEMPERATURE,LIGHTS_STATE

11/02/2017 12:35:25,27.375,21.812,off
11/02/2017 12:35:37,27.375,21.75,off
11/02/2017 12:35:49,27.375,21.625,off
11/02/2017 12:36:01,27.312,21.562,off
