TIME,INSIDE_TEMPERATURE,OUTSIDE_TEMPERATURE,LIGHTS_STATE

02/15/2017 12:46:26,21.75,18.375,off
02/15/2017 12:46:38,21.687,18.375,off
02/15/2017 12:46:49,21.687,18.375,off
02/15/2017 12:47:01,21.687,18.437,off
