TIME,INSIDE_TEMPERATURE,OUTSIDE_TEMPERATURE,LIGHTS_STATE

06/14/2017 12:22:25,29.312,26.062,off
06/14/2017 12:22:37,29.312,26.0,off
06/14/2017 12:22:48,29.312,26.0,off
06/14/2017 12:23:00,29.375,26.062,off
