TIME,INSIDE_TEMPERATURE,OUTSIDE_TEMPERATURE,LIGHTS_STATE

05/08/2017 12:30:25,25.687,23.687,off
05/08/2017 12:30:37,25.687,23.687,off
05/08/2017 12:30:48,25.687,23.687,off
05/08/2017 12:31:00,25.687,23.625,off
