TIME,INSIDE_TEMPERATURE,OUTSIDE_TEMPERATURE,LIGHTS_STATE

08/04/2016 12:29:26,25.437,25.187,off
08/04/2016 12:29:38,25.437,25.187,off
08/04/2016 12:29:50,25.437,25.187,off
08/04/2016 12:30:01,25.437,25.187,off
