TIME,INSIDE_TEMPERATURE,OUTSIDE_TEMPERATURE,LIGHTS_STATE

07/11/2016 12:40:25,29.062,29.0,off
07/11/2016 12:40:36,29.062,29.0,off
07/11/2016 12:40:48,29.062,29.0,off
07/11/2016 12:41:00,29.125,29.0,off
