TIME,INSIDE_TEMPERATURE,OUTSIDE_TEMPERATURE,LIGHTS_STATE

06/15/2017 12:02:25,28.437,24.75,off
06/15/2017 12:02:37,28.437,24.75,off
06/15/2017 12:02:49,28.437,24.75,off
06/15/2017 12:03:00,28.437,24.75,off
