TIME,INSIDE_TEMPERATURE,OUTSIDE_TEMPERATURE,LIGHTS_STATE

10/11/2017 12:19:25,26.687,21.812,off
10/11/2017 12:19:37,26.687,21.75,off
10/11/2017 12:19:50,26.687,21.687,off
10/11/2017 12:20:02,26.687,21.687,off
