TIME,INSIDE_TEMPERATURE,OUTSIDE_TEMPERATURE,LIGHTS_STATE

07/02/2016 12:13:25,28.937,28.625,off
07/02/2016 12:13:36,28.937,28.625,off
07/02/2016 12:13:48,28.937,28.625,off
07/02/2016 12:14:00,29.0,28.625,off
