TIME,INSIDE_TEMPERATURE,OUTSIDE_TEMPERATURE,LIGHTS_STATE

10/14/2017 12:05:25,30.25,24.812,off
10/14/2017 12:05:37,30.25,24.875,off
10/14/2017 12:05:49,30.25,24.75,off
10/14/2017 12:06:01,30.25,24.562,off
