TIME,INSIDE_TEMPERATURE,OUTSIDE_TEMPERATURE,LIGHTS_STATE

09/30/2017 12:34:25,29.437,27.437,off
09/30/2017 12:34:37,29.5,27.437,off
09/30/2017 12:34:49,29.5,27.5,off
09/30/2017 12:35:01,29.5,27.562,off
