TIME,INSIDE_TEMPERATURE,OUTSIDE_TEMPERATURE,LIGHTS_STATE

05/16/2017 12:14:25,22.125,16.937,off
05/16/2017 12:14:37,22.125,16.875,off
05/16/2017 12:14:48,22.125,16.875,off
05/16/2017 12:15:00,22.125,16.875,off
