TIME,INSIDE_TEMPERATURE,OUTSIDE_TEMPERATURE,LIGHTS_STATE

01/18/2017 12:16:25,12.062,8.875,off
01/18/2017 12:16:36,12.0,8.875,off
01/18/2017 12:16:48,12.062,8.875,off
01/18/2017 12:17:00,12.0,8.875,off
