TIME,INSIDE_TEMPERATURE,OUTSIDE_TEMPERATURE,LIGHTS_STATE

10/09/2017 12:16:25,30.937,26.625,off
10/09/2017 12:16:37,30.937,26.625,off
10/09/2017 12:16:49,30.937,26.5,off
10/09/2017 12:17:01,30.937,26.375,off
