TIME,INSIDE_TEMPERATURE,OUTSIDE_TEMPERATURE,LIGHTS_STATE

03/28/2018 12:31:25,24.937,19.437,off
03/28/2018 12:31:37,24.937,19.437,off
03/28/2018 12:31:48,24.937,19.375,off
03/28/2018 12:32:00,24.937,19.312,off
