TIME,INSIDE_TEMPERATURE,OUTSIDE_TEMPERATURE,LIGHTS_STATE

02/08/2017 12:33:25,22.312,18.812,off
02/08/2017 12:33:37,22.312,18.812,off
02/08/2017 12:33:48,22.312,18.812,off
02/08/2017 12:34:00,22.312,18.812,off
