TIME,INSIDE_TEMPERATURE,OUTSIDE_TEMPERATURE,LIGHTS_STATE

07/19/2017 12:57:26,31.125,28.375,off
07/19/2017 12:57:37,31.125,28.437,off
07/19/2017 12:57:49,31.187,28.437,off
07/19/2017 12:58:01,31.187,28.5,off
