TIME,INSIDE_TEMPERATURE,OUTSIDE_TEMPERATURE,LIGHTS_STATE

09/07/2017 12:46:25,29.812,26.5,off
09/07/2017 12:46:37,29.812,26.562,off
09/07/2017 12:46:49,29.812,26.562,off
09/07/2017 12:47:01,29.812,26.625,off
