TIME,INSIDE_TEMPERATURE,OUTSIDE_TEMPERATURE,LIGHTS_STATE

05/11/2017 12:30:25,23.375,20.062,off
05/11/2017 12:30:37,23.375,20.062,off
05/11/2017 12:30:49,23.375,20.062,off
05/11/2017 12:31:00,23.312,20.0,off
