TIME,INSIDE_TEMPERATURE,OUTSIDE_TEMPERATURE,LIGHTS_STATE

08/01/2016 12:15:26,27.437,27.437,off
08/01/2016 12:15:37,27.437,27.5,off
08/01/2016 12:15:49,27.375,27.437,off
08/01/2016 12:16:01,27.375,27.437,off
