TIME,INSIDE_TEMPERATURE,OUTSIDE_TEMPERATURE,LIGHTS_STATE

12/19/2016 12:54:25,17.75,13.312,off
12/19/2016 12:54:37,17.75,13.312,off
12/19/2016 12:54:48,17.75,13.375,off
12/19/2016 12:55:00,17.75,13.312,off
