TIME,INSIDE_TEMPERATURE,OUTSIDE_TEMPERATURE,LIGHTS_STATE

01/09/2018 12:55:25,20.125,14.125,off
01/09/2018 12:55:37,20.187,14.125,off
01/09/2018 12:55:48,20.125,14.125,off
01/09/2018 12:56:00,20.187,14.125,off
