TIME,INSIDE_TEMPERATURE,OUTSIDE_TEMPERATURE,LIGHTS_STATE

11/08/2016 12:39:25,30.437,32.375,off
11/08/2016 12:39:37,30.5,32.375,off
11/08/2016 12:39:48,30.437,32.375,off
11/08/2016 12:40:01,30.5,32.125,off
