TIME,INSIDE_TEMPERATURE,OUTSIDE_TEMPERATURE,LIGHTS_STATE

05/07/2017 12:38:25,23.812,21.687,off
05/07/2017 12:38:37,23.812,21.687,off
05/07/2017 12:38:49,23.812,21.75,off
05/07/2017 12:39:00,23.812,21.75,off
