TIME,INSIDE_TEMPERATURE,OUTSIDE_TEMPERATURE,LIGHTS_STATE

02/04/2017 12:17:26,24.875,24.562,off
02/04/2017 12:17:37,24.875,24.687,off
02/04/2017 12:17:49,24.812,24.875,off
02/04/2017 12:18:01,24.812,24.75,off
