TIME,INSIDE_TEMPERATURE,OUTSIDE_TEMPERATURE,LIGHTS_STATE

09/04/2017 12:05:25,32.562,30.312,off
09/04/2017 12:05:37,32.562,30.312,off
09/04/2017 12:05:49,32.562,30.375,off
09/04/2017 12:06:00,32.562,30.375,off
