TIME,INSIDE_TEMPERATURE,OUTSIDE_TEMPERATURE,LIGHTS_STATE

02/03/2018 12:46:25,28.125,36.812,off
02/03/2018 12:46:37,28.5,36.937,off
02/03/2018 12:46:48,28.625,36.562,off
02/03/2018 12:47:00,28.75,36.625,off
