TIME,INSIDE_TEMPERATURE,OUTSIDE_TEMPERATURE,LIGHTS_STATE

12/12/2016 12:22:25,20.0,15.687,off
12/12/2016 12:22:36,20.0,15.687,off
12/12/2016 12:22:48,20.0,15.562,off
12/12/2016 12:23:00,20.0,15.562,off
