TIME,INSIDE_TEMPERATURE,OUTSIDE_TEMPERATURE,LIGHTS_STATE

10/19/2017 12:49:25,25.875,20.5,off
10/19/2017 12:49:37,25.875,20.5,off
10/19/2017 12:49:49,25.875,20.375,off
10/19/2017 12:50:01,25.875,20.25,off
