TIME,INSIDE_TEMPERATURE,OUTSIDE_TEMPERATURE,LIGHTS_STATE

09/08/2017 12:08:25,27.875,25.625,off
09/08/2017 12:08:37,27.875,25.625,off
09/08/2017 12:08:49,27.937,25.625,off
09/08/2017 12:09:00,27.937,25.625,off
