TIME,INSIDE_TEMPERATURE,OUTSIDE_TEMPERATURE,LIGHTS_STATE

03/15/2018 12:00:26,18.5,12.625,off
03/15/2018 12:00:38,18.5,12.625,off
03/15/2018 12:00:50,18.5,12.687,off
03/15/2018 12:01:01,18.5,12.687,off
