TIME,INSIDE_TEMPERATURE,OUTSIDE_TEMPERATURE,LIGHTS_STATE

06/15/2017 12:28:25,29.062,25.5,off
06/15/2017 12:28:37,29.125,25.5,off
06/15/2017 12:28:49,29.125,25.5,off
06/15/2017 12:29:01,29.062,25.5,off
