TIME,INSIDE_TEMPERATURE,OUTSIDE_TEMPERATURE,LIGHTS_STATE

11/04/2016 12:49:25,30.437,33.562,off
11/04/2016 12:49:37,30.437,33.375,off
11/04/2016 12:49:48,30.437,33.375,off
11/04/2016 12:50:00,30.375,33.437,off
