TIME,INSIDE_TEMPERATURE,OUTSIDE_TEMPERATURE,LIGHTS_STATE

03/02/2017 12:17:25,24.75,23.875,off
03/02/2017 12:17:37,24.75,23.875,off
03/02/2017 12:17:49,24.75,23.812,off
03/02/2017 12:18:00,24.75,23.75,off
