TIME,INSIDE_TEMPERATURE,OUTSIDE_TEMPERATURE,LIGHTS_STATE

02/12/2018 12:18:25,23.5,27.375,off
02/12/2018 12:18:37,23.562,27.375,off
02/12/2018 12:18:49,23.5,27.375,off
02/12/2018 12:19:01,23.5,27.375,off
