TIME,INSIDE_TEMPERATURE,OUTSIDE_TEMPERATURE,LIGHTS_STATE

12/27/2017 12:19:25,23.125,24.5,off
12/27/2017 12:19:37,23.062,24.5,off
12/27/2017 12:19:49,23.125,24.562,off
12/27/2017 12:20:00,23.125,24.625,off
