TIME,INSIDE_TEMPERATURE,OUTSIDE_TEMPERATURE,LIGHTS_STATE

05/04/2017 12:23:25,31.25,28.687,off
05/04/2017 12:23:37,31.25,28.625,off
05/04/2017 12:23:48,31.25,28.625,off
05/04/2017 12:24:00,31.25,28.625,off
