TIME,INSIDE_TEMPERATURE,OUTSIDE_TEMPERATURE,LIGHTS_STATE

04/22/2017 12:03:25,25.25,22.937,off
04/22/2017 12:03:36,25.187,22.875,off
04/22/2017 12:03:48,25.187,22.937,off
04/22/2017 12:04:00,25.187,23.0,off
