TIME,INSIDE_TEMPERATURE,OUTSIDE_TEMPERATURE,LIGHTS_STATE

01/23/2018 12:54:26,22.687,22.312,off
01/23/2018 12:54:37,22.625,22.437,off
01/23/2018 12:54:49,22.625,22.312,off
01/23/2018 12:55:01,22.687,22.187,off
