TIME,INSIDE_TEMPERATURE,OUTSIDE_TEMPERATURE,LIGHTS_STATE

07/22/2016 12:39:26,29.562,28.562,off
07/22/2016 12:39:37,29.625,28.625,off
07/22/2016 12:39:49,29.625,28.562,off
07/22/2016 12:40:01,29.625,28.562,off
