TIME,INSIDE_TEMPERATURE,OUTSIDE_TEMPERATURE,LIGHTS_STATE

02/20/2018 12:01:26,18.812,16.0,off
02/20/2018 12:01:37,18.812,16.0,off
02/20/2018 12:01:49,18.812,16.062,off
02/20/2018 12:02:01,18.812,16.062,off
