TIME,INSIDE_TEMPERATURE,OUTSIDE_TEMPERATURE,LIGHTS_STATE

04/21/2017 12:51:25,24.562,21.937,off
04/21/2017 12:51:36,24.562,21.937,off
04/21/2017 12:51:49,24.562,22.0,off
04/21/2017 12:52:01,24.625,22.0,off
