TIME,INSIDE_TEMPERATURE,OUTSIDE_TEMPERATURE,LIGHTS_STATE

01/18/2018 12:06:26,24.562,22.687,off
01/18/2018 12:06:37,24.562,22.562,off
01/18/2018 12:06:49,24.562,22.5,off
01/18/2018 12:07:01,24.562,22.562,off
