TIME,INSIDE_TEMPERATURE,OUTSIDE_TEMPERATURE,LIGHTS_STATE

08/25/2017 12:08:25,29.5,27.375,off
08/25/2017 12:08:37,29.437,27.375,off
08/25/2017 12:08:48,29.5,27.375,off
08/25/2017 12:09:00,29.5,27.437,off
