TIME,INSIDE_TEMPERATURE,OUTSIDE_TEMPERATURE,LIGHTS_STATE

12/02/2016 12:28:25,22.312,18.687,off
12/02/2016 12:28:37,22.312,18.75,off
12/02/2016 12:28:49,22.312,18.75,off
12/02/2016 12:29:01,22.312,18.875,off
