TIME,INSIDE_TEMPERATURE,OUTSIDE_TEMPERATURE,LIGHTS_STATE

02/06/2018 12:13:25,29.687,31.062,off
02/06/2018 12:13:37,29.687,31.25,off
02/06/2018 12:13:49,29.687,31.437,off
02/06/2018 12:14:00,29.687,31.562,off
