TIME,INSIDE_TEMPERATURE,OUTSIDE_TEMPERATURE,LIGHTS_STATE

01/08/2018 12:54:25,17.187,11.687,off
01/08/2018 12:54:37,17.187,11.687,off
01/08/2018 12:54:48,17.187,11.687,off
01/08/2018 12:55:00,17.25,11.687,off
