TIME,INSIDE_TEMPERATURE,OUTSIDE_TEMPERATURE,LIGHTS_STATE

03/15/2018 12:35:25,18.187,11.75,off
03/15/2018 12:35:37,18.187,11.75,off
03/15/2018 12:35:49,18.187,11.812,off
03/15/2018 12:36:01,18.187,11.812,off
