TIME,INSIDE_TEMPERATURE,OUTSIDE_TEMPERATURE,LIGHTS_STATE

10/30/2016 12:03:25,19.125,14.937,off
10/30/2016 12:03:36,19.125,14.937,off
10/30/2016 12:03:48,19.125,14.937,off
10/30/2016 12:04:00,19.125,14.937,off
