TIME,INSIDE_TEMPERATURE,OUTSIDE_TEMPERATURE,LIGHTS_STATE

09/08/2016 12:14:25,28.375,35.562,off
09/08/2016 12:14:38,28.312,35.812,off
09/08/2016 12:14:49,28.312,35.812,off
09/08/2016 12:15:01,28.312,35.812,off
