TIME,INSIDE_TEMPERATURE,OUTSIDE_TEMPERATURE,LIGHTS_STATE

08/05/2016 12:21:26,24.625,24.5,off
08/05/2016 12:21:37,24.687,24.562,off
08/05/2016 12:21:49,24.687,24.562,off
08/05/2016 12:22:01,24.687,24.625,off
