TIME,INSIDE_TEMPERATURE,OUTSIDE_TEMPERATURE,LIGHTS_STATE

07/18/2017 12:26:25,28.937,26.0,off
07/18/2017 12:26:37,28.937,26.0,off
07/18/2017 12:26:49,28.875,25.937,off
07/18/2017 12:27:00,28.562,25.937,off
