TIME,INSIDE_TEMPERATURE,OUTSIDE_TEMPERATURE,LIGHTS_STATE

07/30/2016 12:20:25,30.187,30.5,off
07/30/2016 12:20:37,30.25,30.5,off
07/30/2016 12:20:49,30.25,30.562,off
07/30/2016 12:21:01,30.312,30.562,off
