TIME,INSIDE_TEMPERATURE,OUTSIDE_TEMPERATURE,LIGHTS_STATE

07/06/2017 12:13:25,32.937,28.937,off
07/06/2017 12:13:37,33.0,28.937,off
07/06/2017 12:13:49,33.0,28.937,off
07/06/2017 12:14:01,33.0,28.937,off
