TIME,INSIDE_TEMPERATURE,OUTSIDE_TEMPERATURE,LIGHTS_STATE

10/08/2017 12:01:25,29.0,26.75,off
10/08/2017 12:01:38,29.125,26.75,off
10/08/2017 12:01:49,29.187,26.75,off
10/08/2017 12:02:02,29.25,26.75,off
