TIME,INSIDE_TEMPERATURE,OUTSIDE_TEMPERATURE,LIGHTS_STATE

06/27/2016 12:01:25,33.062,33.25,off
06/27/2016 12:01:37,33.125,33.25,off
06/27/2016 12:01:49,33.187,33.25,off
06/27/2016 12:02:00,33.187,33.187,off
