TIME,INSIDE_TEMPERATURE,OUTSIDE_TEMPERATURE,LIGHTS_STATE

02/04/2017 12:43:25,24.187,20.5,off
02/04/2017 12:43:37,24.187,20.375,off
02/04/2017 12:43:48,24.187,20.312,off
02/04/2017 12:44:00,24.125,20.187,off
