TIME,INSIDE_TEMPERATURE,OUTSIDE_TEMPERATURE,LIGHTS_STATE

07/03/2016 12:26:25,29.062,29.0,off
07/03/2016 12:26:36,29.187,29.0,off
07/03/2016 12:26:48,29.187,29.062,off
07/03/2016 12:27:00,29.187,29.062,off
