TIME,INSIDE_TEMPERATURE,OUTSIDE_TEMPERATURE,LIGHTS_STATE

02/15/2018 12:36:25,25.25,27.875,off
02/15/2018 12:36:37,25.25,28.062,off
02/15/2018 12:36:48,25.25,28.187,off
02/15/2018 12:37:00,25.25,28.25,off
