TIME,INSIDE_TEMPERATURE,OUTSIDE_TEMPERATURE,LIGHTS_STATE

02/15/2018 12:18:25,25.062,28.312,off
02/15/2018 12:18:37,25.062,28.187,off
02/15/2018 12:18:48,25.062,28.187,off
02/15/2018 12:19:00,25.062,28.312,off
