TIME,INSIDE_TEMPERATURE,OUTSIDE_TEMPERATURE,LIGHTS_STATE

09/28/2017 12:54:25,35.5,33.062,off
09/28/2017 12:54:37,35.5,33.062,off
09/28/2017 12:54:50,35.5,33.062,off
09/28/2017 12:55:02,35.562,33.062,off
