TIME,INSIDE_TEMPERATURE,OUTSIDE_TEMPERATURE,LIGHTS_STATE

03/05/2017 12:36:25,17.25,12.437,off
03/05/2017 12:36:38,17.25,12.5,off
03/05/2017 12:36:50,17.25,12.562,off
03/05/2017 12:37:01,17.25,12.687,off
