TIME,INSIDE_TEMPERATURE,OUTSIDE_TEMPERATURE,LIGHTS_STATE

02/16/2018 12:24:26,25.5,43.25,off
02/16/2018 12:24:37,25.5,43.312,off
02/16/2018 12:24:49,25.5,43.562,off
02/16/2018 12:25:01,25.562,43.625,off
