TIME,INSIDE_TEMPERATURE,OUTSIDE_TEMPERATURE,LIGHTS_STATE

02/11/2017 12:41:25,23.187,20.75,off
02/11/2017 12:41:37,23.187,20.812,off
02/11/2017 12:41:49,23.25,20.875,off
02/11/2017 12:42:00,23.187,20.875,off
