TIME,INSIDE_TEMPERATURE,OUTSIDE_TEMPERATURE,LIGHTS_STATE

09/08/2016 12:39:26,29.062,28.437,off
09/08/2016 12:39:37,29.062,28.437,off
09/08/2016 12:39:49,29.062,28.375,off
09/08/2016 12:40:01,29.062,28.375,off
