TIME,INSIDE_TEMPERATURE,OUTSIDE_TEMPERATURE,LIGHTS_STATE

07/31/2016 12:04:25,28.187,28.312,off
07/31/2016 12:04:36,28.187,28.375,off
07/31/2016 12:04:48,28.187,28.375,off
07/31/2016 12:05:00,28.187,28.375,off
