TIME,INSIDE_TEMPERATURE,OUTSIDE_TEMPERATURE,LIGHTS_STATE

09/12/2016 12:18:25,24.5,23.062,off
09/12/2016 12:18:37,24.5,23.125,off
09/12/2016 12:18:48,24.5,23.125,off
09/12/2016 12:19:00,24.5,23.062,off
