TIME,INSIDE_TEMPERATURE,OUTSIDE_TEMPERATURE,LIGHTS_STATE

11/22/2016 12:03:25,23.312,20.375,off
11/22/2016 12:03:36,23.375,20.312,off
11/22/2016 12:03:48,23.312,20.25,off
11/22/2016 12:04:00,23.375,20.25,off
