TIME,INSIDE_TEMPERATURE,OUTSIDE_TEMPERATURE,LIGHTS_STATE

08/01/2017 12:44:25,36.687,35.125,off
08/01/2017 12:44:37,36.687,35.125,off
08/01/2017 12:44:49,36.687,35.125,off
08/01/2017 12:45:01,36.687,35.187,off
