TIME,INSIDE_TEMPERATURE,OUTSIDE_TEMPERATURE,LIGHTS_STATE

07/05/2017 12:10:25,29.5,27.562,off
07/05/2017 12:10:37,29.5,27.562,off
07/05/2017 12:10:48,29.562,27.562,off
07/05/2017 12:11:00,29.562,27.625,off
