TIME,INSIDE_TEMPERATURE,OUTSIDE_TEMPERATURE,LIGHTS_STATE

11/20/2016 12:45:25,21.875,17.812,off
11/20/2016 12:45:36,21.875,17.812,off
11/20/2016 12:45:48,21.875,17.812,off
11/20/2016 12:46:00,21.875,17.75,off
