TIME,INSIDE_TEMPERATURE,OUTSIDE_TEMPERATURE,LIGHTS_STATE

10/09/2017 12:42:26,31.312,28.75,off
10/09/2017 12:42:37,31.312,28.625,off
10/09/2017 12:42:49,31.312,28.437,off
10/09/2017 12:43:01,31.375,28.187,off
