TIME,INSIDE_TEMPERATURE,OUTSIDE_TEMPERATURE,LIGHTS_STATE

11/15/2016 12:17:25,27.437,22.5,off
11/15/2016 12:17:36,27.375,22.437,off
11/15/2016 12:17:48,27.375,22.375,off
11/15/2016 12:18:00,27.437,22.312,off
