TIME,INSIDE_TEMPERATURE,OUTSIDE_TEMPERATURE,LIGHTS_STATE

12/19/2016 12:11:25,18.562,14.437,off
12/19/2016 12:11:36,18.625,14.375,off
12/19/2016 12:11:48,18.562,14.437,off
12/19/2016 12:12:00,18.562,14.562,off
