TIME,INSIDE_TEMPERATURE,OUTSIDE_TEMPERATURE,LIGHTS_STATE

01/29/2018 12:22:25,19.5,15.375,off
01/29/2018 12:22:37,19.5,15.437,off
01/29/2018 12:22:49,19.562,15.437,off
01/29/2018 12:23:01,19.5,15.437,off
