TIME,INSIDE_TEMPERATURE,OUTSIDE_TEMPERATURE,LIGHTS_STATE

07/14/2016 12:11:25,33.125,33.187,off
07/14/2016 12:11:37,33.125,33.187,off
07/14/2016 12:11:49,33.125,33.187,off
07/14/2016 12:12:00,33.125,33.187,off
