TIME,INSIDE_TEMPERATURE,OUTSIDE_TEMPERATURE,LIGHTS_STATE

04/08/2017 12:08:25,16.25,11.812,off
04/08/2017 12:08:37,16.25,11.875,off
04/08/2017 12:08:48,16.25,11.937,off
04/08/2017 12:09:00,16.312,11.875,off
