TIME,INSIDE_TEMPERATURE,OUTSIDE_TEMPERATURE,LIGHTS_STATE

10/15/2017 12:31:25,30.562,32.75,off
10/15/2017 12:31:37,30.562,32.875,off
10/15/2017 12:31:49,30.562,32.875,off
10/15/2017 12:32:01,30.625,32.687,off
