TIME,INSIDE_TEMPERATURE,OUTSIDE_TEMPERATURE,LIGHTS_STATE

01/18/2017 12:29:25,11.937,8.875,off
01/18/2017 12:29:37,11.937,8.937,off
01/18/2017 12:29:49,11.937,8.937,off
01/18/2017 12:30:00,11.937,8.937,off
