TIME,INSIDE_TEMPERATURE,OUTSIDE_TEMPERATURE,LIGHTS_STATE

11/07/2016 12:03:25,28.437,27.562,off
11/07/2016 12:03:36,28.5,27.25,off
11/07/2016 12:03:48,28.5,27.062,off
11/07/2016 12:04:00,28.5,27.187,off
