TIME,INSIDE_TEMPERATURE,OUTSIDE_TEMPERATURE,LIGHTS_STATE

09/06/2016 12:48:26,30.312,35.25,off
09/06/2016 12:48:38,30.312,35.25,off
09/06/2016 12:48:49,30.312,35.312,off
09/06/2016 12:49:01,30.312,35.312,off
