TIME,INSIDE_TEMPERATURE,OUTSIDE_TEMPERATURE,LIGHTS_STATE

12/19/2016 12:39:25,18.312,14.437,off
12/19/2016 12:39:36,18.312,14.5,off
12/19/2016 12:39:48,18.312,14.437,off
12/19/2016 12:40:00,18.25,14.5,off
