TIME,INSIDE_TEMPERATURE,OUTSIDE_TEMPERATURE,LIGHTS_STATE

03/11/2017 12:16:26,29.937,25.937,off
03/11/2017 12:16:37,30.0,25.875,off
03/11/2017 12:16:49,30.0,25.875,off
03/11/2017 12:17:02,30.0,25.875,off
