TIME,INSIDE_TEMPERATURE,OUTSIDE_TEMPERATURE,LIGHTS_STATE

03/11/2018 12:54:26,23.937,27.937,off
03/11/2018 12:54:37,24.0,27.625,off
03/11/2018 12:54:49,24.0,27.312,off
03/11/2018 12:55:01,23.812,27.0,off
