TIME,INSIDE_TEMPERATURE,OUTSIDE_TEMPERATURE,LIGHTS_STATE

02/15/2018 12:27:26,25.125,30.437,off
02/15/2018 12:27:37,25.125,30.5,off
02/15/2018 12:27:49,25.125,30.5,off
02/15/2018 12:28:01,25.187,30.562,off
