TIME,INSIDE_TEMPERATURE,OUTSIDE_TEMPERATURE,LIGHTS_STATE

04/01/2017 12:10:25,25.312,22.312,off
04/01/2017 12:10:37,25.312,22.375,off
04/01/2017 12:10:48,25.312,22.375,off
04/01/2017 12:11:00,25.312,22.375,off
