TIME,INSIDE_TEMPERATURE,OUTSIDE_TEMPERATURE,LIGHTS_STATE

02/12/2017 12:11:25,27.812,23.25,off
02/12/2017 12:11:37,27.75,23.25,off
02/12/2017 12:11:49,27.687,23.375,off
02/12/2017 12:12:00,27.625,23.437,off
