TIME,INSIDE_TEMPERATURE,OUTSIDE_TEMPERATURE,LIGHTS_STATE

06/27/2017 12:23:25,26.375,22.25,off
06/27/2017 12:23:37,26.375,22.187,off
06/27/2017 12:23:49,26.375,22.187,off
06/27/2017 12:24:01,26.375,22.187,off
