TIME,INSIDE_TEMPERATURE,OUTSIDE_TEMPERATURE,LIGHTS_STATE

09/16/2016 12:44:26,27.125,28.5,off
09/16/2016 12:44:37,27.125,28.437,off
09/16/2016 12:44:49,27.187,28.437,off
09/16/2016 12:45:01,27.187,28.437,off
