TIME,INSIDE_TEMPERATURE,OUTSIDE_TEMPERATURE,LIGHTS_STATE

07/12/2016 12:38:25,25.312,25.0,off
07/12/2016 12:38:37,25.375,24.937,off
07/12/2016 12:38:49,25.375,24.937,off
07/12/2016 12:39:00,25.375,24.937,off
