TIME,INSIDE_TEMPERATURE,OUTSIDE_TEMPERATURE,LIGHTS_STATE

02/19/2018 12:48:26,20.062,29.062,off
02/19/2018 12:48:37,20.062,28.812,off
02/19/2018 12:48:49,20.062,28.875,off
02/19/2018 12:49:01,20.062,28.875,off
