TIME,INSIDE_TEMPERATURE,OUTSIDE_TEMPERATURE,LIGHTS_STATE

11/04/2016 12:41:25,31.25,33.562,off
11/04/2016 12:41:37,31.187,33.5,off
11/04/2016 12:41:49,31.125,33.5,off
11/04/2016 12:42:00,31.125,33.562,off
