TIME,INSIDE_TEMPERATURE,OUTSIDE_TEMPERATURE,LIGHTS_STATE

08/18/2017 12:44:25,31.937,30.062,off
08/18/2017 12:44:37,31.937,30.125,off
08/18/2017 12:44:49,32.0,30.125,off
08/18/2017 12:45:00,32.0,30.125,off
