TIME,INSIDE_TEMPERATURE,OUTSIDE_TEMPERATURE,LIGHTS_STATE

09/24/2017 12:31:26,28.875,26.312,off
09/24/2017 12:31:38,28.875,26.312,off
09/24/2017 12:31:49,28.875,26.312,off
09/24/2017 12:32:01,28.937,26.375,off
