TIME,INSIDE_TEMPERATURE,OUTSIDE_TEMPERATURE,LIGHTS_STATE

01/25/2018 12:04:26,19.312,12.812,off
01/25/2018 12:04:37,19.312,12.812,off
01/25/2018 12:04:49,19.312,12.812,off
01/25/2018 12:05:01,19.312,12.812,off
