TIME,INSIDE_TEMPERATURE,OUTSIDE_TEMPERATURE,LIGHTS_STATE

05/16/2017 12:32:26,21.437,16.25,off
05/16/2017 12:32:37,21.437,16.25,off
05/16/2017 12:32:49,21.437,16.312,off
05/16/2017 12:33:01,21.437,16.312,off
