TIME,INSIDE_TEMPERATURE,OUTSIDE_TEMPERATURE,LIGHTS_STATE

05/01/2017 12:20:25,28.812,28.437,off
05/01/2017 12:20:36,28.812,28.375,off
05/01/2017 12:20:48,28.812,28.375,off
05/01/2017 12:21:00,28.812,28.375,off
