TIME,INSIDE_TEMPERATURE,OUTSIDE_TEMPERATURE,LIGHTS_STATE

04/28/2017 12:54:25,23.5,21.75,off
04/28/2017 12:54:38,23.5,21.75,off
04/28/2017 12:54:49,23.562,21.687,off
04/28/2017 12:55:01,23.562,21.687,off
