TIME,INSIDE_TEMPERATURE,OUTSIDE_TEMPERATURE,LIGHTS_STATE

12/27/2017 12:27:25,23.25,25.812,off
12/27/2017 12:27:37,23.25,25.937,off
12/27/2017 12:27:49,23.312,25.937,off
12/27/2017 12:28:01,23.312,25.937,off
