TIME,INSIDE_TEMPERATURE,OUTSIDE_TEMPERATURE,LIGHTS_STATE

07/05/2017 12:25:25,29.437,27.062,off
07/05/2017 12:25:37,29.437,27.062,off
07/05/2017 12:25:49,29.5,27.125,off
07/05/2017 12:26:01,29.5,27.125,off
