TIME,INSIDE_TEMPERATURE,OUTSIDE_TEMPERATURE,LIGHTS_STATE

06/24/2016 12:30:25,26.125,26.375,off
06/24/2016 12:30:37,26.125,26.312,off
06/24/2016 12:30:48,26.125,26.312,off
06/24/2016 12:31:00,26.125,26.25,off
