TIME,INSIDE_TEMPERATURE,OUTSIDE_TEMPERATURE,LIGHTS_STATE

08/06/2017 12:08:26,30.687,28.062,off
08/06/2017 12:08:37,30.687,28.062,off
08/06/2017 12:08:49,30.75,28.0,off
08/06/2017 12:09:01,30.75,28.0,off
