TIME,INSIDE_TEMPERATURE,OUTSIDE_TEMPERATURE,LIGHTS_STATE

05/14/2017 12:47:25,21.812,19.687,off
05/14/2017 12:47:37,21.812,19.687,off
05/14/2017 12:47:49,21.812,19.687,off
05/14/2017 12:48:00,21.875,19.687,off
