TIME,INSIDE_TEMPERATURE,OUTSIDE_TEMPERATURE,LIGHTS_STATE

12/22/2016 12:55:25,22.0,25.5,off
12/22/2016 12:55:36,22.0,25.312,off
12/22/2016 12:55:48,22.0,25.375,off
12/22/2016 12:56:00,22.0,25.375,off
