TIME,INSIDE_TEMPERATURE,OUTSIDE_TEMPERATURE,LIGHTS_STATE

07/25/2017 12:49:26,30.375,27.312,off
07/25/2017 12:49:37,30.437,27.312,off
07/25/2017 12:49:49,30.437,27.312,off
07/25/2017 12:50:01,30.437,27.312,off
