TIME,INSIDE_TEMPERATURE,OUTSIDE_TEMPERATURE,LIGHTS_STATE

06/24/2017 12:18:26,29.937,27.562,off
06/24/2017 12:18:37,29.937,27.562,off
06/24/2017 12:18:49,29.937,27.562,off
06/24/2017 12:19:01,29.937,27.625,off
