TIME,INSIDE_TEMPERATURE,OUTSIDE_TEMPERATURE,LIGHTS_STATE

02/04/2017 12:04:25,25.937,24.687,off
02/04/2017 12:04:37,25.937,24.812,off
02/04/2017 12:04:48,25.937,24.75,off
02/04/2017 12:05:00,25.937,24.812,off
