TIME,INSIDE_TEMPERATURE,OUTSIDE_TEMPERATURE,LIGHTS_STATE

08/18/2017 12:19:25,31.187,29.062,off
08/18/2017 12:19:37,31.187,29.062,off
08/18/2017 12:19:49,31.187,29.125,off
08/18/2017 12:20:01,31.187,29.125,off
