TIME,INSIDE_TEMPERATURE,OUTSIDE_TEMPERATURE,LIGHTS_STATE

03/17/2017 12:11:26,23.5,21.125,off
03/17/2017 12:11:37,23.5,21.187,off
03/17/2017 12:11:49,23.5,21.187,off
03/17/2017 12:12:01,23.5,21.25,off
