TIME,INSIDE_TEMPERATURE,OUTSIDE_TEMPERATURE,LIGHTS_STATE

10/28/2016 12:24:25,23.875,20.625,off
10/28/2016 12:24:37,23.875,20.687,off
10/28/2016 12:24:49,23.937,20.687,off
10/28/2016 12:25:00,23.937,20.625,off
