TIME,INSIDE_TEMPERATURE,OUTSIDE_TEMPERATURE,LIGHTS_STATE

08/04/2017 12:23:25,31.937,27.875,off
08/04/2017 12:23:37,31.937,27.875,off
08/04/2017 12:23:49,32.0,27.875,off
08/04/2017 12:24:00,31.937,27.875,off
