TIME,INSIDE_TEMPERATURE,OUTSIDE_TEMPERATURE,LIGHTS_STATE

07/16/2016 12:12:26,27.812,28.0,off
07/16/2016 12:12:38,27.812,28.0,off
07/16/2016 12:12:50,27.812,28.0,off
07/16/2016 12:13:02,27.812,27.937,off
