TIME,INSIDE_TEMPERATURE,OUTSIDE_TEMPERATURE,LIGHTS_STATE

03/06/2017 12:51:25,20.625,16.187,off
03/06/2017 12:51:37,20.625,16.125,off
03/06/2017 12:51:49,20.625,16.062,off
03/06/2017 12:52:00,20.625,15.937,off
