TIME,INSIDE_TEMPERATURE,OUTSIDE_TEMPERATURE,LIGHTS_STATE

01/16/2018 12:31:25,23.75,18.687,off
01/16/2018 12:31:37,23.75,18.687,off
01/16/2018 12:31:49,23.75,18.687,off
01/16/2018 12:32:00,23.75,18.75,off
