TIME,INSIDE_TEMPERATURE,OUTSIDE_TEMPERATURE,LIGHTS_STATE

02/22/2017 12:38:25,22.0,19.0,off
02/22/2017 12:38:37,22.0,19.062,off
02/22/2017 12:38:48,22.0,18.937,off
02/22/2017 12:39:00,21.937,18.875,off
