TIME,INSIDE_TEMPERATURE,OUTSIDE_TEMPERATURE,LIGHTS_STATE

03/27/2017 12:39:25,22.062,18.687,off
03/27/2017 12:39:36,22.062,18.687,off
03/27/2017 12:39:48,22.062,18.75,off
03/27/2017 12:40:00,22.125,18.75,off
