TIME,INSIDE_TEMPERATURE,OUTSIDE_TEMPERATURE,LIGHTS_STATE

10/11/2017 12:41:25,27.25,26.0,off
10/11/2017 12:41:37,27.187,26.25,off
10/11/2017 12:41:49,27.25,26.312,off
10/11/2017 12:42:01,27.25,26.375,off
