TIME,INSIDE_TEMPERATURE,OUTSIDE_TEMPERATURE,LIGHTS_STATE

03/29/2017 12:08:25,25.687,22.625,off
03/29/2017 12:08:37,25.625,22.562,off
03/29/2017 12:08:49,25.625,22.562,off
03/29/2017 12:09:00,25.625,22.5,off
