TIME,INSIDE_TEMPERATURE,OUTSIDE_TEMPERATURE,LIGHTS_STATE

03/20/2018 12:54:26,17.062,11.187,off
03/20/2018 12:54:37,17.062,11.125,off
03/20/2018 12:54:49,17.062,11.125,off
03/20/2018 12:55:01,17.062,11.062,off
