TIME,INSIDE_TEMPERATURE,OUTSIDE_TEMPERATURE,LIGHTS_STATE

10/26/2017 12:51:25,36.062,44.937,off
10/26/2017 12:51:37,36.062,45.062,off
10/26/2017 12:51:48,36.062,45.125,off
10/26/2017 12:52:00,36.062,45.062,off
