TIME,INSIDE_TEMPERATURE,OUTSIDE_TEMPERATURE,LIGHTS_STATE

05/25/2017 12:36:25,22.5,20.375,off
05/25/2017 12:36:37,22.5,20.25,off
05/25/2017 12:36:48,22.562,20.25,off
05/25/2017 12:37:00,22.562,20.25,off
