TIME,INSIDE_TEMPERATURE,OUTSIDE_TEMPERATURE,LIGHTS_STATE

02/24/2017 12:44:25,21.937,22.875,off
02/24/2017 12:44:37,21.937,22.875,off
02/24/2017 12:44:48,21.937,22.687,off
02/24/2017 12:45:00,21.937,22.562,off
