TIME,INSIDE_TEMPERATURE,OUTSIDE_TEMPERATURE,LIGHTS_STATE

03/09/2017 12:21:25,28.187,26.75,off
03/09/2017 12:21:38,28.187,26.812,off
03/09/2017 12:21:50,28.187,26.937,off
03/09/2017 12:22:01,28.187,26.875,off
