TIME,INSIDE_TEMPERATURE,OUTSIDE_TEMPERATURE,LIGHTS_STATE

11/04/2016 12:45:25,30.625,34.125,off
11/04/2016 12:45:36,30.625,34.062,off
11/04/2016 12:45:48,30.625,34.0,off
11/04/2016 12:46:00,30.625,33.875,off
