TIME,INSIDE_TEMPERATURE,OUTSIDE_TEMPERATURE,LIGHTS_STATE

09/10/2016 12:38:25,28.375,26.875,off
09/10/2016 12:38:37,28.437,26.875,off
09/10/2016 12:38:48,28.437,26.875,off
09/10/2016 12:39:00,28.437,26.937,off
