TIME,INSIDE_TEMPERATURE,OUTSIDE_TEMPERATURE,LIGHTS_STATE

11/01/2017 12:55:26,30.312,30.812,off
11/01/2017 12:55:37,30.375,30.75,off
11/01/2017 12:55:49,30.375,30.687,off
11/01/2017 12:56:01,30.375,30.5,off
