TIME,INSIDE_TEMPERATURE,OUTSIDE_TEMPERATURE,LIGHTS_STATE

12/25/2016 12:13:25,19.062,15.437,off
12/25/2016 12:13:36,19.0,15.375,off
12/25/2016 12:13:48,19.0,15.312,off
12/25/2016 12:14:00,19.062,15.312,off
