TIME,INSIDE_TEMPERATURE,OUTSIDE_TEMPERATURE,LIGHTS_STATE

07/24/2017 12:15:25,30.875,28.0,off
07/24/2017 12:15:37,30.875,28.0,off
07/24/2017 12:15:49,30.875,28.0,off
07/24/2017 12:16:01,30.875,28.0,off
