TIME,INSIDE_TEMPERATURE,OUTSIDE_TEMPERATURE,LIGHTS_STATE

06/26/2017 12:27:25,27.687,24.125,off
06/26/2017 12:27:37,27.687,24.125,off
06/26/2017 12:27:49,27.687,24.062,off
06/26/2017 12:28:01,27.687,24.125,off
