TIME,INSIDE_TEMPERATURE,OUTSIDE_TEMPERATURE,LIGHTS_STATE

10/31/2016 12:12:24,23.687,19.125,off
10/31/2016 12:12:36,23.75,19.125,off
10/31/2016 12:12:48,23.687,19.125,off
10/31/2016 12:12:59,23.687,19.062,off
