TIME,INSIDE_TEMPERATURE,OUTSIDE_TEMPERATURE,LIGHTS_STATE

09/07/2017 12:24:25,29.312,26.437,off
09/07/2017 12:24:37,29.312,26.562,off
09/07/2017 12:24:48,29.312,26.5,off
09/07/2017 12:25:00,29.312,26.562,off
