TIME,INSIDE_TEMPERATURE,OUTSIDE_TEMPERATURE,LIGHTS_STATE

05/20/2017 12:45:25,30.625,29.5,off
05/20/2017 12:45:37,30.625,29.5,off
05/20/2017 12:45:48,30.625,29.5,off
05/20/2017 12:46:00,30.625,29.562,off
