TIME,INSIDE_TEMPERATURE,OUTSIDE_TEMPERATURE,LIGHTS_STATE

03/06/2018 12:18:25,22.187,30.312,off
03/06/2018 12:18:37,22.25,30.5,off
03/06/2018 12:18:49,22.25,30.5,off
03/06/2018 12:19:00,22.25,30.062,off
