TIME,INSIDE_TEMPERATURE,OUTSIDE_TEMPERATURE,LIGHTS_STATE

03/26/2017 12:42:25,23.625,19.562,off
03/26/2017 12:42:37,23.625,19.5,off
03/26/2017 12:42:48,23.625,19.5,off
03/26/2017 12:43:01,23.625,19.375,off
