TIME,INSIDE_TEMPERATURE,OUTSIDE_TEMPERATURE,LIGHTS_STATE

08/02/2016 12:38:26,28.375,28.312,off
08/02/2016 12:38:38,28.375,28.312,off
08/02/2016 12:38:49,28.375,28.375,off
08/02/2016 12:39:01,28.437,28.375,off
