TIME,INSIDE_TEMPERATURE,OUTSIDE_TEMPERATURE,LIGHTS_STATE

02/19/2017 12:42:26,16.312,11.75,off
02/19/2017 12:42:37,16.312,11.812,off
02/19/2017 12:42:49,16.312,11.812,off
02/19/2017 12:43:01,16.312,11.812,off
