TIME,INSIDE_TEMPERATURE,OUTSIDE_TEMPERATURE,LIGHTS_STATE

10/26/2017 12:49:25,36.125,44.312,off
10/26/2017 12:49:37,36.062,44.375,off
10/26/2017 12:49:49,36.062,44.187,off
10/26/2017 12:50:01,36.062,44.312,off
