TIME,INSIDE_TEMPERATURE,OUTSIDE_TEMPERATURE,LIGHTS_STATE

03/22/2017 12:19:26,20.875,16.062,off
03/22/2017 12:19:37,20.875,16.062,off
03/22/2017 12:19:49,20.875,15.937,off
03/22/2017 12:20:01,20.812,16.0,off
