TIME,INSIDE_TEMPERATURE,OUTSIDE_TEMPERATURE,LIGHTS_STATE

10/27/2017 12:46:25,35.875,46.125,off
10/27/2017 12:46:37,35.937,46.125,off
10/27/2017 12:46:49,35.875,46.125,off
10/27/2017 12:47:00,35.937,46.25,off
