TIME,INSIDE_TEMPERATURE,OUTSIDE_TEMPERATURE,LIGHTS_STATE

02/10/2018 12:07:26,25.75,22.937,off
02/10/2018 12:07:38,25.75,23.062,off
02/10/2018 12:07:49,25.75,23.125,off
02/10/2018 12:08:01,25.75,23.25,off
