TIME,INSIDE_TEMPERATURE,OUTSIDE_TEMPERATURE,LIGHTS_STATE

10/26/2017 12:11:25,35.875,51.625,off
10/26/2017 12:11:37,35.875,51.562,off
10/26/2017 12:11:49,35.875,51.5,off
10/26/2017 12:12:00,35.875,51.312,off
