TIME,INSIDE_TEMPERATURE,OUTSIDE_TEMPERATURE,LIGHTS_STATE

10/28/2016 12:36:24,24.562,22.5,off
10/28/2016 12:36:36,24.562,22.562,off
10/28/2016 12:36:48,24.562,22.562,off
10/28/2016 12:36:59,24.562,22.625,off
