TIME,INSIDE_TEMPERATURE,OUTSIDE_TEMPERATURE,LIGHTS_STATE

10/24/2017 12:04:25,36.312,34.937,off
10/24/2017 12:04:37,36.312,34.812,off
10/24/2017 12:04:49,36.312,34.75,off
10/24/2017 12:05:00,36.312,34.687,off
