TIME,INSIDE_TEMPERATURE,OUTSIDE_TEMPERATURE,LIGHTS_STATE

07/20/2017 12:22:26,29.0,26.125,off
07/20/2017 12:22:37,29.0,26.187,off
07/20/2017 12:22:49,28.875,26.125,off
07/20/2017 12:23:01,28.562,26.125,off
