TIME,INSIDE_TEMPERATURE,OUTSIDE_TEMPERATURE,LIGHTS_STATE

11/05/2016 12:16:25,31.562,27.562,off
11/05/2016 12:16:37,31.562,27.5,off
11/05/2016 12:16:49,31.625,27.562,off
11/05/2016 12:17:00,31.625,27.687,off
