TIME,INSIDE_TEMPERATURE,OUTSIDE_TEMPERATURE,LIGHTS_STATE

10/26/2017 12:26:25,36.0,36.5,off
10/26/2017 12:26:37,36.0,36.5,off
10/26/2017 12:26:48,36.0,36.437,off
10/26/2017 12:27:00,35.937,36.437,off
