TIME,INSIDE_TEMPERATURE,OUTSIDE_TEMPERATURE,LIGHTS_STATE

12/25/2016 12:21:24,18.875,14.875,off
12/25/2016 12:21:36,18.875,14.875,off
12/25/2016 12:21:48,18.875,14.812,off
12/25/2016 12:21:59,18.875,14.75,off
