TIME,INSIDE_TEMPERATURE,OUTSIDE_TEMPERATURE,LIGHTS_STATE

03/02/2017 12:18:25,24.75,23.625,off
03/02/2017 12:18:37,24.75,23.687,off
03/02/2017 12:18:48,24.75,23.75,off
03/02/2017 12:19:00,24.75,23.875,off
