TIME,INSIDE_TEMPERATURE,OUTSIDE_TEMPERATURE,LIGHTS_STATE

08/03/2017 12:16:26,37.812,36.812,off
08/03/2017 12:16:37,37.812,36.875,off
08/03/2017 12:16:49,37.812,36.937,off
08/03/2017 12:17:01,37.812,36.937,off
