TIME,INSIDE_TEMPERATURE,OUTSIDE_TEMPERATURE,LIGHTS_STATE

11/18/2016 12:42:25,24.625,21.25,off
11/18/2016 12:42:36,24.625,21.25,off
11/18/2016 12:42:48,24.625,21.25,off
11/18/2016 12:43:00,24.625,21.25,off
