TIME,INSIDE_TEMPERATURE,OUTSIDE_TEMPERATURE,LIGHTS_STATE

03/08/2018 12:53:25,28.437,25.375,off
03/08/2018 12:53:37,28.437,25.375,off
03/08/2018 12:53:49,28.5,25.437,off
03/08/2018 12:54:00,28.437,25.437,off
