TIME,INSIDE_TEMPERATURE,OUTSIDE_TEMPERATURE,LIGHTS_STATE

12/24/2016 12:35:24,19.812,17.687,off
12/24/2016 12:35:36,19.812,17.75,off
12/24/2016 12:35:48,19.812,17.687,off
12/24/2016 12:35:59,19.812,17.687,off
