TIME,INSIDE_TEMPERATURE,OUTSIDE_TEMPERATURE,LIGHTS_STATE

07/17/2017 12:05:25,35.75,32.375,off
07/17/2017 12:05:37,35.812,32.375,off
07/17/2017 12:05:49,35.812,32.375,off
07/17/2017 12:06:01,35.812,32.375,off
