TIME,INSIDE_TEMPERATURE,OUTSIDE_TEMPERATURE,LIGHTS_STATE

11/14/2016 12:24:25,28.812,30.437,off
11/14/2016 12:24:37,28.812,30.312,off
11/14/2016 12:24:49,28.812,30.25,off
11/14/2016 12:25:00,28.812,30.125,off
