TIME,INSIDE_TEMPERATURE,OUTSIDE_TEMPERATURE,LIGHTS_STATE

06/29/2017 12:11:25,27.5,24.5,off
06/29/2017 12:11:37,27.562,24.5,off
06/29/2017 12:11:48,27.562,24.5,off
06/29/2017 12:12:00,27.562,24.562,off
