TIME,INSIDE_TEMPERATURE,OUTSIDE_TEMPERATURE,LIGHTS_STATE

11/20/2016 12:26:25,21.687,18.0,off
11/20/2016 12:26:36,21.687,18.0,off
11/20/2016 12:26:48,21.687,18.062,off
11/20/2016 12:27:00,21.687,18.062,off
