TIME,INSIDE_TEMPERATURE,OUTSIDE_TEMPERATURE,LIGHTS_STATE

02/23/2018 12:34:25,18.562,27.5,off
02/23/2018 12:34:37,18.562,27.75,off
02/23/2018 12:34:49,18.5,28.0,off
02/23/2018 12:35:01,18.562,28.312,off
