TIME,INSIDE_TEMPERATURE,OUTSIDE_TEMPERATURE,LIGHTS_STATE

03/09/2018 12:01:25,24.687,20.812,off
03/09/2018 12:01:37,24.687,20.75,off
03/09/2018 12:01:49,24.687,20.687,off
03/09/2018 12:02:00,24.75,20.75,off
