TIME,INSIDE_TEMPERATURE,OUTSIDE_TEMPERATURE,LIGHTS_STATE

01/09/2018 12:45:25,20.312,14.187,off
01/09/2018 12:45:37,20.312,14.187,off
01/09/2018 12:45:49,20.25,14.187,off
01/09/2018 12:46:01,20.312,14.125,off
