TIME,INSIDE_TEMPERATURE,OUTSIDE_TEMPERATURE,LIGHTS_STATE

04/05/2017 12:42:25,28.062,25.375,off
04/05/2017 12:42:37,28.062,25.437,off
04/05/2017 12:42:48,28.062,25.5,off
04/05/2017 12:43:00,28.062,25.562,off
