TIME,INSIDE_TEMPERATURE,OUTSIDE_TEMPERATURE,LIGHTS_STATE

10/27/2017 12:47:25,35.875,46.312,off
10/27/2017 12:47:37,35.937,46.25,off
10/27/2017 12:47:49,35.875,46.25,off
10/27/2017 12:48:01,35.875,46.125,off
