TIME,INSIDE_TEMPERATURE,OUTSIDE_TEMPERATURE,LIGHTS_STATE

01/11/2018 12:12:25,22.437,18.062,off
01/11/2018 12:12:37,22.5,18.062,off
01/11/2018 12:12:48,22.5,18.062,off
01/11/2018 12:13:01,22.5,18.062,off
