TIME,INSIDE_TEMPERATURE,OUTSIDE_TEMPERATURE,LIGHTS_STATE

09/11/2016 12:31:25,27.75,27.062,off
09/11/2016 12:31:36,27.75,27.062,off
09/11/2016 12:31:48,27.75,27.125,off
09/11/2016 12:32:00,27.75,27.125,off
