TIME,INSIDE_TEMPERATURE,OUTSIDE_TEMPERATURE,LIGHTS_STATE

08/13/2017 12:55:25,30.437,28.0,off
08/13/2017 12:55:37,30.437,28.0,off
08/13/2017 12:55:48,30.437,28.0,off
08/13/2017 12:56:00,30.437,28.0,off
