TIME,INSIDE_TEMPERATURE,OUTSIDE_TEMPERATURE,LIGHTS_STATE

01/09/2018 12:44:25,20.25,14.125,off
01/09/2018 12:44:37,20.25,14.187,off
01/09/2018 12:44:49,20.312,14.187,off
01/09/2018 12:45:00,20.312,14.187,off
