TIME,INSIDE_TEMPERATURE,OUTSIDE_TEMPERATURE,LIGHTS_STATE

05/18/2017 12:37:25,25.062,24.0,off
05/18/2017 12:37:37,25.0,24.0,off
05/18/2017 12:37:48,25.062,24.0,off
05/18/2017 12:38:00,25.062,24.062,off
