TIME,INSIDE_TEMPERATURE,OUTSIDE_TEMPERATURE,LIGHTS_STATE

03/15/2017 12:46:26,27.937,24.375,off
03/15/2017 12:46:37,27.937,24.375,off
03/15/2017 12:46:49,28.0,24.375,off
03/15/2017 12:47:01,28.0,24.437,off
