TIME,INSIDE_TEMPERATURE,OUTSIDE_TEMPERATURE,LIGHTS_STATE

03/02/2017 12:05:25,24.937,26.25,off
03/02/2017 12:05:37,24.937,26.312,off
03/02/2017 12:05:49,24.875,26.375,off
03/02/2017 12:06:00,24.937,26.375,off
