TIME,INSIDE_TEMPERATURE,OUTSIDE_TEMPERATURE,LIGHTS_STATE

12/28/2016 12:11:24,20.0,15.937,off
12/28/2016 12:11:36,20.0,16.0,off
12/28/2016 12:11:48,19.937,16.062,off
12/28/2016 12:11:59,20.0,16.125,off
