TIME,INSIDE_TEMPERATURE,OUTSIDE_TEMPERATURE,LIGHTS_STATE

04/27/2017 12:25:25,23.187,20.812,off
04/27/2017 12:25:37,23.187,20.875,off
04/27/2017 12:25:49,23.25,20.687,off
04/27/2017 12:26:00,23.25,20.5,off
