TIME,INSIDE_TEMPERATURE,OUTSIDE_TEMPERATURE,LIGHTS_STATE

06/11/2017 12:26:25,23.187,18.812,off
06/11/2017 12:26:36,23.187,18.687,off
06/11/2017 12:26:48,23.187,18.687,off
06/11/2017 12:27:00,23.187,18.687,off
