TIME,INSIDE_TEMPERATURE,OUTSIDE_TEMPERATURE,LIGHTS_STATE

04/26/2017 12:28:25,22.187,18.812,off
04/26/2017 12:28:36,22.187,18.75,off
04/26/2017 12:28:48,22.25,18.687,off
04/26/2017 12:29:00,22.25,18.687,off
