TIME,INSIDE_TEMPERATURE,OUTSIDE_TEMPERATURE,LIGHTS_STATE

10/18/2017 12:06:25,30.5,31.187,off
10/18/2017 12:06:37,30.5,31.187,off
10/18/2017 12:06:48,30.562,31.25,off
10/18/2017 12:07:00,30.562,31.25,off
