TIME,INSIDE_TEMPERATURE,OUTSIDE_TEMPERATURE,LIGHTS_STATE

09/03/2017 12:35:25,41.625,39.937,off
09/03/2017 12:35:37,41.687,39.937,off
09/03/2017 12:35:48,41.687,39.812,off
09/03/2017 12:36:00,41.687,39.75,off
