TIME,INSIDE_TEMPERATURE,OUTSIDE_TEMPERATURE,LIGHTS_STATE

06/23/2017 12:49:25,33.25,29.812,off
06/23/2017 12:49:37,33.312,29.812,off
06/23/2017 12:49:49,33.312,29.812,off
06/23/2017 12:50:01,33.312,29.812,off
