TIME,INSIDE_TEMPERATURE,OUTSIDE_TEMPERATURE,LIGHTS_STATE

02/19/2018 12:29:25,20.562,31.062,off
02/19/2018 12:29:37,20.5,31.0,off
02/19/2018 12:29:49,20.562,31.312,off
02/19/2018 12:30:00,20.5,31.375,off
