TIME,INSIDE_TEMPERATURE,OUTSIDE_TEMPERATURE,LIGHTS_STATE

09/03/2016 12:55:25,25.25,24.437,off
09/03/2016 12:55:37,25.25,24.5,off
09/03/2016 12:55:49,25.312,24.562,off
09/03/2016 12:56:01,25.312,24.562,off
