TIME,INSIDE_TEMPERATURE,OUTSIDE_TEMPERATURE,LIGHTS_STATE

08/14/2017 12:07:25,25.812,21.937,off
08/14/2017 12:07:37,25.75,21.875,off
08/14/2017 12:07:48,25.812,21.812,off
08/14/2017 12:08:00,25.875,21.812,off
