TIME,INSIDE_TEMPERATURE,OUTSIDE_TEMPERATURE,LIGHTS_STATE

02/10/2018 12:31:25,27.312,25.937,off
02/10/2018 12:31:37,27.312,26.0,off
02/10/2018 12:31:50,27.312,26.0,off
02/10/2018 12:32:02,27.375,26.0,off
