TIME,INSIDE_TEMPERATURE,OUTSIDE_TEMPERATURE,LIGHTS_STATE

08/29/2017 12:04:25,30.0,28.0,off
08/29/2017 12:04:37,30.062,28.0,off
08/29/2017 12:04:49,30.062,28.062,off
08/29/2017 12:05:00,30.062,28.062,off
