TIME,INSIDE_TEMPERATURE,OUTSIDE_TEMPERATURE,LIGHTS_STATE

12/31/2016 12:37:25,13.312,9.625,off
12/31/2016 12:37:37,13.312,9.5,off
12/31/2016 12:37:49,13.312,9.5,off
12/31/2016 12:38:00,13.312,9.5,off
