TIME,INSIDE_TEMPERATURE,OUTSIDE_TEMPERATURE,LIGHTS_STATE

07/10/2017 12:44:25,34.875,31.5,off
07/10/2017 12:44:37,34.875,31.5,off
07/10/2017 12:44:48,34.875,31.437,off
07/10/2017 12:45:00,34.875,31.437,off
