TIME,INSIDE_TEMPERATURE,OUTSIDE_TEMPERATURE,LIGHTS_STATE

08/05/2016 12:45:26,25.125,24.375,off
08/05/2016 12:45:39,25.125,24.375,off
08/05/2016 12:45:50,25.125,24.375,off
08/05/2016 12:46:02,25.187,24.375,off
