TIME,INSIDE_TEMPERATURE,OUTSIDE_TEMPERATURE,LIGHTS_STATE

09/18/2016 12:07:26,31.375,34.25,off
09/18/2016 12:07:37,31.375,34.062,off
09/18/2016 12:07:49,31.437,34.0,off
09/18/2016 12:08:01,31.437,33.937,off
