TIME,INSIDE_TEMPERATURE,OUTSIDE_TEMPERATURE,LIGHTS_STATE

03/25/2018 12:46:25,17.562,14.437,off
03/25/2018 12:46:37,17.562,14.375,off
03/25/2018 12:46:49,17.562,14.312,off
03/25/2018 12:47:00,17.562,14.312,off
