TIME,INSIDE_TEMPERATURE,OUTSIDE_TEMPERATURE,LIGHTS_STATE

01/03/2017 12:16:24,15.0,11.5,off
01/03/2017 12:16:36,15.062,11.562,off
01/03/2017 12:16:48,15.0,11.5,off
01/03/2017 12:16:59,15.062,11.5,off
