TIME,INSIDE_TEMPERATURE,OUTSIDE_TEMPERATURE,LIGHTS_STATE

12/12/2016 12:02:25,20.312,15.812,off
12/12/2016 12:02:37,20.312,15.687,off
12/12/2016 12:02:48,20.312,15.687,off
12/12/2016 12:03:00,20.312,15.687,off
