TIME,INSIDE_TEMPERATURE,OUTSIDE_TEMPERATURE,LIGHTS_STATE

06/19/2017 12:22:26,38.812,34.312,off
06/19/2017 12:22:37,38.812,34.375,off
06/19/2017 12:22:49,38.812,34.437,off
06/19/2017 12:23:01,38.812,34.5,off
