TIME,INSIDE_TEMPERATURE,OUTSIDE_TEMPERATURE,LIGHTS_STATE

11/10/2016 12:12:25,29.937,31.687,off
11/10/2016 12:12:37,29.937,31.375,off
11/10/2016 12:12:49,29.937,31.562,off
11/10/2016 12:13:00,29.937,31.562,off
