TIME,INSIDE_TEMPERATURE,OUTSIDE_TEMPERATURE,LIGHTS_STATE

03/19/2018 12:25:25,19.187,16.687,off
03/19/2018 12:25:37,19.25,16.75,off
03/19/2018 12:25:49,19.25,16.812,off
03/19/2018 12:26:00,19.25,16.75,off
