TIME,INSIDE_TEMPERATURE,OUTSIDE_TEMPERATURE,LIGHTS_STATE

09/22/2016 12:45:26,25.125,23.5,off
09/22/2016 12:45:37,25.125,23.5,off
09/22/2016 12:45:49,25.125,23.5,off
09/22/2016 12:46:01,25.187,23.437,off
