TIME,INSIDE_TEMPERATURE,OUTSIDE_TEMPERATURE,LIGHTS_STATE

01/08/2018 12:48:25,17.125,11.625,off
01/08/2018 12:48:37,17.125,11.687,off
01/08/2018 12:48:49,17.125,11.687,off
01/08/2018 12:49:01,17.187,11.687,off
