TIME,INSIDE_TEMPERATURE,OUTSIDE_TEMPERATURE,LIGHTS_STATE

10/28/2016 12:42:25,24.562,22.0,off
10/28/2016 12:42:37,24.625,21.937,off
10/28/2016 12:42:48,24.562,21.812,off
10/28/2016 12:43:00,24.562,21.625,off
