TIME,INSIDE_TEMPERATURE,OUTSIDE_TEMPERATURE,LIGHTS_STATE

06/23/2016 12:50:25,27.937,28.75,off
06/23/2016 12:50:37,27.875,28.75,off
06/23/2016 12:50:49,27.937,28.75,off
06/23/2016 12:51:00,27.875,28.75,off
