TIME,INSIDE_TEMPERATURE,OUTSIDE_TEMPERATURE,LIGHTS_STATE

04/06/2017 12:02:25,22.812,19.5,off
04/06/2017 12:02:36,22.812,19.562,off
04/06/2017 12:02:48,22.75,19.625,off
04/06/2017 12:03:00,22.75,19.625,off
