TIME,INSIDE_TEMPERATURE,OUTSIDE_TEMPERATURE,LIGHTS_STATE

07/25/2017 12:24:25,29.875,26.937,off
07/25/2017 12:24:37,29.875,26.937,off
07/25/2017 12:24:48,29.875,27.0,off
07/25/2017 12:25:00,29.875,27.0,off
