TIME,INSIDE_TEMPERATURE,OUTSIDE_TEMPERATURE,LIGHTS_STATE

03/23/2018 12:00:26,18.25,14.625,off
03/23/2018 12:00:38,18.25,14.625,off
03/23/2018 12:00:49,18.25,14.625,off
03/23/2018 12:01:01,18.25,14.75,off
