TIME,INSIDE_TEMPERATURE,OUTSIDE_TEMPERATURE,LIGHTS_STATE

11/11/2016 12:30:25,27.625,24.812,off
11/11/2016 12:30:37,27.625,24.812,off
11/11/2016 12:30:49,27.625,24.937,off
11/11/2016 12:31:00,27.625,24.937,off
