TIME,INSIDE_TEMPERATURE,OUTSIDE_TEMPERATURE,LIGHTS_STATE

07/15/2017 12:06:25,34.375,30.562,off
07/15/2017 12:06:37,34.375,30.562,off
07/15/2017 12:06:49,34.375,30.562,off
07/15/2017 12:07:00,34.375,30.562,off
