TIME,INSIDE_TEMPERATURE,OUTSIDE_TEMPERATURE,LIGHTS_STATE

11/16/2016 12:02:25,25.25,23.062,off
11/16/2016 12:02:37,25.25,22.75,off
11/16/2016 12:02:49,25.187,22.375,off
11/16/2016 12:03:00,25.125,22.062,off
