TIME,INSIDE_TEMPERATURE,OUTSIDE_TEMPERATURE,LIGHTS_STATE

10/21/2017 12:13:25,26.937,28.625,off
10/21/2017 12:13:37,26.937,28.375,off
10/21/2017 12:13:49,26.937,28.187,off
10/21/2017 12:14:01,26.937,28.062,off
