TIME,INSIDE_TEMPERATURE,OUTSIDE_TEMPERATURE,LIGHTS_STATE

02/04/2018 12:09:26,25.937,27.062,off
02/04/2018 12:09:37,25.937,27.5,off
02/04/2018 12:09:49,25.937,27.812,off
02/04/2018 12:10:01,26.0,28.125,off
