TIME,INSIDE_TEMPERATURE,OUTSIDE_TEMPERATURE,LIGHTS_STATE

02/26/2018 12:12:25,18.687,17.5,off
02/26/2018 12:12:37,18.687,17.437,off
02/26/2018 12:12:48,18.687,17.25,off
02/26/2018 12:13:00,18.687,17.187,off
