TIME,INSIDE_TEMPERATURE,OUTSIDE_TEMPERATURE,LIGHTS_STATE

01/04/2017 12:29:25,17.0,12.437,off
01/04/2017 12:29:36,17.0,12.437,off
01/04/2017 12:29:48,17.0,12.375,off
01/04/2017 12:30:00,17.0,12.375,off
