TIME,INSIDE_TEMPERATURE,OUTSIDE_TEMPERATURE,LIGHTS_STATE

11/16/2016 12:21:25,24.562,20.875,off
11/16/2016 12:21:37,24.5,20.437,off
11/16/2016 12:21:48,24.5,20.25,off
11/16/2016 12:22:00,24.5,20.625,off
