TIME,INSIDE_TEMPERATURE,OUTSIDE_TEMPERATURE,LIGHTS_STATE

11/07/2016 12:40:25,28.75,29.437,off
11/07/2016 12:40:36,28.812,29.0,off
11/07/2016 12:40:48,28.812,28.625,off
11/07/2016 12:41:00,28.75,28.437,off
