TIME,INSIDE_TEMPERATURE,OUTSIDE_TEMPERATURE,LIGHTS_STATE

06/09/2017 12:22:25,26.562,21.937,off
06/09/2017 12:22:37,26.562,21.937,off
06/09/2017 12:22:49,26.562,22.062,off
06/09/2017 12:23:01,26.625,22.062,off
