TIME,INSIDE_TEMPERATURE,OUTSIDE_TEMPERATURE,LIGHTS_STATE

11/13/2016 12:38:25,29.937,31.812,off
11/13/2016 12:38:37,29.937,31.687,off
11/13/2016 12:38:49,29.937,31.437,off
11/13/2016 12:39:01,29.937,31.312,off
