TIME,INSIDE_TEMPERATURE,OUTSIDE_TEMPERATURE,LIGHTS_STATE

02/02/2018 12:27:25,28.375,25.875,off
02/02/2018 12:27:37,28.375,25.875,off
02/02/2018 12:27:49,28.437,25.937,off
02/02/2018 12:28:01,28.375,26.062,off
