TIME,INSIDE_TEMPERATURE,OUTSIDE_TEMPERATURE,LIGHTS_STATE

11/10/2016 12:07:25,29.937,33.062,off
11/10/2016 12:07:37,29.937,33.75,off
11/10/2016 12:07:48,30.0,33.812,off
11/10/2016 12:08:00,29.937,33.875,off
