TIME,INSIDE_TEMPERATURE,OUTSIDE_TEMPERATURE,LIGHTS_STATE

06/29/2016 12:44:25,27.812,27.312,off
06/29/2016 12:44:37,27.812,27.25,off
06/29/2016 12:44:48,27.812,27.25,off
06/29/2016 12:45:00,27.812,27.25,off
