TIME,INSIDE_TEMPERATURE,OUTSIDE_TEMPERATURE,LIGHTS_STATE

02/21/2018 12:16:25,21.125,27.25,off
02/21/2018 12:16:37,21.125,27.5,off
02/21/2018 12:16:49,21.125,27.75,off
02/21/2018 12:17:00,21.125,27.937,off
