TIME,INSIDE_TEMPERATURE,OUTSIDE_TEMPERATURE,LIGHTS_STATE

05/24/2017 12:25:25,27.375,25.187,off
05/24/2017 12:25:37,27.375,25.125,off
05/24/2017 12:25:48,27.312,25.125,off
05/24/2017 12:26:00,27.312,25.125,off
