TIME,INSIDE_TEMPERATURE,OUTSIDE_TEMPERATURE,LIGHTS_STATE

08/04/2016 12:24:26,25.312,25.062,off
08/04/2016 12:24:38,25.375,25.125,off
08/04/2016 12:24:49,25.312,25.187,off
08/04/2016 12:25:01,25.375,25.187,off
