TIME,INSIDE_TEMPERATURE,OUTSIDE_TEMPERATURE,LIGHTS_STATE

07/26/2016 12:52:25,35.375,33.562,off
07/26/2016 12:52:37,35.375,33.562,off
07/26/2016 12:52:48,35.375,33.625,off
07/26/2016 12:53:00,35.375,33.562,off
