TIME,INSIDE_TEMPERATURE,OUTSIDE_TEMPERATURE,LIGHTS_STATE

01/17/2017 12:36:25,14.937,13.062,off
01/17/2017 12:36:36,14.937,13.0,off
01/17/2017 12:36:48,14.937,12.875,off
01/17/2017 12:37:00,14.937,12.687,off
