TIME,INSIDE_TEMPERATURE,OUTSIDE_TEMPERATURE,LIGHTS_STATE

09/27/2017 12:35:26,33.437,31.562,off
09/27/2017 12:35:37,33.437,31.562,off
09/27/2017 12:35:49,33.5,31.562,off
09/27/2017 12:36:01,33.5,31.562,off
