TIME,INSIDE_TEMPERATURE,OUTSIDE_TEMPERATURE,LIGHTS_STATE

02/06/2017 12:21:25,18.25,14.375,off
02/06/2017 12:21:37,18.25,14.375,off
02/06/2017 12:21:49,18.25,14.375,off
02/06/2017 12:22:00,18.25,14.312,off
