TIME,INSIDE_TEMPERATURE,OUTSIDE_TEMPERATURE,LIGHTS_STATE

10/17/2017 12:06:25,30.062,30.375,off
10/17/2017 12:06:37,30.0,30.312,off
10/17/2017 12:06:49,30.0,30.375,off
10/17/2017 12:07:00,30.062,30.25,off
