TIME,INSIDE_TEMPERATURE,OUTSIDE_TEMPERATURE,LIGHTS_STATE

12/02/2016 12:57:25,21.937,18.125,off
12/02/2016 12:57:37,21.937,18.0,off
12/02/2016 12:57:48,21.937,17.75,off
12/02/2016 12:58:00,21.937,17.625,off
