TIME,INSIDE_TEMPERATURE,OUTSIDE_TEMPERATURE,LIGHTS_STATE

01/29/2018 12:34:26,19.625,15.75,off
01/29/2018 12:34:37,19.625,15.75,off
01/29/2018 12:34:49,19.625,15.75,off
01/29/2018 12:35:01,19.625,15.687,off
