TIME,INSIDE_TEMPERATURE,OUTSIDE_TEMPERATURE,LIGHTS_STATE

04/19/2017 12:35:25,23.25,20.562,off
04/19/2017 12:35:37,23.312,20.562,off
04/19/2017 12:35:48,23.312,20.625,off
04/19/2017 12:36:00,23.312,20.687,off
