TIME,INSIDE_TEMPERATURE,OUTSIDE_TEMPERATURE,LIGHTS_STATE

12/15/2016 12:20:25,20.812,17.875,off
12/15/2016 12:20:36,20.812,17.875,off
12/15/2016 12:20:48,20.812,17.937,off
12/15/2016 12:21:00,20.875,17.937,off
