TIME,INSIDE_TEMPERATURE,OUTSIDE_TEMPERATURE,LIGHTS_STATE

08/05/2017 12:01:25,33.187,30.937,off
08/05/2017 12:01:37,33.187,30.875,off
08/05/2017 12:01:49,33.187,30.937,off
08/05/2017 12:02:00,33.187,30.937,off
