TIME,INSIDE_TEMPERATURE,OUTSIDE_TEMPERATURE,LIGHTS_STATE

07/09/2017 12:12:25,33.312,30.875,off
07/09/2017 12:12:37,33.312,30.875,off
07/09/2017 12:12:49,33.375,30.875,off
07/09/2017 12:13:01,33.375,30.875,off
