TIME,INSIDE_TEMPERATURE,OUTSIDE_TEMPERATURE,LIGHTS_STATE

07/30/2017 12:48:25,31.25,28.187,off
07/30/2017 12:48:37,31.25,28.187,off
07/30/2017 12:48:49,31.25,28.187,off
07/30/2017 12:49:01,31.25,28.125,off
