TIME,INSIDE_TEMPERATURE,OUTSIDE_TEMPERATURE,LIGHTS_STATE

07/07/2017 12:04:25,36.125,31.687,off
07/07/2017 12:04:37,36.125,31.687,off
07/07/2017 12:04:48,36.125,31.75,off
07/07/2017 12:05:00,36.125,31.75,off
