TIME,INSIDE_TEMPERATURE,OUTSIDE_TEMPERATURE,LIGHTS_STATE

07/19/2017 12:52:25,31.062,28.25,off
07/19/2017 12:52:37,31.062,28.25,off
07/19/2017 12:52:49,31.062,28.312,off
07/19/2017 12:53:00,31.062,28.312,off
