TIME,INSIDE_TEMPERATURE,OUTSIDE_TEMPERATURE,LIGHTS_STATE

07/21/2016 12:35:26,25.5,25.562,off
07/21/2016 12:35:38,25.437,25.562,off
07/21/2016 12:35:49,25.5,25.562,off
07/21/2016 12:36:01,25.437,25.562,off
