TIME,INSIDE_TEMPERATURE,OUTSIDE_TEMPERATURE,LIGHTS_STATE

04/09/2017 12:12:25,19.25,16.812,off
04/09/2017 12:12:38,19.312,16.75,off
04/09/2017 12:12:49,19.312,16.75,off
04/09/2017 12:13:01,19.312,16.75,off
