TIME,INSIDE_TEMPERATURE,OUTSIDE_TEMPERATURE,LIGHTS_STATE

02/13/2017 12:00:25,25.812,21.937,off
02/13/2017 12:00:37,25.812,21.75,off
02/13/2017 12:00:49,25.812,21.687,off
02/13/2017 12:01:00,25.812,21.625,off
