TIME,INSIDE_TEMPERATURE,OUTSIDE_TEMPERATURE,LIGHTS_STATE

03/13/2017 12:38:25,27.5,24.812,off
03/13/2017 12:38:37,27.5,24.875,off
03/13/2017 12:38:48,27.437,24.875,off
03/13/2017 12:39:00,27.5,24.875,off
