TIME,INSIDE_TEMPERATURE,OUTSIDE_TEMPERATURE,LIGHTS_STATE

12/17/2016 12:05:25,18.437,14.25,off
12/17/2016 12:05:37,18.437,14.125,off
12/17/2016 12:05:48,18.437,14.062,off
12/17/2016 12:06:00,18.437,14.062,off
