TIME,INSIDE_TEMPERATURE,OUTSIDE_TEMPERATURE,LIGHTS_STATE

02/16/2017 12:41:26,25.0,21.437,off
02/16/2017 12:41:37,25.062,21.5,off
02/16/2017 12:41:49,25.062,21.562,off
02/16/2017 12:42:01,25.0,21.562,off
