TIME,INSIDE_TEMPERATURE,OUTSIDE_TEMPERATURE,LIGHTS_STATE

02/18/2018 12:23:26,24.625,19.812,off
02/18/2018 12:23:37,24.625,19.687,off
02/18/2018 12:23:49,24.625,19.437,off
02/18/2018 12:24:01,24.625,19.25,off
