TIME,INSIDE_TEMPERATURE,OUTSIDE_TEMPERATURE,LIGHTS_STATE

10/04/2017 12:31:26,28.937,27.875,off
10/04/2017 12:31:37,28.937,27.875,off
10/04/2017 12:31:49,28.937,27.875,off
10/04/2017 12:32:01,29.0,27.875,off
