TIME,INSIDE_TEMPERATURE,OUTSIDE_TEMPERATURE,LIGHTS_STATE

06/06/2017 12:24:25,22.75,22.625,off
06/06/2017 12:24:37,22.75,22.625,off
06/06/2017 12:24:49,22.75,22.625,off
06/06/2017 12:25:00,22.812,22.625,off
