TIME,INSIDE_TEMPERATURE,OUTSIDE_TEMPERATURE,LIGHTS_STATE

10/28/2017 12:04:26,34.25,50.75,off
10/28/2017 12:04:37,34.25,50.687,off
10/28/2017 12:04:49,34.25,50.687,off
10/28/2017 12:05:01,34.312,50.687,off
