TIME,INSIDE_TEMPERATURE,OUTSIDE_TEMPERATURE,LIGHTS_STATE

12/10/2016 12:52:25,19.0,14.812,off
12/10/2016 12:52:37,19.062,14.812,off
12/10/2016 12:52:49,19.0,14.812,off
12/10/2016 12:53:01,19.0,14.812,off
