TIME,INSIDE_TEMPERATURE,OUTSIDE_TEMPERATURE,LIGHTS_STATE

10/11/2017 12:39:25,27.125,25.125,off
10/11/2017 12:39:37,27.187,25.187,off
10/11/2017 12:39:49,27.187,25.25,off
10/11/2017 12:40:01,27.187,25.375,off
