TIME,INSIDE_TEMPERATURE,OUTSIDE_TEMPERATURE,LIGHTS_STATE

09/03/2016 12:42:25,24.687,24.625,off
09/03/2016 12:42:37,24.687,24.625,off
09/03/2016 12:42:49,24.687,24.625,off
09/03/2016 12:43:00,24.75,24.625,off
