TIME,INSIDE_TEMPERATURE,OUTSIDE_TEMPERATURE,LIGHTS_STATE

09/23/2017 12:22:26,26.687,24.312,off
09/23/2017 12:22:37,26.562,24.312,off
09/23/2017 12:22:49,26.312,24.312,off
09/23/2017 12:23:01,26.5,24.312,off
