TIME,INSIDE_TEMPERATURE,OUTSIDE_TEMPERATURE,LIGHTS_STATE

12/27/2016 12:24:24,20.312,17.125,off
12/27/2016 12:24:36,20.312,17.125,off
12/27/2016 12:24:48,20.375,17.187,off
12/27/2016 12:24:59,20.375,17.187,off
