TIME,INSIDE_TEMPERATURE,OUTSIDE_TEMPERATURE,LIGHTS_STATE

08/09/2017 12:20:25,27.125,24.25,off
08/09/2017 12:20:36,27.125,24.25,off
08/09/2017 12:20:48,27.125,24.312,off
08/09/2017 12:21:00,27.125,24.25,off
