TIME,INSIDE_TEMPERATURE,OUTSIDE_TEMPERATURE,LIGHTS_STATE

11/30/2016 12:40:25,19.562,16.312,off
11/30/2016 12:40:37,19.5,16.312,off
11/30/2016 12:40:48,19.562,16.375,off
11/30/2016 12:41:00,19.5,16.375,off
