TIME,INSIDE_TEMPERATURE,OUTSIDE_TEMPERATURE,LIGHTS_STATE

11/16/2016 12:37:25,24.375,21.625,off
11/16/2016 12:37:37,24.312,21.5,off
11/16/2016 12:37:48,24.312,21.437,off
11/16/2016 12:38:00,24.312,21.437,off
