TIME,INSIDE_TEMPERATURE,OUTSIDE_TEMPERATURE,LIGHTS_STATE

02/27/2017 12:31:25,23.875,23.812,off
02/27/2017 12:31:37,23.875,23.812,off
02/27/2017 12:31:49,23.875,23.812,off
02/27/2017 12:32:00,23.875,23.937,off
