TIME,INSIDE_TEMPERATURE,OUTSIDE_TEMPERATURE,LIGHTS_STATE

07/14/2017 12:26:26,32.687,30.187,off
07/14/2017 12:26:37,32.687,30.187,off
07/14/2017 12:26:49,32.687,30.187,off
07/14/2017 12:27:01,32.75,30.187,off
