TIME,INSIDE_TEMPERATURE,OUTSIDE_TEMPERATURE,LIGHTS_STATE

03/08/2017 12:35:26,24.875,26.562,off
03/08/2017 12:35:37,24.937,26.5,off
03/08/2017 12:35:50,24.937,26.625,off
03/08/2017 12:36:02,24.937,26.75,off
