TIME,INSIDE_TEMPERATURE,OUTSIDE_TEMPERATURE,LIGHTS_STATE

03/07/2018 12:40:25,24.937,35.125,off
03/07/2018 12:40:37,24.937,35.125,off
03/07/2018 12:40:49,25.0,35.062,off
03/07/2018 12:41:01,24.937,35.187,off
