TIME,INSIDE_TEMPERATURE,OUTSIDE_TEMPERATURE,LIGHTS_STATE

03/15/2018 12:08:25,18.437,13.187,off
03/15/2018 12:08:37,18.437,13.187,off
03/15/2018 12:08:48,18.437,13.187,off
03/15/2018 12:09:00,18.437,13.25,off
