TIME,INSIDE_TEMPERATURE,OUTSIDE_TEMPERATURE,LIGHTS_STATE

08/21/2017 12:10:25,28.0,25.625,off
08/21/2017 12:10:37,28.0,25.687,off
08/21/2017 12:10:49,28.0,25.687,off
08/21/2017 12:11:01,28.0,25.625,off
