TIME,INSIDE_TEMPERATURE,OUTSIDE_TEMPERATURE,LIGHTS_STATE

01/27/2018 12:34:26,24.25,22.25,off
01/27/2018 12:34:37,24.25,22.312,off
01/27/2018 12:34:49,24.25,22.375,off
01/27/2018 12:35:01,24.25,22.5,off
