TIME,INSIDE_TEMPERATURE,OUTSIDE_TEMPERATURE,LIGHTS_STATE

08/14/2017 12:33:25,26.187,22.375,off
08/14/2017 12:33:37,26.187,22.437,off
08/14/2017 12:33:49,26.187,22.562,off
08/14/2017 12:34:00,26.187,22.625,off
