TIME,INSIDE_TEMPERATURE,OUTSIDE_TEMPERATURE,LIGHTS_STATE

12/20/2016 12:04:25,20.125,16.937,off
12/20/2016 12:04:36,20.125,16.937,off
12/20/2016 12:04:48,20.125,16.937,off
12/20/2016 12:05:00,20.187,17.062,off
