TIME,INSIDE_TEMPERATURE,OUTSIDE_TEMPERATURE,LIGHTS_STATE

11/29/2016 12:12:25,21.875,18.625,off
11/29/2016 12:12:36,21.875,18.75,off
11/29/2016 12:12:48,21.875,18.75,off
11/29/2016 12:13:00,21.875,18.75,off
