TIME,INSIDE_TEMPERATURE,OUTSIDE_TEMPERATURE,LIGHTS_STATE

02/07/2017 12:26:25,21.0,16.687,off
02/07/2017 12:26:37,21.0,16.687,off
02/07/2017 12:26:48,21.0,16.687,off
02/07/2017 12:27:00,21.0,16.625,off
