TIME,INSIDE_TEMPERATURE,OUTSIDE_TEMPERATURE,LIGHTS_STATE

04/04/2017 12:16:25,23.937,21.5,off
04/04/2017 12:16:37,23.937,21.5,off
04/04/2017 12:16:48,23.937,21.562,off
04/04/2017 12:17:00,23.937,21.625,off
