TIME,INSIDE_TEMPERATURE,OUTSIDE_TEMPERATURE,LIGHTS_STATE

10/02/2017 12:35:25,29.25,26.562,off
10/02/2017 12:35:37,29.375,26.437,off
10/02/2017 12:35:49,29.375,26.312,off
10/02/2017 12:36:01,29.437,26.312,off
