TIME,INSIDE_TEMPERATURE,OUTSIDE_TEMPERATURE,LIGHTS_STATE

03/20/2018 12:05:25,17.0,11.625,off
03/20/2018 12:05:37,17.062,11.625,off
03/20/2018 12:05:48,17.0,11.687,off
03/20/2018 12:06:00,17.0,11.625,off
