TIME,INSIDE_TEMPERATURE,OUTSIDE_TEMPERATURE,LIGHTS_STATE

02/06/2017 12:57:26,18.187,14.312,off
02/06/2017 12:57:37,18.187,14.312,off
02/06/2017 12:57:49,18.187,14.312,off
02/06/2017 12:58:01,18.187,14.312,off
