TIME,INSIDE_TEMPERATURE,OUTSIDE_TEMPERATURE,LIGHTS_STATE

07/16/2016 12:43:26,28.312,28.0,off
07/16/2016 12:43:38,28.375,28.0,off
07/16/2016 12:43:49,28.312,28.0,off
07/16/2016 12:44:01,28.312,28.0,off
