TIME,INSIDE_TEMPERATURE,OUTSIDE_TEMPERATURE,LIGHTS_STATE

02/10/2018 12:10:26,25.937,24.5,off
02/10/2018 12:10:37,25.937,24.562,off
02/10/2018 12:10:49,26.0,24.625,off
02/10/2018 12:11:01,26.0,24.687,off
