TIME,INSIDE_TEMPERATURE,OUTSIDE_TEMPERATURE,LIGHTS_STATE

05/14/2017 12:17:26,21.187,18.125,off
05/14/2017 12:17:37,21.187,18.125,off
05/14/2017 12:17:49,21.25,18.125,off
05/14/2017 12:18:01,21.25,18.187,off
