TIME,INSIDE_TEMPERATURE,OUTSIDE_TEMPERATURE,LIGHTS_STATE

12/27/2016 12:10:24,20.187,16.812,off
12/27/2016 12:10:36,20.187,16.75,off
12/27/2016 12:10:48,20.187,16.625,off
12/27/2016 12:10:59,20.25,16.5,off
