TIME,INSIDE_TEMPERATURE,OUTSIDE_TEMPERATURE,LIGHTS_STATE

04/26/2017 12:40:25,22.812,19.562,off
04/26/2017 12:40:36,22.875,19.5,off
04/26/2017 12:40:48,22.875,19.5,off
04/26/2017 12:41:00,22.875,19.437,off
