TIME,INSIDE_TEMPERATURE,OUTSIDE_TEMPERATURE,LIGHTS_STATE

12/31/2016 12:41:24,13.187,9.437,off
12/31/2016 12:41:36,13.187,9.437,off
12/31/2016 12:41:48,13.187,9.437,off
12/31/2016 12:41:59,13.187,9.437,off
