TIME,INSIDE_TEMPERATURE,OUTSIDE_TEMPERATURE,LIGHTS_STATE

10/14/2017 12:06:25,30.25,24.437,off
10/14/2017 12:06:37,30.25,24.312,off
10/14/2017 12:06:49,30.25,24.187,off
10/14/2017 12:07:01,30.25,24.125,off
