TIME,INSIDE_TEMPERATURE,OUTSIDE_TEMPERATURE,LIGHTS_STATE

10/14/2017 12:55:25,29.562,29.562,off
10/14/2017 12:55:37,29.562,29.5,off
10/14/2017 12:55:48,29.562,29.5,off
10/14/2017 12:56:00,29.562,29.562,off
