TIME,INSIDE_TEMPERATURE,OUTSIDE_TEMPERATURE,LIGHTS_STATE

05/09/2017 12:39:25,27.687,26.062,off
05/09/2017 12:39:37,27.687,26.062,off
05/09/2017 12:39:49,27.687,26.062,off
05/09/2017 12:40:00,27.687,26.062,off
