TIME,INSIDE_TEMPERATURE,OUTSIDE_TEMPERATURE,LIGHTS_STATE

06/19/2017 12:34:25,39.25,35.062,off
06/19/2017 12:34:37,39.25,35.125,off
06/19/2017 12:34:48,39.25,35.187,off
06/19/2017 12:35:00,39.25,35.187,off
