TIME,INSIDE_TEMPERATURE,OUTSIDE_TEMPERATURE,LIGHTS_STATE

09/23/2017 12:25:25,26.937,24.375,off
09/23/2017 12:25:38,26.812,24.375,off
09/23/2017 12:25:50,26.875,24.312,off
09/23/2017 12:26:02,26.937,24.312,off
