TIME,INSIDE_TEMPERATURE,OUTSIDE_TEMPERATURE,LIGHTS_STATE

03/12/2017 12:58:25,27.937,24.875,off
03/12/2017 12:58:37,27.937,24.937,off
03/12/2017 12:58:48,28.0,25.0,off
03/12/2017 12:59:00,28.0,25.0,off
