TIME,INSIDE_TEMPERATURE,OUTSIDE_TEMPERATURE,LIGHTS_STATE

06/07/2017 12:55:25,22.812,22.312,off
06/07/2017 12:55:37,22.812,22.312,off
06/07/2017 12:55:49,22.812,22.312,off
06/07/2017 12:56:00,22.812,22.312,off
