TIME,INSIDE_TEMPERATURE,OUTSIDE_TEMPERATURE,LIGHTS_STATE

10/07/2017 12:36:26,33.375,28.937,off
10/07/2017 12:36:37,33.375,28.937,off
10/07/2017 12:36:49,33.375,29.0,off
10/07/2017 12:37:01,33.375,29.062,off
