TIME,INSIDE_TEMPERATURE,OUTSIDE_TEMPERATURE,LIGHTS_STATE

09/14/2017 12:19:25,27.125,23.187,off
09/14/2017 12:19:37,27.062,23.25,off
09/14/2017 12:19:49,27.125,23.312,off
09/14/2017 12:20:00,27.062,23.375,off
