TIME,INSIDE_TEMPERATURE,OUTSIDE_TEMPERATURE,LIGHTS_STATE

02/07/2018 12:45:25,28.75,42.0,off
02/07/2018 12:45:37,28.75,42.125,off
02/07/2018 12:45:48,28.75,42.25,off
02/07/2018 12:46:00,28.75,42.375,off
