TIME,INSIDE_TEMPERATURE,OUTSIDE_TEMPERATURE,LIGHTS_STATE

10/16/2017 12:34:26,34.562,36.25,off
10/16/2017 12:34:37,34.562,36.125,off
10/16/2017 12:34:49,34.562,36.187,off
10/16/2017 12:35:01,34.562,36.25,off
