TIME,INSIDE_TEMPERATURE,OUTSIDE_TEMPERATURE,LIGHTS_STATE

05/24/2017 12:33:25,27.625,25.375,off
05/24/2017 12:33:37,27.687,25.375,off
05/24/2017 12:33:48,27.75,25.375,off
05/24/2017 12:34:01,27.75,25.375,off
