TIME,INSIDE_TEMPERATURE,OUTSIDE_TEMPERATURE,LIGHTS_STATE

03/27/2018 12:10:25,21.875,16.812,off
03/27/2018 12:10:37,21.875,16.812,off
03/27/2018 12:10:49,21.875,16.812,off
03/27/2018 12:11:01,21.875,16.812,off
