TIME,INSIDE_TEMPERATURE,OUTSIDE_TEMPERATURE,LIGHTS_STATE

10/14/2017 12:31:25,29.625,30.625,off
10/14/2017 12:31:37,29.625,30.812,off
10/14/2017 12:31:48,29.625,30.75,off
10/14/2017 12:32:00,29.625,30.875,off
