TIME,INSIDE_TEMPERATURE,OUTSIDE_TEMPERATURE,LIGHTS_STATE

12/20/2016 12:11:24,20.062,17.062,off
12/20/2016 12:11:36,20.062,16.937,off
12/20/2016 12:11:48,20.125,16.875,off
12/20/2016 12:11:59,20.062,16.937,off
