TIME,INSIDE_TEMPERATURE,OUTSIDE_TEMPERATURE,LIGHTS_STATE

12/30/2016 12:06:25,16.125,13.187,off
12/30/2016 12:06:37,16.187,13.25,off
12/30/2016 12:06:49,16.125,13.25,off
12/30/2016 12:07:00,16.125,13.187,off
