TIME,INSIDE_TEMPERATURE,OUTSIDE_TEMPERATURE,LIGHTS_STATE

06/25/2017 12:58:25,28.312,24.625,off
06/25/2017 12:58:37,28.312,24.625,off
06/25/2017 12:58:49,28.312,24.625,off
06/25/2017 12:59:00,28.312,24.625,off
