TIME,INSIDE_TEMPERATURE,OUTSIDE_TEMPERATURE,LIGHTS_STATE

12/27/2017 12:29:25,23.312,25.875,off
12/27/2017 12:29:37,23.375,25.812,off
12/27/2017 12:29:48,23.375,25.75,off
12/27/2017 12:30:00,23.375,25.75,off
