TIME,INSIDE_TEMPERATURE,OUTSIDE_TEMPERATURE,LIGHTS_STATE

03/29/2017 12:53:25,26.187,23.0,off
03/29/2017 12:53:37,26.187,23.0,off
03/29/2017 12:53:50,26.187,23.0,off
03/29/2017 12:54:01,26.25,23.0,off
