TIME,INSIDE_TEMPERATURE,OUTSIDE_TEMPERATURE,LIGHTS_STATE

02/18/2017 12:15:26,17.062,12.562,off
02/18/2017 12:15:37,17.062,12.562,off
02/18/2017 12:15:49,17.0,12.562,off
02/18/2017 12:16:01,17.0,12.562,off
