TIME,INSIDE_TEMPERATURE,OUTSIDE_TEMPERATURE,LIGHTS_STATE

07/16/2016 12:47:26,28.375,28.0,off
07/16/2016 12:47:38,28.375,28.0,off
07/16/2016 12:47:50,28.437,28.0,off
07/16/2016 12:48:01,28.437,28.0,off
