TIME,INSIDE_TEMPERATURE,OUTSIDE_TEMPERATURE,LIGHTS_STATE

08/07/2016 12:57:25,26.125,25.687,off
08/07/2016 12:57:37,26.125,25.687,off
08/07/2016 12:57:49,26.125,25.75,off
08/07/2016 12:58:00,26.125,25.812,off
