TIME,INSIDE_TEMPERATURE,OUTSIDE_TEMPERATURE,LIGHTS_STATE

11/11/2016 12:46:25,27.875,24.75,off
11/11/2016 12:46:36,27.875,24.75,off
11/11/2016 12:46:48,27.875,24.812,off
11/11/2016 12:47:00,27.875,24.875,off
