TIME,INSIDE_TEMPERATURE,OUTSIDE_TEMPERATURE,LIGHTS_STATE

08/12/2017 12:34:25,28.812,26.125,off
08/12/2017 12:34:37,28.812,26.125,off
08/12/2017 12:34:49,28.812,26.187,off
08/12/2017 12:35:01,28.812,26.25,off
