TIME,INSIDE_TEMPERATURE,OUTSIDE_TEMPERATURE,LIGHTS_STATE

03/27/2018 12:55:25,23.25,17.562,off
03/27/2018 12:55:37,23.25,17.562,off
03/27/2018 12:55:49,23.312,17.5,off
03/27/2018 12:56:00,23.25,17.562,off
