TIME,INSIDE_TEMPERATURE,OUTSIDE_TEMPERATURE,LIGHTS_STATE

03/26/2017 12:35:25,23.437,19.312,off
03/26/2017 12:35:37,23.5,19.437,off
03/26/2017 12:35:49,23.5,19.5,off
03/26/2017 12:36:00,23.5,19.375,off
