TIME,INSIDE_TEMPERATURE,OUTSIDE_TEMPERATURE,LIGHTS_STATE

02/27/2018 12:52:25,21.062,21.937,off
02/27/2018 12:52:37,21.0,21.875,off
02/27/2018 12:52:49,21.062,21.812,off
02/27/2018 12:53:00,21.062,21.75,off
