TIME,INSIDE_TEMPERATURE,OUTSIDE_TEMPERATURE,LIGHTS_STATE

06/12/2017 12:50:25,23.375,19.25,off
06/12/2017 12:50:37,23.437,19.187,off
06/12/2017 12:50:49,23.375,19.25,off
06/12/2017 12:51:00,23.437,19.25,off
