TIME,INSIDE_TEMPERATURE,OUTSIDE_TEMPERATURE,LIGHTS_STATE

11/03/2016 12:09:25,30.687,25.062,off
11/03/2016 12:09:37,30.75,25.062,off
11/03/2016 12:09:49,30.687,25.062,off
11/03/2016 12:10:00,30.687,25.0,off
