TIME,INSIDE_TEMPERATURE,OUTSIDE_TEMPERATURE,LIGHTS_STATE

07/18/2016 12:20:25,22.687,23.187,off
07/18/2016 12:20:36,22.687,23.187,off
07/18/2016 12:20:48,22.687,23.187,off
07/18/2016 12:21:00,22.687,23.187,off
