TIME,INSIDE_TEMPERATURE,OUTSIDE_TEMPERATURE,LIGHTS_STATE

07/11/2017 12:43:25,33.062,29.937,off
07/11/2017 12:43:37,33.125,29.937,off
07/11/2017 12:43:49,33.125,29.875,off
07/11/2017 12:44:01,33.125,29.812,off
