TIME,INSIDE_TEMPERATURE,OUTSIDE_TEMPERATURE,LIGHTS_STATE

12/07/2016 12:43:25,13.562,10.187,off
12/07/2016 12:43:36,13.5,10.187,off
12/07/2016 12:43:48,13.5,10.187,off
12/07/2016 12:44:00,13.5,10.187,off
