TIME,INSIDE_TEMPERATURE,OUTSIDE_TEMPERATURE,LIGHTS_STATE

10/19/2017 12:36:25,25.5,20.687,off
10/19/2017 12:36:37,25.5,20.812,off
10/19/2017 12:36:49,25.562,20.875,off
10/19/2017 12:37:01,25.562,21.062,off
