TIME,INSIDE_TEMPERATURE,OUTSIDE_TEMPERATURE,LIGHTS_STATE

12/30/2016 12:25:25,17.125,16.5,off
12/30/2016 12:25:37,17.125,16.5,off
12/30/2016 12:25:49,17.125,16.562,off
12/30/2016 12:26:00,17.125,16.562,off
