TIME,INSIDE_TEMPERATURE,OUTSIDE_TEMPERATURE,LIGHTS_STATE

12/15/2016 12:21:25,20.875,17.937,off
12/15/2016 12:21:37,20.875,17.937,off
12/15/2016 12:21:48,20.875,17.937,off
12/15/2016 12:22:00,20.875,17.937,off
