TIME,INSIDE_TEMPERATURE,OUTSIDE_TEMPERATURE,LIGHTS_STATE

08/20/2017 12:21:25,29.812,27.375,off
08/20/2017 12:21:37,29.75,27.375,off
08/20/2017 12:21:48,29.812,27.437,off
08/20/2017 12:22:00,29.812,27.437,off
