TIME,INSIDE_TEMPERATURE,OUTSIDE_TEMPERATURE,LIGHTS_STATE

02/19/2018 12:10:25,20.125,30.0,off
02/19/2018 12:10:37,20.187,30.25,off
02/19/2018 12:10:48,20.187,30.375,off
02/19/2018 12:11:00,20.25,30.625,off
