TIME,INSIDE_TEMPERATURE,OUTSIDE_TEMPERATURE,LIGHTS_STATE

10/28/2016 12:06:25,23.062,19.25,off
10/28/2016 12:06:36,23.062,19.25,off
10/28/2016 12:06:48,23.062,19.25,off
10/28/2016 12:07:00,23.062,19.187,off
