TIME,INSIDE_TEMPERATURE,OUTSIDE_TEMPERATURE,LIGHTS_STATE

08/02/2016 12:40:26,28.5,28.5,off
08/02/2016 12:40:38,28.562,28.5,off
08/02/2016 12:40:50,28.562,28.5,off
08/02/2016 12:41:01,28.625,28.562,off
