TIME,INSIDE_TEMPERATURE,OUTSIDE_TEMPERATURE,LIGHTS_STATE

05/17/2017 12:44:25,22.75,20.312,off
05/17/2017 12:44:37,22.75,20.312,off
05/17/2017 12:44:49,22.75,20.312,off
05/17/2017 12:45:00,22.75,20.312,off
