TIME,INSIDE_TEMPERATURE,OUTSIDE_TEMPERATURE,LIGHTS_STATE

05/05/2017 12:05:25,22.25,19.562,off
05/05/2017 12:05:37,22.312,19.562,off
05/05/2017 12:05:49,22.312,19.562,off
05/05/2017 12:06:00,22.312,19.625,off
