TIME,INSIDE_TEMPERATURE,OUTSIDE_TEMPERATURE,LIGHTS_STATE

12/29/2016 12:20:25,20.437,16.25,off
12/29/2016 12:20:37,20.437,16.25,off
12/29/2016 12:20:49,20.437,16.187,off
12/29/2016 12:21:00,20.375,16.062,off
