TIME,INSIDE_TEMPERATURE,OUTSIDE_TEMPERATURE,LIGHTS_STATE

01/07/2017 12:19:25,20.375,16.625,off
01/07/2017 12:19:37,20.375,16.625,off
01/07/2017 12:19:48,20.375,16.625,off
01/07/2017 12:20:00,20.375,16.625,off
