TIME,INSIDE_TEMPERATURE,OUTSIDE_TEMPERATURE,LIGHTS_STATE

06/28/2016 12:13:26,32.125,31.75,off
06/28/2016 12:13:37,32.125,31.687,off
06/28/2016 12:13:49,32.062,31.687,off
06/28/2016 12:14:01,32.0,31.625,off
