TIME,INSIDE_TEMPERATURE,OUTSIDE_TEMPERATURE,LIGHTS_STATE

09/20/2017 12:15:25,23.687,19.937,off
09/20/2017 12:15:37,23.625,19.937,off
09/20/2017 12:15:48,23.687,19.937,off
09/20/2017 12:16:00,23.687,19.937,off
