TIME,INSIDE_TEMPERATURE,OUTSIDE_TEMPERATURE,LIGHTS_STATE

07/03/2016 12:56:25,30.0,29.812,off
07/03/2016 12:56:37,30.0,29.812,off
07/03/2016 12:56:49,30.062,29.812,off
07/03/2016 12:57:00,30.062,29.875,off
