TIME,INSIDE_TEMPERATURE,OUTSIDE_TEMPERATURE,LIGHTS_STATE

03/09/2017 12:29:25,28.375,28.875,off
03/09/2017 12:29:37,28.375,28.75,off
03/09/2017 12:29:49,28.375,28.812,off
03/09/2017 12:30:00,28.375,28.937,off
