TIME,INSIDE_TEMPERATURE,OUTSIDE_TEMPERATURE,LIGHTS_STATE

10/16/2017 12:31:25,34.5,36.687,off
10/16/2017 12:31:37,34.5,36.687,off
10/16/2017 12:31:49,34.5,36.875,off
10/16/2017 12:32:01,34.5,37.0,off
