TIME,INSIDE_TEMPERATURE,OUTSIDE_TEMPERATURE,LIGHTS_STATE

02/23/2018 12:16:26,18.625,18.687,off
02/23/2018 12:16:37,18.625,18.687,off
02/23/2018 12:16:49,18.625,18.562,off
02/23/2018 12:17:01,18.625,18.562,off
