TIME,INSIDE_TEMPERATURE,OUTSIDE_TEMPERATURE,LIGHTS_STATE

11/02/2017 12:49:25,26.812,22.437,off
11/02/2017 12:49:37,26.75,22.5,off
11/02/2017 12:49:49,26.812,22.562,off
11/02/2017 12:50:00,26.75,22.687,off
