TIME,INSIDE_TEMPERATURE,OUTSIDE_TEMPERATURE,LIGHTS_STATE

09/08/2017 12:07:25,27.875,25.562,off
09/08/2017 12:07:37,27.875,25.562,off
09/08/2017 12:07:49,27.875,25.625,off
09/08/2017 12:08:01,27.875,25.625,off
