TIME,INSIDE_TEMPERATURE,OUTSIDE_TEMPERATURE,LIGHTS_STATE

02/24/2017 12:19:26,22.437,23.375,off
02/24/2017 12:19:37,22.437,23.625,off
02/24/2017 12:19:49,22.437,23.812,off
02/24/2017 12:20:01,22.437,23.937,off
