TIME,INSIDE_TEMPERATURE,OUTSIDE_TEMPERATURE,LIGHTS_STATE

07/12/2016 12:01:25,24.437,23.875,off
07/12/2016 12:01:37,24.437,23.875,off
07/12/2016 12:01:49,24.437,23.875,off
07/12/2016 12:02:00,24.437,23.937,off
