TIME,INSIDE_TEMPERATURE,OUTSIDE_TEMPERATURE,LIGHTS_STATE

05/12/2017 12:25:25,20.812,18.062,off
05/12/2017 12:25:36,20.75,18.062,off
05/12/2017 12:25:48,20.812,18.062,off
05/12/2017 12:26:00,20.812,18.062,off
