TIME,INSIDE_TEMPERATURE,OUTSIDE_TEMPERATURE,LIGHTS_STATE

12/24/2017 12:56:26,16.562,11.562,off
12/24/2017 12:56:37,16.562,11.562,off
12/24/2017 12:56:49,16.562,11.562,off
12/24/2017 12:57:01,16.562,11.5,off
