TIME,INSIDE_TEMPERATURE,OUTSIDE_TEMPERATURE,LIGHTS_STATE

05/18/2017 12:56:25,25.687,24.562,off
05/18/2017 12:56:37,25.687,24.562,off
05/18/2017 12:56:49,25.75,24.562,off
05/18/2017 12:57:00,25.75,24.562,off
