TIME,INSIDE_TEMPERATURE,OUTSIDE_TEMPERATURE,LIGHTS_STATE

12/15/2016 12:12:25,20.437,17.562,off
12/15/2016 12:12:36,20.437,17.562,off
12/15/2016 12:12:48,20.5,17.625,off
12/15/2016 12:13:00,20.437,17.625,off
