TIME,INSIDE_TEMPERATURE,OUTSIDE_TEMPERATURE,LIGHTS_STATE

03/18/2018 12:30:25,17.687,14.625,off
03/18/2018 12:30:37,17.687,14.625,off
03/18/2018 12:30:49,17.687,14.5,off
03/18/2018 12:31:01,17.687,14.375,off
