TIME,INSIDE_TEMPERATURE,OUTSIDE_TEMPERATURE,LIGHTS_STATE

08/06/2017 12:06:25,30.625,28.062,off
08/06/2017 12:06:37,30.687,28.062,off
08/06/2017 12:06:49,30.687,28.062,off
08/06/2017 12:07:00,30.687,28.125,off
