TIME,INSIDE_TEMPERATURE,OUTSIDE_TEMPERATURE,LIGHTS_STATE

12/29/2016 12:28:25,20.312,16.5,off
12/29/2016 12:28:37,20.312,16.562,off
12/29/2016 12:28:48,20.312,16.625,off
12/29/2016 12:29:00,20.312,16.687,off
