TIME,INSIDE_TEMPERATURE,OUTSIDE_TEMPERATURE,LIGHTS_STATE

09/14/2016 12:01:25,25.937,24.562,off
09/14/2016 12:01:37,25.875,24.562,off
09/14/2016 12:01:49,25.875,24.562,off
09/14/2016 12:02:00,25.875,24.625,off
