TIME,INSIDE_TEMPERATURE,OUTSIDE_TEMPERATURE,LIGHTS_STATE

09/17/2016 12:45:25,30.812,32.187,off
09/17/2016 12:45:37,30.812,32.25,off
09/17/2016 12:45:48,30.812,32.25,off
09/17/2016 12:46:00,30.875,32.312,off
