TIME,INSIDE_TEMPERATURE,OUTSIDE_TEMPERATURE,LIGHTS_STATE

11/17/2016 12:05:25,24.25,24.937,off
11/17/2016 12:05:36,24.25,25.062,off
11/17/2016 12:05:48,24.25,25.125,off
11/17/2016 12:06:00,24.25,25.062,off
