TIME,INSIDE_TEMPERATURE,OUTSIDE_TEMPERATURE,LIGHTS_STATE

08/28/2017 12:54:26,38.875,37.187,off
08/28/2017 12:54:37,38.937,37.25,off
08/28/2017 12:54:49,38.937,37.187,off
08/28/2017 12:55:01,38.937,37.25,off
