TIME,INSIDE_TEMPERATURE,OUTSIDE_TEMPERATURE,LIGHTS_STATE

05/14/2017 12:33:25,21.437,18.562,off
05/14/2017 12:33:37,21.5,18.5,off
05/14/2017 12:33:49,21.437,18.562,off
05/14/2017 12:34:00,21.5,18.562,off
