TIME,INSIDE_TEMPERATURE,OUTSIDE_TEMPERATURE,LIGHTS_STATE

09/20/2016 12:08:26,30.25,31.562,off
09/20/2016 12:08:38,30.25,31.687,off
09/20/2016 12:08:49,30.25,31.875,off
09/20/2016 12:09:01,30.25,31.937,off
