TIME,INSIDE_TEMPERATURE,OUTSIDE_TEMPERATURE,LIGHTS_STATE

06/23/2016 12:22:25,27.125,27.937,off
06/23/2016 12:22:36,27.062,27.937,off
06/23/2016 12:22:48,27.125,27.937,off
06/23/2016 12:23:00,27.125,28.0,off
