TIME,INSIDE_TEMPERATURE,OUTSIDE_TEMPERATURE,LIGHTS_STATE

05/20/2017 12:54:25,30.937,29.937,off
05/20/2017 12:54:37,30.937,29.937,off
05/20/2017 12:54:49,30.937,29.937,off
05/20/2017 12:55:00,30.937,29.937,off
