TIME,INSIDE_TEMPERATURE,OUTSIDE_TEMPERATURE,LIGHTS_STATE

10/12/2017 12:47:25,27.937,27.312,off
10/12/2017 12:47:37,27.937,27.312,off
10/12/2017 12:47:49,27.937,27.062,off
10/12/2017 12:48:00,27.937,26.812,off
