TIME,INSIDE_TEMPERATURE,OUTSIDE_TEMPERATURE,LIGHTS_STATE

12/02/2016 12:18:25,22.562,18.562,off
12/02/2016 12:18:36,22.562,18.687,off
12/02/2016 12:18:48,22.562,18.625,off
12/02/2016 12:19:00,22.562,18.625,off
