TIME,INSIDE_TEMPERATURE,OUTSIDE_TEMPERATURE,LIGHTS_STATE

03/01/2018 12:08:26,18.687,12.562,off
03/01/2018 12:08:37,18.687,12.562,off
03/01/2018 12:08:49,18.687,12.562,off
03/01/2018 12:09:01,18.687,12.562,off
