TIME,INSIDE_TEMPERATURE,OUTSIDE_TEMPERATURE,LIGHTS_STATE

04/02/2017 12:15:25,24.75,22.25,off
04/02/2017 12:15:36,24.75,22.25,off
04/02/2017 12:15:48,24.812,22.187,off
04/02/2017 12:16:00,24.75,22.25,off
