TIME,INSIDE_TEMPERATURE,OUTSIDE_TEMPERATURE,LIGHTS_STATE

09/21/2017 12:12:25,26.0,22.937,off
09/21/2017 12:12:37,26.0,22.875,off
09/21/2017 12:12:49,26.0,22.812,off
09/21/2017 12:13:00,26.0,22.812,off
