TIME,INSIDE_TEMPERATURE,OUTSIDE_TEMPERATURE,LIGHTS_STATE

10/10/2017 12:08:25,31.0,30.25,off
10/10/2017 12:08:37,31.062,30.312,off
10/10/2017 12:08:49,31.062,30.312,off
10/10/2017 12:09:00,31.062,30.375,off
