TIME,INSIDE_TEMPERATURE,OUTSIDE_TEMPERATURE,LIGHTS_STATE

06/15/2017 12:33:25,29.25,25.75,off
06/15/2017 12:33:37,29.25,25.75,off
06/15/2017 12:33:48,29.25,25.75,off
06/15/2017 12:34:00,29.25,25.75,off
