TIME,INSIDE_TEMPERATURE,OUTSIDE_TEMPERATURE,LIGHTS_STATE

12/10/2016 12:24:25,19.437,15.062,off
12/10/2016 12:24:37,19.375,15.062,off
12/10/2016 12:24:49,19.375,15.062,off
12/10/2016 12:25:00,19.312,15.062,off
