TIME,INSIDE_TEMPERATURE,OUTSIDE_TEMPERATURE,LIGHTS_STATE

03/28/2017 12:50:25,23.437,20.687,off
03/28/2017 12:50:37,23.437,20.687,off
03/28/2017 12:50:49,23.437,20.687,off
03/28/2017 12:51:00,23.437,20.625,off
