TIME,INSIDE_TEMPERATURE,OUTSIDE_TEMPERATURE,LIGHTS_STATE

05/09/2017 12:09:25,26.625,25.312,off
05/09/2017 12:09:37,26.687,25.312,off
05/09/2017 12:09:49,26.687,25.312,off
05/09/2017 12:10:00,26.75,25.375,off
