TIME,INSIDE_TEMPERATURE,OUTSIDE_TEMPERATURE,LIGHTS_STATE

07/26/2016 12:33:25,34.625,33.375,off
07/26/2016 12:33:37,34.625,33.312,off
07/26/2016 12:33:48,34.562,33.312,off
07/26/2016 12:34:00,34.562,33.375,off
