TIME,INSIDE_TEMPERATURE,OUTSIDE_TEMPERATURE,LIGHTS_STATE

02/09/2018 12:37:26,31.25,31.312,off
02/09/2018 12:37:37,31.25,31.125,off
02/09/2018 12:37:49,31.25,31.125,off
02/09/2018 12:38:01,31.312,31.187,off
