TIME,INSIDE_TEMPERATURE,OUTSIDE_TEMPERATURE,LIGHTS_STATE

03/22/2018 12:57:26,19.875,13.75,off
03/22/2018 12:57:37,19.937,13.937,off
03/22/2018 12:57:49,19.875,14.062,off
03/22/2018 12:58:01,19.875,14.125,off
