TIME,INSIDE_TEMPERATURE,OUTSIDE_TEMPERATURE,LIGHTS_STATE

08/15/2017 12:46:25,26.875,23.437,off
08/15/2017 12:46:37,26.875,23.5,off
08/15/2017 12:46:49,26.937,23.5,off
08/15/2017 12:47:01,26.937,23.437,off
