TIME,INSIDE_TEMPERATURE,OUTSIDE_TEMPERATURE,LIGHTS_STATE

10/14/2017 12:42:26,29.562,28.375,off
10/14/2017 12:42:37,29.562,28.25,off
10/14/2017 12:42:49,29.562,28.125,off
10/14/2017 12:43:01,29.562,28.062,off
