TIME,INSIDE_TEMPERATURE,OUTSIDE_TEMPERATURE,LIGHTS_STATE

02/01/2018 12:50:26,28.125,27.125,off
02/01/2018 12:50:37,28.125,27.125,off
02/01/2018 12:50:49,28.125,27.187,off
02/01/2018 12:51:01,28.187,27.25,off
