TIME,INSIDE_TEMPERATURE,OUTSIDE_TEMPERATURE,LIGHTS_STATE

05/15/2017 12:11:26,21.875,19.0,off
05/15/2017 12:11:38,21.875,19.0,off
05/15/2017 12:11:49,21.875,19.0,off
05/15/2017 12:12:01,21.875,19.0,off
