TIME,INSIDE_TEMPERATURE,OUTSIDE_TEMPERATURE,LIGHTS_STATE

02/10/2017 12:21:25,19.812,15.562,off
02/10/2017 12:21:37,19.812,15.562,off
02/10/2017 12:21:49,19.812,15.562,off
02/10/2017 12:22:00,19.812,15.562,off
