TIME,INSIDE_TEMPERATURE,OUTSIDE_TEMPERATURE,LIGHTS_STATE

04/25/2017 12:22:25,23.25,19.562,off
04/25/2017 12:22:37,23.25,19.625,off
04/25/2017 12:22:48,23.25,19.625,off
04/25/2017 12:23:00,23.25,19.562,off
