TIME,INSIDE_TEMPERATURE,OUTSIDE_TEMPERATURE,LIGHTS_STATE

01/02/2018 12:56:25,20.437,17.125,off
01/02/2018 12:56:37,20.437,17.125,off
01/02/2018 12:56:49,20.437,17.125,off
01/02/2018 12:57:01,20.437,17.125,off
