TIME,INSIDE_TEMPERATURE,OUTSIDE_TEMPERATURE,LIGHTS_STATE

04/26/2017 12:19:25,21.812,18.062,off
04/26/2017 12:19:37,21.812,18.125,off
04/26/2017 12:19:49,21.812,18.125,off
04/26/2017 12:20:00,21.812,18.125,off
