TIME,INSIDE_TEMPERATURE,OUTSIDE_TEMPERATURE,LIGHTS_STATE

02/04/2018 12:43:25,27.25,41.5,off
02/04/2018 12:43:37,27.25,41.562,off
02/04/2018 12:43:49,27.25,41.625,off
02/04/2018 12:44:00,27.25,41.687,off
