TIME,INSIDE_TEMPERATURE,OUTSIDE_TEMPERATURE,LIGHTS_STATE

03/30/2018 12:46:25,29.0,27.812,off
03/30/2018 12:46:37,29.0,27.812,off
03/30/2018 12:46:49,29.0,27.812,off
03/30/2018 12:47:01,29.0,27.937,off
