TIME,INSIDE_TEMPERATURE,OUTSIDE_TEMPERATURE,LIGHTS_STATE

09/29/2017 12:05:25,28.812,27.062,off
09/29/2017 12:05:37,28.812,26.937,off
09/29/2017 12:05:48,28.812,26.875,off
09/29/2017 12:06:00,28.875,26.812,off
