TIME,INSIDE_TEMPERATURE,OUTSIDE_TEMPERATURE,LIGHTS_STATE

03/09/2017 12:18:26,28.187,25.812,off
03/09/2017 12:18:37,28.187,26.0,off
03/09/2017 12:18:50,28.187,26.125,off
03/09/2017 12:19:02,28.187,26.312,off
