TIME,INSIDE_TEMPERATURE,OUTSIDE_TEMPERATURE,LIGHTS_STATE

06/29/2017 12:05:25,27.437,24.125,off
06/29/2017 12:05:37,27.437,24.125,off
06/29/2017 12:05:49,27.437,24.187,off
06/29/2017 12:06:00,27.437,24.187,off
