TIME,INSIDE_TEMPERATURE,OUTSIDE_TEMPERATURE,LIGHTS_STATE

01/03/2017 12:45:24,15.125,11.875,off
01/03/2017 12:45:36,15.125,11.875,off
01/03/2017 12:45:48,15.125,11.875,off
01/03/2017 12:45:59,15.125,11.875,off
