TIME,INSIDE_TEMPERATURE,OUTSIDE_TEMPERATURE,LIGHTS_STATE

08/11/2017 12:51:25,29.5,27.375,off
08/11/2017 12:51:37,29.562,27.375,off
08/11/2017 12:51:49,29.5,27.437,off
08/11/2017 12:52:01,29.562,27.437,off
