TIME,INSIDE_TEMPERATURE,OUTSIDE_TEMPERATURE,LIGHTS_STATE

11/02/2016 12:56:25,27.812,30.75,off
11/02/2016 12:56:36,27.812,30.875,off
11/02/2016 12:56:48,27.812,30.937,off
11/02/2016 12:57:00,27.812,30.937,off
