TIME,INSIDE_TEMPERATURE,OUTSIDE_TEMPERATURE,LIGHTS_STATE

12/29/2017 12:14:25,22.687,24.562,off
12/29/2017 12:14:37,22.625,24.562,off
12/29/2017 12:14:49,22.687,24.5,off
12/29/2017 12:15:01,22.687,24.625,off
