TIME,INSIDE_TEMPERATURE,OUTSIDE_TEMPERATURE,LIGHTS_STATE

03/25/2018 12:22:25,16.625,12.812,off
03/25/2018 12:22:36,16.687,12.937,off
03/25/2018 12:22:48,16.687,13.187,off
03/25/2018 12:23:00,16.5,13.437,off
