TIME,INSIDE_TEMPERATURE,OUTSIDE_TEMPERATURE,LIGHTS_STATE

10/31/2016 12:16:25,23.625,18.625,off
10/31/2016 12:16:37,23.625,18.562,off
10/31/2016 12:16:49,23.625,18.625,off
10/31/2016 12:17:00,23.625,18.687,off
