TIME,INSIDE_TEMPERATURE,OUTSIDE_TEMPERATURE,LIGHTS_STATE

12/19/2016 12:46:25,17.937,15.062,off
12/19/2016 12:46:36,17.875,14.937,off
12/19/2016 12:46:48,17.875,14.75,off
12/19/2016 12:47:00,17.937,14.687,off
