TIME,INSIDE_TEMPERATURE,OUTSIDE_TEMPERATURE,LIGHTS_STATE

03/20/2017 12:15:25,21.062,17.937,off
03/20/2017 12:15:36,21.062,17.875,off
03/20/2017 12:15:48,21.062,17.875,off
03/20/2017 12:16:00,21.062,17.875,off
