TIME,INSIDE_TEMPERATURE,OUTSIDE_TEMPERATURE,LIGHTS_STATE

03/26/2018 12:15:25,17.75,14.062,off
03/26/2018 12:15:37,17.75,14.062,off
03/26/2018 12:15:49,17.75,14.062,off
03/26/2018 12:16:00,17.75,14.062,off
