TIME,INSIDE_TEMPERATURE,OUTSIDE_TEMPERATURE,LIGHTS_STATE

07/14/2017 12:27:25,32.75,30.187,off
07/14/2017 12:27:37,32.75,30.187,off
07/14/2017 12:27:49,32.75,30.25,off
07/14/2017 12:28:01,32.75,30.25,off
