TIME,INSIDE_TEMPERATURE,OUTSIDE_TEMPERATURE,LIGHTS_STATE

02/20/2017 12:20:25,18.625,14.25,off
02/20/2017 12:20:37,18.625,14.25,off
02/20/2017 12:20:48,18.625,14.25,off
02/20/2017 12:21:00,18.625,14.25,off
