TIME,INSIDE_TEMPERATURE,OUTSIDE_TEMPERATURE,LIGHTS_STATE

10/29/2016 12:35:25,31.562,28.687,off
10/29/2016 12:35:37,31.562,28.687,off
10/29/2016 12:35:49,31.562,28.875,off
10/29/2016 12:36:00,31.625,28.937,off
