TIME,INSIDE_TEMPERATURE,OUTSIDE_TEMPERATURE,LIGHTS_STATE

09/21/2017 12:16:26,26.062,21.875,off
09/21/2017 12:16:37,26.062,21.875,off
09/21/2017 12:16:49,26.062,21.937,off
09/21/2017 12:17:01,26.062,22.0,off
