TIME,INSIDE_TEMPERATURE,OUTSIDE_TEMPERATURE,LIGHTS_STATE

08/17/2017 12:52:25,31.312,28.937,off
08/17/2017 12:52:38,31.312,28.937,off
08/17/2017 12:52:50,31.375,28.937,off
08/17/2017 12:53:02,31.375,28.875,off
