TIME,INSIDE_TEMPERATURE,OUTSIDE_TEMPERATURE,LIGHTS_STATE

02/18/2018 12:33:25,24.562,22.375,off
02/18/2018 12:33:38,24.562,22.062,off
02/18/2018 12:33:49,24.562,22.0,off
02/18/2018 12:34:01,24.562,22.062,off
