TIME,INSIDE_TEMPERATURE,OUTSIDE_TEMPERATURE,LIGHTS_STATE

03/12/2017 12:56:26,27.687,24.625,off
03/12/2017 12:56:38,27.75,24.687,off
03/12/2017 12:56:49,27.75,24.687,off
03/12/2017 12:57:01,27.75,24.687,off
