TIME,INSIDE_TEMPERATURE,OUTSIDE_TEMPERATURE,LIGHTS_STATE

07/17/2017 12:54:26,37.312,34.937,off
07/17/2017 12:54:37,37.312,35.0,off
07/17/2017 12:54:49,37.312,34.937,off
07/17/2017 12:55:01,37.375,35.0,off
