TIME,INSIDE_TEMPERATURE,OUTSIDE_TEMPERATURE,LIGHTS_STATE

05/04/2017 12:05:25,31.0,28.687,off
05/04/2017 12:05:37,31.0,28.687,off
05/04/2017 12:05:49,31.0,28.687,off
05/04/2017 12:06:00,31.0,28.687,off
