TIME,INSIDE_TEMPERATURE,OUTSIDE_TEMPERATURE,LIGHTS_STATE

08/22/2017 12:35:25,31.125,28.937,off
08/22/2017 12:35:37,31.062,29.0,off
08/22/2017 12:35:49,31.062,29.0,off
08/22/2017 12:36:01,31.062,29.062,off
