TIME,INSIDE_TEMPERATURE,OUTSIDE_TEMPERATURE,LIGHTS_STATE

09/20/2017 12:04:25,23.25,18.875,off
09/20/2017 12:04:37,23.25,18.937,off
09/20/2017 12:04:48,23.25,19.0,off
09/20/2017 12:05:00,23.25,19.062,off
