TIME,INSIDE_TEMPERATURE,OUTSIDE_TEMPERATURE,LIGHTS_STATE

08/13/2017 12:29:25,29.75,27.187,off
08/13/2017 12:29:37,29.75,27.187,off
08/13/2017 12:29:49,29.75,27.25,off
08/13/2017 12:30:01,29.75,27.187,off
