TIME,INSIDE_TEMPERATURE,OUTSIDE_TEMPERATURE,LIGHTS_STATE

01/15/2018 12:57:25,23.562,19.937,off
01/15/2018 12:57:37,23.625,20.062,off
01/15/2018 12:57:49,23.625,20.062,off
01/15/2018 12:58:01,23.625,20.125,off
