TIME,INSIDE_TEMPERATURE,OUTSIDE_TEMPERATURE,LIGHTS_STATE

10/31/2017 12:18:25,29.75,28.937,off
10/31/2017 12:18:37,29.812,29.062,off
10/31/2017 12:18:49,29.812,29.187,off
10/31/2017 12:19:00,29.812,29.312,off
