TIME,INSIDE_TEMPERATURE,OUTSIDE_TEMPERATURE,LIGHTS_STATE

03/09/2017 12:17:25,28.187,25.437,off
03/09/2017 12:17:37,28.187,25.375,off
03/09/2017 12:17:49,28.187,25.437,off
03/09/2017 12:18:00,28.187,25.5,off
