TIME,INSIDE_TEMPERATURE,OUTSIDE_TEMPERATURE,LIGHTS_STATE

06/28/2017 12:06:25,26.625,23.562,off
06/28/2017 12:06:37,26.75,23.687,off
06/28/2017 12:06:49,26.812,23.687,off
06/28/2017 12:07:01,26.25,23.625,off
