TIME,INSIDE_TEMPERATURE,OUTSIDE_TEMPERATURE,LIGHTS_STATE

05/02/2017 12:07:25,30.875,29.062,off
05/02/2017 12:07:36,30.937,29.062,off
05/02/2017 12:07:48,30.937,29.062,off
05/02/2017 12:08:00,30.937,29.062,off
