TIME,INSIDE_TEMPERATURE,OUTSIDE_TEMPERATURE,LIGHTS_STATE

11/14/2016 12:06:24,29.125,31.625,off
11/14/2016 12:06:36,29.125,31.937,off
11/14/2016 12:06:48,29.125,32.0,off
11/14/2016 12:06:59,29.125,32.062,off
