TIME,INSIDE_TEMPERATURE,OUTSIDE_TEMPERATURE,LIGHTS_STATE

07/27/2016 12:15:25,36.0,37.0,off
07/27/2016 12:15:37,36.0,37.0,off
07/27/2016 12:15:49,36.062,37.062,off
07/27/2016 12:16:00,36.062,37.062,off
