TIME,INSIDE_TEMPERATURE,OUTSIDE_TEMPERATURE,LIGHTS_STATE

02/16/2017 12:57:25,24.75,20.5,off
02/16/2017 12:57:37,24.75,20.437,off
02/16/2017 12:57:49,24.75,20.5,off
02/16/2017 12:58:00,24.75,20.5,off
