TIME,INSIDE_TEMPERATURE,OUTSIDE_TEMPERATURE,LIGHTS_STATE

03/15/2017 12:06:25,26.25,23.437,off
03/15/2017 12:06:37,26.312,23.5,off
03/15/2017 12:06:49,26.312,23.5,off
03/15/2017 12:07:00,26.312,23.5,off
