TIME,INSIDE_TEMPERATURE,OUTSIDE_TEMPERATURE,LIGHTS_STATE

01/15/2018 12:43:25,23.437,20.812,off
01/15/2018 12:43:37,23.5,20.875,off
01/15/2018 12:43:49,23.5,20.875,off
01/15/2018 12:44:01,23.5,20.875,off
