TIME,INSIDE_TEMPERATURE,OUTSIDE_TEMPERATURE,LIGHTS_STATE

07/17/2017 12:14:25,36.0,32.937,off
07/17/2017 12:14:37,36.0,32.937,off
07/17/2017 12:14:49,36.062,32.937,off
07/17/2017 12:15:00,36.0,33.0,off
