TIME,INSIDE_TEMPERATURE,OUTSIDE_TEMPERATURE,LIGHTS_STATE

07/31/2017 12:09:27,30.875,29.0,off
07/31/2017 12:09:38,30.875,29.062,off
07/31/2017 12:09:50,30.875,29.062,off
07/31/2017 12:10:02,30.875,29.062,off
