TIME,INSIDE_TEMPERATURE,OUTSIDE_TEMPERATURE,LIGHTS_STATE

04/30/2017 12:50:26,26.625,25.5,off
04/30/2017 12:50:38,26.687,25.5,off
04/30/2017 12:50:49,26.687,25.5,off
04/30/2017 12:51:01,26.687,25.562,off
