TIME,INSIDE_TEMPERATURE,OUTSIDE_TEMPERATURE,LIGHTS_STATE

01/05/2017 12:15:25,20.375,14.062,off
01/05/2017 12:15:36,20.375,14.125,off
01/05/2017 12:15:48,20.375,14.187,off
01/05/2017 12:16:00,20.375,14.187,off
