TIME,INSIDE_TEMPERATURE,OUTSIDE_TEMPERATURE,LIGHTS_STATE

12/26/2017 12:01:26,24.312,26.0,off
12/26/2017 12:01:37,24.312,26.0,off
12/26/2017 12:01:49,24.312,26.0,off
12/26/2017 12:02:01,24.312,26.187,off
