TIME,INSIDE_TEMPERATURE,OUTSIDE_TEMPERATURE,LIGHTS_STATE

12/20/2016 12:10:25,20.062,17.0,off
12/20/2016 12:10:37,20.0,17.062,off
12/20/2016 12:10:49,20.062,17.125,off
12/20/2016 12:11:00,20.062,17.0,off
