TIME,INSIDE_TEMPERATURE,OUTSIDE_TEMPERATURE,LIGHTS_STATE

10/04/2017 12:27:25,28.812,30.562,off
10/04/2017 12:27:37,28.812,30.5,off
10/04/2017 12:27:48,28.812,30.375,off
10/04/2017 12:28:00,28.875,30.125,off
