TIME,INSIDE_TEMPERATURE,OUTSIDE_TEMPERATURE,LIGHTS_STATE

05/14/2017 12:32:25,21.437,18.625,off
05/14/2017 12:32:37,21.437,18.562,off
05/14/2017 12:32:48,21.437,18.562,off
05/14/2017 12:33:00,21.437,18.562,off
