TIME,INSIDE_TEMPERATURE,OUTSIDE_TEMPERATURE,LIGHTS_STATE

02/27/2018 12:25:25,20.812,27.125,off
02/27/2018 12:25:37,20.875,27.062,off
02/27/2018 12:25:49,20.875,27.0,off
02/27/2018 12:26:01,20.875,27.0,off
