TIME,INSIDE_TEMPERATURE,OUTSIDE_TEMPERATURE,LIGHTS_STATE

07/04/2016 12:14:25,27.687,27.562,off
07/04/2016 12:14:37,27.687,27.562,off
07/04/2016 12:14:48,27.687,27.562,off
07/04/2016 12:15:00,27.687,27.625,off
