TIME,INSIDE_TEMPERATURE,OUTSIDE_TEMPERATURE,LIGHTS_STATE

11/02/2017 12:51:26,26.75,22.875,off
11/02/2017 12:51:37,26.75,22.687,off
11/02/2017 12:51:49,26.75,22.5,off
11/02/2017 12:52:01,26.75,22.437,off
