TIME,INSIDE_TEMPERATURE,OUTSIDE_TEMPERATURE,LIGHTS_STATE

07/24/2016 12:13:26,33.0,33.375,off
07/24/2016 12:13:37,33.062,33.375,off
07/24/2016 12:13:49,33.062,33.375,off
07/24/2016 12:14:01,33.0,33.375,off
