TIME,INSIDE_TEMPERATURE,OUTSIDE_TEMPERATURE,LIGHTS_STATE

12/23/2016 12:18:25,13.312,9.437,off
12/23/2016 12:18:36,13.312,9.437,off
12/23/2016 12:18:48,13.312,9.437,off
12/23/2016 12:19:00,13.312,9.375,off
