TIME,INSIDE_TEMPERATURE,OUTSIDE_TEMPERATURE,LIGHTS_STATE

06/12/2017 12:26:25,23.0,18.312,off
06/12/2017 12:26:37,23.0,18.375,off
06/12/2017 12:26:49,23.0,18.437,off
06/12/2017 12:27:01,23.0,18.5,off
