TIME,INSIDE_TEMPERATURE,OUTSIDE_TEMPERATURE,LIGHTS_STATE

03/12/2017 12:04:26,25.312,22.625,off
03/12/2017 12:04:37,25.312,22.625,off
03/12/2017 12:04:49,25.312,22.625,off
03/12/2017 12:05:02,25.375,22.625,off
