TIME,INSIDE_TEMPERATURE,OUTSIDE_TEMPERATURE,LIGHTS_STATE

03/04/2017 12:03:26,23.312,24.312,off
03/04/2017 12:03:37,23.312,24.5,off
03/04/2017 12:03:49,23.375,24.687,off
03/04/2017 12:04:01,23.375,24.5,off
