TIME,INSIDE_TEMPERATURE,OUTSIDE_TEMPERATURE,LIGHTS_STATE

08/07/2017 12:35:25,28.062,24.875,off
08/07/2017 12:35:37,28.062,24.937,off
08/07/2017 12:35:48,28.125,24.937,off
08/07/2017 12:36:00,28.062,25.0,off
