TIME,INSIDE_TEMPERATURE,OUTSIDE_TEMPERATURE,LIGHTS_STATE

11/30/2016 12:57:24,19.312,15.75,off
11/30/2016 12:57:36,19.312,15.75,off
11/30/2016 12:57:48,19.312,15.687,off
11/30/2016 12:57:59,19.312,15.687,off
