TIME,INSIDE_TEMPERATURE,OUTSIDE_TEMPERATURE,LIGHTS_STATE

02/23/2018 12:36:25,18.562,29.375,off
02/23/2018 12:36:37,18.562,29.562,off
02/23/2018 12:36:48,18.562,29.75,off
02/23/2018 12:37:00,18.562,29.937,off
