TIME,INSIDE_TEMPERATURE,OUTSIDE_TEMPERATURE,LIGHTS_STATE

02/05/2017 12:51:26,21.812,18.0,off
02/05/2017 12:51:37,21.812,18.187,off
02/05/2017 12:51:49,21.812,18.375,off
02/05/2017 12:52:01,21.875,18.5,off
