TIME,INSIDE_TEMPERATURE,OUTSIDE_TEMPERATURE,LIGHTS_STATE

05/12/2017 12:06:25,20.625,18.062,off
05/12/2017 12:06:37,20.687,18.062,off
05/12/2017 12:06:49,20.687,18.062,off
05/12/2017 12:07:00,20.625,18.062,off
