TIME,INSIDE_TEMPERATURE,OUTSIDE_TEMPERATURE,LIGHTS_STATE

03/08/2017 12:51:26,24.562,26.25,off
03/08/2017 12:51:37,24.5,26.312,off
03/08/2017 12:51:49,24.562,26.312,off
03/08/2017 12:52:01,24.562,26.312,off
