TIME,INSIDE_TEMPERATURE,OUTSIDE_TEMPERATURE,LIGHTS_STATE

07/13/2017 12:53:26,33.312,32.375,off
07/13/2017 12:53:37,33.312,32.562,off
07/13/2017 12:53:49,33.312,32.812,off
07/13/2017 12:54:01,33.312,32.937,off
