TIME,INSIDE_TEMPERATURE,OUTSIDE_TEMPERATURE,LIGHTS_STATE

12/06/2016 12:52:25,20.187,17.562,off
12/06/2016 12:52:37,20.187,17.625,off
12/06/2016 12:52:48,20.187,17.625,off
12/06/2016 12:53:00,20.125,17.5,off
