TIME,INSIDE_TEMPERATURE,OUTSIDE_TEMPERATURE,LIGHTS_STATE

06/12/2017 12:07:25,23.125,18.5,off
06/12/2017 12:07:37,23.125,18.5,off
06/12/2017 12:07:49,23.125,18.562,off
06/12/2017 12:08:01,23.187,18.687,off
