TIME,INSIDE_TEMPERATURE,OUTSIDE_TEMPERATURE,LIGHTS_STATE

02/08/2017 12:13:25,22.0,18.375,off
02/08/2017 12:13:37,22.0,18.375,off
02/08/2017 12:13:48,22.0,18.375,off
02/08/2017 12:14:00,22.0,18.375,off
