TIME,INSIDE_TEMPERATURE,OUTSIDE_TEMPERATURE,LIGHTS_STATE

05/04/2017 12:30:25,31.312,28.75,off
05/04/2017 12:30:37,31.312,28.812,off
05/04/2017 12:30:49,31.312,28.812,off
05/04/2017 12:31:00,31.312,28.812,off
