TIME,INSIDE_TEMPERATURE,OUTSIDE_TEMPERATURE,LIGHTS_STATE

11/02/2016 12:57:24,27.812,30.937,off
11/02/2016 12:57:36,27.812,30.812,off
11/02/2016 12:57:48,27.812,30.875,off
11/02/2016 12:57:59,27.75,30.75,off
