TIME,INSIDE_TEMPERATURE,OUTSIDE_TEMPERATURE,LIGHTS_STATE

03/29/2018 12:10:26,25.25,24.187,off
03/29/2018 12:10:37,25.25,24.187,off
03/29/2018 12:10:49,25.312,24.125,off
03/29/2018 12:11:01,25.25,24.062,off
