TIME,INSIDE_TEMPERATURE,OUTSIDE_TEMPERATURE,LIGHTS_STATE

08/08/2017 12:45:25,29.437,27.187,off
08/08/2017 12:45:37,29.437,27.187,off
08/08/2017 12:45:48,29.5,27.25,off
08/08/2017 12:46:00,29.5,27.312,off
