TIME,INSIDE_TEMPERATURE,OUTSIDE_TEMPERATURE,LIGHTS_STATE

02/28/2017 12:39:26,22.75,23.312,off
02/28/2017 12:39:37,22.75,23.312,off
02/28/2017 12:39:49,22.75,23.375,off
02/28/2017 12:40:01,22.75,23.5,off
