TIME,INSIDE_TEMPERATURE,OUTSIDE_TEMPERATURE,LIGHTS_STATE

09/04/2017 12:40:25,33.375,29.875,off
09/04/2017 12:40:38,33.375,29.937,off
09/04/2017 12:40:49,33.375,29.937,off
09/04/2017 12:41:01,33.375,30.0,off
