TIME,INSIDE_TEMPERATURE,OUTSIDE_TEMPERATURE,LIGHTS_STATE

02/16/2018 12:08:25,25.25,39.937,off
02/16/2018 12:08:37,25.312,40.187,off
02/16/2018 12:08:49,25.312,40.5,off
02/16/2018 12:09:01,25.312,40.687,off
