TIME,INSIDE_TEMPERATURE,OUTSIDE_TEMPERATURE,LIGHTS_STATE

03/19/2017 12:10:25,22.437,18.812,off
03/19/2017 12:10:36,22.437,18.75,off
03/19/2017 12:10:48,22.437,18.812,off
03/19/2017 12:11:00,22.437,18.687,off
