TIME,INSIDE_TEMPERATURE,OUTSIDE_TEMPERATURE,LIGHTS_STATE

09/22/2017 12:03:25,25.562,21.125,off
09/22/2017 12:03:37,25.562,21.125,off
09/22/2017 12:03:49,25.625,21.125,off
09/22/2017 12:04:00,25.625,21.125,off
