TIME,INSIDE_TEMPERATURE,OUTSIDE_TEMPERATURE,LIGHTS_STATE

04/28/2017 12:03:25,22.75,21.0,off
04/28/2017 12:03:37,22.75,21.0,off
04/28/2017 12:03:49,22.75,20.937,off
04/28/2017 12:04:00,22.75,20.937,off
