TIME,INSIDE_TEMPERATURE,OUTSIDE_TEMPERATURE,LIGHTS_STATE

07/05/2016 12:05:26,25.187,24.875,off
07/05/2016 12:05:38,25.25,24.937,off
07/05/2016 12:05:49,25.25,25.0,off
07/05/2016 12:06:01,25.312,25.0,off
