TIME,INSIDE_TEMPERATURE,OUTSIDE_TEMPERATURE,LIGHTS_STATE

11/12/2016 12:52:25,31.375,26.437,off
11/12/2016 12:52:37,31.312,26.312,off
11/12/2016 12:52:50,31.375,26.312,off
11/12/2016 12:53:01,31.312,26.312,off
