TIME,INSIDE_TEMPERATURE,OUTSIDE_TEMPERATURE,LIGHTS_STATE

09/19/2017 12:42:25,26.687,22.75,off
09/19/2017 12:42:37,26.687,22.812,off
09/19/2017 12:42:49,26.687,22.875,off
09/19/2017 12:43:00,26.687,22.937,off
