TIME,INSIDE_TEMPERATURE,OUTSIDE_TEMPERATURE,LIGHTS_STATE

08/02/2016 12:54:26,29.0,29.0,off
08/02/2016 12:54:37,29.062,29.0,off
08/02/2016 12:54:49,29.062,29.0,off
08/02/2016 12:55:01,29.062,29.062,off
