TIME,INSIDE_TEMPERATURE,OUTSIDE_TEMPERATURE,LIGHTS_STATE

07/17/2017 12:16:26,36.062,33.187,off
07/17/2017 12:16:37,36.062,33.187,off
07/17/2017 12:16:49,36.062,33.187,off
07/17/2017 12:17:01,36.062,33.125,off
