TIME,INSIDE_TEMPERATURE,OUTSIDE_TEMPERATURE,LIGHTS_STATE

02/20/2017 12:42:25,18.312,13.875,off
02/20/2017 12:42:37,18.312,13.875,off
02/20/2017 12:42:48,18.312,13.875,off
02/20/2017 12:43:00,18.312,13.875,off
