TIME,INSIDE_TEMPERATURE,OUTSIDE_TEMPERATURE,LIGHTS_STATE

10/30/2016 12:05:25,19.125,15.0,off
10/30/2016 12:05:36,19.125,15.0,off
10/30/2016 12:05:48,19.125,15.0,off
10/30/2016 12:06:00,19.125,15.0,off
