TIME,INSIDE_TEMPERATURE,OUTSIDE_TEMPERATURE,LIGHTS_STATE

04/12/2017 12:56:25,19.937,15.437,off
04/12/2017 12:56:37,19.937,15.437,off
04/12/2017 12:56:48,19.937,15.437,off
04/12/2017 12:57:00,20.0,15.437,off
