TIME,INSIDE_TEMPERATURE,OUTSIDE_TEMPERATURE,LIGHTS_STATE

12/20/2016 12:56:25,19.25,22.75,off
12/20/2016 12:56:37,19.25,22.875,off
12/20/2016 12:56:48,19.25,23.062,off
12/20/2016 12:57:00,19.25,23.187,off
