TIME,INSIDE_TEMPERATURE,OUTSIDE_TEMPERATURE,LIGHTS_STATE

10/23/2017 12:20:25,35.312,31.437,off
10/23/2017 12:20:37,35.375,31.312,off
10/23/2017 12:20:49,35.312,31.062,off
10/23/2017 12:21:01,35.312,30.937,off
