TIME,INSIDE_TEMPERATURE,OUTSIDE_TEMPERATURE,LIGHTS_STATE

03/07/2018 12:33:25,24.812,37.0,off
03/07/2018 12:33:37,24.812,36.75,off
03/07/2018 12:33:49,24.812,36.812,off
03/07/2018 12:34:00,24.812,36.75,off
