TIME,INSIDE_TEMPERATURE,OUTSIDE_TEMPERATURE,LIGHTS_STATE

09/01/2017 12:39:25,40.375,38.875,off
09/01/2017 12:39:37,40.375,38.875,off
09/01/2017 12:39:49,40.375,38.812,off
09/01/2017 12:40:01,40.375,38.812,off
