TIME,INSIDE_TEMPERATURE,OUTSIDE_TEMPERATURE,LIGHTS_STATE

10/04/2017 12:02:25,27.687,24.937,off
10/04/2017 12:02:37,27.75,25.0,off
10/04/2017 12:02:49,27.75,25.0,off
10/04/2017 12:03:01,27.75,25.125,off
