TIME,INSIDE_TEMPERATURE,OUTSIDE_TEMPERATURE,LIGHTS_STATE

03/25/2017 12:05:25,23.437,18.062,off
03/25/2017 12:05:37,23.375,18.062,off
03/25/2017 12:05:49,23.375,18.0,off
03/25/2017 12:06:00,23.375,18.0,off
