TIME,INSIDE_TEMPERATURE,OUTSIDE_TEMPERATURE,LIGHTS_STATE

03/28/2018 12:40:25,25.187,19.187,off
03/28/2018 12:40:37,25.25,19.187,off
03/28/2018 12:40:49,25.25,19.187,off
03/28/2018 12:41:00,25.25,19.25,off
