TIME,INSIDE_TEMPERATURE,OUTSIDE_TEMPERATURE,LIGHTS_STATE

08/15/2017 12:14:25,26.375,23.5,off
08/15/2017 12:14:37,26.375,23.5,off
08/15/2017 12:14:48,26.437,23.562,off
08/15/2017 12:15:00,26.437,23.625,off
