TIME,INSIDE_TEMPERATURE,OUTSIDE_TEMPERATURE,LIGHTS_STATE

02/24/2018 12:28:25,22.062,22.937,off
02/24/2018 12:28:37,22.0,23.0,off
02/24/2018 12:28:49,22.062,23.062,off
02/24/2018 12:29:01,22.062,23.062,off
