TIME,INSIDE_TEMPERATURE,OUTSIDE_TEMPERATURE,LIGHTS_STATE

09/15/2016 12:37:25,28.187,27.687,off
09/15/2016 12:37:37,28.187,27.75,off
09/15/2016 12:37:49,28.187,27.75,off
09/15/2016 12:38:00,28.187,27.687,off
