TIME,INSIDE_TEMPERATURE,OUTSIDE_TEMPERATURE,LIGHTS_STATE

07/10/2016 12:17:25,24.125,23.5,off
07/10/2016 12:17:37,24.125,23.437,off
07/10/2016 12:17:49,24.125,23.437,off
07/10/2016 12:18:00,24.125,23.437,off
