TIME,INSIDE_TEMPERATURE,OUTSIDE_TEMPERATURE,LIGHTS_STATE

01/04/2017 12:57:24,16.875,12.125,off
01/04/2017 12:57:36,16.875,12.125,off
01/04/2017 12:57:47,16.875,12.125,off
01/04/2017 12:57:59,16.875,12.187,off
