TIME,INSIDE_TEMPERATURE,OUTSIDE_TEMPERATURE,LIGHTS_STATE

03/17/2018 12:13:25,18.437,15.0,off
03/17/2018 12:13:37,18.437,15.0,off
03/17/2018 12:13:49,18.437,15.062,off
03/17/2018 12:14:00,18.5,14.937,off
