TIME,INSIDE_TEMPERATURE,OUTSIDE_TEMPERATURE,LIGHTS_STATE

02/13/2018 12:48:25,23.375,26.125,off
02/13/2018 12:48:37,23.375,26.25,off
02/13/2018 12:48:49,23.375,26.187,off
02/13/2018 12:49:01,23.375,26.187,off
