TIME,INSIDE_TEMPERATURE,OUTSIDE_TEMPERATURE,LIGHTS_STATE

07/05/2017 12:44:25,29.5,26.687,off
07/05/2017 12:44:37,29.562,26.687,off
07/05/2017 12:44:49,29.562,26.687,off
07/05/2017 12:45:01,29.562,26.687,off
