TIME,INSIDE_TEMPERATURE,OUTSIDE_TEMPERATURE,LIGHTS_STATE

02/28/2017 12:01:26,23.375,22.75,off
02/28/2017 12:01:37,23.375,22.437,off
02/28/2017 12:01:49,23.375,22.187,off
02/28/2017 12:02:01,23.375,22.0,off
