TIME,INSIDE_TEMPERATURE,OUTSIDE_TEMPERATURE,LIGHTS_STATE

03/06/2017 12:27:26,21.187,21.937,off
03/06/2017 12:27:37,21.25,21.75,off
03/06/2017 12:27:49,21.25,21.562,off
03/06/2017 12:28:01,21.187,21.187,off
