TIME,INSIDE_TEMPERATURE,OUTSIDE_TEMPERATURE,LIGHTS_STATE

07/07/2016 12:36:25,22.875,22.375,off
07/07/2016 12:36:37,22.875,22.375,off
07/07/2016 12:36:49,22.875,22.375,off
07/07/2016 12:37:01,22.812,22.375,off
