TIME,INSIDE_TEMPERATURE,OUTSIDE_TEMPERATURE,LIGHTS_STATE

01/18/2018 12:56:25,24.812,18.75,off
01/18/2018 12:56:37,24.812,18.687,off
01/18/2018 12:56:49,24.812,18.625,off
01/18/2018 12:57:01,24.75,18.625,off
