TIME,INSIDE_TEMPERATURE,OUTSIDE_TEMPERATURE,LIGHTS_STATE

03/13/2018 12:35:26,20.562,13.937,off
03/13/2018 12:35:37,20.562,13.937,off
03/13/2018 12:35:49,20.562,13.937,off
03/13/2018 12:36:01,20.562,13.937,off
