TIME,INSIDE_TEMPERATURE,OUTSIDE_TEMPERATURE,LIGHTS_STATE

02/11/2017 12:49:26,23.0,20.187,off
02/11/2017 12:49:37,23.0,20.25,off
02/11/2017 12:49:49,23.0,20.312,off
02/11/2017 12:50:01,23.0,20.25,off
