TIME,INSIDE_TEMPERATURE,OUTSIDE_TEMPERATURE,LIGHTS_STATE

01/12/2018 12:15:25,20.25,18.937,off
01/12/2018 12:15:37,20.312,18.687,off
01/12/2018 12:15:48,20.312,18.687,off
01/12/2018 12:16:00,20.312,18.687,off
