TIME,INSIDE_TEMPERATURE,OUTSIDE_TEMPERATURE,LIGHTS_STATE

09/03/2017 12:21:25,40.25,38.625,off
09/03/2017 12:21:37,40.312,38.687,off
09/03/2017 12:21:49,40.375,38.687,off
09/03/2017 12:22:01,40.437,38.625,off
