TIME,INSIDE_TEMPERATURE,OUTSIDE_TEMPERATURE,LIGHTS_STATE

03/27/2017 12:23:25,21.75,17.875,off
03/27/2017 12:23:36,21.75,17.937,off
03/27/2017 12:23:48,21.75,18.0,off
03/27/2017 12:24:00,21.812,18.062,off
