TIME,INSIDE_TEMPERATURE,OUTSIDE_TEMPERATURE,LIGHTS_STATE

07/01/2017 12:28:25,25.687,22.125,off
07/01/2017 12:28:37,25.75,22.062,off
07/01/2017 12:28:49,25.75,22.062,off
07/01/2017 12:29:01,25.75,22.125,off
