TIME,INSIDE_TEMPERATURE,OUTSIDE_TEMPERATURE,LIGHTS_STATE

02/07/2018 12:03:25,28.812,25.312,off
02/07/2018 12:03:37,28.812,25.25,off
02/07/2018 12:03:48,28.812,25.312,off
02/07/2018 12:04:00,28.812,25.312,off
