TIME,INSIDE_TEMPERATURE,OUTSIDE_TEMPERATURE,LIGHTS_STATE

10/10/2017 12:12:25,31.187,29.937,off
10/10/2017 12:12:37,31.187,29.937,off
10/10/2017 12:12:49,31.187,30.0,off
10/10/2017 12:13:01,31.25,29.937,off
