TIME,INSIDE_TEMPERATURE,OUTSIDE_TEMPERATURE,LIGHTS_STATE

09/19/2017 12:27:25,26.375,22.5,off
09/19/2017 12:27:37,26.25,22.625,off
09/19/2017 12:27:49,26.312,22.687,off
09/19/2017 12:28:00,26.375,22.812,off
