TIME,INSIDE_TEMPERATURE,OUTSIDE_TEMPERATURE,LIGHTS_STATE

11/10/2016 12:18:25,29.937,30.437,off
11/10/2016 12:18:36,29.937,30.75,off
11/10/2016 12:18:48,29.937,31.0,off
11/10/2016 12:19:00,29.937,30.937,off
