TIME,INSIDE_TEMPERATURE,OUTSIDE_TEMPERATURE,LIGHTS_STATE

04/03/2017 12:19:25,23.375,21.187,off
04/03/2017 12:19:37,23.375,21.187,off
04/03/2017 12:19:49,23.375,21.25,off
04/03/2017 12:20:00,23.375,21.25,off
