TIME,INSIDE_TEMPERATURE,OUTSIDE_TEMPERATURE,LIGHTS_STATE

07/16/2017 12:01:26,37.375,32.937,off
07/16/2017 12:01:37,37.375,32.937,off
07/16/2017 12:01:49,37.375,32.937,off
07/16/2017 12:02:01,37.437,32.937,off
