TIME,INSIDE_TEMPERATURE,OUTSIDE_TEMPERATURE,LIGHTS_STATE

08/23/2017 12:29:25,29.875,27.812,off
08/23/2017 12:29:37,29.937,27.875,off
08/23/2017 12:29:48,29.875,27.812,off
08/23/2017 12:30:00,29.937,27.75,off
