TIME,INSIDE_TEMPERATURE,OUTSIDE_TEMPERATURE,LIGHTS_STATE

11/01/2016 12:58:25,27.687,28.75,off
11/01/2016 12:58:37,27.687,28.625,off
11/01/2016 12:58:48,27.687,28.687,off
11/01/2016 12:59:00,27.687,28.625,off
