TIME,INSIDE_TEMPERATURE,OUTSIDE_TEMPERATURE,LIGHTS_STATE

12/06/2016 12:00:25,19.687,16.5,off
12/06/2016 12:00:37,19.687,16.5,off
12/06/2016 12:00:49,19.687,16.437,off
12/06/2016 12:01:01,19.687,16.375,off
