TIME,INSIDE_TEMPERATURE,OUTSIDE_TEMPERATURE,LIGHTS_STATE

03/28/2017 12:13:26,23.062,20.125,off
03/28/2017 12:13:37,23.125,20.125,off
03/28/2017 12:13:49,23.125,20.187,off
03/28/2017 12:14:01,23.125,20.187,off
