TIME,INSIDE_TEMPERATURE,OUTSIDE_TEMPERATURE,LIGHTS_STATE

08/18/2017 12:01:25,30.75,29.0,off
08/18/2017 12:01:37,30.812,29.0,off
08/18/2017 12:01:48,30.75,29.0,off
08/18/2017 12:02:00,30.812,29.0,off
