TIME,INSIDE_TEMPERATURE,OUTSIDE_TEMPERATURE,LIGHTS_STATE

06/24/2016 12:47:25,26.562,26.812,off
06/24/2016 12:47:37,26.562,26.812,off
06/24/2016 12:47:49,26.562,26.75,off
06/24/2016 12:48:00,26.562,26.812,off
