TIME,INSIDE_TEMPERATURE,OUTSIDE_TEMPERATURE,LIGHTS_STATE

04/18/2017 12:55:25,23.375,19.0,off
04/18/2017 12:55:37,23.375,19.0,off
04/18/2017 12:55:49,23.375,19.0,off
04/18/2017 12:56:00,23.437,19.062,off
