TIME,INSIDE_TEMPERATURE,OUTSIDE_TEMPERATURE,LIGHTS_STATE

06/19/2017 12:50:25,39.812,35.437,off
06/19/2017 12:50:37,39.812,35.437,off
06/19/2017 12:50:49,39.875,35.437,off
06/19/2017 12:51:01,39.875,35.437,off
