TIME,INSIDE_TEMPERATURE,OUTSIDE_TEMPERATURE,LIGHTS_STATE

06/15/2017 12:48:25,29.875,26.312,off
06/15/2017 12:48:37,29.875,26.312,off
06/15/2017 12:48:48,29.875,26.312,off
06/15/2017 12:49:00,29.875,26.312,off
