TIME,INSIDE_TEMPERATURE,OUTSIDE_TEMPERATURE,LIGHTS_STATE

01/08/2017 12:14:25,19.0,15.187,off
01/08/2017 12:14:36,19.0,15.125,off
01/08/2017 12:14:48,19.0,15.125,off
01/08/2017 12:15:00,19.0,15.125,off
