TIME,INSIDE_TEMPERATURE,OUTSIDE_TEMPERATURE,LIGHTS_STATE

03/31/2017 12:57:25,22.75,19.562,off
03/31/2017 12:57:37,22.75,19.562,off
03/31/2017 12:57:48,22.75,19.562,off
03/31/2017 12:58:00,22.75,19.562,off
