TIME,INSIDE_TEMPERATURE,OUTSIDE_TEMPERATURE,LIGHTS_STATE

01/09/2018 12:09:25,20.375,14.562,off
01/09/2018 12:09:37,20.375,14.562,off
01/09/2018 12:09:49,20.375,14.562,off
01/09/2018 12:10:01,20.375,14.5,off
