TIME,INSIDE_TEMPERATURE,OUTSIDE_TEMPERATURE,LIGHTS_STATE

06/21/2016 12:38:25,31.937,31.875,off
06/21/2016 12:38:37,31.937,31.875,off
06/21/2016 12:38:49,32.0,31.937,off
06/21/2016 12:39:00,32.0,32.0,off
