TIME,INSIDE_TEMPERATURE,OUTSIDE_TEMPERATURE,LIGHTS_STATE

09/12/2017 12:24:25,36.187,33.312,off
09/12/2017 12:24:37,36.187,33.25,off
09/12/2017 12:24:49,36.25,33.312,off
09/12/2017 12:25:01,36.25,33.375,off
