TIME,INSIDE_TEMPERATURE,OUTSIDE_TEMPERATURE,LIGHTS_STATE

10/29/2017 12:52:25,25.125,26.562,off
10/29/2017 12:52:37,25.125,26.562,off
10/29/2017 12:52:49,25.187,26.437,off
10/29/2017 12:53:01,25.187,25.875,off
