TIME,INSIDE_TEMPERATURE,OUTSIDE_TEMPERATURE,LIGHTS_STATE

07/31/2016 12:41:25,29.187,29.062,off
07/31/2016 12:41:37,29.125,29.062,off
07/31/2016 12:41:48,29.187,29.062,off
07/31/2016 12:42:00,29.187,29.125,off
