TIME,INSIDE_TEMPERATURE,OUTSIDE_TEMPERATURE,LIGHTS_STATE

11/04/2016 12:20:25,32.25,31.437,off
11/04/2016 12:20:37,32.25,31.687,off
11/04/2016 12:20:48,32.25,31.937,off
11/04/2016 12:21:00,32.25,32.25,off
