TIME,INSIDE_TEMPERATURE,OUTSIDE_TEMPERATURE,LIGHTS_STATE

10/17/2017 12:17:25,30.25,29.0,off
10/17/2017 12:17:37,30.25,29.0,off
10/17/2017 12:17:48,30.25,28.937,off
10/17/2017 12:18:00,30.25,28.812,off
