TIME,INSIDE_TEMPERATURE,OUTSIDE_TEMPERATURE,LIGHTS_STATE

06/23/2017 12:19:25,32.5,29.312,off
06/23/2017 12:19:38,32.5,29.375,off
06/23/2017 12:19:50,32.5,29.375,off
06/23/2017 12:20:01,32.5,29.375,off
