TIME,INSIDE_TEMPERATURE,OUTSIDE_TEMPERATURE,LIGHTS_STATE

03/28/2018 12:26:25,24.75,19.687,off
03/28/2018 12:26:37,24.75,19.75,off
03/28/2018 12:26:49,24.75,19.75,off
03/28/2018 12:27:01,24.812,19.75,off
