TIME,INSIDE_TEMPERATURE,OUTSIDE_TEMPERATURE,LIGHTS_STATE

06/28/2016 12:19:25,32.062,31.625,off
06/28/2016 12:19:36,32.062,31.562,off
06/28/2016 12:19:48,32.062,31.625,off
06/28/2016 12:20:00,32.125,31.625,off
