TIME,INSIDE_TEMPERATURE,OUTSIDE_TEMPERATURE,LIGHTS_STATE

12/24/2016 12:54:24,19.187,18.625,off
12/24/2016 12:54:36,19.187,18.937,off
12/24/2016 12:54:48,19.187,19.187,off
12/24/2016 12:54:59,19.187,19.312,off
