TIME,INSIDE_TEMPERATURE,OUTSIDE_TEMPERATURE,LIGHTS_STATE

01/13/2017 12:43:25,21.0,16.375,off
01/13/2017 12:43:37,21.0,16.5,off
01/13/2017 12:43:48,21.0,16.562,off
01/13/2017 12:44:00,20.937,16.562,off
