TIME,INSIDE_TEMPERATURE,OUTSIDE_TEMPERATURE,LIGHTS_STATE

01/23/2018 12:03:25,22.5,18.125,off
01/23/2018 12:03:37,22.5,18.125,off
01/23/2018 12:03:49,22.5,18.25,off
01/23/2018 12:04:00,22.5,18.312,off
