TIME,INSIDE_TEMPERATURE,OUTSIDE_TEMPERATURE,LIGHTS_STATE

05/03/2017 12:09:25,32.25,30.25,off
05/03/2017 12:09:36,32.25,30.25,off
05/03/2017 12:09:48,32.25,30.25,off
05/03/2017 12:10:00,32.25,30.25,off
