TIME,INSIDE_TEMPERATURE,OUTSIDE_TEMPERATURE,LIGHTS_STATE

05/06/2017 12:05:25,21.437,18.062,off
05/06/2017 12:05:37,21.5,17.875,off
05/06/2017 12:05:48,21.562,17.937,off
05/06/2017 12:06:00,21.5,17.937,off
