TIME,INSIDE_TEMPERATURE,OUTSIDE_TEMPERATURE,LIGHTS_STATE

08/06/2017 12:23:25,30.75,28.25,off
08/06/2017 12:23:37,30.812,28.312,off
08/06/2017 12:23:48,30.812,28.312,off
08/06/2017 12:24:00,30.812,28.312,off
