TIME,INSIDE_TEMPERATURE,OUTSIDE_TEMPERATURE,LIGHTS_STATE

06/22/2017 12:34:25,40.437,35.937,off
06/22/2017 12:34:38,40.437,36.062,off
06/22/2017 12:34:49,40.437,36.062,off
06/22/2017 12:35:01,40.437,36.125,off
