TIME,INSIDE_TEMPERATURE,OUTSIDE_TEMPERATURE,LIGHTS_STATE

07/17/2017 12:13:26,36.0,32.812,off
07/17/2017 12:13:37,36.0,32.875,off
07/17/2017 12:13:49,36.0,32.875,off
07/17/2017 12:14:01,36.0,32.937,off
