TIME,INSIDE_TEMPERATURE,OUTSIDE_TEMPERATURE,LIGHTS_STATE

02/12/2018 12:36:26,23.437,27.0,off
02/12/2018 12:36:38,23.437,27.125,off
02/12/2018 12:36:50,23.437,27.187,off
02/12/2018 12:37:02,23.5,27.375,off
