TIME,INSIDE_TEMPERATURE,OUTSIDE_TEMPERATURE,LIGHTS_STATE

06/15/2017 12:29:25,29.125,25.5,off
06/15/2017 12:29:37,29.125,25.5,off
06/15/2017 12:29:50,29.187,25.5,off
06/15/2017 12:30:01,29.125,25.5,off
