TIME,INSIDE_TEMPERATURE,OUTSIDE_TEMPERATURE,LIGHTS_STATE

11/18/2016 12:41:25,24.687,21.125,off
11/18/2016 12:41:36,24.625,21.187,off
11/18/2016 12:41:48,24.687,21.312,off
11/18/2016 12:42:00,24.625,21.375,off
