TIME,INSIDE_TEMPERATURE,OUTSIDE_TEMPERATURE,LIGHTS_STATE

04/04/2017 12:09:25,23.812,21.625,off
04/04/2017 12:09:37,23.812,21.625,off
04/04/2017 12:09:49,23.812,21.625,off
04/04/2017 12:10:00,23.875,21.687,off
