TIME,INSIDE_TEMPERATURE,OUTSIDE_TEMPERATURE,LIGHTS_STATE

07/11/2016 12:11:25,28.75,28.812,off
07/11/2016 12:11:37,28.812,28.812,off
07/11/2016 12:11:49,28.812,28.875,off
07/11/2016 12:12:01,28.812,28.875,off
