TIME,INSIDE_TEMPERATURE,OUTSIDE_TEMPERATURE,LIGHTS_STATE

12/10/2016 12:04:25,19.375,15.0,off
12/10/2016 12:04:37,19.375,15.0,off
12/10/2016 12:04:48,19.375,15.0,off
12/10/2016 12:05:00,19.375,15.062,off
