TIME,INSIDE_TEMPERATURE,OUTSIDE_TEMPERATURE,LIGHTS_STATE

05/13/2017 12:23:25,21.312,19.125,off
05/13/2017 12:23:37,21.375,19.062,off
05/13/2017 12:23:49,21.312,19.062,off
05/13/2017 12:24:00,21.375,19.062,off
