TIME,INSIDE_TEMPERATURE,OUTSIDE_TEMPERATURE,LIGHTS_STATE

02/18/2018 12:11:25,24.812,19.75,off
02/18/2018 12:11:37,24.812,19.937,off
02/18/2018 12:11:48,24.875,20.187,off
02/18/2018 12:12:00,24.812,20.375,off
