TIME,INSIDE_TEMPERATURE,OUTSIDE_TEMPERATURE,LIGHTS_STATE

08/05/2017 12:58:26,33.687,30.875,off
08/05/2017 12:58:37,33.375,30.812,off
08/05/2017 12:58:49,33.0,30.812,off
08/05/2017 12:59:01,32.875,30.812,off
