TIME,INSIDE_TEMPERATURE,OUTSIDE_TEMPERATURE,LIGHTS_STATE

04/04/2017 12:04:25,23.75,21.625,off
04/04/2017 12:04:37,23.75,21.625,off
04/04/2017 12:04:48,23.75,21.625,off
04/04/2017 12:05:00,23.75,21.562,off
