TIME,INSIDE_TEMPERATURE,OUTSIDE_TEMPERATURE,LIGHTS_STATE

03/01/2017 12:41:26,23.375,22.937,off
03/01/2017 12:41:38,23.312,22.812,off
03/01/2017 12:41:50,23.312,22.75,off
03/01/2017 12:42:02,23.312,22.812,off
