TIME,INSIDE_TEMPERATURE,OUTSIDE_TEMPERATURE,LIGHTS_STATE

01/13/2017 12:58:25,20.812,16.875,off
01/13/2017 12:58:36,20.812,16.875,off
01/13/2017 12:58:48,20.812,16.875,off
01/13/2017 12:59:00,20.812,16.875,off
