TIME,INSIDE_TEMPERATURE,OUTSIDE_TEMPERATURE,LIGHTS_STATE

06/20/2017 12:34:26,36.125,33.5,off
06/20/2017 12:34:37,36.125,33.5,off
06/20/2017 12:34:49,36.125,33.562,off
06/20/2017 12:35:01,36.125,33.5,off
