TIME,INSIDE_TEMPERATURE,OUTSIDE_TEMPERATURE,LIGHTS_STATE

03/01/2017 12:25:25,23.625,21.312,off
03/01/2017 12:25:37,23.687,21.437,off
03/01/2017 12:25:49,23.687,21.5,off
03/01/2017 12:26:00,23.687,21.562,off
