TIME,INSIDE_TEMPERATURE,OUTSIDE_TEMPERATURE,LIGHTS_STATE

09/26/2017 12:32:25,32.187,29.937,off
09/26/2017 12:32:37,32.25,29.875,off
09/26/2017 12:32:49,32.25,29.875,off
09/26/2017 12:33:01,32.25,29.812,off
