TIME,INSIDE_TEMPERATURE,OUTSIDE_TEMPERATURE,LIGHTS_STATE

02/19/2017 12:04:25,17.25,12.875,off
02/19/2017 12:04:37,17.25,12.875,off
02/19/2017 12:04:48,17.25,12.875,off
02/19/2017 12:05:00,17.25,12.875,off
