TIME,INSIDE_TEMPERATURE,OUTSIDE_TEMPERATURE,LIGHTS_STATE

07/17/2017 12:56:25,37.375,35.125,off
07/17/2017 12:56:37,37.375,35.0,off
07/17/2017 12:56:49,37.375,34.937,off
07/17/2017 12:57:01,37.375,34.875,off
