TIME,INSIDE_TEMPERATURE,OUTSIDE_TEMPERATURE,LIGHTS_STATE

07/20/2016 12:19:25,26.5,27.125,off
07/20/2016 12:19:36,26.5,27.125,off
07/20/2016 12:19:48,26.5,27.125,off
07/20/2016 12:20:00,26.5,27.062,off
