TIME,INSIDE_TEMPERATURE,OUTSIDE_TEMPERATURE,LIGHTS_STATE

03/13/2017 12:52:25,27.375,24.562,off
03/13/2017 12:52:37,27.375,24.625,off
03/13/2017 12:52:48,27.375,24.625,off
03/13/2017 12:53:00,27.375,24.625,off
