TIME,INSIDE_TEMPERATURE,OUTSIDE_TEMPERATURE,LIGHTS_STATE

01/07/2017 12:40:25,20.687,17.0,off
01/07/2017 12:40:36,20.75,16.937,off
01/07/2017 12:40:48,20.75,16.937,off
01/07/2017 12:41:00,20.687,16.875,off
