TIME,INSIDE_TEMPERATURE,OUTSIDE_TEMPERATURE,LIGHTS_STATE

03/18/2017 12:11:25,20.312,17.375,off
03/18/2017 12:11:38,20.312,17.437,off
03/18/2017 12:11:49,20.312,17.437,off
03/18/2017 12:12:01,20.312,17.437,off
