TIME,INSIDE_TEMPERATURE,OUTSIDE_TEMPERATURE,LIGHTS_STATE

01/10/2017 12:14:25,16.625,12.687,off
01/10/2017 12:14:37,16.625,12.75,off
01/10/2017 12:14:48,16.625,12.75,off
01/10/2017 12:15:00,16.625,12.687,off
