TIME,INSIDE_TEMPERATURE,OUTSIDE_TEMPERATURE,LIGHTS_STATE

06/30/2016 12:17:25,28.937,28.75,off
06/30/2016 12:17:36,28.937,28.75,off
06/30/2016 12:17:48,29.0,28.75,off
06/30/2016 12:18:00,29.0,28.75,off
