TIME,INSIDE_TEMPERATURE,OUTSIDE_TEMPERATURE,LIGHTS_STATE

02/24/2017 12:10:25,23.562,21.062,off
02/24/2017 12:10:37,23.562,21.312,off
02/24/2017 12:10:48,23.5,21.5,off
02/24/2017 12:11:00,23.5,21.625,off
