TIME,INSIDE_TEMPERATURE,OUTSIDE_TEMPERATURE,LIGHTS_STATE

01/01/2018 12:05:26,23.125,18.812,off
01/01/2018 12:05:37,23.125,18.875,off
01/01/2018 12:05:49,23.125,18.875,off
01/01/2018 12:06:01,23.125,18.875,off
