TIME,INSIDE_TEMPERATURE,OUTSIDE_TEMPERATURE,LIGHTS_STATE

07/06/2016 12:08:25,23.937,23.625,off
07/06/2016 12:08:38,23.937,23.562,off
07/06/2016 12:08:49,23.937,23.625,off
07/06/2016 12:09:01,23.937,23.625,off
