TIME,INSIDE_TEMPERATURE,OUTSIDE_TEMPERATURE,LIGHTS_STATE

02/12/2018 12:17:26,23.562,27.25,off
02/12/2018 12:17:38,23.5,26.812,off
02/12/2018 12:17:50,23.5,26.937,off
02/12/2018 12:18:01,23.5,27.187,off
