TIME,INSIDE_TEMPERATURE,OUTSIDE_TEMPERATURE,LIGHTS_STATE

07/09/2017 12:49:25,34.687,31.937,off
07/09/2017 12:49:37,34.75,31.937,off
07/09/2017 12:49:48,34.75,31.937,off
07/09/2017 12:50:00,34.75,31.937,off
