TIME,INSIDE_TEMPERATURE,OUTSIDE_TEMPERATURE,LIGHTS_STATE

05/18/2017 12:41:25,25.187,24.125,off
05/18/2017 12:41:37,25.187,24.187,off
05/18/2017 12:41:48,25.187,24.25,off
05/18/2017 12:42:00,25.187,24.25,off
