TIME,INSIDE_TEMPERATURE,OUTSIDE_TEMPERATURE,LIGHTS_STATE

04/23/2017 12:04:25,21.687,19.0,off
04/23/2017 12:04:37,21.75,18.937,off
04/23/2017 12:04:48,21.75,18.875,off
04/23/2017 12:05:00,21.75,18.875,off
