TIME,INSIDE_TEMPERATURE,OUTSIDE_TEMPERATURE,LIGHTS_STATE

04/29/2017 12:01:25,24.937,23.062,off
04/29/2017 12:01:36,24.937,23.125,off
04/29/2017 12:01:48,24.875,23.125,off
04/29/2017 12:02:00,24.937,23.125,off
