TIME,INSIDE_TEMPERATURE,OUTSIDE_TEMPERATURE,LIGHTS_STATE

04/02/2017 12:55:25,25.75,23.25,off
04/02/2017 12:55:36,25.812,23.187,off
04/02/2017 12:55:48,25.812,23.125,off
04/02/2017 12:56:00,25.812,23.125,off
