TIME,INSIDE_TEMPERATURE,OUTSIDE_TEMPERATURE,LIGHTS_STATE

05/11/2017 12:29:25,23.312,20.062,off
05/11/2017 12:29:37,23.312,20.062,off
05/11/2017 12:29:48,23.312,20.062,off
05/11/2017 12:30:00,23.375,20.062,off
