TIME,INSIDE_TEMPERATURE,OUTSIDE_TEMPERATURE,LIGHTS_STATE

01/03/2018 12:30:26,17.0,12.812,off
01/03/2018 12:30:37,17.0,12.812,off
01/03/2018 12:30:49,17.0,12.812,off
01/03/2018 12:31:01,17.0,12.812,off
