TIME,INSIDE_TEMPERATURE,OUTSIDE_TEMPERATURE,LIGHTS_STATE

08/25/2017 12:47:25,30.937,29.0,off
08/25/2017 12:47:37,30.937,29.0,off
08/25/2017 12:47:49,30.937,29.0,off
08/25/2017 12:48:01,30.937,28.937,off
