TIME,INSIDE_TEMPERATURE,OUTSIDE_TEMPERATURE,LIGHTS_STATE

03/13/2017 12:53:26,27.375,24.687,off
03/13/2017 12:53:37,27.375,24.687,off
03/13/2017 12:53:49,27.375,24.687,off
03/13/2017 12:54:01,27.375,24.687,off
