TIME,INSIDE_TEMPERATURE,OUTSIDE_TEMPERATURE,LIGHTS_STATE

01/25/2018 12:23:25,18.75,12.5,off
01/25/2018 12:23:37,18.75,12.437,off
01/25/2018 12:23:48,18.75,12.437,off
01/25/2018 12:24:00,18.75,12.375,off
