TIME,INSIDE_TEMPERATURE,OUTSIDE_TEMPERATURE,LIGHTS_STATE

07/08/2016 12:52:25,24.375,24.375,off
07/08/2016 12:52:36,24.375,24.375,off
07/08/2016 12:52:48,24.375,24.375,off
07/08/2016 12:53:00,24.375,24.375,off
