TIME,INSIDE_TEMPERATURE,OUTSIDE_TEMPERATURE,LIGHTS_STATE

01/10/2017 12:58:25,16.25,12.437,off
01/10/2017 12:58:37,16.25,12.437,off
01/10/2017 12:58:49,16.25,12.437,off
01/10/2017 12:59:00,16.25,12.437,off
