TIME,INSIDE_TEMPERATURE,OUTSIDE_TEMPERATURE,LIGHTS_STATE

09/07/2016 12:02:26,30.875,33.0,off
09/07/2016 12:02:37,30.875,33.062,off
09/07/2016 12:02:49,30.875,33.062,off
09/07/2016 12:03:01,30.875,33.062,off
