TIME,INSIDE_TEMPERATURE,OUTSIDE_TEMPERATURE,LIGHTS_STATE

09/10/2016 12:55:25,29.25,27.312,off
09/10/2016 12:55:36,29.25,27.312,off
09/10/2016 12:55:48,29.25,27.375,off
09/10/2016 12:56:00,29.25,27.375,off
