TIME,INSIDE_TEMPERATURE,OUTSIDE_TEMPERATURE,LIGHTS_STATE

01/18/2017 12:08:25,12.062,8.812,off
01/18/2017 12:08:36,12.062,8.75,off
01/18/2017 12:08:48,12.062,8.75,off
01/18/2017 12:09:00,12.062,8.812,off
