TIME,INSIDE_TEMPERATURE,OUTSIDE_TEMPERATURE,LIGHTS_STATE

10/23/2016 12:52:24,24.937,21.625,off
10/23/2016 12:52:36,24.937,21.625,off
10/23/2016 12:52:48,24.937,21.687,off
10/23/2016 12:52:59,24.937,21.687,off
