TIME,INSIDE_TEMPERATURE,OUTSIDE_TEMPERATURE,LIGHTS_STATE

09/08/2016 12:11:25,28.312,31.0,off
09/08/2016 12:11:37,28.312,31.312,off
09/08/2016 12:11:49,28.312,31.625,off
09/08/2016 12:12:00,28.312,31.937,off
