TIME,INSIDE_TEMPERATURE,OUTSIDE_TEMPERATURE,LIGHTS_STATE

04/02/2017 12:12:25,24.5,22.375,off
04/02/2017 12:12:37,24.5,22.437,off
04/02/2017 12:12:48,24.5,22.375,off
04/02/2017 12:13:00,24.562,22.375,off
