TIME,INSIDE_TEMPERATURE,OUTSIDE_TEMPERATURE,LIGHTS_STATE

12/31/2016 12:36:25,13.312,9.687,off
12/31/2016 12:36:37,13.312,9.687,off
12/31/2016 12:36:49,13.312,9.687,off
12/31/2016 12:37:00,13.312,9.687,off
