TIME,INSIDE_TEMPERATURE,OUTSIDE_TEMPERATURE,LIGHTS_STATE

07/18/2017 12:29:25,28.812,25.812,off
07/18/2017 12:29:37,28.812,25.812,off
07/18/2017 12:29:49,28.875,25.812,off
07/18/2017 12:30:01,28.875,25.875,off
