TIME,INSIDE_TEMPERATURE,OUTSIDE_TEMPERATURE,LIGHTS_STATE

01/13/2018 12:38:25,17.312,12.187,off
01/13/2018 12:38:37,17.312,12.187,off
01/13/2018 12:38:48,17.312,12.187,off
01/13/2018 12:39:00,17.312,12.25,off
