TIME,INSIDE_TEMPERATURE,OUTSIDE_TEMPERATURE,LIGHTS_STATE

03/14/2017 12:45:26,28.312,25.375,off
03/14/2017 12:45:37,28.312,25.437,off
03/14/2017 12:45:49,28.312,25.5,off
03/14/2017 12:46:01,28.312,25.5,off
