TIME,INSIDE_TEMPERATURE,OUTSIDE_TEMPERATURE,LIGHTS_STATE

05/17/2017 12:20:26,22.375,19.812,off
05/17/2017 12:20:37,22.375,19.812,off
05/17/2017 12:20:49,22.375,19.812,off
05/17/2017 12:21:01,22.375,19.812,off
