TIME,INSIDE_TEMPERATURE,OUTSIDE_TEMPERATURE,LIGHTS_STATE

12/14/2016 12:58:25,21.812,18.0,off
12/14/2016 12:58:37,21.812,18.0,off
12/14/2016 12:58:49,21.812,18.0,off
12/14/2016 12:59:00,21.812,18.0,off
