TIME,INSIDE_TEMPERATURE,OUTSIDE_TEMPERATURE,LIGHTS_STATE

10/29/2016 12:07:24,33.0,29.687,off
10/29/2016 12:07:36,32.937,29.75,off
10/29/2016 12:07:48,32.875,29.687,off
10/29/2016 12:08:00,32.937,29.687,off
