TIME,INSIDE_TEMPERATURE,OUTSIDE_TEMPERATURE,LIGHTS_STATE

12/26/2016 12:16:24,16.812,12.75,off
12/26/2016 12:16:36,16.812,12.687,off
12/26/2016 12:16:48,16.812,12.687,off
12/26/2016 12:16:59,16.812,12.625,off
