TIME,INSIDE_TEMPERATURE,OUTSIDE_TEMPERATURE,LIGHTS_STATE

06/30/2016 12:05:25,28.5,28.375,off
06/30/2016 12:05:37,28.5,28.375,off
06/30/2016 12:05:48,28.437,28.437,off
06/30/2016 12:06:00,28.5,28.437,off
