TIME,INSIDE_TEMPERATURE,OUTSIDE_TEMPERATURE,LIGHTS_STATE

02/14/2017 12:48:26,25.875,24.0,off
02/14/2017 12:48:37,25.875,23.937,off
02/14/2017 12:48:49,25.875,23.812,off
02/14/2017 12:49:01,25.875,23.687,off
