TIME,INSIDE_TEMPERATURE,OUTSIDE_TEMPERATURE,LIGHTS_STATE

04/28/2017 12:53:25,23.5,21.812,off
04/28/2017 12:53:37,23.5,21.812,off
04/28/2017 12:53:48,23.5,21.812,off
04/28/2017 12:54:00,23.5,21.812,off
