TIME,INSIDE_TEMPERATURE,OUTSIDE_TEMPERATURE,LIGHTS_STATE

10/14/2017 12:54:26,29.562,29.375,off
10/14/2017 12:54:37,29.562,29.5,off
10/14/2017 12:54:49,29.562,29.625,off
10/14/2017 12:55:01,29.562,29.5,off
