TIME,INSIDE_TEMPERATURE,OUTSIDE_TEMPERATURE,LIGHTS_STATE

03/29/2017 12:05:26,25.875,22.312,off
03/29/2017 12:05:37,25.875,22.312,off
03/29/2017 12:05:49,25.937,22.375,off
03/29/2017 12:06:01,25.937,22.437,off
