TIME,INSIDE_TEMPERATURE,OUTSIDE_TEMPERATURE,LIGHTS_STATE

06/26/2016 12:32:25,32.187,32.125,off
06/26/2016 12:32:37,32.187,32.125,off
06/26/2016 12:32:49,32.187,32.062,off
06/26/2016 12:33:00,32.187,32.062,off
