TIME,INSIDE_TEMPERATURE,OUTSIDE_TEMPERATURE,LIGHTS_STATE

08/03/2016 12:07:26,28.687,29.187,off
08/03/2016 12:07:37,28.687,29.25,off
08/03/2016 12:07:49,28.75,29.187,off
08/03/2016 12:08:01,28.75,29.25,off
