TIME,INSIDE_TEMPERATURE,OUTSIDE_TEMPERATURE,LIGHTS_STATE

09/15/2017 12:12:25,26.75,23.75,off
09/15/2017 12:12:37,26.75,23.812,off
09/15/2017 12:12:49,26.75,23.812,off
09/15/2017 12:13:01,26.625,23.75,off
