TIME,INSIDE_TEMPERATURE,OUTSIDE_TEMPERATURE,LIGHTS_STATE

02/17/2017 12:08:25,19.25,16.062,off
02/17/2017 12:08:37,19.25,16.062,off
02/17/2017 12:08:48,19.25,16.062,off
02/17/2017 12:09:00,19.187,16.062,off
