TIME,INSIDE_TEMPERATURE,OUTSIDE_TEMPERATURE,LIGHTS_STATE

02/27/2017 12:11:25,25.062,19.562,off
02/27/2017 12:11:37,25.062,19.625,off
02/27/2017 12:11:49,25.0,19.625,off
02/27/2017 12:12:00,25.0,19.625,off
