TIME,INSIDE_TEMPERATURE,OUTSIDE_TEMPERATURE,LIGHTS_STATE

02/21/2018 12:02:25,21.125,20.5,off
02/21/2018 12:02:37,21.187,20.375,off
02/21/2018 12:02:48,21.187,20.25,off
02/21/2018 12:03:00,21.187,20.187,off
