TIME,INSIDE_TEMPERATURE,OUTSIDE_TEMPERATURE,LIGHTS_STATE

06/26/2017 12:07:25,27.437,23.375,off
06/26/2017 12:07:37,27.437,23.375,off
06/26/2017 12:07:48,27.437,23.375,off
06/26/2017 12:08:00,27.437,23.437,off
