TIME,INSIDE_TEMPERATURE,OUTSIDE_TEMPERATURE,LIGHTS_STATE

07/11/2016 12:34:25,29.0,28.937,off
07/11/2016 12:34:37,29.0,29.0,off
07/11/2016 12:34:49,29.062,29.0,off
07/11/2016 12:35:00,29.062,29.0,off
