TIME,INSIDE_TEMPERATURE,OUTSIDE_TEMPERATURE,LIGHTS_STATE

05/06/2017 12:31:25,21.625,18.25,off
05/06/2017 12:31:36,21.687,18.312,off
05/06/2017 12:31:48,21.625,18.375,off
05/06/2017 12:32:00,21.687,18.312,off
