TIME,INSIDE_TEMPERATURE,OUTSIDE_TEMPERATURE,LIGHTS_STATE

10/05/2017 12:17:25,30.062,27.125,off
10/05/2017 12:17:37,30.062,27.125,off
10/05/2017 12:17:49,30.062,27.125,off
10/05/2017 12:18:00,30.062,27.187,off
