TIME,INSIDE_TEMPERATURE,OUTSIDE_TEMPERATURE,LIGHTS_STATE

02/22/2017 12:42:25,21.875,18.937,off
02/22/2017 12:42:37,21.875,18.937,off
02/22/2017 12:42:48,21.875,18.812,off
02/22/2017 12:43:00,21.875,18.875,off
