TIME,INSIDE_TEMPERATURE,OUTSIDE_TEMPERATURE,LIGHTS_STATE

02/13/2017 12:09:26,25.125,21.5,off
02/13/2017 12:09:37,25.125,21.5,off
02/13/2017 12:09:49,25.125,21.5,off
02/13/2017 12:10:01,25.062,21.5,off
