TIME,INSIDE_TEMPERATURE,OUTSIDE_TEMPERATURE,LIGHTS_STATE

09/04/2016 12:40:25,24.687,24.562,off
09/04/2016 12:40:37,24.687,24.562,off
09/04/2016 12:40:48,24.687,24.562,off
09/04/2016 12:41:00,24.687,24.562,off
