TIME,INSIDE_TEMPERATURE,OUTSIDE_TEMPERATURE,LIGHTS_STATE

09/04/2017 12:07:25,32.625,30.187,off
09/04/2017 12:07:37,32.625,30.187,off
09/04/2017 12:07:49,32.625,30.125,off
09/04/2017 12:08:00,32.625,30.125,off
