TIME,INSIDE_TEMPERATURE,OUTSIDE_TEMPERATURE,LIGHTS_STATE

06/11/2017 12:23:25,23.125,19.125,off
06/11/2017 12:23:37,23.187,19.187,off
06/11/2017 12:23:49,23.187,19.125,off
06/11/2017 12:24:00,23.187,19.0,off
