TIME,INSIDE_TEMPERATURE,OUTSIDE_TEMPERATURE,LIGHTS_STATE

12/22/2016 12:22:25,22.75,18.75,off
12/22/2016 12:22:37,22.75,18.75,off
12/22/2016 12:22:49,22.75,18.687,off
12/22/2016 12:23:01,22.75,18.812,off
