TIME,INSIDE_TEMPERATURE,OUTSIDE_TEMPERATURE,LIGHTS_STATE

10/18/2017 12:07:25,30.562,31.5,off
10/18/2017 12:07:37,30.562,31.625,off
10/18/2017 12:07:49,30.562,31.5,off
10/18/2017 12:08:01,30.625,31.375,off
