TIME,INSIDE_TEMPERATURE,OUTSIDE_TEMPERATURE,LIGHTS_STATE

01/18/2017 12:40:25,11.937,8.812,off
01/18/2017 12:40:36,11.937,8.875,off
01/18/2017 12:40:48,11.937,8.875,off
01/18/2017 12:41:00,11.937,8.875,off
