TIME,INSIDE_TEMPERATURE,OUTSIDE_TEMPERATURE,LIGHTS_STATE

03/02/2017 12:44:26,24.375,23.562,off
03/02/2017 12:44:38,24.375,23.625,off
03/02/2017 12:44:49,24.375,23.687,off
03/02/2017 12:45:01,24.375,23.562,off
