TIME,INSIDE_TEMPERATURE,OUTSIDE_TEMPERATURE,LIGHTS_STATE

03/07/2018 12:23:25,24.437,36.437,off
03/07/2018 12:23:37,24.437,36.375,off
03/07/2018 12:23:49,24.5,36.25,off
03/07/2018 12:24:01,24.5,36.312,off
