TIME,INSIDE_TEMPERATURE,OUTSIDE_TEMPERATURE,LIGHTS_STATE

09/16/2016 12:47:26,27.312,28.562,off
09/16/2016 12:47:37,27.375,28.562,off
09/16/2016 12:47:49,27.375,28.562,off
09/16/2016 12:48:01,27.375,28.562,off
