TIME,INSIDE_TEMPERATURE,OUTSIDE_TEMPERATURE,LIGHTS_STATE

03/12/2017 12:37:26,29.875,24.625,off
03/12/2017 12:37:37,29.75,24.687,off
03/12/2017 12:37:49,29.687,24.812,off
03/12/2017 12:38:01,29.687,24.875,off
