TIME,INSIDE_TEMPERATURE,OUTSIDE_TEMPERATURE,LIGHTS_STATE

02/03/2018 12:32:26,29.062,31.75,off
02/03/2018 12:32:37,29.125,31.75,off
02/03/2018 12:32:49,28.937,31.75,off
02/03/2018 12:33:01,28.812,31.625,off
