TIME,INSIDE_TEMPERATURE,OUTSIDE_TEMPERATURE,LIGHTS_STATE

09/10/2017 12:31:25,37.875,34.0,off
09/10/2017 12:31:37,37.875,34.062,off
09/10/2017 12:31:49,37.875,34.062,off
09/10/2017 12:32:01,37.937,34.0,off
