TIME,INSIDE_TEMPERATURE,OUTSIDE_TEMPERATURE,LIGHTS_STATE

01/08/2018 12:14:25,17.0,11.312,off
01/08/2018 12:14:37,17.0,11.312,off
01/08/2018 12:14:49,17.0,11.312,off
01/08/2018 12:15:01,17.0,11.312,off
