TIME,INSIDE_TEMPERATURE,OUTSIDE_TEMPERATURE,LIGHTS_STATE

09/14/2016 12:27:25,26.25,25.25,off
09/14/2016 12:27:37,26.25,25.312,off
09/14/2016 12:27:48,26.312,25.375,off
09/14/2016 12:28:00,26.25,25.375,off
