TIME,INSIDE_TEMPERATURE,OUTSIDE_TEMPERATURE,LIGHTS_STATE

06/20/2017 12:16:25,35.625,32.937,off
06/20/2017 12:16:37,35.625,32.875,off
06/20/2017 12:16:48,35.625,32.875,off
06/20/2017 12:17:00,35.625,32.875,off
