TIME,INSIDE_TEMPERATURE,OUTSIDE_TEMPERATURE,LIGHTS_STATE

09/07/2016 12:41:26,32.187,34.0,off
09/07/2016 12:41:38,32.187,34.0,off
09/07/2016 12:41:49,32.187,33.937,off
09/07/2016 12:42:01,32.25,33.937,off
