TIME,INSIDE_TEMPERATURE,OUTSIDE_TEMPERATURE,LIGHTS_STATE

03/23/2018 12:47:26,19.187,14.437,off
03/23/2018 12:47:37,19.187,14.5,off
03/23/2018 12:47:49,19.187,14.562,off
03/23/2018 12:48:01,19.25,14.562,off
