TIME,INSIDE_TEMPERATURE,OUTSIDE_TEMPERATURE,LIGHTS_STATE

08/16/2017 12:23:25,27.25,24.437,off
08/16/2017 12:23:37,27.25,24.437,off
08/16/2017 12:23:48,27.312,24.437,off
08/16/2017 12:24:00,27.25,24.437,off
