TIME,INSIDE_TEMPERATURE,OUTSIDE_TEMPERATURE,LIGHTS_STATE

08/30/2017 12:23:25,29.437,27.437,off
08/30/2017 12:23:37,29.437,27.5,off
08/30/2017 12:23:49,29.437,27.5,off
08/30/2017 12:24:00,29.437,27.562,off
