TIME,INSIDE_TEMPERATURE,OUTSIDE_TEMPERATURE,LIGHTS_STATE

10/26/2017 12:00:26,35.625,52.812,off
10/26/2017 12:00:38,35.625,52.875,off
10/26/2017 12:00:50,35.625,52.937,off
10/26/2017 12:01:02,35.625,53.062,off
