TIME,INSIDE_TEMPERATURE,OUTSIDE_TEMPERATURE,LIGHTS_STATE

12/26/2016 12:10:24,16.937,12.375,off
12/26/2016 12:10:36,16.937,12.375,off
12/26/2016 12:10:48,16.937,12.312,off
12/26/2016 12:10:59,16.937,12.312,off
