TIME,INSIDE_TEMPERATURE,OUTSIDE_TEMPERATURE,LIGHTS_STATE

09/24/2017 12:07:26,27.562,25.25,off
09/24/2017 12:07:37,27.562,25.25,off
09/24/2017 12:07:49,27.562,25.25,off
09/24/2017 12:08:01,27.625,25.187,off
