TIME,INSIDE_TEMPERATURE,OUTSIDE_TEMPERATURE,LIGHTS_STATE

08/17/2017 12:44:25,31.187,28.937,off
08/17/2017 12:44:37,31.25,28.875,off
08/17/2017 12:44:49,31.25,28.875,off
08/17/2017 12:45:01,31.25,28.875,off
