TIME,INSIDE_TEMPERATURE,OUTSIDE_TEMPERATURE,LIGHTS_STATE

09/14/2017 12:55:26,28.062,24.75,off
09/14/2017 12:55:37,28.0,24.75,off
09/14/2017 12:55:49,28.062,24.75,off
09/14/2017 12:56:01,28.062,24.812,off
