TIME,INSIDE_TEMPERATURE,OUTSIDE_TEMPERATURE,LIGHTS_STATE

06/21/2016 12:32:25,31.937,31.875,off
06/21/2016 12:32:36,31.875,31.875,off
06/21/2016 12:32:48,31.875,31.875,off
06/21/2016 12:33:00,31.937,31.875,off
