TIME,INSIDE_TEMPERATURE,OUTSIDE_TEMPERATURE,LIGHTS_STATE

10/03/2017 12:09:26,26.562,23.312,off
10/03/2017 12:09:37,26.562,23.312,off
10/03/2017 12:09:49,26.562,23.312,off
10/03/2017 12:10:01,26.562,23.375,off
