TIME,INSIDE_TEMPERATURE,OUTSIDE_TEMPERATURE,LIGHTS_STATE

12/15/2016 12:16:26,20.625,17.812,off
12/15/2016 12:16:37,20.625,17.812,off
12/15/2016 12:16:49,20.625,17.812,off
12/15/2016 12:17:01,20.625,17.812,off
