TIME,INSIDE_TEMPERATURE,OUTSIDE_TEMPERATURE,LIGHTS_STATE

08/19/2017 12:35:25,30.437,28.187,off
08/19/2017 12:35:37,30.437,28.125,off
08/19/2017 12:35:48,30.5,28.187,off
08/19/2017 12:36:00,30.562,28.187,off
