TIME,INSIDE_TEMPERATURE,OUTSIDE_TEMPERATURE,LIGHTS_STATE

08/04/2016 12:22:26,25.187,24.937,off
08/04/2016 12:22:37,25.187,24.937,off
08/04/2016 12:22:49,25.25,24.937,off
08/04/2016 12:23:01,25.187,24.875,off
