TIME,INSIDE_TEMPERATURE,OUTSIDE_TEMPERATURE,LIGHTS_STATE

01/28/2018 12:26:25,24.812,21.0,off
01/28/2018 12:26:37,24.812,21.0,off
01/28/2018 12:26:49,24.812,21.062,off
01/28/2018 12:27:00,24.812,21.125,off
