TIME,INSIDE_TEMPERATURE,OUTSIDE_TEMPERATURE,LIGHTS_STATE

07/19/2016 12:48:26,25.125,25.125,off
07/19/2016 12:48:37,25.125,25.125,off
07/19/2016 12:48:49,25.187,25.187,off
07/19/2016 12:49:01,25.187,25.187,off
