TIME,INSIDE_TEMPERATURE,OUTSIDE_TEMPERATURE,LIGHTS_STATE

06/26/2016 12:49:26,32.625,32.562,off
06/26/2016 12:49:37,32.625,32.562,off
06/26/2016 12:49:50,32.625,32.625,off
06/26/2016 12:50:01,32.625,32.687,off
