TIME,INSIDE_TEMPERATURE,OUTSIDE_TEMPERATURE,LIGHTS_STATE

09/15/2017 12:46:25,27.75,24.75,off
09/15/2017 12:46:37,27.812,24.75,off
09/15/2017 12:46:49,27.812,24.875,off
09/15/2017 12:47:01,27.812,24.937,off
