TIME,INSIDE_TEMPERATURE,OUTSIDE_TEMPERATURE,LIGHTS_STATE

02/21/2017 12:36:26,23.75,23.375,off
02/21/2017 12:36:37,23.812,23.437,off
02/21/2017 12:36:49,23.75,23.562,off
02/21/2017 12:37:01,23.75,23.687,off
