TIME,INSIDE_TEMPERATURE,OUTSIDE_TEMPERATURE,LIGHTS_STATE

01/13/2017 12:55:25,20.812,16.562,off
01/13/2017 12:55:37,20.812,16.625,off
01/13/2017 12:55:48,20.812,16.687,off
01/13/2017 12:56:00,20.812,16.687,off
