TIME,INSIDE_TEMPERATURE,OUTSIDE_TEMPERATURE,LIGHTS_STATE

10/25/2016 12:27:25,28.625,28.437,off
10/25/2016 12:27:37,28.5,27.937,off
10/25/2016 12:27:48,28.375,27.937,off
10/25/2016 12:28:00,28.312,27.0,off
