TIME,INSIDE_TEMPERATURE,OUTSIDE_TEMPERATURE,LIGHTS_STATE

06/10/2017 12:09:25,24.5,20.75,off
06/10/2017 12:09:37,24.5,20.687,off
06/10/2017 12:09:48,24.5,20.625,off
06/10/2017 12:10:00,24.5,20.562,off
