TIME,INSIDE_TEMPERATURE,OUTSIDE_TEMPERATURE,LIGHTS_STATE

08/18/2017 12:39:25,31.812,29.812,off
08/18/2017 12:39:37,31.812,29.812,off
08/18/2017 12:39:48,31.812,29.812,off
08/18/2017 12:40:00,31.812,29.812,off
