TIME,INSIDE_TEMPERATURE,OUTSIDE_TEMPERATURE,LIGHTS_STATE

09/16/2016 12:30:25,26.25,26.937,off
09/16/2016 12:30:37,26.25,27.0,off
09/16/2016 12:30:48,26.25,27.062,off
09/16/2016 12:31:00,26.25,27.187,off
