TIME,INSIDE_TEMPERATURE,OUTSIDE_TEMPERATURE,LIGHTS_STATE

11/13/2016 12:23:25,30.312,33.75,off
11/13/2016 12:23:37,30.312,33.812,off
11/13/2016 12:23:48,30.312,34.25,off
11/13/2016 12:24:00,30.312,34.25,off
