TIME,INSIDE_TEMPERATURE,OUTSIDE_TEMPERATURE,LIGHTS_STATE

07/03/2017 12:44:25,31.625,29.062,off
07/03/2017 12:44:37,31.625,29.0,off
07/03/2017 12:44:48,31.625,29.0,off
07/03/2017 12:45:00,31.625,29.0,off
