TIME,INSIDE_TEMPERATURE,OUTSIDE_TEMPERATURE,LIGHTS_STATE

08/12/2017 12:14:25,28.25,26.187,off
08/12/2017 12:14:37,28.312,26.25,off
08/12/2017 12:14:48,28.312,26.312,off
08/12/2017 12:15:00,28.312,26.312,off
