TIME,INSIDE_TEMPERATURE,OUTSIDE_TEMPERATURE,LIGHTS_STATE

03/30/2018 12:42:25,28.75,27.562,off
03/30/2018 12:42:37,28.75,27.625,off
03/30/2018 12:42:49,28.75,27.687,off
03/30/2018 12:43:01,28.75,27.687,off
