TIME,INSIDE_TEMPERATURE,OUTSIDE_TEMPERATURE,LIGHTS_STATE

01/12/2018 12:45:26,21.125,21.562,off
01/12/2018 12:45:37,21.125,21.812,off
01/12/2018 12:45:49,21.125,22.062,off
01/12/2018 12:46:01,21.125,22.25,off
