TIME,INSIDE_TEMPERATURE,OUTSIDE_TEMPERATURE,LIGHTS_STATE

12/13/2016 12:34:25,18.25,14.562,off
12/13/2016 12:34:37,18.25,14.562,off
12/13/2016 12:34:48,18.25,14.5,off
12/13/2016 12:35:00,18.25,14.562,off
