TIME,INSIDE_TEMPERATURE,OUTSIDE_TEMPERATURE,LIGHTS_STATE

01/04/2018 12:34:25,22.0,24.437,off
01/04/2018 12:34:37,22.0,24.937,off
01/04/2018 12:34:49,22.0,25.312,off
01/04/2018 12:35:01,22.062,25.437,off
