TIME,INSIDE_TEMPERATURE,OUTSIDE_TEMPERATURE,LIGHTS_STATE

08/29/2017 12:22:25,30.312,28.25,off
08/29/2017 12:22:37,30.375,28.312,off
08/29/2017 12:22:49,30.375,28.25,off
08/29/2017 12:23:00,30.375,28.25,off
