TIME,INSIDE_TEMPERATURE,OUTSIDE_TEMPERATURE,LIGHTS_STATE

01/06/2017 12:06:25,16.812,12.625,off
01/06/2017 12:06:37,16.812,12.625,off
01/06/2017 12:06:48,16.812,12.625,off
01/06/2017 12:07:00,16.812,12.562,off
