TIME,INSIDE_TEMPERATURE,OUTSIDE_TEMPERATURE,LIGHTS_STATE

03/14/2017 12:28:26,27.875,24.875,off
03/14/2017 12:28:37,27.875,24.875,off
03/14/2017 12:28:49,27.937,24.812,off
03/14/2017 12:29:01,27.937,24.812,off
