TIME,INSIDE_TEMPERATURE,OUTSIDE_TEMPERATURE,LIGHTS_STATE

08/22/2017 12:12:25,30.5,28.5,off
08/22/2017 12:12:37,30.5,28.5,off
08/22/2017 12:12:48,30.562,28.562,off
08/22/2017 12:13:00,30.562,28.562,off
