TIME,INSIDE_TEMPERATURE,OUTSIDE_TEMPERATURE,LIGHTS_STATE

12/18/2016 12:58:24,16.062,15.375,off
12/18/2016 12:58:36,16.062,14.937,off
12/18/2016 12:58:48,16.062,14.437,off
12/18/2016 12:58:59,16.0,14.0,off
