TIME,INSIDE_TEMPERATURE,OUTSIDE_TEMPERATURE,LIGHTS_STATE

07/08/2017 12:54:25,39.625,34.625,off
07/08/2017 12:54:37,39.687,34.562,off
07/08/2017 12:54:49,39.687,34.562,off
07/08/2017 12:55:01,39.687,34.562,off
