TIME,INSIDE_TEMPERATURE,OUTSIDE_TEMPERATURE,LIGHTS_STATE

01/08/2017 12:18:25,19.0,15.312,off
01/08/2017 12:18:36,18.937,15.312,off
01/08/2017 12:18:48,18.937,15.312,off
01/08/2017 12:19:00,19.0,15.312,off
