TIME,INSIDE_TEMPERATURE,OUTSIDE_TEMPERATURE,LIGHTS_STATE

04/01/2017 12:16:25,25.437,22.875,off
04/01/2017 12:16:37,25.5,22.875,off
04/01/2017 12:16:49,25.5,22.937,off
04/01/2017 12:17:00,25.5,22.937,off
