TIME,INSIDE_TEMPERATURE,OUTSIDE_TEMPERATURE,LIGHTS_STATE

01/03/2017 12:48:25,15.125,11.937,off
01/03/2017 12:48:37,15.125,11.937,off
01/03/2017 12:48:48,15.125,11.937,off
01/03/2017 12:49:00,15.125,11.937,off
