TIME,INSIDE_TEMPERATURE,OUTSIDE_TEMPERATURE,LIGHTS_STATE

12/28/2016 12:33:25,19.937,16.562,off
12/28/2016 12:33:36,19.937,16.5,off
12/28/2016 12:33:49,19.937,16.437,off
12/28/2016 12:34:00,19.937,16.312,off
