TIME,INSIDE_TEMPERATURE,OUTSIDE_TEMPERATURE,LIGHTS_STATE

03/27/2018 12:01:26,21.625,16.687,off
03/27/2018 12:01:37,21.625,16.687,off
03/27/2018 12:01:49,21.625,16.687,off
03/27/2018 12:02:01,21.625,16.687,off
