TIME,INSIDE_TEMPERATURE,OUTSIDE_TEMPERATURE,LIGHTS_STATE

03/03/2018 12:53:25,17.062,10.75,off
03/03/2018 12:53:37,17.062,10.75,off
03/03/2018 12:53:49,17.062,10.812,off
03/03/2018 12:54:00,17.062,10.812,off
