TIME,INSIDE_TEMPERATURE,OUTSIDE_TEMPERATURE,LIGHTS_STATE

02/18/2017 12:48:25,16.812,12.75,off
02/18/2017 12:48:37,16.812,12.75,off
02/18/2017 12:48:48,16.812,12.75,off
02/18/2017 12:49:00,16.812,12.687,off
