TIME,INSIDE_TEMPERATURE,OUTSIDE_TEMPERATURE,LIGHTS_STATE

02/07/2018 12:15:25,28.75,28.812,off
02/07/2018 12:15:37,28.75,28.875,off
02/07/2018 12:15:49,28.75,28.937,off
02/07/2018 12:16:01,28.75,29.0,off
