TIME,INSIDE_TEMPERATURE,OUTSIDE_TEMPERATURE,LIGHTS_STATE

04/25/2017 12:50:25,24.312,20.812,off
04/25/2017 12:50:36,24.312,20.75,off
04/25/2017 12:50:48,24.375,20.687,off
04/25/2017 12:51:00,24.375,20.75,off
