TIME,INSIDE_TEMPERATURE,OUTSIDE_TEMPERATURE,LIGHTS_STATE

04/18/2017 12:11:25,22.812,17.875,off
04/18/2017 12:11:37,22.812,17.875,off
04/18/2017 12:11:48,22.875,17.875,off
04/18/2017 12:12:00,22.875,17.875,off
