TIME,INSIDE_TEMPERATURE,OUTSIDE_TEMPERATURE,LIGHTS_STATE

02/23/2018 12:07:25,18.625,16.875,off
02/23/2018 12:07:37,18.625,16.875,off
02/23/2018 12:07:49,18.625,16.875,off
02/23/2018 12:08:01,18.625,17.062,off
