TIME,INSIDE_TEMPERATURE,OUTSIDE_TEMPERATURE,LIGHTS_STATE

04/03/2017 12:20:25,23.375,21.312,off
04/03/2017 12:20:36,23.375,21.312,off
04/03/2017 12:20:48,23.437,21.312,off
04/03/2017 12:21:00,23.437,21.312,off
