TIME,INSIDE_TEMPERATURE,OUTSIDE_TEMPERATURE,LIGHTS_STATE

04/12/2017 12:30:25,19.875,14.875,off
04/12/2017 12:30:37,19.875,14.937,off
04/12/2017 12:30:49,19.875,14.875,off
04/12/2017 12:31:00,19.875,14.875,off
