TIME,INSIDE_TEMPERATURE,OUTSIDE_TEMPERATURE,LIGHTS_STATE

09/08/2017 12:50:25,29.5,27.125,off
09/08/2017 12:50:37,29.5,27.187,off
09/08/2017 12:50:49,29.562,27.125,off
09/08/2017 12:51:01,29.562,27.125,off
