TIME,INSIDE_TEMPERATURE,OUTSIDE_TEMPERATURE,LIGHTS_STATE

03/29/2017 12:30:25,25.375,23.312,off
03/29/2017 12:30:36,25.375,23.375,off
03/29/2017 12:30:48,25.375,23.375,off
03/29/2017 12:31:00,25.437,23.437,off
