TIME,INSIDE_TEMPERATURE,OUTSIDE_TEMPERATURE,LIGHTS_STATE

03/14/2018 12:17:26,18.312,12.25,off
03/14/2018 12:17:37,18.312,12.25,off
03/14/2018 12:17:49,18.312,12.187,off
03/14/2018 12:18:01,18.312,12.187,off
