TIME,INSIDE_TEMPERATURE,OUTSIDE_TEMPERATURE,LIGHTS_STATE

07/09/2016 12:38:25,26.625,26.125,off
07/09/2016 12:38:37,26.625,26.125,off
07/09/2016 12:38:49,26.625,26.125,off
07/09/2016 12:39:00,26.625,26.125,off
