TIME,INSIDE_TEMPERATURE,OUTSIDE_TEMPERATURE,LIGHTS_STATE

10/30/2016 12:19:24,19.187,15.625,off
10/30/2016 12:19:37,19.187,15.687,off
10/30/2016 12:19:49,19.187,15.687,off
10/30/2016 12:20:00,19.187,15.687,off
