TIME,INSIDE_TEMPERATURE,OUTSIDE_TEMPERATURE,LIGHTS_STATE

02/15/2017 12:26:25,22.062,19.437,off
02/15/2017 12:26:37,22.0,19.375,off
02/15/2017 12:26:49,22.062,19.312,off
02/15/2017 12:27:00,22.0,19.312,off
