TIME,INSIDE_TEMPERATURE,OUTSIDE_TEMPERATURE,LIGHTS_STATE

03/25/2017 12:40:25,23.062,18.312,off
03/25/2017 12:40:37,23.125,18.187,off
03/25/2017 12:40:48,23.125,18.25,off
03/25/2017 12:41:01,23.125,18.312,off
