TIME,INSIDE_TEMPERATURE,OUTSIDE_TEMPERATURE,LIGHTS_STATE

10/13/2017 12:11:26,28.625,26.437,off
10/13/2017 12:11:37,28.625,26.375,off
10/13/2017 12:11:49,28.625,26.437,off
10/13/2017 12:12:01,28.625,26.562,off
