TIME,INSIDE_TEMPERATURE,OUTSIDE_TEMPERATURE,LIGHTS_STATE

12/07/2016 12:41:25,13.562,10.187,off
12/07/2016 12:41:38,13.562,10.25,off
12/07/2016 12:41:50,13.562,10.25,off
12/07/2016 12:42:02,13.625,10.312,off
