TIME,INSIDE_TEMPERATURE,OUTSIDE_TEMPERATURE,LIGHTS_STATE

11/23/2016 12:52:26,23.312,19.812,off
11/23/2016 12:52:37,23.312,19.812,off
11/23/2016 12:52:49,23.312,19.812,off
11/23/2016 12:53:01,23.312,19.75,off
