TIME,INSIDE_TEMPERATURE,OUTSIDE_TEMPERATURE,LIGHTS_STATE

05/17/2017 12:38:25,22.625,20.312,off
05/17/2017 12:38:36,22.625,20.375,off
05/17/2017 12:38:48,22.625,20.375,off
05/17/2017 12:39:00,22.625,20.375,off
