TIME,INSIDE_TEMPERATURE,OUTSIDE_TEMPERATURE,LIGHTS_STATE

09/09/2016 12:55:25,29.187,35.375,off
09/09/2016 12:55:37,29.187,35.812,off
09/09/2016 12:55:48,29.25,36.25,off
09/09/2016 12:56:00,29.25,36.75,off
