TIME,INSIDE_TEMPERATURE,OUTSIDE_TEMPERATURE,LIGHTS_STATE

02/05/2018 12:30:25,30.25,34.75,off
02/05/2018 12:30:37,30.25,34.687,off
02/05/2018 12:30:49,30.25,34.687,off
02/05/2018 12:31:01,30.25,34.625,off
