TIME,INSIDE_TEMPERATURE,OUTSIDE_TEMPERATURE,LIGHTS_STATE

10/17/2017 12:18:25,30.25,28.812,off
10/17/2017 12:18:37,30.25,28.812,off
10/17/2017 12:18:49,30.25,28.875,off
10/17/2017 12:19:01,30.25,28.937,off
