TIME,INSIDE_TEMPERATURE,OUTSIDE_TEMPERATURE,LIGHTS_STATE

10/18/2017 12:57:26,31.937,30.75,off
10/18/2017 12:57:37,32.0,30.687,off
10/18/2017 12:57:49,32.0,30.562,off
10/18/2017 12:58:01,32.0,30.562,off
