TIME,INSIDE_TEMPERATURE,OUTSIDE_TEMPERATURE,LIGHTS_STATE

11/15/2016 12:40:25,26.812,21.5,off
11/15/2016 12:40:36,26.812,21.562,off
11/15/2016 12:40:48,26.812,21.5,off
11/15/2016 12:41:00,26.812,21.5,off
