TIME,INSIDE_TEMPERATURE,OUTSIDE_TEMPERATURE,LIGHTS_STATE

06/26/2016 12:54:25,32.875,33.187,off
06/26/2016 12:54:36,32.812,33.187,off
06/26/2016 12:54:48,32.875,33.187,off
06/26/2016 12:55:00,32.812,33.187,off
