TIME,INSIDE_TEMPERATURE,OUTSIDE_TEMPERATURE,LIGHTS_STATE

06/23/2016 12:27:25,27.187,28.187,off
06/23/2016 12:27:36,27.187,28.187,off
06/23/2016 12:27:48,27.187,28.187,off
06/23/2016 12:28:00,27.187,28.125,off
