TIME,INSIDE_TEMPERATURE,OUTSIDE_TEMPERATURE,LIGHTS_STATE

08/22/2017 12:42:25,31.312,29.5,off
08/22/2017 12:42:37,31.312,29.5,off
08/22/2017 12:42:48,31.375,29.5,off
08/22/2017 12:43:00,31.312,29.5,off
