TIME,INSIDE_TEMPERATURE,OUTSIDE_TEMPERATURE,LIGHTS_STATE

01/04/2017 12:10:25,17.0,12.625,off
01/04/2017 12:10:37,17.0,12.687,off
01/04/2017 12:10:48,17.0,12.687,off
01/04/2017 12:11:00,17.0,12.687,off
