TIME,INSIDE_TEMPERATURE,OUTSIDE_TEMPERATURE,LIGHTS_STATE

01/15/2018 12:56:25,23.625,19.75,off
01/15/2018 12:56:37,23.625,19.687,off
01/15/2018 12:56:49,23.625,19.687,off
01/15/2018 12:57:00,23.625,19.75,off
