TIME,INSIDE_TEMPERATURE,OUTSIDE_TEMPERATURE,LIGHTS_STATE

10/26/2017 12:39:25,36.062,46.25,off
10/26/2017 12:39:37,36.062,46.437,off
10/26/2017 12:39:49,36.062,46.625,off
10/26/2017 12:40:01,36.062,46.875,off
