TIME,INSIDE_TEMPERATURE,OUTSIDE_TEMPERATURE,LIGHTS_STATE

08/28/2017 12:45:25,38.625,37.187,off
08/28/2017 12:45:37,38.625,37.25,off
08/28/2017 12:45:49,38.562,37.25,off
08/28/2017 12:46:00,38.562,37.187,off
