TIME,INSIDE_TEMPERATURE,OUTSIDE_TEMPERATURE,LIGHTS_STATE

03/16/2017 12:21:25,25.687,22.062,off
03/16/2017 12:21:37,25.75,22.125,off
03/16/2017 12:21:49,25.75,22.187,off
03/16/2017 12:22:00,25.687,22.25,off
