TIME,INSIDE_TEMPERATURE,OUTSIDE_TEMPERATURE,LIGHTS_STATE

08/03/2016 12:57:25,30.562,30.812,off
08/03/2016 12:57:37,30.562,30.812,off
08/03/2016 12:57:48,30.562,30.75,off
08/03/2016 12:58:00,30.562,30.687,off
