TIME,INSIDE_TEMPERATURE,OUTSIDE_TEMPERATURE,LIGHTS_STATE

02/06/2018 12:00:26,29.875,26.5,off
02/06/2018 12:00:37,29.875,26.5,off
02/06/2018 12:00:49,29.875,26.5,off
02/06/2018 12:01:01,29.875,26.5,off
