TIME,INSIDE_TEMPERATURE,OUTSIDE_TEMPERATURE,LIGHTS_STATE

09/03/2016 12:13:25,23.875,23.375,off
09/03/2016 12:13:37,23.875,23.437,off
09/03/2016 12:13:49,23.937,23.437,off
09/03/2016 12:14:00,23.937,23.437,off
