TIME,INSIDE_TEMPERATURE,OUTSIDE_TEMPERATURE,LIGHTS_STATE

09/17/2016 12:08:25,28.687,31.437,off
09/17/2016 12:08:38,28.687,31.375,off
09/17/2016 12:08:49,28.687,31.312,off
09/17/2016 12:09:01,28.75,31.312,off
