TIME,INSIDE_TEMPERATURE,OUTSIDE_TEMPERATURE,LIGHTS_STATE

02/24/2018 12:30:25,22.062,23.437,off
02/24/2018 12:30:37,22.062,23.5,off
02/24/2018 12:30:49,22.125,23.562,off
02/24/2018 12:31:01,22.062,23.687,off
