TIME,INSIDE_TEMPERATURE,OUTSIDE_TEMPERATURE,LIGHTS_STATE

12/26/2016 12:43:24,16.25,13.0,off
12/26/2016 12:43:36,16.25,13.125,off
12/26/2016 12:43:48,16.25,13.187,off
12/26/2016 12:43:59,16.312,13.187,off
