TIME,INSIDE_TEMPERATURE,OUTSIDE_TEMPERATURE,LIGHTS_STATE

10/22/2017 12:53:26,30.5,33.0,off
10/22/2017 12:53:37,30.437,33.187,off
10/22/2017 12:53:49,30.5,33.312,off
10/22/2017 12:54:01,30.5,33.312,off
