TIME,INSIDE_TEMPERATURE,OUTSIDE_TEMPERATURE,LIGHTS_STATE

02/26/2017 12:42:26,22.25,23.875,off
02/26/2017 12:42:37,22.187,23.812,off
02/26/2017 12:42:49,22.25,23.875,off
02/26/2017 12:43:01,22.187,23.937,off
