TIME,INSIDE_TEMPERATURE,OUTSIDE_TEMPERATURE,LIGHTS_STATE

10/19/2017 12:04:25,25.187,19.312,off
10/19/2017 12:04:37,25.187,19.25,off
10/19/2017 12:04:48,25.187,19.25,off
10/19/2017 12:05:00,25.187,19.312,off
