TIME,INSIDE_TEMPERATURE,OUTSIDE_TEMPERATURE,LIGHTS_STATE

03/21/2017 12:23:25,22.25,20.625,off
03/21/2017 12:23:37,22.25,20.687,off
03/21/2017 12:23:48,22.312,20.75,off
03/21/2017 12:24:00,22.312,20.875,off
