TIME,INSIDE_TEMPERATURE,OUTSIDE_TEMPERATURE,LIGHTS_STATE

03/01/2017 12:47:25,23.0,24.187,off
03/01/2017 12:47:37,23.0,24.375,off
03/01/2017 12:47:49,23.0,24.437,off
03/01/2017 12:48:00,23.0,24.5,off
