TIME,INSIDE_TEMPERATURE,OUTSIDE_TEMPERATURE,LIGHTS_STATE

08/29/2017 12:07:25,30.125,28.312,off
08/29/2017 12:07:37,30.125,28.187,off
08/29/2017 12:07:48,30.187,28.125,off
08/29/2017 12:08:00,30.187,28.125,off
