TIME,INSIDE_TEMPERATURE,OUTSIDE_TEMPERATURE,LIGHTS_STATE

08/07/2016 12:28:26,25.187,25.0,off
08/07/2016 12:28:38,25.125,24.937,off
08/07/2016 12:28:49,25.125,24.937,off
08/07/2016 12:29:01,25.062,24.937,off
