TIME,INSIDE_TEMPERATURE,OUTSIDE_TEMPERATURE,LIGHTS_STATE

03/22/2018 12:08:25,19.875,12.687,off
03/22/2018 12:08:37,19.875,12.75,off
03/22/2018 12:08:49,19.875,12.75,off
03/22/2018 12:09:01,19.812,12.75,off
