TIME,INSIDE_TEMPERATURE,OUTSIDE_TEMPERATURE,LIGHTS_STATE

01/01/2017 12:45:25,20.312,21.625,off
01/01/2017 12:45:37,20.375,21.625,off
01/01/2017 12:45:49,20.312,21.75,off
01/01/2017 12:46:00,20.312,21.875,off
