TIME,INSIDE_TEMPERATURE,OUTSIDE_TEMPERATURE,LIGHTS_STATE

02/12/2018 12:09:25,23.437,24.062,off
02/12/2018 12:09:37,23.437,24.562,off
02/12/2018 12:09:49,23.437,24.875,off
02/12/2018 12:10:01,23.437,25.25,off
