TIME,INSIDE_TEMPERATURE,OUTSIDE_TEMPERATURE,LIGHTS_STATE

01/30/2018 12:13:25,26.062,22.687,off
01/30/2018 12:13:37,26.062,22.75,off
01/30/2018 12:13:49,26.062,22.75,off
01/30/2018 12:14:00,26.062,22.687,off
