TIME,INSIDE_TEMPERATURE,OUTSIDE_TEMPERATURE,LIGHTS_STATE

12/27/2016 12:36:25,20.312,16.875,off
12/27/2016 12:36:37,20.312,16.875,off
12/27/2016 12:36:49,20.312,16.875,off
12/27/2016 12:37:00,20.312,16.875,off
