TIME,INSIDE_TEMPERATURE,OUTSIDE_TEMPERATURE,LIGHTS_STATE

07/09/2017 12:55:25,35.0,32.875,off
07/09/2017 12:55:37,35.0,32.937,off
07/09/2017 12:55:49,35.0,32.937,off
07/09/2017 12:56:01,35.0,32.937,off
