TIME,INSIDE_TEMPERATURE,OUTSIDE_TEMPERATURE,LIGHTS_STATE

09/10/2017 12:13:25,36.625,33.187,off
09/10/2017 12:13:37,36.625,33.187,off
09/10/2017 12:13:49,36.687,33.25,off
09/10/2017 12:14:01,36.687,33.25,off
