TIME,INSIDE_TEMPERATURE,OUTSIDE_TEMPERATURE,LIGHTS_STATE

03/18/2017 12:56:25,20.75,17.25,off
03/18/2017 12:56:37,20.75,17.25,off
03/18/2017 12:56:49,20.75,17.25,off
03/18/2017 12:57:00,20.75,17.25,off
