TIME,INSIDE_TEMPERATURE,OUTSIDE_TEMPERATURE,LIGHTS_STATE

04/21/2017 12:00:26,24.0,22.25,off
04/21/2017 12:00:37,23.937,22.25,off
04/21/2017 12:00:49,23.937,22.312,off
04/21/2017 12:01:01,23.937,22.312,off
