TIME,INSIDE_TEMPERATURE,OUTSIDE_TEMPERATURE,LIGHTS_STATE

02/27/2017 12:50:25,23.437,24.0,off
02/27/2017 12:50:37,23.437,24.0,off
02/27/2017 12:50:49,23.375,23.75,off
02/27/2017 12:51:00,23.437,23.562,off
