TIME,INSIDE_TEMPERATURE,OUTSIDE_TEMPERATURE,LIGHTS_STATE

01/03/2018 12:48:25,17.062,12.75,off
01/03/2018 12:48:37,17.062,12.75,off
01/03/2018 12:48:49,17.062,12.75,off
01/03/2018 12:49:01,17.062,12.812,off
