TIME,INSIDE_TEMPERATURE,OUTSIDE_TEMPERATURE,LIGHTS_STATE

06/15/2017 12:50:25,29.937,26.25,off
06/15/2017 12:50:37,29.937,26.312,off
06/15/2017 12:50:49,29.937,26.312,off
06/15/2017 12:51:01,29.937,26.312,off
