TIME,INSIDE_TEMPERATURE,OUTSIDE_TEMPERATURE,LIGHTS_STATE

09/18/2016 12:20:25,32.062,33.687,off
09/18/2016 12:20:37,32.062,33.687,off
09/18/2016 12:20:49,32.062,33.687,off
09/18/2016 12:21:00,32.062,33.687,off
