TIME,INSIDE_TEMPERATURE,OUTSIDE_TEMPERATURE,LIGHTS_STATE

12/22/2016 12:49:24,22.187,20.625,off
12/22/2016 12:49:36,22.187,20.937,off
12/22/2016 12:49:48,22.187,21.125,off
12/22/2016 12:49:59,22.187,21.187,off
