TIME,INSIDE_TEMPERATURE,OUTSIDE_TEMPERATURE,LIGHTS_STATE

05/18/2017 12:54:25,25.625,24.75,off
05/18/2017 12:54:36,25.625,24.75,off
05/18/2017 12:54:48,25.625,24.75,off
05/18/2017 12:55:00,25.625,24.75,off
