TIME,INSIDE_TEMPERATURE,OUTSIDE_TEMPERATURE,LIGHTS_STATE

02/14/2017 12:57:25,25.625,23.125,off
02/14/2017 12:57:37,25.625,23.062,off
02/14/2017 12:57:48,25.625,22.937,off
02/14/2017 12:58:00,25.625,22.875,off
