TIME,INSIDE_TEMPERATURE,OUTSIDE_TEMPERATURE,LIGHTS_STATE

07/18/2017 12:27:25,28.75,25.875,off
07/18/2017 12:27:37,28.75,25.875,off
07/18/2017 12:27:49,28.812,25.875,off
07/18/2017 12:28:01,28.812,25.875,off
