TIME,INSIDE_TEMPERATURE,OUTSIDE_TEMPERATURE,LIGHTS_STATE

11/02/2016 12:00:25,29.687,28.0,off
11/02/2016 12:00:36,29.687,27.312,off
11/02/2016 12:00:48,29.687,26.812,off
11/02/2016 12:01:00,29.625,26.687,off
