TIME,INSIDE_TEMPERATURE,OUTSIDE_TEMPERATURE,LIGHTS_STATE

04/05/2017 12:13:26,27.25,25.375,off
04/05/2017 12:13:37,27.187,25.187,off
04/05/2017 12:13:50,27.312,25.125,off
04/05/2017 12:14:02,27.25,25.062,off
