TIME,INSIDE_TEMPERATURE,OUTSIDE_TEMPERATURE,LIGHTS_STATE

01/10/2017 12:07:25,16.625,12.75,off
01/10/2017 12:07:36,16.625,12.75,off
01/10/2017 12:07:48,16.687,12.687,off
01/10/2017 12:08:00,16.687,12.75,off
