TIME,INSIDE_TEMPERATURE,OUTSIDE_TEMPERATURE,LIGHTS_STATE

01/11/2018 12:09:25,22.437,17.625,off
01/11/2018 12:09:37,22.437,17.687,off
01/11/2018 12:09:49,22.437,17.687,off
01/11/2018 12:10:00,22.437,17.687,off
