TIME,INSIDE_TEMPERATURE,OUTSIDE_TEMPERATURE,LIGHTS_STATE

09/20/2017 12:52:25,24.875,21.562,off
09/20/2017 12:52:37,24.875,21.5,off
09/20/2017 12:52:49,24.875,21.437,off
09/20/2017 12:53:01,24.875,21.437,off
