TIME,INSIDE_TEMPERATURE,OUTSIDE_TEMPERATURE,LIGHTS_STATE

09/29/2017 12:11:25,28.937,26.625,off
09/29/2017 12:11:37,28.875,26.562,off
09/29/2017 12:11:49,28.937,26.5,off
09/29/2017 12:12:01,28.875,26.5,off
