TIME,INSIDE_TEMPERATURE,OUTSIDE_TEMPERATURE,LIGHTS_STATE

05/06/2017 12:14:25,21.687,18.125,off
05/06/2017 12:14:37,21.687,18.125,off
05/06/2017 12:14:49,21.687,18.187,off
05/06/2017 12:15:00,21.687,18.312,off
