TIME,INSIDE_TEMPERATURE,OUTSIDE_TEMPERATURE,LIGHTS_STATE

11/08/2016 12:15:25,31.062,33.75,off
11/08/2016 12:15:36,31.0,33.875,off
11/08/2016 12:15:48,31.062,34.062,off
11/08/2016 12:16:00,31.062,33.937,off
