TIME,INSIDE_TEMPERATURE,OUTSIDE_TEMPERATURE,LIGHTS_STATE

01/01/2018 12:41:25,24.375,20.187,off
01/01/2018 12:41:37,24.375,20.187,off
01/01/2018 12:41:48,24.375,20.187,off
01/01/2018 12:42:00,24.437,20.187,off
