TIME,INSIDE_TEMPERATURE,OUTSIDE_TEMPERATURE,LIGHTS_STATE

07/13/2017 12:03:25,31.875,28.625,off
07/13/2017 12:03:37,31.875,28.625,off
07/13/2017 12:03:49,31.875,28.625,off
07/13/2017 12:04:01,31.875,28.625,off
