TIME,INSIDE_TEMPERATURE,OUTSIDE_TEMPERATURE,LIGHTS_STATE

08/19/2017 12:19:26,30.062,27.5,off
08/19/2017 12:19:37,30.062,27.437,off
08/19/2017 12:19:49,30.062,27.437,off
08/19/2017 12:20:01,30.125,27.437,off
