TIME,INSIDE_TEMPERATURE,OUTSIDE_TEMPERATURE,LIGHTS_STATE

11/21/2016 12:54:25,23.437,20.125,off
11/21/2016 12:54:36,23.437,20.125,off
11/21/2016 12:54:48,23.437,20.062,off
11/21/2016 12:55:00,23.437,20.062,off
