TIME,INSIDE_TEMPERATURE,OUTSIDE_TEMPERATURE,LIGHTS_STATE

02/14/2017 12:15:25,27.25,23.875,off
02/14/2017 12:15:37,27.187,23.75,off
02/14/2017 12:15:48,27.187,23.75,off
02/14/2017 12:16:00,27.125,23.75,off
