TIME,INSIDE_TEMPERATURE,OUTSIDE_TEMPERATURE,LIGHTS_STATE

03/18/2018 12:54:25,18.375,15.562,off
03/18/2018 12:54:37,18.375,15.562,off
03/18/2018 12:54:50,18.437,15.562,off
03/18/2018 12:55:01,18.437,15.562,off
