TIME,INSIDE_TEMPERATURE,OUTSIDE_TEMPERATURE,LIGHTS_STATE

05/16/2017 12:30:25,21.5,16.312,off
05/16/2017 12:30:37,21.5,16.312,off
05/16/2017 12:30:48,21.5,16.312,off
05/16/2017 12:31:00,21.5,16.312,off
