TIME,INSIDE_TEMPERATURE,OUTSIDE_TEMPERATURE,LIGHTS_STATE

07/24/2016 12:16:26,33.125,33.375,off
07/24/2016 12:16:38,33.125,33.312,off
07/24/2016 12:16:50,33.125,33.312,off
07/24/2016 12:17:02,33.125,33.312,off
