TIME,INSIDE_TEMPERATURE,OUTSIDE_TEMPERATURE,LIGHTS_STATE

01/31/2018 12:14:25,26.875,23.125,off
01/31/2018 12:14:37,26.875,23.125,off
01/31/2018 12:14:49,26.875,23.0,off
01/31/2018 12:15:00,26.875,23.0,off
