TIME,INSIDE_TEMPERATURE,OUTSIDE_TEMPERATURE,LIGHTS_STATE

09/12/2016 12:13:26,24.375,22.5,off
09/12/2016 12:13:37,24.375,22.5,off
09/12/2016 12:13:49,24.375,22.562,off
09/12/2016 12:14:01,24.375,22.562,off
