TIME,INSIDE_TEMPERATURE,OUTSIDE_TEMPERATURE,LIGHTS_STATE

02/25/2017 12:54:26,21.562,23.937,off
02/25/2017 12:54:37,21.562,23.937,off
02/25/2017 12:54:49,21.562,24.0,off
02/25/2017 12:55:01,21.562,24.0,off
