TIME,INSIDE_TEMPERATURE,OUTSIDE_TEMPERATURE,LIGHTS_STATE

10/09/2017 12:07:25,30.875,27.5,off
10/09/2017 12:07:37,30.875,27.75,off
10/09/2017 12:07:49,30.875,27.937,off
10/09/2017 12:08:00,30.875,27.937,off
