TIME,INSIDE_TEMPERATURE,OUTSIDE_TEMPERATURE,LIGHTS_STATE

09/15/2016 12:20:25,27.5,27.5,off
09/15/2016 12:20:37,27.5,27.562,off
09/15/2016 12:20:49,27.562,27.625,off
09/15/2016 12:21:00,27.562,27.625,off
