TIME,INSIDE_TEMPERATURE,OUTSIDE_TEMPERATURE,LIGHTS_STATE

07/04/2017 12:53:25,30.562,26.687,off
07/04/2017 12:53:37,30.562,26.75,off
07/04/2017 12:53:49,30.562,26.75,off
07/04/2017 12:54:01,30.625,26.75,off
