TIME,INSIDE_TEMPERATURE,OUTSIDE_TEMPERATURE,LIGHTS_STATE

12/18/2016 12:49:25,16.187,13.875,off
12/18/2016 12:49:37,16.187,13.937,off
12/18/2016 12:49:49,16.187,14.062,off
12/18/2016 12:50:01,16.187,14.187,off
