TIME,INSIDE_TEMPERATURE,OUTSIDE_TEMPERATURE,LIGHTS_STATE

10/14/2017 12:22:25,29.875,27.187,off
10/14/2017 12:22:37,29.875,27.25,off
10/14/2017 12:22:49,29.875,27.312,off
10/14/2017 12:23:01,29.875,27.5,off
