TIME,INSIDE_TEMPERATURE,OUTSIDE_TEMPERATURE,LIGHTS_STATE

06/30/2017 12:34:25,27.062,23.437,off
06/30/2017 12:34:37,27.125,23.375,off
06/30/2017 12:34:49,27.125,23.375,off
06/30/2017 12:35:01,27.125,23.5,off
