TIME,INSIDE_TEMPERATURE,OUTSIDE_TEMPERATURE,LIGHTS_STATE

06/26/2017 12:04:25,27.437,23.625,off
06/26/2017 12:04:37,27.437,23.687,off
06/26/2017 12:04:49,27.437,23.687,off
06/26/2017 12:05:01,27.437,23.687,off
