TIME,INSIDE_TEMPERATURE,OUTSIDE_TEMPERATURE,LIGHTS_STATE

12/07/2016 12:00:25,13.25,10.437,off
12/07/2016 12:00:36,13.25,10.437,off
12/07/2016 12:00:49,13.312,10.5,off
12/07/2016 12:01:01,13.312,10.5,off
