TIME,INSIDE_TEMPERATURE,OUTSIDE_TEMPERATURE,LIGHTS_STATE

12/30/2016 12:26:25,17.062,16.437,off
12/30/2016 12:26:37,17.062,16.312,off
12/30/2016 12:26:49,17.125,16.25,off
12/30/2016 12:27:00,17.062,16.25,off
