TIME,INSIDE_TEMPERATURE,OUTSIDE_TEMPERATURE,LIGHTS_STATE

05/18/2017 12:47:25,25.312,24.0,off
05/18/2017 12:47:37,25.312,24.0,off
05/18/2017 12:47:48,25.312,24.0,off
05/18/2017 12:48:00,25.375,24.0,off
