TIME,INSIDE_TEMPERATURE,OUTSIDE_TEMPERATURE,LIGHTS_STATE

06/23/2017 12:44:25,33.25,29.75,off
06/23/2017 12:44:37,33.25,29.75,off
06/23/2017 12:44:48,33.25,29.75,off
06/23/2017 12:45:00,33.25,29.75,off
