TIME,INSIDE_TEMPERATURE,OUTSIDE_TEMPERATURE,LIGHTS_STATE

04/22/2017 12:31:25,25.75,22.937,off
04/22/2017 12:31:37,25.687,22.875,off
04/22/2017 12:31:48,25.75,23.0,off
04/22/2017 12:32:00,25.75,22.937,off
