TIME,INSIDE_TEMPERATURE,OUTSIDE_TEMPERATURE,LIGHTS_STATE

12/20/2016 12:31:25,19.75,18.937,off
12/20/2016 12:31:36,19.687,18.937,off
12/20/2016 12:31:48,19.75,18.812,off
12/20/2016 12:32:00,19.75,18.75,off
