TIME,INSIDE_TEMPERATURE,OUTSIDE_TEMPERATURE,LIGHTS_STATE

02/21/2018 12:36:25,21.25,30.312,off
02/21/2018 12:36:37,21.312,30.25,off
02/21/2018 12:36:48,21.25,30.312,off
02/21/2018 12:37:00,21.312,30.312,off
