TIME,INSIDE_TEMPERATURE,OUTSIDE_TEMPERATURE,LIGHTS_STATE

06/22/2016 12:58:25,28.812,29.25,off
06/22/2016 12:58:37,28.875,29.25,off
06/22/2016 12:58:49,28.812,29.312,off
06/22/2016 12:59:00,28.875,29.375,off
