TIME,INSIDE_TEMPERATURE,OUTSIDE_TEMPERATURE,LIGHTS_STATE

07/05/2016 12:36:26,25.812,25.625,off
07/05/2016 12:36:37,25.812,25.625,off
07/05/2016 12:36:49,25.875,25.625,off
07/05/2016 12:37:01,25.875,25.625,off
