TIME,INSIDE_TEMPERATURE,OUTSIDE_TEMPERATURE,LIGHTS_STATE

11/15/2016 12:27:25,27.187,21.625,off
11/15/2016 12:27:37,27.187,21.562,off
11/15/2016 12:27:49,27.125,21.625,off
11/15/2016 12:28:00,27.187,21.625,off
