TIME,INSIDE_TEMPERATURE,OUTSIDE_TEMPERATURE,LIGHTS_STATE

12/05/2016 12:36:25,16.687,13.0,off
12/05/2016 12:36:36,16.625,12.937,off
12/05/2016 12:36:48,16.687,13.0,off
12/05/2016 12:37:00,16.625,13.0,off
