TIME,INSIDE_TEMPERATURE,OUTSIDE_TEMPERATURE,LIGHTS_STATE

09/23/2017 12:11:25,25.5,23.937,off
09/23/2017 12:11:37,25.687,23.875,off
09/23/2017 12:11:49,25.75,23.937,off
09/23/2017 12:12:01,25.75,23.937,off
