TIME,INSIDE_TEMPERATURE,OUTSIDE_TEMPERATURE,LIGHTS_STATE

10/29/2017 12:41:26,24.375,24.125,off
10/29/2017 12:41:37,24.375,24.125,off
10/29/2017 12:41:49,24.437,24.062,off
10/29/2017 12:42:01,24.437,24.187,off
