TIME,INSIDE_TEMPERATURE,OUTSIDE_TEMPERATURE,LIGHTS_STATE

01/02/2018 12:46:25,20.375,17.125,off
01/02/2018 12:46:37,20.437,17.125,off
01/02/2018 12:46:48,20.437,17.125,off
01/02/2018 12:47:00,20.375,17.125,off
