TIME,INSIDE_TEMPERATURE,OUTSIDE_TEMPERATURE,LIGHTS_STATE

03/07/2018 12:18:25,24.25,35.375,off
03/07/2018 12:18:37,24.25,35.625,off
03/07/2018 12:18:48,24.25,35.75,off
03/07/2018 12:19:00,24.312,35.937,off
