TIME,INSIDE_TEMPERATURE,OUTSIDE_TEMPERATURE,LIGHTS_STATE

01/22/2018 12:55:25,21.937,16.437,off
01/22/2018 12:55:37,22.0,16.5,off
01/22/2018 12:55:49,22.0,16.5,off
01/22/2018 12:56:00,21.937,16.5,off
