TIME,INSIDE_TEMPERATURE,OUTSIDE_TEMPERATURE,LIGHTS_STATE

04/04/2017 12:42:26,24.812,22.437,off
04/04/2017 12:42:37,24.812,22.437,off
04/04/2017 12:42:49,24.812,22.437,off
04/04/2017 12:43:01,24.875,22.437,off
