TIME,INSIDE_TEMPERATURE,OUTSIDE_TEMPERATURE,LIGHTS_STATE

01/19/2017 12:53:25,19.687,14.375,off
01/19/2017 12:53:36,19.625,14.375,off
01/19/2017 12:53:48,19.625,14.375,off
01/19/2017 12:54:00,19.687,14.437,off
