TIME,INSIDE_TEMPERATURE,OUTSIDE_TEMPERATURE,LIGHTS_STATE

03/03/2018 12:31:26,17.812,11.125,off
03/03/2018 12:31:38,17.812,11.125,off
03/03/2018 12:31:49,17.812,11.125,off
03/03/2018 12:32:01,17.812,11.062,off
