TIME,INSIDE_TEMPERATURE,OUTSIDE_TEMPERATURE,LIGHTS_STATE

01/10/2017 12:38:25,16.375,12.562,off
01/10/2017 12:38:37,16.375,12.562,off
01/10/2017 12:38:48,16.375,12.562,off
01/10/2017 12:39:00,16.375,12.562,off
