TIME,INSIDE_TEMPERATURE,OUTSIDE_TEMPERATURE,LIGHTS_STATE

12/29/2017 12:56:25,23.125,23.0,off
12/29/2017 12:56:37,23.125,22.875,off
12/29/2017 12:56:49,23.125,22.75,off
12/29/2017 12:57:00,23.125,22.75,off
