TIME,INSIDE_TEMPERATURE,OUTSIDE_TEMPERATURE,LIGHTS_STATE

11/14/2016 12:37:25,28.437,28.812,off
11/14/2016 12:37:38,28.437,28.75,off
11/14/2016 12:37:49,28.437,28.75,off
11/14/2016 12:38:01,28.437,28.812,off
