TIME,INSIDE_TEMPERATURE,OUTSIDE_TEMPERATURE,LIGHTS_STATE

10/12/2017 12:41:25,27.875,27.25,off
10/12/2017 12:41:37,27.875,27.437,off
10/12/2017 12:41:49,27.875,27.5,off
10/12/2017 12:42:01,27.875,27.687,off
