TIME,INSIDE_TEMPERATURE,OUTSIDE_TEMPERATURE,LIGHTS_STATE

07/12/2017 12:12:26,31.562,28.562,off
07/12/2017 12:12:37,31.562,28.625,off
07/12/2017 12:12:49,31.5,28.625,off
07/12/2017 12:13:01,31.562,28.625,off
