TIME,INSIDE_TEMPERATURE,OUTSIDE_TEMPERATURE,LIGHTS_STATE

03/25/2018 12:16:25,16.875,12.312,off
03/25/2018 12:16:37,16.875,12.312,off
03/25/2018 12:16:48,16.875,12.312,off
03/25/2018 12:17:00,16.875,12.312,off
