TIME,INSIDE_TEMPERATURE,OUTSIDE_TEMPERATURE,LIGHTS_STATE

12/28/2016 12:35:25,19.812,16.312,off
12/28/2016 12:35:36,19.812,16.25,off
12/28/2016 12:35:48,19.812,16.25,off
12/28/2016 12:36:00,19.812,16.25,off
