TIME,INSIDE_TEMPERATURE,OUTSIDE_TEMPERATURE,LIGHTS_STATE

06/22/2016 12:53:25,28.687,28.875,off
06/22/2016 12:53:37,28.687,28.875,off
06/22/2016 12:53:48,28.687,28.875,off
06/22/2016 12:54:00,28.687,28.875,off
