TIME,INSIDE_TEMPERATURE,OUTSIDE_TEMPERATURE,LIGHTS_STATE

11/08/2016 12:20:24,30.75,33.437,off
11/08/2016 12:20:36,30.812,33.0,off
11/08/2016 12:20:48,30.75,32.75,off
11/08/2016 12:20:59,30.75,32.687,off
