TIME,INSIDE_TEMPERATURE,OUTSIDE_TEMPERATURE,LIGHTS_STATE

08/15/2017 12:05:26,26.375,22.937,off
08/15/2017 12:05:37,26.375,22.875,off
08/15/2017 12:05:49,26.312,22.75,off
08/15/2017 12:06:01,26.312,22.687,off
