TIME,INSIDE_TEMPERATURE,OUTSIDE_TEMPERATURE,LIGHTS_STATE

07/24/2017 12:51:25,31.5,28.25,off
07/24/2017 12:51:37,31.5,28.312,off
07/24/2017 12:51:49,31.5,28.375,off
07/24/2017 12:52:01,31.5,28.375,off
