TIME,INSIDE_TEMPERATURE,OUTSIDE_TEMPERATURE,LIGHTS_STATE

11/12/2016 12:50:25,31.375,26.875,off
11/12/2016 12:50:37,31.375,26.937,off
11/12/2016 12:50:49,31.375,26.875,off
11/12/2016 12:51:00,31.375,26.687,off
