TIME,INSIDE_TEMPERATURE,OUTSIDE_TEMPERATURE,LIGHTS_STATE

11/10/2016 12:16:24,29.937,30.875,off
11/10/2016 12:16:36,29.937,30.562,off
11/10/2016 12:16:48,29.937,30.125,off
11/10/2016 12:16:59,29.937,30.0,off
