TIME,INSIDE_TEMPERATURE,OUTSIDE_TEMPERATURE,LIGHTS_STATE

10/24/2016 12:07:25,22.312,19.062,off
10/24/2016 12:07:37,22.312,19.062,off
10/24/2016 12:07:49,22.25,19.062,off
10/24/2016 12:08:01,22.312,19.0,off
