TIME,INSIDE_TEMPERATURE,OUTSIDE_TEMPERATURE,LIGHTS_STATE

08/03/2017 12:58:25,39.187,37.312,off
08/03/2017 12:58:37,39.125,37.25,off
08/03/2017 12:58:48,39.187,37.187,off
08/03/2017 12:59:00,39.187,37.187,off
