TIME,INSIDE_TEMPERATURE,OUTSIDE_TEMPERATURE,LIGHTS_STATE

01/12/2018 12:33:26,20.812,19.312,off
01/12/2018 12:33:37,20.812,19.437,off
01/12/2018 12:33:49,20.812,19.625,off
01/12/2018 12:34:01,20.875,19.687,off
