TIME,INSIDE_TEMPERATURE,OUTSIDE_TEMPERATURE,LIGHTS_STATE

12/28/2017 12:53:25,24.187,24.0,off
12/28/2017 12:53:37,24.25,23.625,off
12/28/2017 12:53:49,24.187,23.5,off
12/28/2017 12:54:00,24.187,23.812,off
