TIME,INSIDE_TEMPERATURE,OUTSIDE_TEMPERATURE,LIGHTS_STATE

08/16/2017 12:48:26,28.0,25.875,off
08/16/2017 12:48:37,28.062,25.875,off
08/16/2017 12:48:49,28.062,25.875,off
08/16/2017 12:49:01,28.062,25.75,off
