TIME,INSIDE_TEMPERATURE,OUTSIDE_TEMPERATURE,LIGHTS_STATE

04/26/2017 12:47:25,23.625,20.75,off
04/26/2017 12:47:37,23.562,20.562,off
04/26/2017 12:47:49,23.625,20.437,off
04/26/2017 12:48:00,23.625,20.312,off
