TIME,INSIDE_TEMPERATURE,OUTSIDE_TEMPERATURE,LIGHTS_STATE

07/30/2016 12:32:25,31.0,31.437,off
07/30/2016 12:32:37,31.0,31.437,off
07/30/2016 12:32:49,31.062,31.375,off
07/30/2016 12:33:00,31.0,31.437,off
