TIME,INSIDE_TEMPERATURE,OUTSIDE_TEMPERATURE,LIGHTS_STATE

07/03/2016 12:41:25,29.75,29.625,off
07/03/2016 12:41:37,29.75,29.625,off
07/03/2016 12:41:49,29.687,29.562,off
07/03/2016 12:42:00,29.687,29.625,off
