TIME,INSIDE_TEMPERATURE,OUTSIDE_TEMPERATURE,LIGHTS_STATE

07/26/2016 12:48:25,35.125,33.5,off
07/26/2016 12:48:37,35.187,33.5,off
07/26/2016 12:48:49,35.125,33.5,off
07/26/2016 12:49:01,35.125,33.5,off
