TIME,INSIDE_TEMPERATURE,OUTSIDE_TEMPERATURE,LIGHTS_STATE

07/03/2017 12:56:25,31.875,29.625,off
07/03/2017 12:56:37,31.875,29.562,off
07/03/2017 12:56:48,31.875,29.5,off
07/03/2017 12:57:00,31.875,29.5,off
