TIME,INSIDE_TEMPERATURE,OUTSIDE_TEMPERATURE,LIGHTS_STATE

10/30/2017 12:04:25,27.312,23.0,off
10/30/2017 12:04:37,27.312,22.875,off
10/30/2017 12:04:48,27.312,22.937,off
10/30/2017 12:05:00,27.312,23.0,off
