TIME,INSIDE_TEMPERATURE,OUTSIDE_TEMPERATURE,LIGHTS_STATE

07/01/2016 12:15:25,27.625,27.0,off
07/01/2016 12:15:37,27.625,27.0,off
07/01/2016 12:15:49,27.625,26.937,off
07/01/2016 12:16:00,27.625,26.937,off
