TIME,INSIDE_TEMPERATURE,OUTSIDE_TEMPERATURE,LIGHTS_STATE

07/11/2017 12:33:25,32.875,31.0,off
07/11/2017 12:33:37,32.875,31.125,off
07/11/2017 12:33:49,32.875,31.25,off
07/11/2017 12:34:01,32.875,31.375,off
