TIME,INSIDE_TEMPERATURE,OUTSIDE_TEMPERATURE,LIGHTS_STATE

04/24/2017 12:31:25,20.812,16.375,off
04/24/2017 12:31:37,20.812,16.312,off
04/24/2017 12:31:49,20.875,16.375,off
04/24/2017 12:32:00,20.875,16.375,off
