TIME,INSIDE_TEMPERATURE,OUTSIDE_TEMPERATURE,LIGHTS_STATE

06/20/2017 12:18:25,35.687,32.812,off
06/20/2017 12:18:37,35.687,32.812,off
06/20/2017 12:18:49,35.687,32.812,off
06/20/2017 12:19:01,35.687,32.875,off
