TIME,INSIDE_TEMPERATURE,OUTSIDE_TEMPERATURE,LIGHTS_STATE

12/29/2017 12:37:25,23.187,20.75,off
12/29/2017 12:37:37,23.187,20.875,off
12/29/2017 12:37:49,23.187,20.875,off
12/29/2017 12:38:00,23.187,20.937,off
