TIME,INSIDE_TEMPERATURE,OUTSIDE_TEMPERATURE,LIGHTS_STATE

03/09/2018 12:11:26,25.062,21.062,off
03/09/2018 12:11:37,25.062,21.0,off
03/09/2018 12:11:49,25.062,21.0,off
03/09/2018 12:12:01,25.062,21.062,off
