TIME,INSIDE_TEMPERATURE,OUTSIDE_TEMPERATURE,LIGHTS_STATE

02/26/2018 12:07:26,18.437,16.187,off
02/26/2018 12:07:38,18.5,16.25,off
02/26/2018 12:07:49,18.5,16.437,off
02/26/2018 12:08:01,18.5,16.687,off
