TIME,INSIDE_TEMPERATURE,OUTSIDE_TEMPERATURE,LIGHTS_STATE

10/26/2017 12:25:26,35.937,36.625,off
10/26/2017 12:25:37,35.937,36.625,off
10/26/2017 12:25:49,35.937,36.562,off
10/26/2017 12:26:01,36.0,36.562,off
