TIME,INSIDE_TEMPERATURE,OUTSIDE_TEMPERATURE,LIGHTS_STATE

10/27/2016 12:35:26,22.375,19.062,off
10/27/2016 12:35:38,22.375,19.062,off
10/27/2016 12:35:49,22.375,19.062,off
10/27/2016 12:36:01,22.312,19.062,off
