TIME,INSIDE_TEMPERATURE,OUTSIDE_TEMPERATURE,LIGHTS_STATE

04/07/2017 12:42:25,21.5,17.125,off
04/07/2017 12:42:36,21.5,17.187,off
04/07/2017 12:42:48,21.5,17.187,off
04/07/2017 12:43:00,21.437,17.187,off
