TIME,INSIDE_TEMPERATURE,OUTSIDE_TEMPERATURE,LIGHTS_STATE

11/15/2016 12:51:25,26.875,22.375,off
11/15/2016 12:51:37,26.875,22.312,off
11/15/2016 12:51:48,26.875,22.312,off
11/15/2016 12:52:00,26.875,22.25,off
