TIME,INSIDE_TEMPERATURE,OUTSIDE_TEMPERATURE,LIGHTS_STATE

12/30/2016 12:35:25,17.187,15.25,off
12/30/2016 12:35:37,17.187,15.25,off
12/30/2016 12:35:49,17.25,15.312,off
12/30/2016 12:36:00,17.25,15.312,off
