TIME,INSIDE_TEMPERATURE,OUTSIDE_TEMPERATURE,LIGHTS_STATE

11/12/2016 12:53:24,31.312,26.437,off
11/12/2016 12:53:36,31.375,26.5,off
11/12/2016 12:53:48,31.375,26.562,off
11/12/2016 12:53:59,31.312,26.625,off
