TIME,INSIDE_TEMPERATURE,OUTSIDE_TEMPERATURE,LIGHTS_STATE

09/12/2017 12:35:26,36.625,32.562,off
09/12/2017 12:35:37,36.625,32.625,off
09/12/2017 12:35:49,36.625,32.562,off
09/12/2017 12:36:01,36.687,32.562,off
