TIME,INSIDE_TEMPERATURE,OUTSIDE_TEMPERATURE,LIGHTS_STATE

10/10/2017 12:13:25,31.25,29.812,off
10/10/2017 12:13:37,31.187,29.875,off
10/10/2017 12:13:48,31.25,30.0,off
10/10/2017 12:14:00,31.25,30.125,off
