TIME,INSIDE_TEMPERATURE,OUTSIDE_TEMPERATURE,LIGHTS_STATE

07/30/2017 12:49:25,31.25,28.125,off
07/30/2017 12:49:37,31.25,28.125,off
07/30/2017 12:49:48,31.312,28.125,off
07/30/2017 12:50:00,31.312,28.125,off
