TIME,INSIDE_TEMPERATURE,OUTSIDE_TEMPERATURE,LIGHTS_STATE

11/17/2016 12:42:25,23.437,18.437,off
11/17/2016 12:42:37,23.437,18.437,off
11/17/2016 12:42:48,23.437,18.437,off
11/17/2016 12:43:00,23.437,18.5,off
