TIME,INSIDE_TEMPERATURE,OUTSIDE_TEMPERATURE,LIGHTS_STATE

05/12/2017 12:47:26,21.25,18.375,off
05/12/2017 12:47:37,21.25,18.375,off
05/12/2017 12:47:49,21.25,18.375,off
05/12/2017 12:48:01,21.25,18.437,off
