TIME,INSIDE_TEMPERATURE,OUTSIDE_TEMPERATURE,LIGHTS_STATE

11/16/2016 12:33:25,24.437,22.75,off
11/16/2016 12:33:37,24.437,22.937,off
11/16/2016 12:33:48,24.437,22.937,off
11/16/2016 12:34:00,24.437,22.937,off
