TIME,INSIDE_TEMPERATURE,OUTSIDE_TEMPERATURE,LIGHTS_STATE

04/06/2017 12:20:25,23.25,20.312,off
04/06/2017 12:20:37,23.25,20.312,off
04/06/2017 12:20:48,23.25,20.312,off
04/06/2017 12:21:00,23.25,20.312,off
