TIME,INSIDE_TEMPERATURE,OUTSIDE_TEMPERATURE,LIGHTS_STATE

09/05/2017 12:38:26,34.562,31.812,off
09/05/2017 12:38:38,34.562,31.812,off
09/05/2017 12:38:50,34.562,31.812,off
09/05/2017 12:39:02,34.562,31.812,off
