TIME,INSIDE_TEMPERATURE,OUTSIDE_TEMPERATURE,LIGHTS_STATE

12/17/2016 12:20:25,18.062,13.687,off
12/17/2016 12:20:37,18.062,13.562,off
12/17/2016 12:20:48,18.062,13.375,off
12/17/2016 12:21:00,18.062,13.187,off
