TIME,INSIDE_TEMPERATURE,OUTSIDE_TEMPERATURE,LIGHTS_STATE

03/25/2018 12:29:25,16.812,14.062,off
03/25/2018 12:29:37,16.812,14.062,off
03/25/2018 12:29:48,16.75,14.0,off
03/25/2018 12:30:00,16.562,14.0,off
