TIME,INSIDE_TEMPERATURE,OUTSIDE_TEMPERATURE,LIGHTS_STATE

07/10/2016 12:27:25,24.312,23.687,off
07/10/2016 12:27:36,24.312,23.687,off
07/10/2016 12:27:48,24.312,23.625,off
07/10/2016 12:28:00,24.312,23.625,off
