TIME,INSIDE_TEMPERATURE,OUTSIDE_TEMPERATURE,LIGHTS_STATE

05/07/2017 12:24:25,23.687,21.687,off
05/07/2017 12:24:37,23.687,21.687,off
05/07/2017 12:24:48,23.625,21.687,off
05/07/2017 12:25:00,23.687,21.687,off
