TIME,INSIDE_TEMPERATURE,OUTSIDE_TEMPERATURE,LIGHTS_STATE

09/26/2017 12:46:25,32.5,30.25,off
09/26/2017 12:46:37,32.562,30.25,off
09/26/2017 12:46:49,32.5,30.312,off
09/26/2017 12:47:00,32.562,30.312,off
