TIME,INSIDE_TEMPERATURE,OUTSIDE_TEMPERATURE,LIGHTS_STATE

07/31/2017 12:50:25,32.375,30.187,off
07/31/2017 12:50:37,32.375,30.187,off
07/31/2017 12:50:49,32.437,30.187,off
07/31/2017 12:51:00,32.375,30.187,off
