TIME,INSIDE_TEMPERATURE,OUTSIDE_TEMPERATURE,LIGHTS_STATE

02/12/2017 12:42:26,25.187,22.875,off
02/12/2017 12:42:37,25.187,22.875,off
02/12/2017 12:42:49,25.187,22.875,off
02/12/2017 12:43:01,25.187,22.937,off
