TIME,INSIDE_TEMPERATURE,OUTSIDE_TEMPERATURE,LIGHTS_STATE

02/17/2018 12:26:25,26.937,30.312,off
02/17/2018 12:26:37,26.937,30.25,off
02/17/2018 12:26:49,26.937,30.125,off
02/17/2018 12:27:01,27.0,30.125,off
