TIME,INSIDE_TEMPERATURE,OUTSIDE_TEMPERATURE,LIGHTS_STATE

06/25/2016 12:52:25,31.75,32.875,off
06/25/2016 12:52:37,31.75,32.875,off
06/25/2016 12:52:49,31.75,32.875,off
06/25/2016 12:53:00,31.75,32.937,off
