TIME,INSIDE_TEMPERATURE,OUTSIDE_TEMPERATURE,LIGHTS_STATE

12/22/2017 12:09:25,19.5,19.312,off
12/22/2017 12:09:37,19.5,19.125,off
12/22/2017 12:09:49,19.5,19.0,off
12/22/2017 12:10:01,19.5,18.812,off
