TIME,INSIDE_TEMPERATURE,OUTSIDE_TEMPERATURE,LIGHTS_STATE

07/21/2016 12:28:25,25.312,25.687,off
07/21/2016 12:28:37,25.312,25.625,off
07/21/2016 12:28:48,25.312,25.625,off
07/21/2016 12:29:00,25.312,25.625,off
