TIME,INSIDE_TEMPERATURE,OUTSIDE_TEMPERATURE,LIGHTS_STATE

01/31/2018 12:48:25,27.187,23.812,off
01/31/2018 12:48:37,27.187,23.937,off
01/31/2018 12:48:49,27.187,24.0,off
01/31/2018 12:49:00,27.187,24.187,off
