TIME,INSIDE_TEMPERATURE,OUTSIDE_TEMPERATURE,LIGHTS_STATE

12/20/2016 12:17:25,19.937,16.25,off
12/20/2016 12:17:37,19.937,16.25,off
12/20/2016 12:17:49,19.937,16.25,off
12/20/2016 12:18:01,19.937,16.125,off
