TIME,INSIDE_TEMPERATURE,OUTSIDE_TEMPERATURE,LIGHTS_STATE

08/01/2016 12:29:26,27.812,27.937,off
08/01/2016 12:29:37,27.812,28.0,off
08/01/2016 12:29:49,27.875,28.062,off
08/01/2016 12:30:01,27.875,28.062,off
