TIME,INSIDE_TEMPERATURE,OUTSIDE_TEMPERATURE,LIGHTS_STATE

12/20/2016 12:53:24,19.25,19.75,off
12/20/2016 12:53:36,19.25,20.062,off
12/20/2016 12:53:48,19.25,20.5,off
12/20/2016 12:53:59,19.25,20.625,off
