TIME,INSIDE_TEMPERATURE,OUTSIDE_TEMPERATURE,LIGHTS_STATE

06/29/2017 12:36:25,28.0,25.25,off
06/29/2017 12:36:37,28.062,25.25,off
06/29/2017 12:36:49,28.0,25.312,off
06/29/2017 12:37:01,28.0,25.312,off
