TIME,INSIDE_TEMPERATURE,OUTSIDE_TEMPERATURE,LIGHTS_STATE

06/13/2017 12:05:25,25.75,22.75,off
06/13/2017 12:05:37,25.75,22.687,off
06/13/2017 12:05:49,25.75,22.687,off
06/13/2017 12:06:01,25.75,22.687,off
