TIME,INSIDE_TEMPERATURE,OUTSIDE_TEMPERATURE,LIGHTS_STATE

03/12/2018 12:57:26,27.312,26.312,off
03/12/2018 12:57:37,27.312,26.312,off
03/12/2018 12:57:49,27.312,26.375,off
03/12/2018 12:58:01,27.312,26.375,off
