TIME,INSIDE_TEMPERATURE,OUTSIDE_TEMPERATURE,LIGHTS_STATE

10/24/2017 12:50:25,36.125,40.562,off
10/24/2017 12:50:38,36.125,40.5,off
10/24/2017 12:50:50,36.125,40.25,off
10/24/2017 12:51:02,36.125,40.062,off
