TIME,INSIDE_TEMPERATURE,OUTSIDE_TEMPERATURE,LIGHTS_STATE

03/23/2017 12:02:25,20.687,16.562,off
03/23/2017 12:02:37,20.687,16.562,off
03/23/2017 12:02:49,20.687,16.5,off
03/23/2017 12:03:00,20.687,16.375,off
