TIME,INSIDE_TEMPERATURE,OUTSIDE_TEMPERATURE,LIGHTS_STATE

09/29/2017 12:18:25,29.187,27.75,off
09/29/2017 12:18:37,29.187,27.812,off
09/29/2017 12:18:49,29.187,27.812,off
09/29/2017 12:19:01,29.25,27.75,off
