TIME,INSIDE_TEMPERATURE,OUTSIDE_TEMPERATURE,LIGHTS_STATE

12/25/2017 12:41:26,20.375,17.0,off
12/25/2017 12:41:37,20.437,16.937,off
12/25/2017 12:41:49,20.437,16.937,off
12/25/2017 12:42:01,20.437,16.937,off
