TIME,INSIDE_TEMPERATURE,OUTSIDE_TEMPERATURE,LIGHTS_STATE

10/31/2017 12:27:25,29.75,30.937,off
10/31/2017 12:27:37,29.812,30.625,off
10/31/2017 12:27:49,29.75,30.375,off
10/31/2017 12:28:01,29.812,30.187,off
