TIME,INSIDE_TEMPERATURE,OUTSIDE_TEMPERATURE,LIGHTS_STATE

09/09/2016 12:57:25,29.312,39.25,off
09/09/2016 12:57:37,29.375,39.437,off
09/09/2016 12:57:48,29.375,39.562,off
09/09/2016 12:58:00,29.375,39.687,off
