TIME,INSIDE_TEMPERATURE,OUTSIDE_TEMPERATURE,LIGHTS_STATE

09/05/2016 12:47:25,27.062,29.5,off
09/05/2016 12:47:37,27.062,29.562,off
09/05/2016 12:47:49,27.125,29.625,off
09/05/2016 12:48:00,27.125,29.687,off
