TIME,INSIDE_TEMPERATURE,OUTSIDE_TEMPERATURE,LIGHTS_STATE

03/15/2018 12:07:26,18.437,13.0,off
03/15/2018 12:07:37,18.437,13.0,off
03/15/2018 12:07:49,18.437,13.062,off
03/15/2018 12:08:01,18.437,13.187,off
