TIME,INSIDE_TEMPERATURE,OUTSIDE_TEMPERATURE,LIGHTS_STATE

08/02/2016 12:26:26,28.125,28.187,off
08/02/2016 12:26:38,28.125,28.187,off
08/02/2016 12:26:50,28.125,28.125,off
08/02/2016 12:27:01,28.125,28.125,off
