TIME,INSIDE_TEMPERATURE,OUTSIDE_TEMPERATURE,LIGHTS_STATE

01/08/2018 12:53:26,17.187,11.687,off
01/08/2018 12:53:37,17.187,11.687,off
01/08/2018 12:53:49,17.187,11.687,off
01/08/2018 12:54:01,17.187,11.687,off
