TIME,INSIDE_TEMPERATURE,OUTSIDE_TEMPERATURE,LIGHTS_STATE

03/01/2017 12:38:25,23.375,21.562,off
03/01/2017 12:38:37,23.375,21.75,off
03/01/2017 12:38:49,23.375,21.937,off
03/01/2017 12:39:01,23.375,22.0,off
