TIME,INSIDE_TEMPERATURE,OUTSIDE_TEMPERATURE,LIGHTS_STATE

03/17/2018 12:31:26,19.125,14.062,off
03/17/2018 12:31:37,19.125,14.062,off
03/17/2018 12:31:49,19.187,14.187,off
03/17/2018 12:32:01,19.187,14.187,off
