TIME,INSIDE_TEMPERATURE,OUTSIDE_TEMPERATURE,LIGHTS_STATE

10/16/2017 12:35:25,34.562,35.937,off
10/16/2017 12:35:37,34.562,35.875,off
10/16/2017 12:35:48,34.562,35.75,off
10/16/2017 12:36:00,34.562,35.5,off
