TIME,INSIDE_TEMPERATURE,OUTSIDE_TEMPERATURE,LIGHTS_STATE

03/09/2018 12:56:25,26.5,22.562,off
03/09/2018 12:56:37,26.5,22.625,off
03/09/2018 12:56:49,26.5,22.625,off
03/09/2018 12:57:00,26.5,22.562,off
