TIME,INSIDE_TEMPERATURE,OUTSIDE_TEMPERATURE,LIGHTS_STATE

01/09/2018 12:33:26,20.375,14.437,off
01/09/2018 12:33:37,20.375,14.437,off
01/09/2018 12:33:49,20.375,14.437,off
01/09/2018 12:34:01,20.375,14.437,off
