TIME,INSIDE_TEMPERATURE,OUTSIDE_TEMPERATURE,LIGHTS_STATE

09/19/2016 12:12:26,32.625,34.937,off
09/19/2016 12:12:38,32.625,34.937,off
09/19/2016 12:12:50,32.687,34.937,off
09/19/2016 12:13:01,32.687,34.875,off
