TIME,INSIDE_TEMPERATURE,OUTSIDE_TEMPERATURE,LIGHTS_STATE

02/15/2017 12:51:25,21.687,18.25,off
02/15/2017 12:51:37,21.687,18.25,off
02/15/2017 12:51:48,21.687,18.312,off
02/15/2017 12:52:00,21.687,18.312,off
