TIME,INSIDE_TEMPERATURE,OUTSIDE_TEMPERATURE,LIGHTS_STATE

03/23/2018 12:15:25,18.75,15.812,off
03/23/2018 12:15:37,18.75,15.875,off
03/23/2018 12:15:49,18.812,15.937,off
03/23/2018 12:16:01,18.75,15.937,off
