TIME,INSIDE_TEMPERATURE,OUTSIDE_TEMPERATURE,LIGHTS_STATE

02/09/2017 12:38:26,19.75,14.812,off
02/09/2017 12:38:37,19.75,14.812,off
02/09/2017 12:38:49,19.75,14.75,off
02/09/2017 12:39:01,19.75,14.687,off
