TIME,INSIDE_TEMPERATURE,OUTSIDE_TEMPERATURE,LIGHTS_STATE

09/27/2017 12:52:26,34.187,31.937,off
09/27/2017 12:52:38,34.187,32.0,off
09/27/2017 12:52:49,34.25,32.062,off
09/27/2017 12:53:01,34.25,32.062,off
