TIME,INSIDE_TEMPERATURE,OUTSIDE_TEMPERATURE,LIGHTS_STATE

01/06/2017 12:41:25,16.375,12.062,off
01/06/2017 12:41:37,16.375,12.125,off
01/06/2017 12:41:48,16.375,12.25,off
01/06/2017 12:42:00,16.375,12.25,off
