TIME,INSIDE_TEMPERATURE,OUTSIDE_TEMPERATURE,LIGHTS_STATE

08/12/2017 12:23:26,28.625,26.187,off
08/12/2017 12:23:37,28.625,26.187,off
08/12/2017 12:23:49,28.625,26.25,off
08/12/2017 12:24:01,28.625,26.187,off
