TIME,INSIDE_TEMPERATURE,OUTSIDE_TEMPERATURE,LIGHTS_STATE

12/24/2016 12:01:24,19.937,14.375,off
12/24/2016 12:01:36,19.937,14.437,off
12/24/2016 12:01:47,20.0,14.5,off
12/24/2016 12:01:59,20.0,14.437,off
