TIME,INSIDE_TEMPERATURE,OUTSIDE_TEMPERATURE,LIGHTS_STATE

11/02/2016 12:08:25,29.812,26.875,off
11/02/2016 12:08:37,29.875,26.875,off
11/02/2016 12:08:48,29.875,26.812,off
11/02/2016 12:09:00,29.937,26.812,off
