TIME,INSIDE_TEMPERATURE,OUTSIDE_TEMPERATURE,LIGHTS_STATE

03/17/2018 12:43:25,19.187,14.562,off
03/17/2018 12:43:37,19.187,14.562,off
03/17/2018 12:43:48,19.187,14.437,off
03/17/2018 12:44:00,19.187,14.437,off
