TIME,INSIDE_TEMPERATURE,OUTSIDE_TEMPERATURE,LIGHTS_STATE

10/10/2017 12:36:25,31.812,32.937,off
10/10/2017 12:36:37,31.812,33.125,off
10/10/2017 12:36:49,31.812,33.062,off
10/10/2017 12:37:01,31.812,33.062,off
