TIME,INSIDE_TEMPERATURE,OUTSIDE_TEMPERATURE,LIGHTS_STATE

06/06/2017 12:06:25,22.625,22.437,off
06/06/2017 12:06:37,22.562,22.437,off
06/06/2017 12:06:49,22.625,22.437,off
06/06/2017 12:07:01,22.625,22.5,off
