TIME,INSIDE_TEMPERATURE,OUTSIDE_TEMPERATURE,LIGHTS_STATE

06/22/2017 12:08:26,40.0,35.437,off
06/22/2017 12:08:37,40.062,35.5,off
06/22/2017 12:08:49,40.062,35.5,off
06/22/2017 12:09:01,40.062,35.437,off
