TIME,INSIDE_TEMPERATURE,OUTSIDE_TEMPERATURE,LIGHTS_STATE

09/22/2017 12:40:26,26.937,22.875,off
09/22/2017 12:40:37,26.937,22.875,off
09/22/2017 12:40:49,26.937,22.937,off
09/22/2017 12:41:01,26.937,22.937,off
