TIME,INSIDE_TEMPERATURE,OUTSIDE_TEMPERATURE,LIGHTS_STATE

02/11/2018 12:42:25,22.25,17.687,off
02/11/2018 12:42:37,22.25,17.687,off
02/11/2018 12:42:49,22.25,17.687,off
02/11/2018 12:43:00,22.25,17.625,off
