TIME,INSIDE_TEMPERATURE,OUTSIDE_TEMPERATURE,LIGHTS_STATE

03/03/2017 12:34:25,26.25,24.687,off
03/03/2017 12:34:37,26.25,24.75,off
03/03/2017 12:34:49,26.25,24.75,off
03/03/2017 12:35:00,26.25,24.75,off
