TIME,INSIDE_TEMPERATURE,OUTSIDE_TEMPERATURE,LIGHTS_STATE

06/08/2017 12:20:25,25.062,21.937,off
06/08/2017 12:20:37,25.0,21.937,off
06/08/2017 12:20:48,25.062,21.937,off
06/08/2017 12:21:00,25.0,21.937,off
