TIME,INSIDE_TEMPERATURE,OUTSIDE_TEMPERATURE,LIGHTS_STATE

01/17/2017 12:50:25,15.437,12.937,off
01/17/2017 12:50:37,15.437,12.937,off
01/17/2017 12:50:49,15.437,12.937,off
01/17/2017 12:51:00,15.437,13.0,off
