TIME,INSIDE_TEMPERATURE,OUTSIDE_TEMPERATURE,LIGHTS_STATE

07/07/2016 12:39:25,22.937,22.437,off
07/07/2016 12:39:37,23.0,22.437,off
07/07/2016 12:39:49,23.0,22.562,off
07/07/2016 12:40:01,23.0,22.562,off
