TIME,INSIDE_TEMPERATURE,OUTSIDE_TEMPERATURE,LIGHTS_STATE

09/06/2016 12:25:25,28.937,33.937,off
09/06/2016 12:25:37,29.0,33.937,off
09/06/2016 12:25:48,29.0,33.875,off
09/06/2016 12:26:00,29.0,33.875,off
