TIME,INSIDE_TEMPERATURE,OUTSIDE_TEMPERATURE,LIGHTS_STATE

09/21/2016 12:30:26,28.0,25.25,off
09/21/2016 12:30:38,28.0,25.375,off
09/21/2016 12:30:49,28.062,25.437,off
09/21/2016 12:31:01,28.0,25.312,off
