TIME,INSIDE_TEMPERATURE,OUTSIDE_TEMPERATURE,LIGHTS_STATE

10/24/2016 12:21:25,22.375,19.312,off
10/24/2016 12:21:36,22.375,19.312,off
10/24/2016 12:21:48,22.375,19.312,off
10/24/2016 12:22:00,22.375,19.312,off
