TIME,INSIDE_TEMPERATURE,OUTSIDE_TEMPERATURE,LIGHTS_STATE

08/18/2017 12:14:25,31.062,29.062,off
08/18/2017 12:14:37,31.062,29.125,off
08/18/2017 12:14:49,31.062,29.062,off
08/18/2017 12:15:00,31.062,29.062,off
