TIME,INSIDE_TEMPERATURE,OUTSIDE_TEMPERATURE,LIGHTS_STATE

02/20/2018 12:40:26,19.562,28.625,off
02/20/2018 12:40:37,19.5,28.812,off
02/20/2018 12:40:49,19.5,28.937,off
02/20/2018 12:41:01,19.5,29.125,off
