TIME,INSIDE_TEMPERATURE,OUTSIDE_TEMPERATURE,LIGHTS_STATE

01/09/2018 12:17:25,20.437,14.437,off
01/09/2018 12:17:37,20.437,14.437,off
01/09/2018 12:17:49,20.437,14.437,off
01/09/2018 12:18:01,20.437,14.437,off
