TIME,INSIDE_TEMPERATURE,OUTSIDE_TEMPERATURE,LIGHTS_STATE

08/28/2017 12:57:26,38.875,37.312,off
08/28/2017 12:57:38,38.812,37.312,off
08/28/2017 12:57:49,38.75,37.312,off
08/28/2017 12:58:01,38.812,37.312,off
