TIME,INSIDE_TEMPERATURE,OUTSIDE_TEMPERATURE,LIGHTS_STATE

10/27/2016 12:45:24,22.187,18.187,off
10/27/2016 12:45:36,22.125,18.125,off
10/27/2016 12:45:48,22.125,18.125,off
10/27/2016 12:45:59,22.125,18.187,off
