TIME,INSIDE_TEMPERATURE,OUTSIDE_TEMPERATURE,LIGHTS_STATE

04/25/2017 12:07:25,23.062,18.437,off
04/25/2017 12:07:37,23.062,18.437,off
04/25/2017 12:07:49,23.062,18.375,off
04/25/2017 12:08:00,23.062,18.437,off
