TIME,INSIDE_TEMPERATURE,OUTSIDE_TEMPERATURE,LIGHTS_STATE

01/02/2017 12:33:25,14.937,10.125,off
01/02/2017 12:33:37,14.875,10.125,off
01/02/2017 12:33:49,14.875,10.125,off
01/02/2017 12:34:00,14.875,10.125,off
