TIME,INSIDE_TEMPERATURE,OUTSIDE_TEMPERATURE,LIGHTS_STATE

11/01/2016 12:02:25,29.562,29.375,off
11/01/2016 12:02:36,29.437,29.125,off
11/01/2016 12:02:48,29.312,28.75,off
11/01/2016 12:03:00,29.375,28.5,off
