TIME,INSIDE_TEMPERATURE,OUTSIDE_TEMPERATURE,LIGHTS_STATE

01/07/2018 12:03:25,18.687,13.375,off
01/07/2018 12:03:37,18.687,13.312,off
01/07/2018 12:03:48,18.687,13.375,off
01/07/2018 12:04:00,18.687,13.375,off
