TIME,INSIDE_TEMPERATURE,OUTSIDE_TEMPERATURE,LIGHTS_STATE

08/19/2017 12:25:25,30.187,28.25,off
08/19/2017 12:25:37,30.25,28.25,off
08/19/2017 12:25:49,30.25,28.25,off
08/19/2017 12:26:01,30.312,28.187,off
