TIME,INSIDE_TEMPERATURE,OUTSIDE_TEMPERATURE,LIGHTS_STATE

07/02/2017 12:37:25,29.687,27.187,off
07/02/2017 12:37:37,29.687,27.187,off
07/02/2017 12:37:49,29.625,27.187,off
07/02/2017 12:38:01,29.687,27.25,off
