TIME,INSIDE_TEMPERATURE,OUTSIDE_TEMPERATURE,LIGHTS_STATE

04/14/2017 12:00:25,19.0,16.375,off
04/14/2017 12:00:36,18.937,16.437,off
04/14/2017 12:00:49,19.0,16.5,off
04/14/2017 12:01:00,19.0,16.5,off
