TIME,INSIDE_TEMPERATURE,OUTSIDE_TEMPERATURE,LIGHTS_STATE

06/23/2017 12:34:25,32.937,30.0,off
06/23/2017 12:34:37,32.937,30.125,off
06/23/2017 12:34:48,32.937,30.25,off
06/23/2017 12:35:00,32.937,30.375,off
