TIME,INSIDE_TEMPERATURE,OUTSIDE_TEMPERATURE,LIGHTS_STATE

09/23/2017 12:29:26,27.125,24.375,off
09/23/2017 12:29:37,27.125,24.375,off
09/23/2017 12:29:49,27.187,24.375,off
09/23/2017 12:30:01,27.062,24.375,off
