TIME,INSIDE_TEMPERATURE,OUTSIDE_TEMPERATURE,LIGHTS_STATE

07/19/2016 12:00:25,24.062,25.562,off
07/19/2016 12:00:37,24.062,25.562,off
07/19/2016 12:00:49,24.062,25.5,off
07/19/2016 12:01:00,24.062,25.5,off
