TIME,INSIDE_TEMPERATURE,OUTSIDE_TEMPERATURE,LIGHTS_STATE

12/26/2016 12:07:25,16.937,12.125,off
12/26/2016 12:07:36,16.937,12.187,off
12/26/2016 12:07:48,16.937,12.312,off
12/26/2016 12:08:00,16.937,12.437,off
