TIME,INSIDE_TEMPERATURE,OUTSIDE_TEMPERATURE,LIGHTS_STATE

11/01/2016 12:55:25,27.625,28.812,off
11/01/2016 12:55:37,27.687,28.812,off
11/01/2016 12:55:49,27.687,28.812,off
11/01/2016 12:56:00,27.687,28.937,off
