TIME,INSIDE_TEMPERATURE,OUTSIDE_TEMPERATURE,LIGHTS_STATE

11/02/2017 12:26:26,27.375,27.562,off
11/02/2017 12:26:37,27.437,27.625,off
11/02/2017 12:26:49,27.437,27.625,off
11/02/2017 12:27:01,27.437,27.562,off
