TIME,INSIDE_TEMPERATURE,OUTSIDE_TEMPERATURE,LIGHTS_STATE

03/23/2018 12:14:26,18.687,15.562,off
03/23/2018 12:14:38,18.687,15.562,off
03/23/2018 12:14:50,18.75,15.562,off
03/23/2018 12:15:01,18.75,15.562,off
