TIME,INSIDE_TEMPERATURE,OUTSIDE_TEMPERATURE,LIGHTS_STATE

01/22/2018 12:05:26,21.25,17.0,off
01/22/2018 12:05:37,21.187,17.0,off
01/22/2018 12:05:49,21.25,16.937,off
01/22/2018 12:06:01,21.25,17.0,off
