TIME,INSIDE_TEMPERATURE,OUTSIDE_TEMPERATURE,LIGHTS_STATE

02/20/2017 12:08:25,17.875,13.812,off
02/20/2017 12:08:37,17.875,13.875,off
02/20/2017 12:08:48,17.937,13.875,off
02/20/2017 12:09:00,17.875,13.875,off
