TIME,INSIDE_TEMPERATURE,OUTSIDE_TEMPERATURE,LIGHTS_STATE

10/31/2016 12:47:25,24.687,24.437,off
10/31/2016 12:47:37,24.75,24.5,off
10/31/2016 12:47:48,24.812,25.0,off
10/31/2016 12:48:00,24.875,25.562,off
