TIME,INSIDE_TEMPERATURE,OUTSIDE_TEMPERATURE,LIGHTS_STATE

10/24/2016 12:02:25,22.25,19.125,off
10/24/2016 12:02:37,22.187,19.125,off
10/24/2016 12:02:48,22.25,19.125,off
10/24/2016 12:03:00,22.25,19.125,off
