TIME,INSIDE_TEMPERATURE,OUTSIDE_TEMPERATURE,LIGHTS_STATE

12/02/2016 12:52:25,22.0,18.187,off
12/02/2016 12:52:36,22.0,18.25,off
12/02/2016 12:52:48,22.0,18.312,off
12/02/2016 12:53:00,22.0,18.312,off
