TIME,INSIDE_TEMPERATURE,OUTSIDE_TEMPERATURE,LIGHTS_STATE

02/23/2017 12:53:25,20.0,13.562,off
02/23/2017 12:53:37,20.0,13.5,off
02/23/2017 12:53:48,20.0,13.5,off
02/23/2017 12:54:00,19.937,13.562,off
