TIME,INSIDE_TEMPERATURE,OUTSIDE_TEMPERATURE,LIGHTS_STATE

07/07/2017 12:22:25,36.687,32.312,off
07/07/2017 12:22:37,36.687,32.312,off
07/07/2017 12:22:49,36.687,32.312,off
07/07/2017 12:23:00,36.687,32.312,off
