TIME,INSIDE_TEMPERATURE,OUTSIDE_TEMPERATURE,LIGHTS_STATE

03/20/2017 12:29:25,20.875,17.437,off
03/20/2017 12:29:36,20.875,17.5,off
03/20/2017 12:29:48,20.875,17.5,off
03/20/2017 12:30:00,20.812,17.5,off
