TIME,INSIDE_TEMPERATURE,OUTSIDE_TEMPERATURE,LIGHTS_STATE

07/28/2016 12:27:26,32.062,32.437,off
07/28/2016 12:27:38,32.125,32.437,off
07/28/2016 12:27:49,32.125,32.437,off
07/28/2016 12:28:01,32.125,32.5,off
