TIME,INSIDE_TEMPERATURE,OUTSIDE_TEMPERATURE,LIGHTS_STATE

01/17/2017 12:43:25,15.187,12.625,off
01/17/2017 12:43:37,15.187,12.687,off
01/17/2017 12:43:49,15.187,12.75,off
01/17/2017 12:44:00,15.187,12.812,off
