TIME,INSIDE_TEMPERATURE,OUTSIDE_TEMPERATURE,LIGHTS_STATE

02/06/2017 12:04:25,18.25,14.25,off
02/06/2017 12:04:36,18.25,14.25,off
02/06/2017 12:04:48,18.25,14.312,off
02/06/2017 12:05:00,18.25,14.312,off
