TIME,INSIDE_TEMPERATURE,OUTSIDE_TEMPERATURE,LIGHTS_STATE

10/28/2016 12:40:25,24.562,21.75,off
10/28/2016 12:40:37,24.562,21.875,off
10/28/2016 12:40:48,24.625,21.937,off
10/28/2016 12:41:00,24.562,22.062,off
