TIME,INSIDE_TEMPERATURE,OUTSIDE_TEMPERATURE,LIGHTS_STATE

11/10/2016 12:24:25,30.187,33.375,off
11/10/2016 12:24:36,30.187,33.812,off
11/10/2016 12:24:48,30.187,34.0,off
11/10/2016 12:25:00,30.187,34.187,off
