TIME,INSIDE_TEMPERATURE,OUTSIDE_TEMPERATURE,LIGHTS_STATE

02/15/2018 12:06:25,25.0,22.437,off
02/15/2018 12:06:37,25.0,22.25,off
02/15/2018 12:06:49,25.0,22.25,off
02/15/2018 12:07:00,25.0,22.312,off
