TIME,INSIDE_TEMPERATURE,OUTSIDE_TEMPERATURE,LIGHTS_STATE

02/28/2018 12:43:25,21.312,19.312,off
02/28/2018 12:43:37,21.375,19.312,off
02/28/2018 12:43:49,21.375,19.25,off
02/28/2018 12:44:00,21.312,19.187,off
