TIME,INSIDE_TEMPERATURE,OUTSIDE_TEMPERATURE,LIGHTS_STATE

05/05/2017 12:39:25,22.875,19.937,off
05/05/2017 12:39:37,22.937,19.937,off
05/05/2017 12:39:48,22.937,20.0,off
05/05/2017 12:40:00,22.937,20.0,off
