TIME,INSIDE_TEMPERATURE,OUTSIDE_TEMPERATURE,LIGHTS_STATE

07/10/2016 12:38:25,24.562,24.125,off
07/10/2016 12:38:37,24.625,24.062,off
07/10/2016 12:38:49,24.562,24.062,off
07/10/2016 12:39:00,24.562,24.062,off
