TIME,INSIDE_TEMPERATURE,OUTSIDE_TEMPERATURE,LIGHTS_STATE

10/23/2016 12:50:24,24.875,21.562,off
10/23/2016 12:50:36,24.937,21.562,off
10/23/2016 12:50:48,24.937,21.562,off
10/23/2016 12:50:59,24.937,21.562,off
