TIME,INSIDE_TEMPERATURE,OUTSIDE_TEMPERATURE,LIGHTS_STATE

07/30/2016 12:53:25,32.0,32.125,off
07/30/2016 12:53:37,32.0,32.125,off
07/30/2016 12:53:49,32.0,32.125,off
07/30/2016 12:54:00,31.937,32.125,off
