TIME,INSIDE_TEMPERATURE,OUTSIDE_TEMPERATURE,LIGHTS_STATE

11/02/2017 12:11:25,27.687,25.625,off
11/02/2017 12:11:37,27.687,25.562,off
11/02/2017 12:11:49,27.687,25.5,off
11/02/2017 12:12:01,27.687,25.5,off
