TIME,INSIDE_TEMPERATURE,OUTSIDE_TEMPERATURE,LIGHTS_STATE

06/28/2016 12:55:25,32.687,32.187,off
06/28/2016 12:55:37,32.75,32.25,off
06/28/2016 12:55:49,32.812,32.25,off
06/28/2016 12:56:00,32.812,32.312,off
