TIME,INSIDE_TEMPERATURE,OUTSIDE_TEMPERATURE,LIGHTS_STATE

04/26/2017 12:34:25,22.5,18.937,off
04/26/2017 12:34:37,22.5,18.937,off
04/26/2017 12:34:49,22.5,18.937,off
04/26/2017 12:35:00,22.562,19.0,off
