TIME,INSIDE_TEMPERATURE,OUTSIDE_TEMPERATURE,LIGHTS_STATE

09/03/2017 12:08:25,40.062,38.937,off
09/03/2017 12:08:37,40.187,39.0,off
09/03/2017 12:08:49,40.062,39.062,off
09/03/2017 12:09:01,39.75,39.0,off
