TIME,INSIDE_TEMPERATURE,OUTSIDE_TEMPERATURE,LIGHTS_STATE

09/21/2017 12:56:25,26.937,22.25,off
09/21/2017 12:56:37,26.937,22.187,off
09/21/2017 12:56:49,26.937,22.125,off
09/21/2017 12:57:00,26.937,22.187,off
