TIME,INSIDE_TEMPERATURE,OUTSIDE_TEMPERATURE,LIGHTS_STATE

02/11/2017 12:54:25,22.812,20.25,off
02/11/2017 12:54:37,22.812,20.25,off
02/11/2017 12:54:49,22.812,20.312,off
02/11/2017 12:55:00,22.812,20.375,off
