TIME,INSIDE_TEMPERATURE,OUTSIDE_TEMPERATURE,LIGHTS_STATE

10/27/2016 12:13:25,22.062,18.75,off
10/27/2016 12:13:37,22.062,18.812,off
10/27/2016 12:13:48,22.062,18.812,off
10/27/2016 12:14:00,22.062,18.812,off
