TIME,INSIDE_TEMPERATURE,OUTSIDE_TEMPERATURE,LIGHTS_STATE

12/02/2016 12:23:25,22.5,18.812,off
12/02/2016 12:23:37,22.5,18.687,off
12/02/2016 12:23:48,22.5,18.625,off
12/02/2016 12:24:00,22.437,18.625,off
