TIME,INSIDE_TEMPERATURE,OUTSIDE_TEMPERATURE,LIGHTS_STATE

07/19/2016 12:11:26,24.125,25.187,off
07/19/2016 12:11:37,24.187,25.187,off
07/19/2016 12:11:49,24.125,25.187,off
07/19/2016 12:12:01,24.125,25.187,off
