TIME,INSIDE_TEMPERATURE,OUTSIDE_TEMPERATURE,LIGHTS_STATE

04/22/2017 12:38:25,26.0,23.437,off
04/22/2017 12:38:36,26.0,23.5,off
04/22/2017 12:38:48,26.0,23.562,off
04/22/2017 12:39:00,26.0,23.625,off
