TIME,INSIDE_TEMPERATURE,OUTSIDE_TEMPERATURE,LIGHTS_STATE

07/17/2017 12:04:25,35.75,32.375,off
07/17/2017 12:04:37,35.75,32.375,off
07/17/2017 12:04:49,35.812,32.375,off
07/17/2017 12:05:01,35.812,32.375,off
