TIME,INSIDE_TEMPERATURE,OUTSIDE_TEMPERATURE,LIGHTS_STATE

09/23/2016 12:04:26,25.062,25.375,off
09/23/2016 12:04:38,25.062,25.625,off
09/23/2016 12:04:49,25.062,25.812,off
09/23/2016 12:05:01,25.062,26.0,off
