TIME,INSIDE_TEMPERATURE,OUTSIDE_TEMPERATURE,LIGHTS_STATE

03/10/2017 12:29:26,28.0,24.125,off
03/10/2017 12:29:37,28.0,24.125,off
03/10/2017 12:29:49,28.0,24.125,off
03/10/2017 12:30:01,28.0,24.125,off
