TIME,INSIDE_TEMPERATURE,OUTSIDE_TEMPERATURE,LIGHTS_STATE

07/02/2016 12:22:26,29.062,28.812,off
07/02/2016 12:22:37,29.062,28.812,off
07/02/2016 12:22:49,29.125,28.812,off
07/02/2016 12:23:01,29.062,28.812,off
