TIME,INSIDE_TEMPERATURE,OUTSIDE_TEMPERATURE,LIGHTS_STATE

11/05/2016 12:29:25,31.375,32.5,off
11/05/2016 12:29:37,31.375,32.562,off
11/05/2016 12:29:49,31.375,32.687,off
11/05/2016 12:30:01,31.375,32.875,off
