TIME,INSIDE_TEMPERATURE,OUTSIDE_TEMPERATURE,LIGHTS_STATE

07/20/2017 12:40:25,29.375,28.0,off
07/20/2017 12:40:37,29.375,28.125,off
07/20/2017 12:40:48,29.375,28.25,off
07/20/2017 12:41:00,29.375,28.25,off
