TIME,INSIDE_TEMPERATURE,OUTSIDE_TEMPERATURE,LIGHTS_STATE

02/20/2017 12:05:25,17.625,13.687,off
02/20/2017 12:05:37,17.687,13.687,off
02/20/2017 12:05:49,17.687,13.687,off
02/20/2017 12:06:00,17.687,13.687,off
