TIME,INSIDE_TEMPERATURE,OUTSIDE_TEMPERATURE,LIGHTS_STATE

12/16/2016 12:30:25,18.0,14.562,off
12/16/2016 12:30:37,18.0,14.687,off
12/16/2016 12:30:49,18.0,14.75,off
12/16/2016 12:31:00,18.0,14.687,off
