TIME,INSIDE_TEMPERATURE,OUTSIDE_TEMPERATURE,LIGHTS_STATE

03/30/2017 12:23:25,22.187,18.312,off
03/30/2017 12:23:37,22.125,18.312,off
03/30/2017 12:23:48,22.187,18.375,off
03/30/2017 12:24:00,22.125,18.437,off
