TIME,INSIDE_TEMPERATURE,OUTSIDE_TEMPERATURE,LIGHTS_STATE

12/06/2016 12:09:25,19.687,16.937,off
12/06/2016 12:09:37,19.687,17.0,off
12/06/2016 12:09:48,19.687,16.937,off
12/06/2016 12:10:00,19.687,16.937,off
