TIME,INSIDE_TEMPERATURE,OUTSIDE_TEMPERATURE,LIGHTS_STATE

07/20/2016 12:12:25,26.25,27.187,off
07/20/2016 12:12:37,26.25,27.187,off
07/20/2016 12:12:49,26.312,27.187,off
07/20/2016 12:13:00,26.312,27.187,off
