TIME,INSIDE_TEMPERATURE,OUTSIDE_TEMPERATURE,LIGHTS_STATE

01/30/2018 12:50:25,26.062,23.0,off
01/30/2018 12:50:37,26.125,23.062,off
01/30/2018 12:50:49,26.125,23.187,off
01/30/2018 12:51:01,26.125,23.25,off
