TIME,INSIDE_TEMPERATURE,OUTSIDE_TEMPERATURE,LIGHTS_STATE

04/20/2017 12:36:25,23.0,18.75,off
04/20/2017 12:36:36,23.0,18.75,off
04/20/2017 12:36:48,23.062,18.75,off
04/20/2017 12:37:00,23.0,18.812,off
