TIME,INSIDE_TEMPERATURE,OUTSIDE_TEMPERATURE,LIGHTS_STATE

01/13/2017 12:40:25,21.0,16.687,off
01/13/2017 12:40:37,21.062,16.687,off
01/13/2017 12:40:48,21.0,16.687,off
01/13/2017 12:41:00,21.0,16.75,off
