TIME,INSIDE_TEMPERATURE,OUTSIDE_TEMPERATURE,LIGHTS_STATE

10/31/2017 12:23:25,29.75,30.25,off
10/31/2017 12:23:37,29.75,30.375,off
10/31/2017 12:23:49,29.75,30.312,off
10/31/2017 12:24:01,29.75,30.437,off
