TIME,INSIDE_TEMPERATURE,OUTSIDE_TEMPERATURE,LIGHTS_STATE

07/08/2016 12:20:25,23.312,23.062,off
07/08/2016 12:20:37,23.312,23.062,off
07/08/2016 12:20:49,23.312,23.062,off
07/08/2016 12:21:00,23.312,23.125,off
