TIME,INSIDE_TEMPERATURE,OUTSIDE_TEMPERATURE,LIGHTS_STATE

01/25/2018 12:11:26,19.062,12.812,off
01/25/2018 12:11:37,19.062,12.875,off
01/25/2018 12:11:49,19.062,12.875,off
01/25/2018 12:12:01,19.0,12.875,off
