TIME,INSIDE_TEMPERATURE,OUTSIDE_TEMPERATURE,LIGHTS_STATE

02/25/2017 12:27:26,22.5,23.687,off
02/25/2017 12:27:38,22.5,23.312,off
02/25/2017 12:27:49,22.5,23.312,off
02/25/2017 12:28:01,22.5,23.375,off
