TIME,INSIDE_TEMPERATURE,OUTSIDE_TEMPERATURE,LIGHTS_STATE

09/15/2016 12:24:26,27.687,26.687,off
09/15/2016 12:24:37,27.687,26.687,off
09/15/2016 12:24:49,27.687,26.687,off
09/15/2016 12:25:01,27.687,26.625,off
