TIME,INSIDE_TEMPERATURE,OUTSIDE_TEMPERATURE,LIGHTS_STATE

06/26/2017 12:41:25,27.937,24.125,off
06/26/2017 12:41:37,27.937,24.125,off
06/26/2017 12:41:49,27.937,24.125,off
06/26/2017 12:42:00,27.937,24.125,off
