TIME,INSIDE_TEMPERATURE,OUTSIDE_TEMPERATURE,LIGHTS_STATE

08/26/2017 12:11:25,35.25,33.937,off
08/26/2017 12:11:37,35.25,33.875,off
08/26/2017 12:11:49,35.312,33.937,off
08/26/2017 12:12:01,35.312,33.937,off
