TIME,INSIDE_TEMPERATURE,OUTSIDE_TEMPERATURE,LIGHTS_STATE

04/04/2017 12:31:25,24.125,22.062,off
04/04/2017 12:31:37,24.062,22.062,off
04/04/2017 12:31:49,24.062,22.062,off
04/04/2017 12:32:00,24.125,22.062,off
