TIME,INSIDE_TEMPERATURE,OUTSIDE_TEMPERATURE,LIGHTS_STATE

01/09/2017 12:14:25,20.375,15.625,off
01/09/2017 12:14:37,20.312,15.562,off
01/09/2017 12:14:48,20.312,15.5,off
01/09/2017 12:15:00,20.312,15.5,off
