TIME,INSIDE_TEMPERATURE,OUTSIDE_TEMPERATURE,LIGHTS_STATE

02/17/2017 12:18:25,18.875,15.375,off
02/17/2017 12:18:37,18.875,15.375,off
02/17/2017 12:18:48,18.875,15.437,off
02/17/2017 12:19:00,18.875,15.375,off
