TIME,INSIDE_TEMPERATURE,OUTSIDE_TEMPERATURE,LIGHTS_STATE

06/08/2017 12:08:25,25.062,21.875,off
06/08/2017 12:08:36,25.062,21.812,off
06/08/2017 12:08:48,25.062,21.812,off
06/08/2017 12:09:00,25.062,21.812,off
