TIME,INSIDE_TEMPERATURE,OUTSIDE_TEMPERATURE,LIGHTS_STATE

01/12/2017 12:44:25,12.875,8.437,off
01/12/2017 12:44:37,12.875,8.437,off
01/12/2017 12:44:48,12.875,8.437,off
01/12/2017 12:45:00,12.875,8.375,off
