TIME,INSIDE_TEMPERATURE,OUTSIDE_TEMPERATURE,LIGHTS_STATE

10/06/2017 12:39:25,31.5,29.812,off
10/06/2017 12:39:37,31.562,29.812,off
10/06/2017 12:39:49,31.625,29.812,off
10/06/2017 12:40:01,31.625,29.812,off
