TIME,INSIDE_TEMPERATURE,OUTSIDE_TEMPERATURE,LIGHTS_STATE

06/22/2017 12:23:26,40.187,35.875,off
06/22/2017 12:23:38,40.187,35.937,off
06/22/2017 12:23:49,40.187,35.875,off
06/22/2017 12:24:02,40.25,35.937,off
