TIME,INSIDE_TEMPERATURE,OUTSIDE_TEMPERATURE,LIGHTS_STATE

03/26/2018 12:22:25,17.812,15.25,off
03/26/2018 12:22:37,17.812,15.25,off
03/26/2018 12:22:49,17.812,15.25,off
03/26/2018 12:23:01,17.812,15.312,off
