TIME,INSIDE_TEMPERATURE,OUTSIDE_TEMPERATURE,LIGHTS_STATE

09/16/2016 12:56:25,28.0,29.25,off
09/16/2016 12:56:37,28.0,29.375,off
09/16/2016 12:56:49,28.0,29.437,off
09/16/2016 12:57:00,28.0,29.562,off
