TIME,INSIDE_TEMPERATURE,OUTSIDE_TEMPERATURE,LIGHTS_STATE

03/17/2017 12:03:26,23.187,22.0,off
03/17/2017 12:03:37,23.187,22.0,off
03/17/2017 12:03:49,23.187,22.125,off
03/17/2017 12:04:01,23.25,22.25,off
