TIME,INSIDE_TEMPERATURE,OUTSIDE_TEMPERATURE,LIGHTS_STATE

01/21/2018 12:37:26,22.0,18.812,off
01/21/2018 12:37:37,22.0,18.75,off
01/21/2018 12:37:49,22.0,18.812,off
01/21/2018 12:38:01,22.062,18.75,off
