TIME,INSIDE_TEMPERATURE,OUTSIDE_TEMPERATURE,LIGHTS_STATE

11/22/2016 12:13:25,23.625,20.937,off
11/22/2016 12:13:37,23.687,20.937,off
11/22/2016 12:13:49,23.687,21.062,off
11/22/2016 12:14:00,23.625,21.125,off
