TIME,INSIDE_TEMPERATURE,OUTSIDE_TEMPERATURE,LIGHTS_STATE

06/24/2017 12:07:25,29.75,27.375,off
06/24/2017 12:07:37,29.75,27.375,off
06/24/2017 12:07:49,29.75,27.375,off
06/24/2017 12:08:01,29.812,27.437,off
