TIME,INSIDE_TEMPERATURE,OUTSIDE_TEMPERATURE,LIGHTS_STATE

06/28/2017 12:58:25,27.062,25.062,off
06/28/2017 12:58:37,27.187,25.125,off
06/28/2017 12:58:49,26.812,25.187,off
06/28/2017 12:59:00,26.937,25.25,off
