TIME,INSIDE_TEMPERATURE,OUTSIDE_TEMPERATURE,LIGHTS_STATE

01/05/2017 12:19:25,20.375,14.437,off
01/05/2017 12:19:36,20.437,14.437,off
01/05/2017 12:19:48,20.375,14.437,off
01/05/2017 12:20:00,20.437,14.5,off
