TIME,INSIDE_TEMPERATURE,OUTSIDE_TEMPERATURE,LIGHTS_STATE

07/26/2017 12:18:25,28.75,26.0,off
07/26/2017 12:18:36,28.75,26.062,off
07/26/2017 12:18:48,28.75,26.062,off
07/26/2017 12:19:00,28.812,26.062,off
