TIME,INSIDE_TEMPERATURE,OUTSIDE_TEMPERATURE,LIGHTS_STATE

03/07/2018 12:34:26,24.812,36.687,off
03/07/2018 12:34:37,24.812,36.75,off
03/07/2018 12:34:49,24.812,36.625,off
03/07/2018 12:35:01,24.875,36.437,off
