TIME,INSIDE_TEMPERATURE,OUTSIDE_TEMPERATURE,LIGHTS_STATE

02/21/2017 12:43:25,23.125,20.125,off
02/21/2017 12:43:37,23.187,20.312,off
02/21/2017 12:43:49,23.125,20.437,off
02/21/2017 12:44:01,23.125,20.312,off
