TIME,INSIDE_TEMPERATURE,OUTSIDE_TEMPERATURE,LIGHTS_STATE

12/23/2017 12:46:25,20.875,16.687,off
12/23/2017 12:46:37,20.875,16.75,off
12/23/2017 12:46:49,20.875,16.687,off
12/23/2017 12:47:00,20.875,16.687,off
