TIME,INSIDE_TEMPERATURE,OUTSIDE_TEMPERATURE,LIGHTS_STATE

02/25/2017 12:21:26,22.375,22.875,off
02/25/2017 12:21:38,22.375,23.062,off
02/25/2017 12:21:49,22.375,23.187,off
02/25/2017 12:22:01,22.375,23.25,off
