TIME,INSIDE_TEMPERATURE,OUTSIDE_TEMPERATURE,LIGHTS_STATE

07/05/2016 12:46:25,25.937,25.625,off
07/05/2016 12:46:37,25.937,25.625,off
07/05/2016 12:46:48,25.937,25.625,off
07/05/2016 12:47:00,25.937,25.625,off
