TIME,INSIDE_TEMPERATURE,OUTSIDE_TEMPERATURE,LIGHTS_STATE

05/09/2017 12:34:25,27.562,26.062,off
05/09/2017 12:34:37,27.562,26.062,off
05/09/2017 12:34:48,27.562,26.062,off
05/09/2017 12:35:00,27.562,26.062,off
