TIME,INSIDE_TEMPERATURE,OUTSIDE_TEMPERATURE,LIGHTS_STATE

12/24/2016 12:19:24,19.812,15.125,off
12/24/2016 12:19:36,19.812,15.187,off
12/24/2016 12:19:48,19.812,15.25,off
12/24/2016 12:19:59,19.875,15.187,off
