TIME,INSIDE_TEMPERATURE,OUTSIDE_TEMPERATURE,LIGHTS_STATE

11/22/2016 12:28:25,23.687,19.0,off
11/22/2016 12:28:37,23.687,19.062,off
11/22/2016 12:28:49,23.687,19.125,off
11/22/2016 12:29:00,23.687,19.187,off
