TIME,INSIDE_TEMPERATURE,OUTSIDE_TEMPERATURE,LIGHTS_STATE

12/03/2016 12:06:26,24.75,21.937,off
12/03/2016 12:06:37,24.812,21.812,off
12/03/2016 12:06:50,24.812,21.75,off
12/03/2016 12:07:01,24.812,21.75,off
