TIME,INSIDE_TEMPERATURE,OUTSIDE_TEMPERATURE,LIGHTS_STATE

01/11/2018 12:17:25,22.5,18.625,off
01/11/2018 12:17:37,22.5,18.687,off
01/11/2018 12:17:49,22.562,18.687,off
01/11/2018 12:18:01,22.5,18.687,off
