TIME,INSIDE_TEMPERATURE,OUTSIDE_TEMPERATURE,LIGHTS_STATE

07/26/2017 12:32:25,29.187,26.312,off
07/26/2017 12:32:37,29.187,26.312,off
07/26/2017 12:32:49,29.187,26.375,off
07/26/2017 12:33:01,29.187,26.375,off
