TIME,INSIDE_TEMPERATURE,OUTSIDE_TEMPERATURE,LIGHTS_STATE

06/14/2017 12:25:25,29.437,26.812,off
06/14/2017 12:25:37,29.437,26.875,off
06/14/2017 12:25:49,29.437,26.875,off
06/14/2017 12:26:01,29.437,26.812,off
