TIME,INSIDE_TEMPERATURE,OUTSIDE_TEMPERATURE,LIGHTS_STATE

12/19/2016 12:35:24,18.5,14.562,off
12/19/2016 12:35:36,18.5,14.625,off
12/19/2016 12:35:48,18.5,14.625,off
12/19/2016 12:35:59,18.5,14.562,off
