TIME,INSIDE_TEMPERATURE,OUTSIDE_TEMPERATURE,LIGHTS_STATE

06/21/2016 12:00:25,31.375,31.437,off
06/21/2016 12:00:37,31.312,31.437,off
06/21/2016 12:00:48,31.312,31.5,off
06/21/2016 12:01:00,31.312,31.437,off
