TIME,INSIDE_TEMPERATURE,OUTSIDE_TEMPERATURE,LIGHTS_STATE

12/16/2016 12:39:25,17.937,15.125,off
12/16/2016 12:39:37,17.937,15.0,off
12/16/2016 12:39:48,17.937,15.0,off
12/16/2016 12:40:00,17.937,15.0,off
