TIME,INSIDE_TEMPERATURE,OUTSIDE_TEMPERATURE,LIGHTS_STATE

07/31/2016 12:20:25,28.687,28.937,off
07/31/2016 12:20:37,28.687,28.875,off
07/31/2016 12:20:49,28.687,28.937,off
07/31/2016 12:21:01,28.687,29.0,off
