TIME,INSIDE_TEMPERATURE,OUTSIDE_TEMPERATURE,LIGHTS_STATE

12/21/2016 12:11:26,22.937,20.5,off
12/21/2016 12:11:38,22.937,20.562,off
12/21/2016 12:11:49,22.937,20.625,off
12/21/2016 12:12:01,22.937,20.625,off
