TIME,INSIDE_TEMPERATURE,OUTSIDE_TEMPERATURE,LIGHTS_STATE

01/10/2018 12:54:25,18.375,13.687,off
01/10/2018 12:54:37,18.437,13.687,off
01/10/2018 12:54:48,18.437,13.75,off
01/10/2018 12:55:00,18.437,13.812,off
