TIME,INSIDE_TEMPERATURE,OUTSIDE_TEMPERATURE,LIGHTS_STATE

06/30/2017 12:58:26,27.687,24.437,off
06/30/2017 12:58:37,27.687,24.437,off
06/30/2017 12:58:49,27.687,24.437,off
06/30/2017 12:59:01,27.687,24.5,off
