TIME,INSIDE_TEMPERATURE,OUTSIDE_TEMPERATURE,LIGHTS_STATE

12/25/2017 12:44:26,20.437,16.812,off
12/25/2017 12:44:37,20.5,16.75,off
12/25/2017 12:44:49,20.5,16.75,off
12/25/2017 12:45:01,20.5,16.75,off
