TIME,INSIDE_TEMPERATURE,OUTSIDE_TEMPERATURE,LIGHTS_STATE

02/26/2017 12:55:25,22.062,24.562,off
02/26/2017 12:55:37,22.062,24.5,off
02/26/2017 12:55:48,22.062,24.562,off
02/26/2017 12:56:00,22.062,24.625,off
