TIME,INSIDE_TEMPERATURE,OUTSIDE_TEMPERATURE,LIGHTS_STATE

05/08/2017 12:54:25,26.375,24.375,off
05/08/2017 12:54:37,26.437,24.375,off
05/08/2017 12:54:49,26.437,24.375,off
05/08/2017 12:55:01,26.437,24.437,off
