TIME,INSIDE_TEMPERATURE,OUTSIDE_TEMPERATURE,LIGHTS_STATE

03/30/2018 12:00:25,27.187,26.187,off
03/30/2018 12:00:37,27.187,26.187,off
03/30/2018 12:00:49,27.187,26.187,off
03/30/2018 12:01:01,27.187,26.187,off
