TIME,INSIDE_TEMPERATURE,OUTSIDE_TEMPERATURE,LIGHTS_STATE

05/17/2017 12:19:25,22.312,19.812,off
05/17/2017 12:19:37,22.375,19.812,off
05/17/2017 12:19:49,22.375,19.75,off
05/17/2017 12:20:00,22.375,19.812,off
