TIME,INSIDE_TEMPERATURE,OUTSIDE_TEMPERATURE,LIGHTS_STATE

07/20/2017 12:58:25,29.687,26.375,off
07/20/2017 12:58:37,29.687,26.437,off
07/20/2017 12:58:49,29.687,26.437,off
07/20/2017 12:59:00,29.687,26.5,off
