TIME,INSIDE_TEMPERATURE,OUTSIDE_TEMPERATURE,LIGHTS_STATE

03/15/2017 12:19:25,27.062,23.437,off
03/15/2017 12:19:37,27.125,23.312,off
03/15/2017 12:19:48,27.125,23.375,off
03/15/2017 12:20:00,27.125,23.375,off
