TIME,INSIDE_TEMPERATURE,OUTSIDE_TEMPERATURE,LIGHTS_STATE

08/05/2017 12:52:25,33.875,31.5,off
08/05/2017 12:52:37,33.875,31.375,off
08/05/2017 12:52:48,33.875,31.312,off
08/05/2017 12:53:00,33.875,31.25,off
