TIME,INSIDE_TEMPERATURE,OUTSIDE_TEMPERATURE,LIGHTS_STATE

04/18/2017 12:49:25,23.187,18.562,off
04/18/2017 12:49:36,23.187,18.625,off
04/18/2017 12:49:48,23.187,18.75,off
04/18/2017 12:50:00,23.187,18.812,off
