TIME,INSIDE_TEMPERATURE,OUTSIDE_TEMPERATURE,LIGHTS_STATE

02/08/2017 12:18:25,22.125,18.5,off
02/08/2017 12:18:36,22.125,18.562,off
02/08/2017 12:18:48,22.187,18.562,off
02/08/2017 12:19:00,22.187,18.562,off
