TIME,INSIDE_TEMPERATURE,OUTSIDE_TEMPERATURE,LIGHTS_STATE

12/09/2016 12:00:25,21.75,18.5,off
12/09/2016 12:00:37,21.75,18.562,off
12/09/2016 12:00:48,21.75,18.562,off
12/09/2016 12:01:00,21.75,18.562,off
