TIME,INSIDE_TEMPERATURE,OUTSIDE_TEMPERATURE,LIGHTS_STATE

09/13/2016 12:40:25,24.75,22.687,off
09/13/2016 12:40:37,24.75,22.625,off
09/13/2016 12:40:48,24.75,22.562,off
09/13/2016 12:41:00,24.75,22.562,off
