TIME,INSIDE_TEMPERATURE,OUTSIDE_TEMPERATURE,LIGHTS_STATE

09/12/2016 12:08:25,24.25,22.187,off
09/12/2016 12:08:37,24.312,22.187,off
09/12/2016 12:08:49,24.25,22.312,off
09/12/2016 12:09:01,24.312,22.25,off
