TIME,INSIDE_TEMPERATURE,OUTSIDE_TEMPERATURE,LIGHTS_STATE

03/12/2018 12:50:26,27.375,27.187,off
03/12/2018 12:50:37,27.375,27.125,off
03/12/2018 12:50:49,27.312,27.062,off
03/12/2018 12:51:01,27.312,27.0,off
