TIME,INSIDE_TEMPERATURE,OUTSIDE_TEMPERATURE,LIGHTS_STATE

11/05/2016 12:42:26,30.437,32.375,off
11/05/2016 12:42:38,30.437,32.562,off
11/05/2016 12:42:49,30.437,32.625,off
11/05/2016 12:43:01,30.437,32.75,off
