TIME,INSIDE_TEMPERATURE,OUTSIDE_TEMPERATURE,LIGHTS_STATE

03/03/2018 12:56:25,17.062,11.062,off
03/03/2018 12:56:37,17.062,11.062,off
03/03/2018 12:56:48,17.125,11.062,off
03/03/2018 12:57:00,17.125,11.062,off
