TIME,INSIDE_TEMPERATURE,OUTSIDE_TEMPERATURE,LIGHTS_STATE

03/16/2018 12:50:25,17.875,13.375,off
03/16/2018 12:50:37,17.937,13.375,off
03/16/2018 12:50:48,17.937,13.437,off
03/16/2018 12:51:00,17.937,13.437,off
