TIME,INSIDE_TEMPERATURE,OUTSIDE_TEMPERATURE,LIGHTS_STATE

01/05/2018 12:38:25,21.687,17.875,off
01/05/2018 12:38:37,21.687,17.875,off
01/05/2018 12:38:49,21.687,17.937,off
01/05/2018 12:39:00,21.687,17.937,off
