TIME,INSIDE_TEMPERATURE,OUTSIDE_TEMPERATURE,LIGHTS_STATE

09/15/2017 12:40:25,27.625,24.5,off
09/15/2017 12:40:37,27.687,24.5,off
09/15/2017 12:40:49,27.687,24.437,off
09/15/2017 12:41:01,27.687,24.437,off
