TIME,INSIDE_TEMPERATURE,OUTSIDE_TEMPERATURE,LIGHTS_STATE

01/12/2018 12:21:25,20.562,19.687,off
01/12/2018 12:21:37,20.562,19.875,off
01/12/2018 12:21:49,20.562,19.937,off
01/12/2018 12:22:01,20.562,19.875,off
