TIME,INSIDE_TEMPERATURE,OUTSIDE_TEMPERATURE,LIGHTS_STATE

02/23/2017 12:41:26,21.437,20.312,off
02/23/2017 12:41:37,21.437,20.562,off
02/23/2017 12:41:49,21.5,20.812,off
02/23/2017 12:42:01,21.437,21.125,off
