TIME,INSIDE_TEMPERATURE,OUTSIDE_TEMPERATURE,LIGHTS_STATE

06/18/2017 12:27:26,38.25,32.812,off
06/18/2017 12:27:37,38.25,32.812,off
06/18/2017 12:27:49,38.25,32.812,off
06/18/2017 12:28:01,38.25,32.812,off
