TIME,INSIDE_TEMPERATURE,OUTSIDE_TEMPERATURE,LIGHTS_STATE

10/15/2017 12:05:25,29.812,29.625,off
10/15/2017 12:05:37,29.812,29.75,off
10/15/2017 12:05:48,29.875,29.625,off
10/15/2017 12:06:00,29.875,29.562,off
