TIME,INSIDE_TEMPERATURE,OUTSIDE_TEMPERATURE,LIGHTS_STATE

01/14/2017 12:11:25,21.687,16.937,off
01/14/2017 12:11:37,21.687,17.0,off
01/14/2017 12:11:49,21.687,16.937,off
01/14/2017 12:12:00,21.687,16.812,off
