TIME,INSIDE_TEMPERATURE,OUTSIDE_TEMPERATURE,LIGHTS_STATE

11/14/2016 12:21:25,28.937,30.875,off
11/14/2016 12:21:37,28.937,30.75,off
11/14/2016 12:21:48,28.937,30.687,off
11/14/2016 12:22:00,28.875,31.0,off
