TIME,INSIDE_TEMPERATURE,OUTSIDE_TEMPERATURE,LIGHTS_STATE

02/26/2017 12:10:25,24.687,20.125,off
02/26/2017 12:10:37,24.687,20.062,off
02/26/2017 12:10:49,24.625,20.062,off
02/26/2017 12:11:00,24.625,20.125,off
