TIME,INSIDE_TEMPERATURE,OUTSIDE_TEMPERATURE,LIGHTS_STATE

07/05/2017 12:05:25,29.375,27.125,off
07/05/2017 12:05:37,29.375,27.187,off
07/05/2017 12:05:49,29.375,27.187,off
07/05/2017 12:06:01,29.375,27.25,off
