TIME,INSIDE_TEMPERATURE,OUTSIDE_TEMPERATURE,LIGHTS_STATE

09/26/2017 12:54:25,32.937,30.375,off
09/26/2017 12:54:37,32.937,30.375,off
09/26/2017 12:54:49,32.937,30.375,off
09/26/2017 12:55:01,32.937,30.437,off
