TIME,INSIDE_TEMPERATURE,OUTSIDE_TEMPERATURE,LIGHTS_STATE

12/26/2017 12:32:25,24.625,27.687,off
12/26/2017 12:32:37,24.687,27.812,off
12/26/2017 12:32:49,24.687,27.75,off
12/26/2017 12:33:00,24.687,27.687,off
