TIME,INSIDE_TEMPERATURE,OUTSIDE_TEMPERATURE,LIGHTS_STATE

09/19/2016 12:33:26,33.875,36.062,off
09/19/2016 12:33:38,33.937,36.062,off
09/19/2016 12:33:49,33.937,36.0,off
09/19/2016 12:34:01,33.937,36.0,off
