TIME,INSIDE_TEMPERATURE,OUTSIDE_TEMPERATURE,LIGHTS_STATE

02/09/2017 12:04:25,20.25,15.437,off
02/09/2017 12:04:36,20.25,15.437,off
02/09/2017 12:04:48,20.312,15.437,off
02/09/2017 12:05:00,20.25,15.437,off
