TIME,INSIDE_TEMPERATURE,OUTSIDE_TEMPERATURE,LIGHTS_STATE

11/29/2016 12:43:25,21.312,17.875,off
11/29/2016 12:43:37,21.312,17.875,off
11/29/2016 12:43:48,21.312,18.0,off
11/29/2016 12:44:00,21.312,18.062,off
