TIME,INSIDE_TEMPERATURE,OUTSIDE_TEMPERATURE,LIGHTS_STATE

02/17/2018 12:15:25,26.75,28.875,off
02/17/2018 12:15:37,26.75,28.687,off
02/17/2018 12:15:49,26.75,28.687,off
02/17/2018 12:16:00,26.75,28.75,off
