TIME,INSIDE_TEMPERATURE,OUTSIDE_TEMPERATURE,LIGHTS_STATE

09/28/2017 12:30:25,34.062,31.875,off
09/28/2017 12:30:37,34.062,31.937,off
09/28/2017 12:30:49,34.062,31.937,off
09/28/2017 12:31:01,34.125,32.0,off
