TIME,INSIDE_TEMPERATURE,OUTSIDE_TEMPERATURE,LIGHTS_STATE

08/21/2017 12:56:25,29.312,26.75,off
08/21/2017 12:56:37,29.312,26.812,off
08/21/2017 12:56:49,29.312,26.812,off
08/21/2017 12:57:01,29.312,26.812,off
