TIME,INSIDE_TEMPERATURE,OUTSIDE_TEMPERATURE,LIGHTS_STATE

02/27/2018 12:46:25,20.937,23.187,off
02/27/2018 12:46:37,20.937,23.125,off
02/27/2018 12:46:49,20.937,23.062,off
02/27/2018 12:47:00,21.0,23.0,off
