TIME,INSIDE_TEMPERATURE,OUTSIDE_TEMPERATURE,LIGHTS_STATE

09/17/2017 12:33:25,29.25,26.937,off
09/17/2017 12:33:37,29.25,26.937,off
09/17/2017 12:33:49,29.25,27.0,off
09/17/2017 12:34:01,29.25,27.0,off
