TIME,INSIDE_TEMPERATURE,OUTSIDE_TEMPERATURE,LIGHTS_STATE

01/24/2018 12:34:25,19.625,15.437,off
01/24/2018 12:34:37,19.625,15.437,off
01/24/2018 12:34:49,19.625,15.375,off
01/24/2018 12:35:00,19.625,15.375,off
