TIME,INSIDE_TEMPERATURE,OUTSIDE_TEMPERATURE,LIGHTS_STATE

03/07/2018 12:16:25,24.187,33.437,off
03/07/2018 12:16:37,24.187,33.562,off
03/07/2018 12:16:49,24.187,33.625,off
03/07/2018 12:17:01,24.187,33.75,off
