TIME,INSIDE_TEMPERATURE,OUTSIDE_TEMPERATURE,LIGHTS_STATE

03/21/2017 12:58:25,23.25,19.812,off
03/21/2017 12:58:37,23.25,19.812,off
03/21/2017 12:58:49,23.25,19.812,off
03/21/2017 12:59:00,23.25,19.937,off
