TIME,INSIDE_TEMPERATURE,OUTSIDE_TEMPERATURE,LIGHTS_STATE

02/04/2017 12:12:25,25.125,24.75,off
02/04/2017 12:12:37,25.125,24.812,off
02/04/2017 12:12:48,25.125,24.5,off
02/04/2017 12:13:00,25.125,24.125,off
