TIME,INSIDE_TEMPERATURE,OUTSIDE_TEMPERATURE,LIGHTS_STATE

09/03/2017 12:31:26,41.187,39.937,off
09/03/2017 12:31:37,41.187,39.937,off
09/03/2017 12:31:49,41.25,40.0,off
09/03/2017 12:32:01,41.312,40.0,off
