TIME,INSIDE_TEMPERATURE,OUTSIDE_TEMPERATURE,LIGHTS_STATE

10/18/2017 12:56:25,31.937,31.125,off
10/18/2017 12:56:37,31.937,31.125,off
10/18/2017 12:56:49,31.937,31.0,off
10/18/2017 12:57:01,31.937,31.0,off
