TIME,INSIDE_TEMPERATURE,OUTSIDE_TEMPERATURE,LIGHTS_STATE

09/16/2017 12:06:25,30.5,27.687,off
09/16/2017 12:06:37,30.562,27.625,off
09/16/2017 12:06:49,30.625,27.625,off
09/16/2017 12:07:00,30.437,27.687,off
