TIME,INSIDE_TEMPERATURE,OUTSIDE_TEMPERATURE,LIGHTS_STATE

09/06/2017 12:43:25,34.0,32.25,off
09/06/2017 12:43:37,34.062,32.312,off
09/06/2017 12:43:49,34.062,32.375,off
09/06/2017 12:44:01,34.062,32.375,off
