TIME,INSIDE_TEMPERATURE,OUTSIDE_TEMPERATURE,LIGHTS_STATE

07/28/2016 12:36:25,32.5,32.937,off
07/28/2016 12:36:37,32.5,32.937,off
07/28/2016 12:36:48,32.562,32.937,off
07/28/2016 12:37:00,32.5,32.937,off
