TIME,INSIDE_TEMPERATURE,OUTSIDE_TEMPERATURE,LIGHTS_STATE

01/03/2018 12:35:25,17.0,12.812,off
01/03/2018 12:35:37,17.062,12.812,off
01/03/2018 12:35:49,17.0,12.812,off
01/03/2018 12:36:01,17.062,12.812,off
