TIME,INSIDE_TEMPERATURE,OUTSIDE_TEMPERATURE,LIGHTS_STATE

04/29/2017 12:14:25,25.062,23.312,off
04/29/2017 12:14:36,25.062,23.375,off
04/29/2017 12:14:48,25.062,23.437,off
04/29/2017 12:15:00,25.062,23.437,off
