TIME,INSIDE_TEMPERATURE,OUTSIDE_TEMPERATURE,LIGHTS_STATE

02/13/2018 12:08:25,23.437,20.75,off
02/13/2018 12:08:37,23.437,21.125,off
02/13/2018 12:08:49,23.437,21.437,off
02/13/2018 12:09:01,23.437,21.75,off
