TIME,INSIDE_TEMPERATURE,OUTSIDE_TEMPERATURE,LIGHTS_STATE

02/19/2017 12:52:25,16.25,11.937,off
02/19/2017 12:52:37,16.25,11.875,off
02/19/2017 12:52:48,16.25,11.937,off
02/19/2017 12:53:00,16.25,11.937,off
