TIME,INSIDE_TEMPERATURE,OUTSIDE_TEMPERATURE,LIGHTS_STATE

07/02/2017 12:19:26,29.125,26.437,off
07/02/2017 12:19:37,29.062,26.437,off
07/02/2017 12:19:49,29.062,26.437,off
07/02/2017 12:20:01,28.937,26.5,off
