TIME,INSIDE_TEMPERATURE,OUTSIDE_TEMPERATURE,LIGHTS_STATE

06/22/2017 12:42:26,40.625,35.687,off
06/22/2017 12:42:37,40.562,35.687,off
06/22/2017 12:42:49,40.562,35.687,off
06/22/2017 12:43:01,40.625,35.625,off
