TIME,INSIDE_TEMPERATURE,OUTSIDE_TEMPERATURE,LIGHTS_STATE

09/26/2017 12:49:25,32.687,30.25,off
09/26/2017 12:49:37,32.687,30.312,off
09/26/2017 12:49:48,32.687,30.312,off
09/26/2017 12:50:00,32.687,30.375,off
