TIME,INSIDE_TEMPERATURE,OUTSIDE_TEMPERATURE,LIGHTS_STATE

01/26/2018 12:01:26,22.375,19.0,off
01/26/2018 12:01:37,22.375,19.125,off
01/26/2018 12:01:49,22.375,19.0,off
01/26/2018 12:02:01,22.375,18.875,off
