TIME,INSIDE_TEMPERATURE,OUTSIDE_TEMPERATURE,LIGHTS_STATE

07/01/2016 12:52:25,28.562,27.875,off
07/01/2016 12:52:36,28.625,27.875,off
07/01/2016 12:52:48,28.625,27.875,off
07/01/2016 12:53:00,28.625,27.875,off
