TIME,INSIDE_TEMPERATURE,OUTSIDE_TEMPERATURE,LIGHTS_STATE

03/17/2017 12:40:25,24.937,22.937,off
03/17/2017 12:40:37,24.937,22.937,off
03/17/2017 12:40:49,24.937,22.812,off
03/17/2017 12:41:00,24.937,22.812,off
