TIME,INSIDE_TEMPERATURE,OUTSIDE_TEMPERATURE,LIGHTS_STATE

07/27/2016 12:46:25,37.125,38.25,off
07/27/2016 12:46:37,37.187,38.25,off
07/27/2016 12:46:48,37.25,38.312,off
07/27/2016 12:47:00,37.25,38.375,off
