TIME,INSIDE_TEMPERATURE,OUTSIDE_TEMPERATURE,LIGHTS_STATE

04/30/2017 12:54:26,26.75,25.437,off
04/30/2017 12:54:37,26.75,25.437,off
04/30/2017 12:54:49,26.812,25.437,off
04/30/2017 12:55:01,26.812,25.5,off
