TIME,INSIDE_TEMPERATURE,OUTSIDE_TEMPERATURE,LIGHTS_STATE

04/23/2017 12:07:25,21.875,19.062,off
04/23/2017 12:07:37,21.812,19.125,off
04/23/2017 12:07:49,21.812,19.062,off
04/23/2017 12:08:01,21.812,19.0,off
