TIME,INSIDE_TEMPERATURE,OUTSIDE_TEMPERATURE,LIGHTS_STATE

08/23/2017 12:37:26,30.125,27.562,off
08/23/2017 12:37:37,30.187,27.562,off
08/23/2017 12:37:49,30.187,27.562,off
08/23/2017 12:38:01,30.187,27.562,off
