TIME,INSIDE_TEMPERATURE,OUTSIDE_TEMPERATURE,LIGHTS_STATE

06/23/2017 12:56:25,33.562,29.937,off
06/23/2017 12:56:37,33.562,29.937,off
06/23/2017 12:56:49,33.562,29.937,off
06/23/2017 12:57:01,33.562,29.937,off
