TIME,INSIDE_TEMPERATURE,OUTSIDE_TEMPERATURE,LIGHTS_STATE

11/08/2016 12:51:25,30.5,27.187,off
11/08/2016 12:51:37,30.5,27.25,off
11/08/2016 12:51:48,30.5,27.25,off
11/08/2016 12:52:00,30.5,27.187,off
