TIME,INSIDE_TEMPERATURE,OUTSIDE_TEMPERATURE,LIGHTS_STATE

04/02/2017 12:34:25,24.625,22.375,off
04/02/2017 12:34:36,24.687,22.437,off
04/02/2017 12:34:48,24.687,22.437,off
04/02/2017 12:35:00,24.75,22.5,off
