TIME,INSIDE_TEMPERATURE,OUTSIDE_TEMPERATURE,LIGHTS_STATE

06/18/2017 12:15:25,38.062,32.562,off
06/18/2017 12:15:37,38.062,32.562,off
06/18/2017 12:15:49,38.062,32.562,off
06/18/2017 12:16:01,38.062,32.562,off
