TIME,INSIDE_TEMPERATURE,OUTSIDE_TEMPERATURE,LIGHTS_STATE

06/26/2017 12:40:25,27.875,24.312,off
06/26/2017 12:40:37,27.937,24.25,off
06/26/2017 12:40:49,27.937,24.187,off
06/26/2017 12:41:00,27.937,24.187,off
