TIME,INSIDE_TEMPERATURE,OUTSIDE_TEMPERATURE,LIGHTS_STATE

03/26/2017 12:23:25,23.937,20.875,off
03/26/2017 12:23:37,23.937,20.75,off
03/26/2017 12:23:49,23.937,20.687,off
03/26/2017 12:24:01,23.875,20.562,off
