TIME,INSIDE_TEMPERATURE,OUTSIDE_TEMPERATURE,LIGHTS_STATE

03/17/2018 12:07:25,18.25,13.687,off
03/17/2018 12:07:37,18.25,13.562,off
03/17/2018 12:07:49,18.25,13.562,off
03/17/2018 12:08:00,18.25,13.5,off
