TIME,INSIDE_TEMPERATURE,OUTSIDE_TEMPERATURE,LIGHTS_STATE

03/19/2018 12:42:25,19.875,16.875,off
03/19/2018 12:42:37,19.875,16.875,off
03/19/2018 12:42:48,19.875,16.875,off
03/19/2018 12:43:00,19.875,16.812,off
