TIME,INSIDE_TEMPERATURE,OUTSIDE_TEMPERATURE,LIGHTS_STATE

12/30/2017 12:58:25,21.937,21.187,off
12/30/2017 12:58:37,21.937,21.187,off
12/30/2017 12:58:49,21.875,21.25,off
12/30/2017 12:59:00,21.875,21.187,off
