TIME,INSIDE_TEMPERATURE,OUTSIDE_TEMPERATURE,LIGHTS_STATE

02/12/2017 12:16:26,26.75,23.687,off
02/12/2017 12:16:37,26.75,23.75,off
02/12/2017 12:16:49,26.75,23.75,off
02/12/2017 12:17:01,26.687,23.812,off
