TIME,INSIDE_TEMPERATURE,OUTSIDE_TEMPERATURE,LIGHTS_STATE

08/07/2017 12:05:26,27.687,25.062,off
08/07/2017 12:05:37,27.75,25.062,off
08/07/2017 12:05:49,27.75,25.062,off
08/07/2017 12:06:01,27.75,25.0,off
