TIME,INSIDE_TEMPERATURE,OUTSIDE_TEMPERATURE,LIGHTS_STATE

09/09/2016 12:19:25,27.25,41.5,off
09/09/2016 12:19:37,27.25,40.937,off
09/09/2016 12:19:49,27.312,40.312,off
09/09/2016 12:20:00,27.312,39.625,off
