TIME,INSIDE_TEMPERATURE,OUTSIDE_TEMPERATURE,LIGHTS_STATE

09/10/2017 12:15:25,36.812,33.25,off
09/10/2017 12:15:37,36.812,33.187,off
09/10/2017 12:15:49,36.875,33.187,off
09/10/2017 12:16:01,36.875,33.187,off
