TIME,INSIDE_TEMPERATURE,OUTSIDE_TEMPERATURE,LIGHTS_STATE

02/18/2017 12:53:26,16.75,12.687,off
02/18/2017 12:53:37,16.75,12.687,off
02/18/2017 12:53:49,16.75,12.687,off
02/18/2017 12:54:01,16.75,12.687,off
