TIME,INSIDE_TEMPERATURE,OUTSIDE_TEMPERATURE,LIGHTS_STATE

03/14/2018 12:45:25,17.062,7.812,off
03/14/2018 12:45:37,17.062,7.812,off
03/14/2018 12:45:49,17.062,7.812,off
03/14/2018 12:46:01,17.062,7.812,off
