TIME,INSIDE_TEMPERATURE,OUTSIDE_TEMPERATURE,LIGHTS_STATE

06/23/2017 12:46:25,33.25,29.812,off
06/23/2017 12:46:37,33.0,29.812,off
06/23/2017 12:46:49,32.875,29.812,off
06/23/2017 12:47:01,32.812,29.812,off
