TIME,INSIDE_TEMPERATURE,OUTSIDE_TEMPERATURE,LIGHTS_STATE

01/19/2017 12:16:25,21.25,19.25,off
01/19/2017 12:16:36,21.25,19.375,off
01/19/2017 12:16:48,21.25,19.375,off
01/19/2017 12:17:00,21.312,19.312,off
