TIME,INSIDE_TEMPERATURE,OUTSIDE_TEMPERATURE,LIGHTS_STATE

08/26/2017 12:29:25,35.937,34.375,off
08/26/2017 12:29:37,35.937,34.312,off
08/26/2017 12:29:49,35.937,34.375,off
08/26/2017 12:30:00,35.937,34.375,off
