TIME,INSIDE_TEMPERATURE,OUTSIDE_TEMPERATURE,LIGHTS_STATE

01/16/2017 12:04:25,19.875,15.562,off
01/16/2017 12:04:37,19.875,15.875,off
01/16/2017 12:04:48,19.875,16.125,off
01/16/2017 12:05:00,19.875,16.437,off
