TIME,INSIDE_TEMPERATURE,OUTSIDE_TEMPERATURE,LIGHTS_STATE

02/11/2017 12:40:26,23.25,20.312,off
02/11/2017 12:40:37,23.25,20.437,off
02/11/2017 12:40:49,23.25,20.5,off
02/11/2017 12:41:01,23.25,20.562,off
