TIME,INSIDE_TEMPERATURE,OUTSIDE_TEMPERATURE,LIGHTS_STATE

02/12/2018 12:31:25,23.437,25.875,off
02/12/2018 12:31:37,23.437,26.062,off
02/12/2018 12:31:49,23.437,26.25,off
02/12/2018 12:32:00,23.437,26.312,off
