TIME,INSIDE_TEMPERATURE,OUTSIDE_TEMPERATURE,LIGHTS_STATE

02/11/2018 12:29:25,22.312,17.312,off
02/11/2018 12:29:37,22.25,17.312,off
02/11/2018 12:29:49,22.25,17.312,off
02/11/2018 12:30:00,22.312,17.312,off
