TIME,INSIDE_TEMPERATURE,OUTSIDE_TEMPERATURE,LIGHTS_STATE

07/16/2017 12:24:25,37.875,33.437,off
07/16/2017 12:24:37,37.875,33.5,off
07/16/2017 12:24:49,37.875,33.5,off
07/16/2017 12:25:01,37.875,33.5,off
