TIME,INSIDE_TEMPERATURE,OUTSIDE_TEMPERATURE,LIGHTS_STATE

12/27/2017 12:56:26,23.687,24.25,off
12/27/2017 12:56:37,23.75,24.25,off
12/27/2017 12:56:49,23.687,24.437,off
12/27/2017 12:57:01,23.75,24.625,off
