TIME,INSIDE_TEMPERATURE,OUTSIDE_TEMPERATURE,LIGHTS_STATE

04/18/2017 12:50:25,23.187,18.812,off
04/18/2017 12:50:37,23.187,18.812,off
04/18/2017 12:50:48,23.25,18.687,off
04/18/2017 12:51:00,23.25,18.75,off
