TIME,INSIDE_TEMPERATURE,OUTSIDE_TEMPERATURE,LIGHTS_STATE

11/17/2016 12:44:25,23.375,18.937,off
11/17/2016 12:44:37,23.375,18.937,off
11/17/2016 12:44:48,23.437,19.0,off
11/17/2016 12:45:00,23.375,19.0,off
