TIME,INSIDE_TEMPERATURE,OUTSIDE_TEMPERATURE,LIGHTS_STATE

02/28/2018 12:41:26,21.25,19.437,off
02/28/2018 12:41:37,21.312,19.375,off
02/28/2018 12:41:49,21.312,19.375,off
02/28/2018 12:42:01,21.312,19.312,off
