TIME,INSIDE_TEMPERATURE,OUTSIDE_TEMPERATURE,LIGHTS_STATE

12/19/2016 12:06:24,18.562,14.125,off
12/19/2016 12:06:36,18.562,13.937,off
12/19/2016 12:06:48,18.562,14.0,off
12/19/2016 12:06:59,18.5,14.125,off
