TIME,INSIDE_TEMPERATURE,OUTSIDE_TEMPERATURE,LIGHTS_STATE

12/16/2016 12:58:25,17.812,17.625,off
12/16/2016 12:58:36,17.812,17.375,off
12/16/2016 12:58:48,17.812,17.125,off
12/16/2016 12:59:00,17.812,16.937,off
