TIME,INSIDE_TEMPERATURE,OUTSIDE_TEMPERATURE,LIGHTS_STATE

08/08/2017 12:53:25,30.062,27.437,off
08/08/2017 12:53:37,30.062,27.437,off
08/08/2017 12:53:49,30.062,27.5,off
08/08/2017 12:54:01,30.062,27.562,off
