TIME,INSIDE_TEMPERATURE,OUTSIDE_TEMPERATURE,LIGHTS_STATE

02/11/2017 12:53:25,22.875,20.312,off
02/11/2017 12:53:37,22.875,20.312,off
02/11/2017 12:53:48,22.812,20.312,off
02/11/2017 12:54:00,22.812,20.187,off
