TIME,INSIDE_TEMPERATURE,OUTSIDE_TEMPERATURE,LIGHTS_STATE

03/19/2017 12:20:25,22.812,19.625,off
03/19/2017 12:20:36,22.812,19.687,off
03/19/2017 12:20:48,22.812,19.687,off
03/19/2017 12:21:00,22.875,19.75,off
