TIME,INSIDE_TEMPERATURE,OUTSIDE_TEMPERATURE,LIGHTS_STATE

12/30/2016 12:42:25,17.312,15.125,off
12/30/2016 12:42:37,17.312,15.125,off
12/30/2016 12:42:48,17.312,15.125,off
12/30/2016 12:43:00,17.312,15.125,off
