TIME,INSIDE_TEMPERATURE,OUTSIDE_TEMPERATURE,LIGHTS_STATE

07/10/2016 12:21:26,24.187,23.5,off
07/10/2016 12:21:37,24.187,23.437,off
07/10/2016 12:21:49,24.187,23.437,off
07/10/2016 12:22:01,24.187,23.437,off
