TIME,INSIDE_TEMPERATURE,OUTSIDE_TEMPERATURE,LIGHTS_STATE

07/20/2017 12:36:25,29.187,26.312,off
07/20/2017 12:36:37,29.187,26.312,off
07/20/2017 12:36:49,29.187,26.312,off
07/20/2017 12:37:01,29.25,26.312,off
