TIME,INSIDE_TEMPERATURE,OUTSIDE_TEMPERATURE,LIGHTS_STATE

06/21/2017 12:13:25,34.062,31.0,off
06/21/2017 12:13:37,34.062,31.0,off
06/21/2017 12:13:49,34.062,31.0,off
06/21/2017 12:14:00,34.062,31.0,off
