TIME,INSIDE_TEMPERATURE,OUTSIDE_TEMPERATURE,LIGHTS_STATE

09/07/2017 12:35:26,29.687,26.875,off
09/07/2017 12:35:37,29.687,26.875,off
09/07/2017 12:35:49,29.687,26.812,off
09/07/2017 12:36:01,29.75,26.812,off
