TIME,INSIDE_TEMPERATURE,OUTSIDE_TEMPERATURE,LIGHTS_STATE

06/28/2017 12:01:25,27.187,23.062,off
06/28/2017 12:01:37,27.25,23.125,off
06/28/2017 12:01:49,27.25,23.187,off
06/28/2017 12:02:01,26.937,23.312,off
