TIME,INSIDE_TEMPERATURE,OUTSIDE_TEMPERATURE,LIGHTS_STATE

12/27/2017 12:24:25,23.187,24.937,off
12/27/2017 12:24:37,23.25,25.187,off
12/27/2017 12:24:49,23.187,25.25,off
12/27/2017 12:25:01,23.187,25.25,off
