TIME,INSIDE_TEMPERATURE,OUTSIDE_TEMPERATURE,LIGHTS_STATE

09/07/2016 12:52:26,32.875,36.875,off
09/07/2016 12:52:38,32.875,36.812,off
09/07/2016 12:52:49,32.875,36.75,off
09/07/2016 12:53:01,32.875,36.687,off
