TIME,INSIDE_TEMPERATURE,OUTSIDE_TEMPERATURE,LIGHTS_STATE

11/22/2016 12:36:24,23.687,20.187,off
11/22/2016 12:36:36,23.625,20.25,off
11/22/2016 12:36:49,23.687,20.375,off
11/22/2016 12:37:00,23.687,20.375,off
