TIME,INSIDE_TEMPERATURE,OUTSIDE_TEMPERATURE,LIGHTS_STATE

01/19/2018 12:00:25,25.187,19.937,off
01/19/2018 12:00:37,25.187,20.0,off
01/19/2018 12:00:49,25.187,20.0,off
01/19/2018 12:01:01,25.187,19.937,off
