TIME,INSIDE_TEMPERATURE,OUTSIDE_TEMPERATURE,LIGHTS_STATE

12/18/2016 12:29:24,16.375,12.25,off
12/18/2016 12:29:36,16.375,12.25,off
12/18/2016 12:29:48,16.375,12.312,off
12/18/2016 12:29:59,16.375,12.312,off
