TIME,INSIDE_TEMPERATURE,OUTSIDE_TEMPERATURE,LIGHTS_STATE

07/05/2017 12:08:25,29.5,27.562,off
07/05/2017 12:08:37,29.5,27.562,off
07/05/2017 12:08:49,29.5,27.562,off
07/05/2017 12:09:01,29.5,27.562,off
