TIME,INSIDE_TEMPERATURE,OUTSIDE_TEMPERATURE,LIGHTS_STATE

11/03/2016 12:16:25,30.312,26.062,off
11/03/2016 12:16:37,30.312,26.0,off
11/03/2016 12:16:49,30.312,26.0,off
11/03/2016 12:17:00,30.312,26.0,off
