TIME,INSIDE_TEMPERATURE,OUTSIDE_TEMPERATURE,LIGHTS_STATE

03/21/2018 12:52:25,23.687,19.687,off
03/21/2018 12:52:37,23.687,19.687,off
03/21/2018 12:52:48,23.687,19.625,off
03/21/2018 12:53:00,23.687,19.562,off
