TIME,INSIDE_TEMPERATURE,OUTSIDE_TEMPERATURE,LIGHTS_STATE

03/15/2017 12:43:26,27.875,23.875,off
03/15/2017 12:43:37,27.875,24.0,off
03/15/2017 12:43:49,27.875,24.125,off
03/15/2017 12:44:01,27.875,24.25,off
