TIME,INSIDE_TEMPERATURE,OUTSIDE_TEMPERATURE,LIGHTS_STATE

01/29/2018 12:44:25,19.75,16.312,off
01/29/2018 12:44:37,19.812,16.25,off
01/29/2018 12:44:48,19.812,16.25,off
01/29/2018 12:45:00,19.812,16.375,off
