TIME,INSIDE_TEMPERATURE,OUTSIDE_TEMPERATURE,LIGHTS_STATE

01/01/2018 12:48:26,24.5,20.375,off
01/01/2018 12:48:37,24.5,20.375,off
01/01/2018 12:48:49,24.5,20.375,off
01/01/2018 12:49:01,24.5,20.375,off
