TIME,INSIDE_TEMPERATURE,OUTSIDE_TEMPERATURE,LIGHTS_STATE

03/19/2018 12:06:25,18.5,16.375,off
03/19/2018 12:06:37,18.5,16.437,off
03/19/2018 12:06:49,18.5,16.437,off
03/19/2018 12:07:01,18.5,16.312,off
