TIME,INSIDE_TEMPERATURE,OUTSIDE_TEMPERATURE,LIGHTS_STATE

02/26/2017 12:25:25,23.0,22.625,off
02/26/2017 12:25:37,22.937,22.562,off
02/26/2017 12:25:48,22.937,22.687,off
02/26/2017 12:26:00,23.0,22.875,off
