TIME,INSIDE_TEMPERATURE,OUTSIDE_TEMPERATURE,LIGHTS_STATE

09/20/2016 12:58:25,33.875,32.687,off
09/20/2016 12:58:37,33.875,32.687,off
09/20/2016 12:58:49,33.875,32.75,off
09/20/2016 12:59:00,33.937,32.75,off
