TIME,INSIDE_TEMPERATURE,OUTSIDE_TEMPERATURE,LIGHTS_STATE

08/20/2017 12:39:25,30.312,27.812,off
08/20/2017 12:39:37,30.312,27.812,off
08/20/2017 12:39:49,30.375,27.812,off
08/20/2017 12:40:00,30.375,27.812,off
