TIME,INSIDE_TEMPERATURE,OUTSIDE_TEMPERATURE,LIGHTS_STATE

02/09/2018 12:44:25,31.25,30.562,off
02/09/2018 12:44:37,31.25,30.562,off
02/09/2018 12:44:48,31.25,30.5,off
02/09/2018 12:45:00,31.25,30.5,off
