TIME,INSIDE_TEMPERATURE,OUTSIDE_TEMPERATURE,LIGHTS_STATE

06/11/2017 12:33:25,23.125,18.562,off
06/11/2017 12:33:37,23.125,18.5,off
06/11/2017 12:33:48,23.125,18.562,off
06/11/2017 12:34:00,23.187,18.625,off
