TIME,INSIDE_TEMPERATURE,OUTSIDE_TEMPERATURE,LIGHTS_STATE

02/06/2017 12:00:25,18.062,13.937,off
02/06/2017 12:00:36,18.125,13.937,off
02/06/2017 12:00:48,18.125,14.0,off
02/06/2017 12:01:00,18.125,14.062,off
