TIME,INSIDE_TEMPERATURE,OUTSIDE_TEMPERATURE,LIGHTS_STATE

12/23/2016 12:11:24,13.125,9.25,off
12/23/2016 12:11:36,13.125,9.25,off
12/23/2016 12:11:47,13.125,9.25,off
12/23/2016 12:11:59,13.125,9.25,off
