TIME,INSIDE_TEMPERATURE,OUTSIDE_TEMPERATURE,LIGHTS_STATE

03/17/2018 12:32:25,19.125,14.437,off
03/17/2018 12:32:37,19.125,14.5,off
03/17/2018 12:32:48,19.187,14.5,off
03/17/2018 12:33:00,19.187,14.437,off
