TIME,INSIDE_TEMPERATURE,OUTSIDE_TEMPERATURE,LIGHTS_STATE

11/29/2016 12:00:25,22.062,18.875,off
11/29/2016 12:00:37,22.062,18.937,off
11/29/2016 12:00:49,22.062,19.062,off
11/29/2016 12:01:00,22.062,19.0,off
