TIME,INSIDE_TEMPERATURE,OUTSIDE_TEMPERATURE,LIGHTS_STATE

05/22/2017 12:14:25,30.75,29.125,off
05/22/2017 12:14:37,30.75,29.125,off
05/22/2017 12:14:48,30.75,29.125,off
05/22/2017 12:15:00,30.75,29.125,off
