TIME,INSIDE_TEMPERATURE,OUTSIDE_TEMPERATURE,LIGHTS_STATE

07/19/2016 12:46:25,25.0,25.062,off
07/19/2016 12:46:36,25.062,25.125,off
07/19/2016 12:46:48,25.062,25.125,off
07/19/2016 12:47:00,25.062,25.125,off
