TIME,INSIDE_TEMPERATURE,OUTSIDE_TEMPERATURE,LIGHTS_STATE

07/21/2017 12:29:25,30.437,27.312,off
07/21/2017 12:29:37,30.437,27.312,off
07/21/2017 12:29:48,30.5,27.312,off
07/21/2017 12:30:00,30.5,27.312,off
