TIME,INSIDE_TEMPERATURE,OUTSIDE_TEMPERATURE,LIGHTS_STATE

12/12/2016 12:52:25,19.25,14.062,off
12/12/2016 12:52:37,19.25,14.062,off
12/12/2016 12:52:49,19.25,14.062,off
12/12/2016 12:53:00,19.25,14.062,off
