TIME,INSIDE_TEMPERATURE,OUTSIDE_TEMPERATURE,LIGHTS_STATE

03/12/2017 12:39:26,29.375,24.812,off
03/12/2017 12:39:37,29.312,24.75,off
03/12/2017 12:39:49,29.25,24.75,off
03/12/2017 12:40:01,29.25,24.687,off
