TIME,INSIDE_TEMPERATURE,OUTSIDE_TEMPERATURE,LIGHTS_STATE

01/10/2018 12:35:25,17.562,15.687,off
01/10/2018 12:35:37,17.625,15.625,off
01/10/2018 12:35:48,17.625,15.5,off
01/10/2018 12:36:00,17.625,15.437,off
