TIME,INSIDE_TEMPERATURE,OUTSIDE_TEMPERATURE,LIGHTS_STATE

02/16/2018 12:37:25,25.625,40.25,off
02/16/2018 12:37:37,25.625,40.25,off
02/16/2018 12:37:49,25.625,40.25,off
02/16/2018 12:38:01,25.625,40.625,off
