TIME,INSIDE_TEMPERATURE,OUTSIDE_TEMPERATURE,LIGHTS_STATE

07/23/2017 12:50:25,36.562,33.312,off
07/23/2017 12:50:37,36.562,33.25,off
07/23/2017 12:50:48,36.562,33.25,off
07/23/2017 12:51:00,36.562,33.312,off
