TIME,INSIDE_TEMPERATURE,OUTSIDE_TEMPERATURE,LIGHTS_STATE

07/31/2017 12:58:26,32.75,30.625,off
07/31/2017 12:58:37,32.75,30.625,off
07/31/2017 12:58:49,32.75,30.625,off
07/31/2017 12:59:01,32.812,30.625,off
