TIME,INSIDE_TEMPERATURE,OUTSIDE_TEMPERATURE,LIGHTS_STATE

02/10/2017 12:32:25,20.375,16.625,off
02/10/2017 12:32:36,20.375,16.625,off
02/10/2017 12:32:48,20.437,16.625,off
02/10/2017 12:33:00,20.437,16.625,off
