TIME,INSIDE_TEMPERATURE,OUTSIDE_TEMPERATURE,LIGHTS_STATE

02/12/2018 12:33:26,23.437,27.187,off
02/12/2018 12:33:37,23.437,27.25,off
02/12/2018 12:33:49,23.437,27.312,off
02/12/2018 12:34:01,23.437,27.5,off
