TIME,INSIDE_TEMPERATURE,OUTSIDE_TEMPERATURE,LIGHTS_STATE

07/25/2017 12:51:25,30.437,27.312,off
07/25/2017 12:51:37,30.437,27.312,off
07/25/2017 12:51:48,30.437,27.312,off
07/25/2017 12:52:00,30.5,27.312,off
