TIME,INSIDE_TEMPERATURE,OUTSIDE_TEMPERATURE,LIGHTS_STATE

03/13/2018 12:24:26,20.437,14.125,off
03/13/2018 12:24:38,20.437,14.125,off
03/13/2018 12:24:49,20.437,14.125,off
03/13/2018 12:25:01,20.437,14.125,off
