TIME,INSIDE_TEMPERATURE,OUTSIDE_TEMPERATURE,LIGHTS_STATE

10/28/2017 12:23:25,34.687,35.937,off
10/28/2017 12:23:36,34.687,35.875,off
10/28/2017 12:23:48,34.687,35.812,off
10/28/2017 12:24:00,34.687,35.687,off
