TIME,INSIDE_TEMPERATURE,OUTSIDE_TEMPERATURE,LIGHTS_STATE

03/10/2018 12:16:25,21.062,16.437,off
03/10/2018 12:16:37,21.062,16.5,off
03/10/2018 12:16:48,21.062,16.5,off
03/10/2018 12:17:00,21.062,16.5,off
