TIME,INSIDE_TEMPERATURE,OUTSIDE_TEMPERATURE,LIGHTS_STATE

02/26/2018 12:15:25,18.75,18.875,off
02/26/2018 12:15:37,18.75,19.062,off
02/26/2018 12:15:49,18.812,19.25,off
02/26/2018 12:16:01,18.812,19.437,off
