TIME,INSIDE_TEMPERATURE,OUTSIDE_TEMPERATURE,LIGHTS_STATE

07/02/2016 12:10:25,28.75,28.375,off
07/02/2016 12:10:37,28.75,28.375,off
07/02/2016 12:10:48,28.812,28.437,off
07/02/2016 12:11:00,28.812,28.437,off
