TIME,INSIDE_TEMPERATURE,OUTSIDE_TEMPERATURE,LIGHTS_STATE

04/23/2017 12:15:25,21.687,18.812,off
04/23/2017 12:15:36,21.687,18.812,off
04/23/2017 12:15:48,21.75,18.812,off
04/23/2017 12:16:00,21.687,18.812,off
