TIME,INSIDE_TEMPERATURE,OUTSIDE_TEMPERATURE,LIGHTS_STATE

07/11/2017 12:46:25,33.187,29.687,off
07/11/2017 12:46:37,33.187,29.687,off
07/11/2017 12:46:48,33.187,29.687,off
07/11/2017 12:47:00,33.187,29.75,off
