TIME,INSIDE_TEMPERATURE,OUTSIDE_TEMPERATURE,LIGHTS_STATE

08/26/2017 12:36:25,36.187,34.687,off
08/26/2017 12:36:37,36.187,34.625,off
08/26/2017 12:36:49,36.187,34.687,off
08/26/2017 12:37:00,36.187,34.687,off
