TIME,INSIDE_TEMPERATURE,OUTSIDE_TEMPERATURE,LIGHTS_STATE

08/03/2016 12:02:25,28.5,28.875,off
08/03/2016 12:02:36,28.5,28.875,off
08/03/2016 12:02:48,28.5,28.875,off
08/03/2016 12:03:00,28.5,28.875,off
