TIME,INSIDE_TEMPERATURE,OUTSIDE_TEMPERATURE,LIGHTS_STATE

05/09/2017 12:27:25,27.312,25.937,off
05/09/2017 12:27:37,27.312,25.937,off
05/09/2017 12:27:48,27.312,25.937,off
05/09/2017 12:28:00,27.375,26.0,off
