TIME,INSIDE_TEMPERATURE,OUTSIDE_TEMPERATURE,LIGHTS_STATE

12/24/2017 12:31:25,16.812,11.812,off
12/24/2017 12:31:37,16.812,11.875,off
12/24/2017 12:31:49,16.812,11.812,off
12/24/2017 12:32:00,16.812,11.875,off
