TIME,INSIDE_TEMPERATURE,OUTSIDE_TEMPERATURE,LIGHTS_STATE

10/24/2016 12:54:24,22.312,19.187,off
10/24/2016 12:54:36,22.375,19.125,off
10/24/2016 12:54:47,22.375,19.125,off
10/24/2016 12:54:59,22.375,19.125,off
