TIME,INSIDE_TEMPERATURE,OUTSIDE_TEMPERATURE,LIGHTS_STATE

05/17/2017 12:09:25,22.25,20.062,off
05/17/2017 12:09:37,22.25,20.062,off
05/17/2017 12:09:48,22.187,20.062,off
05/17/2017 12:10:00,22.187,20.062,off
