TIME,INSIDE_TEMPERATURE,OUTSIDE_TEMPERATURE,LIGHTS_STATE

10/01/2017 12:47:25,30.562,28.875,off
10/01/2017 12:47:37,30.562,28.875,off
10/01/2017 12:47:49,30.562,28.75,off
10/01/2017 12:48:01,30.562,28.75,off
