TIME,INSIDE_TEMPERATURE,OUTSIDE_TEMPERATURE,LIGHTS_STATE

07/29/2017 12:31:25,31.437,28.375,off
07/29/2017 12:31:37,31.437,28.375,off
07/29/2017 12:31:49,31.437,28.375,off
07/29/2017 12:32:01,31.437,28.375,off
