TIME,INSIDE_TEMPERATURE,OUTSIDE_TEMPERATURE,LIGHTS_STATE

01/16/2018 12:34:25,23.75,20.312,off
01/16/2018 12:34:37,23.75,20.5,off
01/16/2018 12:34:49,23.75,20.75,off
01/16/2018 12:35:01,23.75,20.812,off
