TIME,INSIDE_TEMPERATURE,OUTSIDE_TEMPERATURE,LIGHTS_STATE

07/31/2016 12:32:26,29.0,29.125,off
07/31/2016 12:32:37,29.0,29.125,off
07/31/2016 12:32:49,29.0,29.125,off
07/31/2016 12:33:01,28.937,29.062,off
