TIME,INSIDE_TEMPERATURE,OUTSIDE_TEMPERATURE,LIGHTS_STATE

06/26/2016 12:04:25,31.437,31.312,off
06/26/2016 12:04:36,31.437,31.312,off
06/26/2016 12:04:48,31.437,31.312,off
06/26/2016 12:05:00,31.375,31.25,off
