TIME,INSIDE_TEMPERATURE,OUTSIDE_TEMPERATURE,LIGHTS_STATE

02/14/2018 12:29:25,21.687,19.875,off
02/14/2018 12:29:37,21.687,19.937,off
02/14/2018 12:29:49,21.687,20.0,off
02/14/2018 12:30:01,21.75,20.0,off
