TIME,INSIDE_TEMPERATURE,OUTSIDE_TEMPERATURE,LIGHTS_STATE

01/28/2018 12:24:26,24.812,20.75,off
01/28/2018 12:24:37,24.812,20.687,off
01/28/2018 12:24:49,24.812,20.75,off
01/28/2018 12:25:01,24.875,20.75,off
