TIME,INSIDE_TEMPERATURE,OUTSIDE_TEMPERATURE,LIGHTS_STATE

10/26/2016 12:03:25,34.125,37.062,off
10/26/2016 12:03:37,34.187,37.125,off
10/26/2016 12:03:48,34.187,37.125,off
10/26/2016 12:04:00,34.187,37.187,off
