TIME,INSIDE_TEMPERATURE,OUTSIDE_TEMPERATURE,LIGHTS_STATE

03/24/2017 12:53:25,16.375,10.875,off
03/24/2017 12:53:37,16.375,10.875,off
03/24/2017 12:53:49,16.375,10.875,off
03/24/2017 12:54:00,16.375,10.875,off
