TIME,INSIDE_TEMPERATURE,OUTSIDE_TEMPERATURE,LIGHTS_STATE

11/07/2016 12:29:25,28.687,31.875,off
11/07/2016 12:29:36,28.75,32.0,off
11/07/2016 12:29:48,28.812,31.937,off
11/07/2016 12:30:00,28.75,32.062,off
