TIME,INSIDE_TEMPERATURE,OUTSIDE_TEMPERATURE,LIGHTS_STATE

06/13/2017 12:47:25,26.875,23.812,off
06/13/2017 12:47:37,26.875,23.812,off
06/13/2017 12:47:48,26.875,23.812,off
06/13/2017 12:48:00,26.875,23.812,off
