TIME,INSIDE_TEMPERATURE,OUTSIDE_TEMPERATURE,LIGHTS_STATE

07/02/2016 12:56:25,29.75,29.25,off
07/02/2016 12:56:37,29.75,29.25,off
07/02/2016 12:56:49,29.687,29.25,off
07/02/2016 12:57:00,29.75,29.25,off
