TIME,INSIDE_TEMPERATURE,OUTSIDE_TEMPERATURE,LIGHTS_STATE

01/13/2018 12:16:25,16.937,12.375,off
01/13/2018 12:16:37,16.937,12.375,off
01/13/2018 12:16:48,16.937,12.375,off
01/13/2018 12:17:00,16.937,12.312,off
