TIME,INSIDE_TEMPERATURE,OUTSIDE_TEMPERATURE,LIGHTS_STATE

09/19/2017 12:39:25,26.75,23.062,off
09/19/2017 12:39:37,26.75,23.062,off
09/19/2017 12:39:49,26.75,23.062,off
09/19/2017 12:40:00,26.75,23.0,off
