TIME,INSIDE_TEMPERATURE,OUTSIDE_TEMPERATURE,LIGHTS_STATE

10/29/2017 12:15:25,23.812,19.875,off
10/29/2017 12:15:36,23.812,19.937,off
10/29/2017 12:15:48,23.812,19.875,off
10/29/2017 12:16:00,23.812,19.875,off
