TIME,INSIDE_TEMPERATURE,OUTSIDE_TEMPERATURE,LIGHTS_STATE

07/30/2017 12:32:26,30.687,27.75,off
07/30/2017 12:32:38,30.687,27.75,off
07/30/2017 12:32:50,30.625,27.75,off
07/30/2017 12:33:02,30.687,27.75,off
