TIME,INSIDE_TEMPERATURE,OUTSIDE_TEMPERATURE,LIGHTS_STATE

02/21/2017 12:32:26,23.562,22.937,off
02/21/2017 12:32:37,23.562,23.187,off
02/21/2017 12:32:49,23.562,23.25,off
02/21/2017 12:33:01,23.625,23.437,off
