TIME,INSIDE_TEMPERATURE,OUTSIDE_TEMPERATURE,LIGHTS_STATE

03/22/2018 12:31:25,19.687,14.5,off
03/22/2018 12:31:37,19.687,14.562,off
03/22/2018 12:31:48,19.687,14.625,off
03/22/2018 12:32:00,19.687,14.562,off
