TIME,INSIDE_TEMPERATURE,OUTSIDE_TEMPERATURE,LIGHTS_STATE

09/14/2017 12:46:25,27.75,24.0,off
09/14/2017 12:46:37,27.687,23.937,off
09/14/2017 12:46:49,27.687,23.875,off
09/14/2017 12:47:00,27.75,23.937,off
