TIME,INSIDE_TEMPERATURE,OUTSIDE_TEMPERATURE,LIGHTS_STATE

10/27/2017 12:50:25,35.937,45.562,off
10/27/2017 12:50:37,35.937,45.562,off
10/27/2017 12:50:49,35.937,45.562,off
10/27/2017 12:51:00,35.937,45.5,off
