TIME,INSIDE_TEMPERATURE,OUTSIDE_TEMPERATURE,LIGHTS_STATE

09/16/2016 12:48:26,27.375,28.5,off
09/16/2016 12:48:38,27.437,28.437,off
09/16/2016 12:48:50,27.437,28.312,off
09/16/2016 12:49:01,27.437,28.312,off
