TIME,INSIDE_TEMPERATURE,OUTSIDE_TEMPERATURE,LIGHTS_STATE

04/24/2017 12:16:25,20.187,16.375,off
04/24/2017 12:16:37,20.187,16.437,off
04/24/2017 12:16:49,20.25,16.5,off
04/24/2017 12:17:00,20.25,16.562,off
