TIME,INSIDE_TEMPERATURE,OUTSIDE_TEMPERATURE,LIGHTS_STATE

05/19/2017 12:08:25,27.437,26.687,off
05/19/2017 12:08:37,27.437,26.75,off
05/19/2017 12:08:48,27.5,26.687,off
05/19/2017 12:09:00,27.5,26.687,off
