TIME,INSIDE_TEMPERATURE,OUTSIDE_TEMPERATURE,LIGHTS_STATE

11/20/2016 12:19:25,21.562,17.625,off
11/20/2016 12:19:37,21.562,17.625,off
11/20/2016 12:19:49,21.562,17.625,off
11/20/2016 12:20:00,21.562,17.625,off
