TIME,INSIDE_TEMPERATURE,OUTSIDE_TEMPERATURE,LIGHTS_STATE

04/26/2017 12:21:25,21.875,18.312,off
04/26/2017 12:21:37,21.875,18.375,off
04/26/2017 12:21:48,21.937,18.437,off
04/26/2017 12:22:00,21.875,18.437,off
