TIME,INSIDE_TEMPERATURE,OUTSIDE_TEMPERATURE,LIGHTS_STATE

01/11/2018 12:44:25,23.0,19.187,off
01/11/2018 12:44:37,23.0,19.125,off
01/11/2018 12:44:49,23.0,19.062,off
01/11/2018 12:45:01,23.0,19.062,off
