TIME,INSIDE_TEMPERATURE,OUTSIDE_TEMPERATURE,LIGHTS_STATE

02/11/2017 12:07:25,26.5,20.5,off
02/11/2017 12:07:37,26.5,20.5,off
02/11/2017 12:07:48,26.5,20.375,off
02/11/2017 12:08:00,26.437,20.187,off
