TIME,INSIDE_TEMPERATURE,OUTSIDE_TEMPERATURE,LIGHTS_STATE

07/21/2017 12:32:25,30.562,27.312,off
07/21/2017 12:32:37,30.562,27.312,off
07/21/2017 12:32:49,30.562,27.312,off
07/21/2017 12:33:01,30.625,27.312,off
