TIME,INSIDE_TEMPERATURE,OUTSIDE_TEMPERATURE,LIGHTS_STATE

10/30/2017 12:36:25,26.687,21.75,off
10/30/2017 12:36:37,26.687,21.75,off
10/30/2017 12:36:48,26.687,21.562,off
10/30/2017 12:37:00,26.75,21.625,off
