TIME,INSIDE_TEMPERATURE,OUTSIDE_TEMPERATURE,LIGHTS_STATE

11/14/2016 12:22:25,28.937,31.375,off
11/14/2016 12:22:37,28.937,31.375,off
11/14/2016 12:22:48,28.875,31.312,off
11/14/2016 12:23:00,28.875,31.25,off
