TIME,INSIDE_TEMPERATURE,OUTSIDE_TEMPERATURE,LIGHTS_STATE

09/27/2017 12:07:25,31.75,29.812,off
09/27/2017 12:07:38,31.75,29.875,off
09/27/2017 12:07:50,31.75,29.875,off
09/27/2017 12:08:01,31.812,29.875,off
