TIME,INSIDE_TEMPERATURE,OUTSIDE_TEMPERATURE,LIGHTS_STATE

09/24/2017 12:02:26,27.375,25.0,off
09/24/2017 12:02:38,27.437,25.0,off
09/24/2017 12:02:49,27.437,25.062,off
09/24/2017 12:03:01,27.437,25.062,off
