TIME,INSIDE_TEMPERATURE,OUTSIDE_TEMPERATURE,LIGHTS_STATE

07/07/2017 12:10:25,36.25,32.25,off
07/07/2017 12:10:37,36.25,32.25,off
07/07/2017 12:10:49,36.25,32.312,off
07/07/2017 12:11:02,36.25,32.312,off
