TIME,INSIDE_TEMPERATURE,OUTSIDE_TEMPERATURE,LIGHTS_STATE

06/28/2017 12:44:25,26.125,24.562,off
06/28/2017 12:44:37,25.812,24.5,off
06/28/2017 12:44:49,25.625,24.5,off
06/28/2017 12:45:00,25.75,24.5,off
