TIME,INSIDE_TEMPERATURE,OUTSIDE_TEMPERATURE,LIGHTS_STATE

02/20/2018 12:35:26,19.562,32.562,off
02/20/2018 12:35:37,19.562,32.312,off
02/20/2018 12:35:49,19.562,32.187,off
02/20/2018 12:36:01,19.562,32.187,off
