TIME,INSIDE_TEMPERATURE,OUTSIDE_TEMPERATURE,LIGHTS_STATE

11/19/2016 12:31:25,20.312,15.25,off
11/19/2016 12:31:36,20.312,15.312,off
11/19/2016 12:31:48,20.312,15.375,off
11/19/2016 12:32:00,20.312,15.375,off
