TIME,INSIDE_TEMPERATURE,OUTSIDE_TEMPERATURE,LIGHTS_STATE

01/10/2017 12:29:25,16.375,12.625,off
01/10/2017 12:29:37,16.375,12.625,off
01/10/2017 12:29:49,16.375,12.625,off
01/10/2017 12:30:01,16.437,12.625,off
