TIME,INSIDE_TEMPERATURE,OUTSIDE_TEMPERATURE,LIGHTS_STATE

03/20/2018 12:40:25,17.062,10.687,off
03/20/2018 12:40:37,17.125,10.687,off
03/20/2018 12:40:48,17.125,10.687,off
03/20/2018 12:41:00,17.125,10.687,off
