TIME,INSIDE_TEMPERATURE,OUTSIDE_TEMPERATURE,LIGHTS_STATE

07/07/2016 12:33:25,22.812,22.187,off
07/07/2016 12:33:37,22.812,22.25,off
07/07/2016 12:33:49,22.812,22.25,off
07/07/2016 12:34:00,22.812,22.25,off
