TIME,INSIDE_TEMPERATURE,OUTSIDE_TEMPERATURE,LIGHTS_STATE

03/04/2017 12:17:26,23.937,24.562,off
03/04/2017 12:17:37,23.937,24.5,off
03/04/2017 12:17:49,23.937,24.625,off
03/04/2017 12:18:01,24.0,24.75,off
