TIME,INSIDE_TEMPERATURE,OUTSIDE_TEMPERATURE,LIGHTS_STATE

11/08/2016 12:58:25,30.437,26.062,off
11/08/2016 12:58:37,30.437,26.062,off
11/08/2016 12:58:48,30.437,26.062,off
11/08/2016 12:59:00,30.437,26.062,off
