TIME,INSIDE_TEMPERATURE,OUTSIDE_TEMPERATURE,LIGHTS_STATE

03/28/2017 12:28:25,22.937,20.5,off
03/28/2017 12:28:37,22.937,20.562,off
03/28/2017 12:28:48,22.937,20.625,off
03/28/2017 12:29:00,22.937,20.687,off
