TIME,INSIDE_TEMPERATURE,OUTSIDE_TEMPERATURE,LIGHTS_STATE

11/03/2016 12:08:25,30.625,25.125,off
11/03/2016 12:08:37,30.625,25.125,off
11/03/2016 12:08:48,30.625,25.062,off
11/03/2016 12:09:00,30.687,25.062,off
