TIME,INSIDE_TEMPERATURE,OUTSIDE_TEMPERATURE,LIGHTS_STATE

06/11/2017 12:35:25,23.125,18.5,off
06/11/2017 12:35:38,23.125,18.437,off
06/11/2017 12:35:50,23.125,18.312,off
06/11/2017 12:36:02,23.125,18.375,off
