TIME,INSIDE_TEMPERATURE,OUTSIDE_TEMPERATURE,LIGHTS_STATE

07/30/2016 12:54:25,31.937,32.125,off
07/30/2016 12:54:37,31.937,32.125,off
07/30/2016 12:54:49,31.937,32.125,off
07/30/2016 12:55:00,31.937,32.125,off
