TIME,INSIDE_TEMPERATURE,OUTSIDE_TEMPERATURE,LIGHTS_STATE

01/01/2018 12:09:26,23.25,19.187,off
01/01/2018 12:09:37,23.25,19.187,off
01/01/2018 12:09:49,23.25,19.187,off
01/01/2018 12:10:01,23.312,19.25,off
