TIME,INSIDE_TEMPERATURE,OUTSIDE_TEMPERATURE,LIGHTS_STATE

02/25/2018 12:48:25,23.187,24.25,off
02/25/2018 12:48:37,23.25,24.25,off
02/25/2018 12:48:49,23.25,24.312,off
02/25/2018 12:49:00,23.187,24.312,off
