TIME,INSIDE_TEMPERATURE,OUTSIDE_TEMPERATURE,LIGHTS_STATE

08/28/2017 12:34:25,38.125,36.5,off
08/28/2017 12:34:37,38.187,36.562,off
08/28/2017 12:34:49,38.187,36.625,off
08/28/2017 12:35:01,38.187,36.625,off
