TIME,INSIDE_TEMPERATURE,OUTSIDE_TEMPERATURE,LIGHTS_STATE

01/26/2018 12:15:25,22.312,16.875,off
01/26/2018 12:15:37,22.25,16.875,off
01/26/2018 12:15:49,22.25,16.875,off
01/26/2018 12:16:01,22.25,16.812,off
