TIME,INSIDE_TEMPERATURE,OUTSIDE_TEMPERATURE,LIGHTS_STATE

04/10/2017 12:38:25,22.562,19.25,off
04/10/2017 12:38:37,22.625,19.25,off
04/10/2017 12:38:49,22.562,19.25,off
04/10/2017 12:39:01,22.562,19.312,off
