TIME,INSIDE_TEMPERATURE,OUTSIDE_TEMPERATURE,LIGHTS_STATE

06/07/2017 12:51:25,22.812,22.312,off
06/07/2017 12:51:37,22.812,22.312,off
06/07/2017 12:51:49,22.812,22.312,off
06/07/2017 12:52:00,22.812,22.312,off
