TIME,INSIDE_TEMPERATURE,OUTSIDE_TEMPERATURE,LIGHTS_STATE

02/12/2017 12:06:26,28.625,24.062,off
02/12/2017 12:06:37,28.687,24.0,off
02/12/2017 12:06:49,28.687,24.0,off
02/12/2017 12:07:01,28.625,24.062,off
