TIME,INSIDE_TEMPERATURE,OUTSIDE_TEMPERATURE,LIGHTS_STATE

09/09/2016 12:08:25,26.75,35.75,off
09/09/2016 12:08:37,26.75,35.75,off
09/09/2016 12:08:48,26.75,35.75,off
09/09/2016 12:09:00,26.75,35.812,off
