TIME,INSIDE_TEMPERATURE,OUTSIDE_TEMPERATURE,LIGHTS_STATE

11/18/2016 12:35:25,24.875,22.75,off
11/18/2016 12:35:37,24.812,22.375,off
11/18/2016 12:35:48,24.875,22.125,off
11/18/2016 12:36:00,24.812,22.062,off
