TIME,INSIDE_TEMPERATURE,OUTSIDE_TEMPERATURE,LIGHTS_STATE

05/15/2017 12:58:25,22.687,19.75,off
05/15/2017 12:58:37,22.687,19.75,off
05/15/2017 12:58:48,22.687,19.687,off
05/15/2017 12:59:00,22.75,19.687,off
