TIME,INSIDE_TEMPERATURE,OUTSIDE_TEMPERATURE,LIGHTS_STATE

09/13/2017 12:50:25,30.75,27.437,off
09/13/2017 12:50:37,30.812,27.312,off
09/13/2017 12:50:49,30.812,27.312,off
09/13/2017 12:51:01,30.812,27.312,off
