TIME,INSIDE_TEMPERATURE,OUTSIDE_TEMPERATURE,LIGHTS_STATE

09/16/2016 12:00:26,25.187,25.812,off
09/16/2016 12:00:38,25.187,25.812,off
09/16/2016 12:00:50,25.187,25.875,off
09/16/2016 12:01:01,25.187,25.937,off
