TIME,INSIDE_TEMPERATURE,OUTSIDE_TEMPERATURE,LIGHTS_STATE

02/15/2017 12:23:25,22.062,19.875,off
02/15/2017 12:23:37,22.062,19.937,off
02/15/2017 12:23:48,22.062,20.0,off
02/15/2017 12:24:00,22.125,20.0,off
