TIME,INSIDE_TEMPERATURE,OUTSIDE_TEMPERATURE,LIGHTS_STATE

05/06/2017 12:54:25,20.937,16.937,off
05/06/2017 12:54:36,20.937,17.0,off
05/06/2017 12:54:48,20.937,16.937,off
05/06/2017 12:55:00,20.937,16.937,off
