TIME,INSIDE_TEMPERATURE,OUTSIDE_TEMPERATURE,LIGHTS_STATE

08/05/2017 12:17:25,33.25,30.687,off
08/05/2017 12:17:37,33.125,30.625,off
08/05/2017 12:17:49,32.812,30.625,off
08/05/2017 12:18:01,32.937,30.625,off
