TIME,INSIDE_TEMPERATURE,OUTSIDE_TEMPERATURE,LIGHTS_STATE

02/28/2018 12:13:26,19.937,22.5,off
02/28/2018 12:13:37,19.937,22.437,off
02/28/2018 12:13:49,20.0,22.5,off
02/28/2018 12:14:01,20.0,22.5,off
