TIME,INSIDE_TEMPERATURE,OUTSIDE_TEMPERATURE,LIGHTS_STATE

10/07/2017 12:04:25,31.375,27.687,off
10/07/2017 12:04:37,31.437,27.687,off
10/07/2017 12:04:49,31.437,27.687,off
10/07/2017 12:05:01,31.5,27.687,off
