TIME,INSIDE_TEMPERATURE,OUTSIDE_TEMPERATURE,LIGHTS_STATE

12/20/2016 12:50:25,19.375,17.187,off
12/20/2016 12:50:37,19.375,17.187,off
12/20/2016 12:50:48,19.375,17.187,off
12/20/2016 12:51:00,19.375,17.125,off
