TIME,INSIDE_TEMPERATURE,OUTSIDE_TEMPERATURE,LIGHTS_STATE

03/23/2017 12:33:25,20.875,17.625,off
03/23/2017 12:33:36,20.875,17.562,off
03/23/2017 12:33:48,20.875,17.562,off
03/23/2017 12:34:00,20.875,17.625,off
