TIME,INSIDE_TEMPERATURE,OUTSIDE_TEMPERATURE,LIGHTS_STATE

09/16/2016 12:14:25,25.375,26.187,off
09/16/2016 12:14:37,25.375,26.25,off
09/16/2016 12:14:49,25.375,26.25,off
09/16/2016 12:15:00,25.437,26.312,off
