TIME,INSIDE_TEMPERATURE,OUTSIDE_TEMPERATURE,LIGHTS_STATE

05/17/2017 12:30:25,22.437,20.25,off
05/17/2017 12:30:37,22.437,20.25,off
05/17/2017 12:30:49,22.5,20.312,off
05/17/2017 12:31:00,22.5,20.375,off
