TIME,INSIDE_TEMPERATURE,OUTSIDE_TEMPERATURE,LIGHTS_STATE

12/13/2016 12:20:25,18.375,16.062,off
12/13/2016 12:20:36,18.375,16.0,off
12/13/2016 12:20:48,18.375,15.875,off
12/13/2016 12:21:00,18.312,15.812,off
