TIME,INSIDE_TEMPERATURE,OUTSIDE_TEMPERATURE,LIGHTS_STATE

06/25/2017 12:51:26,28.187,24.687,off
06/25/2017 12:51:37,28.187,24.687,off
06/25/2017 12:51:49,28.187,24.687,off
06/25/2017 12:52:01,28.187,24.687,off
