TIME,INSIDE_TEMPERATURE,OUTSIDE_TEMPERATURE,LIGHTS_STATE

11/01/2016 12:05:25,28.937,26.5,off
11/01/2016 12:05:37,29.062,26.625,off
11/01/2016 12:05:49,29.125,26.812,off
11/01/2016 12:06:00,29.125,26.875,off
