TIME,INSIDE_TEMPERATURE,OUTSIDE_TEMPERATURE,LIGHTS_STATE

09/11/2017 12:46:26,36.25,34.125,off
09/11/2017 12:46:37,36.312,34.062,off
09/11/2017 12:46:49,36.312,34.062,off
09/11/2017 12:47:01,36.312,34.0,off
