TIME,INSIDE_TEMPERATURE,OUTSIDE_TEMPERATURE,LIGHTS_STATE

02/09/2018 12:32:25,31.25,33.312,off
02/09/2018 12:32:37,31.187,33.125,off
02/09/2018 12:32:49,31.25,33.062,off
02/09/2018 12:33:00,31.25,33.062,off
