TIME,INSIDE_TEMPERATURE,OUTSIDE_TEMPERATURE,LIGHTS_STATE

07/16/2017 12:32:25,37.812,34.062,off
07/16/2017 12:32:37,37.812,34.062,off
07/16/2017 12:32:49,37.875,34.062,off
07/16/2017 12:33:00,37.875,34.0,off
