TIME,INSIDE_TEMPERATURE,OUTSIDE_TEMPERATURE,LIGHTS_STATE

07/15/2016 12:43:26,29.562,29.375,off
07/15/2016 12:43:38,29.5,29.375,off
07/15/2016 12:43:49,29.5,29.375,off
07/15/2016 12:44:01,29.562,29.312,off
