TIME,INSIDE_TEMPERATURE,OUTSIDE_TEMPERATURE,LIGHTS_STATE

03/18/2018 12:01:25,16.562,14.25,off
03/18/2018 12:01:37,16.562,14.312,off
03/18/2018 12:01:49,16.625,14.312,off
03/18/2018 12:02:01,16.625,14.375,off
