TIME,INSIDE_TEMPERATURE,OUTSIDE_TEMPERATURE,LIGHTS_STATE

01/12/2017 12:39:24,12.687,8.187,off
01/12/2017 12:39:36,12.75,8.187,off
01/12/2017 12:39:48,12.75,8.187,off
01/12/2017 12:39:59,12.75,8.125,off
