TIME,INSIDE_TEMPERATURE,OUTSIDE_TEMPERATURE,LIGHTS_STATE

12/03/2016 12:42:26,24.5,20.375,off
12/03/2016 12:42:37,24.5,20.375,off
12/03/2016 12:42:49,24.5,20.437,off
12/03/2016 12:43:01,24.5,20.5,off
