TIME,INSIDE_TEMPERATURE,OUTSIDE_TEMPERATURE,LIGHTS_STATE

07/27/2017 12:57:25,34.25,30.125,off
07/27/2017 12:57:36,34.25,30.125,off
07/27/2017 12:57:48,34.25,30.125,off
07/27/2017 12:58:00,34.312,30.125,off
