TIME,INSIDE_TEMPERATURE,OUTSIDE_TEMPERATURE,LIGHTS_STATE

05/12/2017 12:16:26,20.625,18.062,off
05/12/2017 12:16:37,20.687,18.062,off
05/12/2017 12:16:49,20.687,18.062,off
05/12/2017 12:17:01,20.687,18.0,off
