TIME,INSIDE_TEMPERATURE,OUTSIDE_TEMPERATURE,LIGHTS_STATE

06/06/2017 12:00:26,22.562,22.375,off
06/06/2017 12:00:37,22.562,22.375,off
06/06/2017 12:00:49,22.562,22.375,off
06/06/2017 12:01:01,22.562,22.375,off
