TIME,INSIDE_TEMPERATURE,OUTSIDE_TEMPERATURE,LIGHTS_STATE

07/22/2016 12:42:26,29.625,28.625,off
07/22/2016 12:42:38,29.687,28.625,off
07/22/2016 12:42:49,29.687,28.625,off
07/22/2016 12:43:01,29.625,28.687,off
