TIME,INSIDE_TEMPERATURE,OUTSIDE_TEMPERATURE,LIGHTS_STATE

01/14/2017 12:07:25,21.75,18.562,off
01/14/2017 12:07:37,21.75,18.625,off
01/14/2017 12:07:48,21.812,18.625,off
01/14/2017 12:08:00,21.812,18.562,off
