TIME,INSIDE_TEMPERATURE,OUTSIDE_TEMPERATURE,LIGHTS_STATE

10/27/2017 12:07:25,35.687,51.062,off
10/27/2017 12:07:37,35.687,51.062,off
10/27/2017 12:07:48,35.687,51.062,off
10/27/2017 12:08:00,35.687,51.062,off
