TIME,INSIDE_TEMPERATURE,OUTSIDE_TEMPERATURE,LIGHTS_STATE

12/30/2016 12:56:25,17.812,18.312,off
12/30/2016 12:56:36,17.812,18.687,off
12/30/2016 12:56:48,17.875,19.062,off
12/30/2016 12:57:00,17.875,19.375,off
