TIME,INSIDE_TEMPERATURE,OUTSIDE_TEMPERATURE,LIGHTS_STATE

02/23/2018 12:38:25,18.562,30.0,off
02/23/2018 12:38:37,18.562,30.125,off
02/23/2018 12:38:49,18.562,30.25,off
02/23/2018 12:39:01,18.562,30.187,off
