TIME,INSIDE_TEMPERATURE,OUTSIDE_TEMPERATURE,LIGHTS_STATE

03/07/2018 12:14:26,24.125,34.5,off
03/07/2018 12:14:38,24.125,34.5,off
03/07/2018 12:14:49,24.125,34.437,off
03/07/2018 12:15:01,24.187,34.125,off
