TIME,INSIDE_TEMPERATURE,OUTSIDE_TEMPERATURE,LIGHTS_STATE

08/15/2017 12:23:25,26.562,23.562,off
08/15/2017 12:23:37,26.562,23.562,off
08/15/2017 12:23:49,26.375,23.5,off
08/15/2017 12:24:00,26.437,23.375,off
