TIME,INSIDE_TEMPERATURE,OUTSIDE_TEMPERATURE,LIGHTS_STATE

12/21/2016 12:24:25,23.062,20.937,off
12/21/2016 12:24:36,23.062,20.937,off
12/21/2016 12:24:48,23.062,21.062,off
12/21/2016 12:25:00,23.062,21.187,off
