TIME,INSIDE_TEMPERATURE,OUTSIDE_TEMPERATURE,LIGHTS_STATE

03/25/2017 12:57:25,23.0,18.312,off
03/25/2017 12:57:37,23.0,18.187,off
03/25/2017 12:57:48,23.0,18.125,off
03/25/2017 12:58:00,23.0,18.0,off
