TIME,INSIDE_TEMPERATURE,OUTSIDE_TEMPERATURE,LIGHTS_STATE

02/27/2017 12:23:25,24.0,20.937,off
02/27/2017 12:23:37,24.0,20.937,off
02/27/2017 12:23:49,24.0,21.062,off
02/27/2017 12:24:00,24.0,21.25,off
