TIME,INSIDE_TEMPERATURE,OUTSIDE_TEMPERATURE,LIGHTS_STATE

06/06/2017 12:42:26,23.062,22.812,off
06/06/2017 12:42:38,23.062,22.875,off
06/06/2017 12:42:49,23.062,22.875,off
06/06/2017 12:43:01,23.125,22.875,off
