TIME,INSIDE_TEMPERATURE,OUTSIDE_TEMPERATURE,LIGHTS_STATE

12/09/2016 12:54:25,22.687,21.312,off
12/09/2016 12:54:37,22.687,21.125,off
12/09/2016 12:54:49,22.687,20.875,off
12/09/2016 12:55:00,22.687,20.625,off
