TIME,INSIDE_TEMPERATURE,OUTSIDE_TEMPERATURE,LIGHTS_STATE

01/06/2017 12:05:25,16.812,12.625,off
01/06/2017 12:05:36,16.812,12.562,off
01/06/2017 12:05:49,16.812,12.562,off
01/06/2017 12:06:00,16.812,12.625,off
