TIME,INSIDE_TEMPERATURE,OUTSIDE_TEMPERATURE,LIGHTS_STATE

07/08/2017 12:25:25,38.937,34.125,off
07/08/2017 12:25:37,39.0,34.062,off
07/08/2017 12:25:49,39.0,34.062,off
07/08/2017 12:26:00,39.0,34.062,off
