TIME,INSIDE_TEMPERATURE,OUTSIDE_TEMPERATURE,LIGHTS_STATE

03/06/2018 12:22:25,22.312,31.687,off
03/06/2018 12:22:36,22.312,31.812,off
03/06/2018 12:22:48,22.312,31.937,off
03/06/2018 12:23:00,22.312,32.062,off
