TIME,INSIDE_TEMPERATURE,OUTSIDE_TEMPERATURE,LIGHTS_STATE

05/19/2017 12:31:26,28.0,27.125,off
05/19/2017 12:31:37,28.0,27.125,off
05/19/2017 12:31:49,28.0,27.125,off
05/19/2017 12:32:01,28.0,27.125,off
