TIME,INSIDE_TEMPERATURE,OUTSIDE_TEMPERATURE,LIGHTS_STATE

12/31/2016 12:17:25,13.375,10.437,off
12/31/2016 12:17:37,13.437,10.437,off
12/31/2016 12:17:48,13.437,10.437,off
12/31/2016 12:18:00,13.437,10.375,off
