TIME,INSIDE_TEMPERATURE,OUTSIDE_TEMPERATURE,LIGHTS_STATE

06/22/2017 12:04:26,40.0,35.25,off
06/22/2017 12:04:37,40.0,35.25,off
06/22/2017 12:04:49,40.0,35.312,off
06/22/2017 12:05:01,40.0,35.312,off
