TIME,INSIDE_TEMPERATURE,OUTSIDE_TEMPERATURE,LIGHTS_STATE

03/31/2017 12:05:25,21.812,18.312,off
03/31/2017 12:05:36,21.812,18.312,off
03/31/2017 12:05:48,21.812,18.312,off
03/31/2017 12:06:00,21.812,18.312,off
