TIME,INSIDE_TEMPERATURE,OUTSIDE_TEMPERATURE,LIGHTS_STATE

03/10/2018 12:43:25,21.375,16.562,off
03/10/2018 12:43:37,21.437,16.562,off
03/10/2018 12:43:49,21.375,16.625,off
03/10/2018 12:44:00,21.437,16.625,off
