TIME,INSIDE_TEMPERATURE,OUTSIDE_TEMPERATURE,LIGHTS_STATE

10/31/2016 12:41:25,24.375,19.625,off
10/31/2016 12:41:37,24.312,19.687,off
10/31/2016 12:41:48,24.375,19.687,off
10/31/2016 12:42:00,24.312,19.625,off
