TIME,INSIDE_TEMPERATURE,OUTSIDE_TEMPERATURE,LIGHTS_STATE

05/24/2017 12:13:25,26.875,25.062,off
05/24/2017 12:13:37,26.937,25.0,off
05/24/2017 12:13:48,26.937,24.937,off
05/24/2017 12:14:00,26.937,25.0,off
