TIME,INSIDE_TEMPERATURE,OUTSIDE_TEMPERATURE,LIGHTS_STATE

10/27/2016 12:22:25,22.187,19.0,off
10/27/2016 12:22:37,22.187,19.0,off
10/27/2016 12:22:48,22.187,18.937,off
10/27/2016 12:23:00,22.187,18.875,off
