TIME,INSIDE_TEMPERATURE,OUTSIDE_TEMPERATURE,LIGHTS_STATE

12/16/2016 12:01:26,17.5,12.625,off
12/16/2016 12:01:37,17.437,12.5,off
12/16/2016 12:01:49,17.375,12.437,off
12/16/2016 12:02:01,17.375,12.312,off
