TIME,INSIDE_TEMPERATURE,OUTSIDE_TEMPERATURE,LIGHTS_STATE

03/02/2017 12:48:26,24.187,24.125,off
03/02/2017 12:48:37,24.187,24.125,off
03/02/2017 12:48:49,24.125,24.0,off
03/02/2017 12:49:01,24.125,24.062,off
