TIME,INSIDE_TEMPERATURE,OUTSIDE_TEMPERATURE,LIGHTS_STATE

12/31/2016 12:29:25,13.562,9.812,off
12/31/2016 12:29:36,13.562,9.812,off
12/31/2016 12:29:48,13.562,9.812,off
12/31/2016 12:30:00,13.562,9.937,off
