TIME,INSIDE_TEMPERATURE,OUTSIDE_TEMPERATURE,LIGHTS_STATE

03/12/2018 12:55:25,27.312,26.562,off
03/12/2018 12:55:37,27.312,26.562,off
03/12/2018 12:55:48,27.312,26.5,off
03/12/2018 12:56:00,27.312,26.5,off
