TIME,INSIDE_TEMPERATURE,OUTSIDE_TEMPERATURE,LIGHTS_STATE

03/11/2018 12:29:25,22.75,34.375,off
03/11/2018 12:29:37,22.812,34.437,off
03/11/2018 12:29:49,22.812,34.562,off
03/11/2018 12:30:01,22.812,34.687,off
