TIME,INSIDE_TEMPERATURE,OUTSIDE_TEMPERATURE,LIGHTS_STATE

06/16/2017 12:43:25,33.812,30.062,off
06/16/2017 12:43:37,33.812,30.062,off
06/16/2017 12:43:49,33.812,30.062,off
06/16/2017 12:44:01,33.875,30.062,off
