TIME,INSIDE_TEMPERATURE,OUTSIDE_TEMPERATURE,LIGHTS_STATE

08/03/2017 12:18:25,37.812,37.187,off
08/03/2017 12:18:37,37.812,37.187,off
08/03/2017 12:18:49,37.812,37.187,off
08/03/2017 12:19:00,37.812,37.187,off
