TIME,INSIDE_TEMPERATURE,OUTSIDE_TEMPERATURE,LIGHTS_STATE

01/22/2018 12:14:25,21.562,19.75,off
01/22/2018 12:14:37,21.562,19.875,off
01/22/2018 12:14:49,21.562,20.0,off
01/22/2018 12:15:00,21.562,20.062,off
