TIME,INSIDE_TEMPERATURE,OUTSIDE_TEMPERATURE,LIGHTS_STATE

02/12/2017 12:33:25,25.562,23.0,off
02/12/2017 12:33:37,25.625,23.0,off
02/12/2017 12:33:49,25.562,23.0,off
02/12/2017 12:34:00,25.562,23.0,off
