TIME,INSIDE_TEMPERATURE,OUTSIDE_TEMPERATURE,LIGHTS_STATE

01/17/2017 12:26:24,14.125,12.125,off
01/17/2017 12:26:36,14.187,12.125,off
01/17/2017 12:26:48,14.187,12.187,off
01/17/2017 12:26:59,14.187,12.25,off
