TIME,INSIDE_TEMPERATURE,OUTSIDE_TEMPERATURE,LIGHTS_STATE

12/16/2016 12:22:25,17.75,14.437,off
12/16/2016 12:22:37,17.75,14.375,off
12/16/2016 12:22:49,17.75,14.312,off
12/16/2016 12:23:00,17.75,14.437,off
