TIME,INSIDE_TEMPERATURE,OUTSIDE_TEMPERATURE,LIGHTS_STATE

02/27/2017 12:05:25,25.187,20.812,off
02/27/2017 12:05:37,25.25,20.687,off
02/27/2017 12:05:49,25.25,20.687,off
02/27/2017 12:06:00,25.25,20.75,off
