TIME,INSIDE_TEMPERATURE,OUTSIDE_TEMPERATURE,LIGHTS_STATE

08/09/2017 12:10:25,27.062,24.125,off
08/09/2017 12:10:37,27.062,24.125,off
08/09/2017 12:10:48,27.062,24.125,off
08/09/2017 12:11:00,27.062,24.0,off
