TIME,INSIDE_TEMPERATURE,OUTSIDE_TEMPERATURE,LIGHTS_STATE

01/22/2018 12:20:26,21.875,17.937,off
01/22/2018 12:20:37,21.875,17.812,off
01/22/2018 12:20:49,21.937,17.812,off
01/22/2018 12:21:01,21.937,17.812,off
