TIME,INSIDE_TEMPERATURE,OUTSIDE_TEMPERATURE,LIGHTS_STATE

09/16/2017 12:37:25,32.0,28.687,off
09/16/2017 12:37:37,32.125,28.687,off
09/16/2017 12:37:48,32.187,28.687,off
09/16/2017 12:38:00,32.187,28.625,off
