TIME,INSIDE_TEMPERATURE,OUTSIDE_TEMPERATURE,LIGHTS_STATE

07/12/2017 12:22:25,31.75,28.875,off
07/12/2017 12:22:37,31.75,28.937,off
07/12/2017 12:22:49,31.75,28.875,off
07/12/2017 12:23:00,31.75,28.875,off
