TIME,INSIDE_TEMPERATURE,OUTSIDE_TEMPERATURE,LIGHTS_STATE

12/26/2016 12:35:25,16.375,12.625,off
12/26/2016 12:35:36,16.375,12.5,off
12/26/2016 12:35:48,16.375,12.437,off
12/26/2016 12:36:00,16.375,12.437,off
