TIME,INSIDE_TEMPERATURE,OUTSIDE_TEMPERATURE,LIGHTS_STATE

02/06/2017 12:16:25,18.25,14.437,off
02/06/2017 12:16:37,18.25,14.437,off
02/06/2017 12:16:48,18.25,14.437,off
02/06/2017 12:17:00,18.25,14.437,off
