TIME,INSIDE_TEMPERATURE,OUTSIDE_TEMPERATURE,LIGHTS_STATE

03/28/2017 12:48:25,23.375,20.812,off
03/28/2017 12:48:36,23.375,20.812,off
03/28/2017 12:48:48,23.375,20.812,off
03/28/2017 12:49:00,23.437,20.812,off
