TIME,INSIDE_TEMPERATURE,OUTSIDE_TEMPERATURE,LIGHTS_STATE

09/09/2016 12:11:25,26.875,38.812,off
09/09/2016 12:11:36,26.875,39.0,off
09/09/2016 12:11:48,26.875,39.187,off
09/09/2016 12:12:00,26.875,39.312,off
