TIME,INSIDE_TEMPERATURE,OUTSIDE_TEMPERATURE,LIGHTS_STATE

06/30/2017 12:45:25,27.312,24.25,off
06/30/2017 12:45:37,27.312,24.375,off
06/30/2017 12:45:48,27.375,24.437,off
06/30/2017 12:46:00,27.375,24.437,off
