TIME,INSIDE_TEMPERATURE,OUTSIDE_TEMPERATURE,LIGHTS_STATE

04/08/2017 12:48:26,17.937,13.5,off
04/08/2017 12:48:37,17.937,13.437,off
04/08/2017 12:48:49,17.937,13.375,off
04/08/2017 12:49:01,17.937,13.375,off
