TIME,INSIDE_TEMPERATURE,OUTSIDE_TEMPERATURE,LIGHTS_STATE

01/10/2017 12:36:25,16.375,12.625,off
01/10/2017 12:36:36,16.375,12.562,off
01/10/2017 12:36:48,16.375,12.562,off
01/10/2017 12:37:00,16.375,12.562,off
