TIME,INSIDE_TEMPERATURE,OUTSIDE_TEMPERATURE,LIGHTS_STATE

03/05/2018 12:32:25,20.187,27.375,off
03/05/2018 12:32:37,20.187,27.5,off
03/05/2018 12:32:49,20.187,27.687,off
03/05/2018 12:33:00,20.187,27.75,off
