TIME,INSIDE_TEMPERATURE,OUTSIDE_TEMPERATURE,LIGHTS_STATE

09/19/2016 12:42:26,34.437,36.25,off
09/19/2016 12:42:37,34.437,36.187,off
09/19/2016 12:42:49,34.437,36.25,off
09/19/2016 12:43:01,34.437,36.25,off
