TIME,INSIDE_TEMPERATURE,OUTSIDE_TEMPERATURE,LIGHTS_STATE

03/14/2018 12:36:25,17.5,8.562,off
03/14/2018 12:36:37,17.5,8.437,off
03/14/2018 12:36:49,17.437,8.312,off
03/14/2018 12:37:01,17.437,8.312,off
