TIME,INSIDE_TEMPERATURE,OUTSIDE_TEMPERATURE,LIGHTS_STATE

07/18/2017 12:39:25,28.687,26.375,off
07/18/2017 12:39:37,28.625,26.375,off
07/18/2017 12:39:49,28.375,26.375,off
07/18/2017 12:40:01,28.437,26.375,off
