TIME,INSIDE_TEMPERATURE,OUTSIDE_TEMPERATURE,LIGHTS_STATE

02/20/2018 12:44:26,19.437,29.625,off
02/20/2018 12:44:37,19.437,29.75,off
02/20/2018 12:44:49,19.375,29.812,off
02/20/2018 12:45:01,19.437,29.875,off
