TIME,INSIDE_TEMPERATURE,OUTSIDE_TEMPERATURE,LIGHTS_STATE

09/08/2017 12:26:26,28.437,25.875,off
09/08/2017 12:26:37,28.437,25.875,off
09/08/2017 12:26:49,28.437,25.937,off
09/08/2017 12:27:01,28.5,25.937,off
