TIME,INSIDE_TEMPERATURE,OUTSIDE_TEMPERATURE,LIGHTS_STATE

03/20/2017 12:51:25,20.812,17.375,off
03/20/2017 12:51:37,20.812,17.375,off
03/20/2017 12:51:49,20.812,17.375,off
03/20/2017 12:52:00,20.812,17.375,off
