TIME,INSIDE_TEMPERATURE,OUTSIDE_TEMPERATURE,LIGHTS_STATE

09/18/2016 12:16:26,31.812,33.812,off
09/18/2016 12:16:37,31.812,33.812,off
09/18/2016 12:16:49,31.812,33.75,off
09/18/2016 12:17:02,31.812,33.687,off
