TIME,INSIDE_TEMPERATURE,OUTSIDE_TEMPERATURE,LIGHTS_STATE

03/25/2017 12:55:25,22.875,17.812,off
03/25/2017 12:55:36,22.875,17.812,off
03/25/2017 12:55:48,22.937,17.937,off
03/25/2017 12:56:00,22.937,18.0,off
