TIME,INSIDE_TEMPERATURE,OUTSIDE_TEMPERATURE,LIGHTS_STATE

01/05/2017 12:00:25,20.25,14.562,off
01/05/2017 12:00:37,20.25,14.562,off
01/05/2017 12:00:49,20.25,14.562,off
01/05/2017 12:01:01,20.25,14.437,off
