TIME,INSIDE_TEMPERATURE,OUTSIDE_TEMPERATURE,LIGHTS_STATE

09/24/2017 12:49:26,29.625,27.25,off
09/24/2017 12:49:37,29.687,27.25,off
09/24/2017 12:49:49,29.687,27.25,off
09/24/2017 12:50:01,29.687,27.187,off
