TIME,INSIDE_TEMPERATURE,OUTSIDE_TEMPERATURE,LIGHTS_STATE

09/17/2016 12:22:25,29.375,30.437,off
09/17/2016 12:22:37,29.375,30.5,off
09/17/2016 12:22:49,29.375,30.5,off
09/17/2016 12:23:00,29.375,30.5,off
