TIME,INSIDE_TEMPERATURE,OUTSIDE_TEMPERATURE,LIGHTS_STATE

03/14/2017 12:10:26,26.5,23.75,off
03/14/2017 12:10:37,26.5,23.75,off
03/14/2017 12:10:49,26.5,23.687,off
03/14/2017 12:11:01,26.562,23.75,off
