TIME,INSIDE_TEMPERATURE,OUTSIDE_TEMPERATURE,LIGHTS_STATE

06/16/2017 12:42:25,33.812,30.062,off
06/16/2017 12:42:37,33.812,30.062,off
06/16/2017 12:42:49,33.812,30.062,off
06/16/2017 12:43:00,33.875,30.062,off
