TIME,INSIDE_TEMPERATURE,OUTSIDE_TEMPERATURE,LIGHTS_STATE

03/25/2017 12:39:25,23.062,18.875,off
03/25/2017 12:39:36,23.125,18.75,off
03/25/2017 12:39:48,23.125,18.625,off
03/25/2017 12:40:00,23.125,18.562,off
