TIME,INSIDE_TEMPERATURE,OUTSIDE_TEMPERATURE,LIGHTS_STATE

01/08/2018 12:42:26,17.125,11.562,off
01/08/2018 12:42:37,17.125,11.562,off
01/08/2018 12:42:49,17.125,11.562,off
01/08/2018 12:43:01,17.125,11.562,off
