TIME,INSIDE_TEMPERATURE,OUTSIDE_TEMPERATURE,LIGHTS_STATE

07/25/2016 12:57:26,32.125,31.375,off
07/25/2016 12:57:37,32.125,31.375,off
07/25/2016 12:57:49,32.125,31.437,off
07/25/2016 12:58:01,32.187,31.437,off
