TIME,INSIDE_TEMPERATURE,OUTSIDE_TEMPERATURE,LIGHTS_STATE

01/14/2018 12:25:25,19.437,13.75,off
01/14/2018 12:25:37,19.437,13.812,off
01/14/2018 12:25:49,19.437,13.875,off
01/14/2018 12:26:01,19.437,13.875,off
