TIME,INSIDE_TEMPERATURE,OUTSIDE_TEMPERATURE,LIGHTS_STATE

03/24/2017 12:05:25,17.562,12.25,off
03/24/2017 12:05:37,17.625,12.25,off
03/24/2017 12:05:49,17.625,12.25,off
03/24/2017 12:06:00,17.625,12.25,off
