TIME,INSIDE_TEMPERATURE,OUTSIDE_TEMPERATURE,LIGHTS_STATE

10/26/2017 12:35:25,36.0,39.062,off
10/26/2017 12:35:37,36.062,39.437,off
10/26/2017 12:35:49,36.0,39.812,off
10/26/2017 12:36:01,36.062,40.25,off
