TIME,INSIDE_TEMPERATURE,OUTSIDE_TEMPERATURE,LIGHTS_STATE

05/01/2017 12:38:26,29.187,28.5,off
05/01/2017 12:38:37,29.187,28.625,off
05/01/2017 12:38:49,29.187,28.625,off
05/01/2017 12:39:01,29.187,28.625,off
