TIME,INSIDE_TEMPERATURE,OUTSIDE_TEMPERATURE,LIGHTS_STATE

01/15/2018 12:30:25,23.25,20.562,off
01/15/2018 12:30:37,23.25,20.562,off
01/15/2018 12:30:49,23.312,20.562,off
01/15/2018 12:31:00,23.312,20.687,off
