TIME,INSIDE_TEMPERATURE,OUTSIDE_TEMPERATURE,LIGHTS_STATE

02/16/2018 12:19:25,25.437,42.062,off
02/16/2018 12:19:37,25.437,42.062,off
02/16/2018 12:19:49,25.437,42.125,off
02/16/2018 12:20:01,25.437,41.812,off
