TIME,INSIDE_TEMPERATURE,OUTSIDE_TEMPERATURE,LIGHTS_STATE

05/01/2017 12:24:25,28.875,28.062,off
05/01/2017 12:24:37,28.875,28.062,off
05/01/2017 12:24:49,28.875,28.0,off
05/01/2017 12:25:00,28.875,28.062,off
