TIME,INSIDE_TEMPERATURE,OUTSIDE_TEMPERATURE,LIGHTS_STATE

12/18/2016 12:45:25,16.312,13.437,off
12/18/2016 12:45:36,16.312,13.375,off
12/18/2016 12:45:48,16.312,13.187,off
12/18/2016 12:46:00,16.312,13.187,off
