TIME,INSIDE_TEMPERATURE,OUTSIDE_TEMPERATURE,LIGHTS_STATE

02/28/2018 12:54:26,21.562,20.0,off
02/28/2018 12:54:38,21.562,20.062,off
02/28/2018 12:54:49,21.562,20.125,off
02/28/2018 12:55:01,21.562,20.125,off
