TIME,INSIDE_TEMPERATURE,OUTSIDE_TEMPERATURE,LIGHTS_STATE

09/12/2016 12:07:25,24.25,21.625,off
09/12/2016 12:07:36,24.312,21.687,off
09/12/2016 12:07:48,24.312,21.812,off
09/12/2016 12:08:00,24.312,21.937,off
