TIME,INSIDE_TEMPERATURE,OUTSIDE_TEMPERATURE,LIGHTS_STATE

09/20/2017 12:29:25,24.125,20.687,off
09/20/2017 12:29:37,24.125,20.812,off
09/20/2017 12:29:48,24.187,20.875,off
09/20/2017 12:30:00,24.187,21.0,off
