TIME,INSIDE_TEMPERATURE,OUTSIDE_TEMPERATURE,LIGHTS_STATE

03/13/2017 12:11:26,24.562,22.625,off
03/13/2017 12:11:38,24.562,22.625,off
03/13/2017 12:11:49,24.625,22.625,off
03/13/2017 12:12:01,24.625,22.687,off
