TIME,INSIDE_TEMPERATURE,OUTSIDE_TEMPERATURE,LIGHTS_STATE

05/21/2017 12:19:25,31.937,29.687,off
05/21/2017 12:19:37,31.937,29.75,off
05/21/2017 12:19:48,31.937,29.75,off
05/21/2017 12:20:00,31.937,29.812,off
