TIME,INSIDE_TEMPERATURE,OUTSIDE_TEMPERATURE,LIGHTS_STATE

10/10/2017 12:03:25,30.562,28.375,off
10/10/2017 12:03:37,30.625,28.5,off
10/10/2017 12:03:49,30.625,28.625,off
10/10/2017 12:04:01,30.625,28.687,off
