TIME,INSIDE_TEMPERATURE,OUTSIDE_TEMPERATURE,LIGHTS_STATE

08/30/2017 12:33:26,30.062,28.125,off
08/30/2017 12:33:37,30.062,28.125,off
08/30/2017 12:33:49,30.062,28.062,off
08/30/2017 12:34:01,30.125,28.062,off
