TIME,INSIDE_TEMPERATURE,OUTSIDE_TEMPERATURE,LIGHTS_STATE

04/15/2017 12:00:25,21.562,18.312,off
04/15/2017 12:00:36,21.562,18.312,off
04/15/2017 12:00:48,21.562,18.25,off
04/15/2017 12:01:00,21.562,18.25,off
