TIME,INSIDE_TEMPERATURE,OUTSIDE_TEMPERATURE,LIGHTS_STATE

09/14/2017 12:10:25,27.125,23.562,off
09/14/2017 12:10:37,27.125,23.562,off
09/14/2017 12:10:49,27.125,23.562,off
09/14/2017 12:11:01,27.125,23.625,off
