TIME,INSIDE_TEMPERATURE,OUTSIDE_TEMPERATURE,LIGHTS_STATE

10/29/2016 12:31:25,30.812,26.187,off
10/29/2016 12:31:37,30.75,25.937,off
10/29/2016 12:31:49,30.687,25.625,off
10/29/2016 12:32:00,30.625,25.5,off
