TIME,INSIDE_TEMPERATURE,OUTSIDE_TEMPERATURE,LIGHTS_STATE

03/23/2017 12:42:25,21.062,17.25,off
03/23/2017 12:42:36,21.125,17.25,off
03/23/2017 12:42:48,21.125,17.187,off
03/23/2017 12:43:00,21.125,17.25,off
