TIME,INSIDE_TEMPERATURE,OUTSIDE_TEMPERATURE,LIGHTS_STATE

02/08/2017 12:45:26,22.437,19.0,off
02/08/2017 12:45:37,22.437,19.0,off
02/08/2017 12:45:49,22.437,19.0,off
02/08/2017 12:46:01,22.437,19.0,off
