TIME,INSIDE_TEMPERATURE,OUTSIDE_TEMPERATURE,LIGHTS_STATE

07/12/2016 12:27:25,25.062,24.75,off
07/12/2016 12:27:37,25.062,24.75,off
07/12/2016 12:27:49,25.062,24.75,off
07/12/2016 12:28:00,25.125,24.812,off
