TIME,INSIDE_TEMPERATURE,OUTSIDE_TEMPERATURE,LIGHTS_STATE

01/24/2018 12:50:25,19.75,15.375,off
01/24/2018 12:50:37,19.75,15.375,off
01/24/2018 12:50:50,19.812,15.437,off
01/24/2018 12:51:01,19.75,15.375,off
