TIME,INSIDE_TEMPERATURE,OUTSIDE_TEMPERATURE,LIGHTS_STATE

09/30/2017 12:32:25,29.375,27.25,off
09/30/2017 12:32:37,29.375,27.25,off
09/30/2017 12:32:48,29.375,27.312,off
09/30/2017 12:33:00,29.375,27.375,off
