TIME,INSIDE_TEMPERATURE,OUTSIDE_TEMPERATURE,LIGHTS_STATE

10/27/2017 12:36:25,35.812,39.375,off
10/27/2017 12:36:37,35.812,39.75,off
10/27/2017 12:36:49,35.812,40.062,off
10/27/2017 12:37:01,35.812,40.437,off
