TIME,INSIDE_TEMPERATURE,OUTSIDE_TEMPERATURE,LIGHTS_STATE

07/20/2017 12:24:25,28.937,26.062,off
07/20/2017 12:24:37,29.0,26.125,off
07/20/2017 12:24:49,29.0,26.125,off
07/20/2017 12:25:00,29.0,26.125,off
