TIME,INSIDE_TEMPERATURE,OUTSIDE_TEMPERATURE,LIGHTS_STATE

07/19/2016 12:54:26,25.25,25.062,off
07/19/2016 12:54:37,25.25,25.125,off
07/19/2016 12:54:49,25.312,25.125,off
07/19/2016 12:55:01,25.25,25.125,off
