TIME,INSIDE_TEMPERATURE,OUTSIDE_TEMPERATURE,LIGHTS_STATE

08/05/2016 12:33:26,25.062,24.812,off
08/05/2016 12:33:37,25.062,24.875,off
08/05/2016 12:33:50,25.062,24.937,off
08/05/2016 12:34:02,25.062,24.812,off
