TIME,INSIDE_TEMPERATURE,OUTSIDE_TEMPERATURE,LIGHTS_STATE

01/22/2018 12:42:26,22.062,16.187,off
01/22/2018 12:42:37,22.062,16.25,off
01/22/2018 12:42:49,22.0,16.187,off
01/22/2018 12:43:01,22.062,16.187,off
