TIME,INSIDE_TEMPERATURE,OUTSIDE_TEMPERATURE,LIGHTS_STATE

03/09/2018 12:40:25,25.875,21.75,off
03/09/2018 12:40:37,25.875,21.937,off
03/09/2018 12:40:48,25.875,22.0,off
03/09/2018 12:41:00,25.937,22.187,off
