TIME,INSIDE_TEMPERATURE,OUTSIDE_TEMPERATURE,LIGHTS_STATE

05/07/2017 12:53:25,24.125,21.812,off
05/07/2017 12:53:37,24.125,21.75,off
05/07/2017 12:53:48,24.125,21.75,off
05/07/2017 12:54:00,24.125,21.75,off
