TIME,INSIDE_TEMPERATURE,OUTSIDE_TEMPERATURE,LIGHTS_STATE

12/09/2016 12:13:25,21.375,17.625,off
12/09/2016 12:13:37,21.375,17.625,off
12/09/2016 12:13:49,21.375,17.625,off
12/09/2016 12:14:00,21.375,17.625,off
