TIME,INSIDE_TEMPERATURE,OUTSIDE_TEMPERATURE,LIGHTS_STATE

01/17/2017 12:17:24,13.5,11.062,off
01/17/2017 12:17:36,13.5,11.187,off
01/17/2017 12:17:48,13.5,11.125,off
01/17/2017 12:17:59,13.5,11.125,off
