TIME,INSIDE_TEMPERATURE,OUTSIDE_TEMPERATURE,LIGHTS_STATE

01/13/2017 12:16:25,21.187,16.312,off
01/13/2017 12:16:37,21.187,16.375,off
01/13/2017 12:16:48,21.25,16.375,off
01/13/2017 12:17:01,21.25,16.375,off
