TIME,INSIDE_TEMPERATURE,OUTSIDE_TEMPERATURE,LIGHTS_STATE

08/31/2017 12:26:25,34.0,33.687,off
08/31/2017 12:26:37,34.062,33.687,off
08/31/2017 12:26:49,34.062,33.75,off
08/31/2017 12:27:01,34.062,33.687,off
