TIME,INSIDE_TEMPERATURE,OUTSIDE_TEMPERATURE,LIGHTS_STATE

10/02/2017 12:04:26,28.312,25.062,off
10/02/2017 12:04:37,28.312,25.062,off
10/02/2017 12:04:49,28.375,25.062,off
10/02/2017 12:05:01,28.375,25.062,off
