TIME,INSIDE_TEMPERATURE,OUTSIDE_TEMPERATURE,LIGHTS_STATE

03/02/2018 12:23:25,19.062,23.562,off
03/02/2018 12:23:37,19.062,23.25,off
03/02/2018 12:23:49,19.062,22.875,off
03/02/2018 12:24:01,19.062,22.687,off
