TIME,INSIDE_TEMPERATURE,OUTSIDE_TEMPERATURE,LIGHTS_STATE

12/29/2016 12:32:25,20.25,16.5,off
12/29/2016 12:32:36,20.25,16.562,off
12/29/2016 12:32:48,20.25,16.437,off
12/29/2016 12:33:00,20.25,16.437,off
