TIME,INSIDE_TEMPERATURE,OUTSIDE_TEMPERATURE,LIGHTS_STATE

09/28/2017 12:32:25,34.187,32.125,off
09/28/2017 12:32:37,34.187,32.125,off
09/28/2017 12:32:49,34.187,32.187,off
09/28/2017 12:33:00,34.187,32.187,off
