TIME,INSIDE_TEMPERATURE,OUTSIDE_TEMPERATURE,LIGHTS_STATE

09/20/2016 12:13:25,30.562,30.062,off
09/20/2016 12:13:37,30.562,30.062,off
09/20/2016 12:13:49,30.562,30.062,off
09/20/2016 12:14:00,30.562,30.125,off
