TIME,INSIDE_TEMPERATURE,OUTSIDE_TEMPERATURE,LIGHTS_STATE

07/20/2016 12:36:25,27.062,27.0,off
07/20/2016 12:36:37,27.062,27.0,off
07/20/2016 12:36:49,27.062,27.0,off
07/20/2016 12:37:00,27.062,27.0,off
