TIME,INSIDE_TEMPERATURE,OUTSIDE_TEMPERATURE,LIGHTS_STATE

04/28/2017 12:23:25,22.875,21.125,off
04/28/2017 12:23:37,22.875,21.062,off
04/28/2017 12:23:49,22.875,21.0,off
04/28/2017 12:24:00,22.875,21.0,off
