TIME,INSIDE_TEMPERATURE,OUTSIDE_TEMPERATURE,LIGHTS_STATE

01/07/2017 12:41:25,20.687,16.812,off
01/07/2017 12:41:36,20.562,16.875,off
01/07/2017 12:41:48,20.562,16.875,off
01/07/2017 12:42:00,20.562,16.75,off
