TIME,INSIDE_TEMPERATURE,OUTSIDE_TEMPERATURE,LIGHTS_STATE

07/04/2017 12:23:25,29.812,26.312,off
07/04/2017 12:23:37,29.812,26.312,off
07/04/2017 12:23:48,29.812,26.312,off
07/04/2017 12:24:00,29.812,26.312,off
