TIME,INSIDE_TEMPERATURE,OUTSIDE_TEMPERATURE,LIGHTS_STATE

03/27/2017 12:33:25,21.812,18.375,off
03/27/2017 12:33:37,21.875,18.437,off
03/27/2017 12:33:48,21.875,18.437,off
03/27/2017 12:34:00,21.875,18.437,off
