TIME,INSIDE_TEMPERATURE,OUTSIDE_TEMPERATURE,LIGHTS_STATE

09/29/2017 12:58:25,31.562,28.937,off
09/29/2017 12:58:37,31.562,28.875,off
09/29/2017 12:58:49,31.562,28.75,off
09/29/2017 12:59:00,31.625,28.75,off
