TIME,INSIDE_TEMPERATURE,OUTSIDE_TEMPERATURE,LIGHTS_STATE

08/01/2017 12:51:25,36.812,35.187,off
08/01/2017 12:51:37,36.875,35.187,off
08/01/2017 12:51:48,36.812,35.187,off
08/01/2017 12:52:00,36.875,35.187,off
