TIME,INSIDE_TEMPERATURE,OUTSIDE_TEMPERATURE,LIGHTS_STATE

04/30/2017 12:57:25,26.937,25.437,off
04/30/2017 12:57:37,26.937,25.437,off
04/30/2017 12:57:48,26.937,25.437,off
04/30/2017 12:58:00,26.937,25.375,off
