TIME,INSIDE_TEMPERATURE,OUTSIDE_TEMPERATURE,LIGHTS_STATE

02/14/2017 12:35:26,26.0,24.062,off
02/14/2017 12:35:38,26.0,24.062,off
02/14/2017 12:35:50,26.0,24.062,off
02/14/2017 12:36:01,26.062,24.0,off
