TIME,INSIDE_TEMPERATURE,OUTSIDE_TEMPERATURE,LIGHTS_STATE

01/17/2018 12:47:26,20.937,15.187,off
01/17/2018 12:47:37,20.937,15.187,off
01/17/2018 12:47:49,20.937,15.187,off
01/17/2018 12:48:01,20.937,15.187,off
