TIME,INSIDE_TEMPERATURE,OUTSIDE_TEMPERATURE,LIGHTS_STATE

08/26/2017 12:12:25,35.312,33.937,off
08/26/2017 12:12:37,35.312,34.0,off
08/26/2017 12:12:48,35.312,34.0,off
08/26/2017 12:13:00,35.312,34.0,off
