TIME,INSIDE_TEMPERATURE,OUTSIDE_TEMPERATURE,LIGHTS_STATE

01/07/2017 12:30:25,20.375,16.5,off
01/07/2017 12:30:37,20.375,16.562,off
01/07/2017 12:30:49,20.375,16.562,off
01/07/2017 12:31:00,20.375,16.625,off
