TIME,INSIDE_TEMPERATURE,OUTSIDE_TEMPERATURE,LIGHTS_STATE

08/11/2017 12:10:25,28.187,25.937,off
08/11/2017 12:10:37,28.187,25.937,off
08/11/2017 12:10:49,28.25,26.0,off
08/11/2017 12:11:00,28.25,26.0,off
