TIME,INSIDE_TEMPERATURE,OUTSIDE_TEMPERATURE,LIGHTS_STATE

03/12/2017 12:51:25,27.625,26.062,off
03/12/2017 12:51:37,27.625,26.062,off
03/12/2017 12:51:48,27.625,26.0,off
03/12/2017 12:52:00,27.625,25.937,off
