TIME,INSIDE_TEMPERATURE,OUTSIDE_TEMPERATURE,LIGHTS_STATE

04/06/2017 12:51:25,21.75,18.187,off
04/06/2017 12:51:36,21.75,18.187,off
04/06/2017 12:51:48,21.75,18.187,off
04/06/2017 12:52:00,21.75,18.125,off
