TIME,INSIDE_TEMPERATURE,OUTSIDE_TEMPERATURE,LIGHTS_STATE

02/23/2017 12:15:25,23.25,23.437,off
02/23/2017 12:15:37,23.187,23.625,off
02/23/2017 12:15:49,23.187,23.437,off
02/23/2017 12:16:01,23.187,23.5,off
