TIME,INSIDE_TEMPERATURE,OUTSIDE_TEMPERATURE,LIGHTS_STATE

07/21/2017 12:34:25,30.625,27.312,off
07/21/2017 12:34:36,30.625,27.312,off
07/21/2017 12:34:48,30.625,27.375,off
07/21/2017 12:35:00,30.687,27.375,off
