TIME,INSIDE_TEMPERATURE,OUTSIDE_TEMPERATURE,LIGHTS_STATE

06/16/2017 12:11:25,32.75,29.625,off
06/16/2017 12:11:37,32.875,29.625,off
06/16/2017 12:11:49,32.875,29.687,off
06/16/2017 12:12:01,32.875,29.687,off
