TIME,INSIDE_TEMPERATURE,OUTSIDE_TEMPERATURE,LIGHTS_STATE

07/02/2016 12:52:25,29.75,29.25,off
07/02/2016 12:52:36,29.812,29.25,off
07/02/2016 12:52:48,29.75,29.187,off
07/02/2016 12:53:00,29.75,29.187,off
