TIME,INSIDE_TEMPERATURE,OUTSIDE_TEMPERATURE,LIGHTS_STATE

03/17/2017 12:02:26,23.187,21.5,off
03/17/2017 12:02:38,23.187,21.562,off
03/17/2017 12:02:49,23.187,21.687,off
03/17/2017 12:03:01,23.187,21.812,off
