TIME,INSIDE_TEMPERATURE,OUTSIDE_TEMPERATURE,LIGHTS_STATE

07/05/2017 12:00:26,29.312,27.125,off
07/05/2017 12:00:37,29.312,27.125,off
07/05/2017 12:00:49,29.312,27.125,off
07/05/2017 12:01:01,29.312,27.125,off
