TIME,INSIDE_TEMPERATURE,OUTSIDE_TEMPERATURE,LIGHTS_STATE

11/01/2016 12:16:25,29.375,27.312,off
11/01/2016 12:16:36,29.5,27.625,off
11/01/2016 12:16:48,29.437,27.625,off
11/01/2016 12:17:00,29.312,27.437,off
