TIME,INSIDE_TEMPERATURE,OUTSIDE_TEMPERATURE,LIGHTS_STATE

07/12/2017 12:51:25,32.5,29.687,off
07/12/2017 12:51:37,32.562,29.812,off
07/12/2017 12:51:49,32.562,29.937,off
07/12/2017 12:52:00,32.562,30.187,off
