TIME,INSIDE_TEMPERATURE,OUTSIDE_TEMPERATURE,LIGHTS_STATE

10/27/2017 12:26:25,35.875,35.625,off
10/27/2017 12:26:37,35.875,35.5,off
10/27/2017 12:26:48,35.875,35.437,off
10/27/2017 12:27:00,35.875,35.375,off
