TIME,INSIDE_TEMPERATURE,OUTSIDE_TEMPERATURE,LIGHTS_STATE

04/29/2017 12:41:25,25.5,23.687,off
04/29/2017 12:41:37,25.5,23.687,off
04/29/2017 12:41:49,25.5,23.687,off
04/29/2017 12:42:00,25.5,23.75,off
