TIME,INSIDE_TEMPERATURE,OUTSIDE_TEMPERATURE,LIGHTS_STATE

09/30/2017 12:17:26,28.75,26.062,off
09/30/2017 12:17:37,28.75,26.062,off
09/30/2017 12:17:49,28.75,26.062,off
09/30/2017 12:18:01,28.75,26.062,off
