TIME,INSIDE_TEMPERATURE,OUTSIDE_TEMPERATURE,LIGHTS_STATE

12/20/2016 12:34:25,19.687,20.125,off
12/20/2016 12:34:36,19.687,20.312,off
12/20/2016 12:34:48,19.687,20.5,off
12/20/2016 12:35:00,19.687,20.5,off
