TIME,INSIDE_TEMPERATURE,OUTSIDE_TEMPERATURE,LIGHTS_STATE

01/04/2017 12:50:25,16.937,12.25,off
01/04/2017 12:50:36,17.0,12.312,off
01/04/2017 12:50:48,16.937,12.312,off
01/04/2017 12:51:00,17.0,12.312,off
