TIME,INSIDE_TEMPERATURE,OUTSIDE_TEMPERATURE,LIGHTS_STATE

07/18/2016 12:25:25,22.875,23.312,off
07/18/2016 12:25:37,22.812,23.312,off
07/18/2016 12:25:49,22.812,23.312,off
07/18/2016 12:26:00,22.812,23.312,off
