TIME,INSIDE_TEMPERATURE,OUTSIDE_TEMPERATURE,LIGHTS_STATE

06/24/2017 12:39:25,30.437,28.687,off
06/24/2017 12:39:37,30.437,28.687,off
06/24/2017 12:39:48,30.5,28.687,off
06/24/2017 12:40:00,30.5,28.687,off
