TIME,INSIDE_TEMPERATURE,OUTSIDE_TEMPERATURE,LIGHTS_STATE

05/02/2017 12:45:25,31.875,29.687,off
05/02/2017 12:45:37,31.875,29.75,off
05/02/2017 12:45:49,31.875,29.75,off
05/02/2017 12:46:00,31.875,29.75,off
