TIME,INSIDE_TEMPERATURE,OUTSIDE_TEMPERATURE,LIGHTS_STATE

10/26/2016 12:16:25,33.812,36.5,off
10/26/2016 12:16:37,33.812,36.687,off
10/26/2016 12:16:48,33.75,36.687,off
10/26/2016 12:17:00,33.812,36.937,off
