TIME,INSIDE_TEMPERATURE,OUTSIDE_TEMPERATURE,LIGHTS_STATE

07/13/2017 12:07:25,31.937,28.562,off
07/13/2017 12:07:37,31.937,28.562,off
07/13/2017 12:07:49,31.937,28.562,off
07/13/2017 12:08:01,31.937,28.562,off
