TIME,INSIDE_TEMPERATURE,OUTSIDE_TEMPERATURE,LIGHTS_STATE

03/31/2017 12:21:25,22.062,19.0,off
03/31/2017 12:21:37,22.062,19.062,off
03/31/2017 12:21:49,22.062,19.125,off
03/31/2017 12:22:00,22.062,19.125,off
