TIME,INSIDE_TEMPERATURE,OUTSIDE_TEMPERATURE,LIGHTS_STATE

05/20/2017 12:52:25,30.875,29.687,off
05/20/2017 12:52:37,30.875,29.687,off
05/20/2017 12:52:48,30.875,29.75,off
05/20/2017 12:53:00,30.875,29.75,off
