TIME,INSIDE_TEMPERATURE,OUTSIDE_TEMPERATURE,LIGHTS_STATE

09/23/2016 12:45:26,26.75,26.875,off
09/23/2016 12:45:38,26.75,26.812,off
09/23/2016 12:45:49,26.812,26.812,off
09/23/2016 12:46:01,26.812,26.812,off
