TIME,INSIDE_TEMPERATURE,OUTSIDE_TEMPERATURE,LIGHTS_STATE

12/19/2016 12:28:25,18.75,14.937,off
12/19/2016 12:28:36,18.687,14.75,off
12/19/2016 12:28:48,18.687,14.625,off
12/19/2016 12:29:00,18.687,14.437,off
