TIME,INSIDE_TEMPERATURE,OUTSIDE_TEMPERATURE,LIGHTS_STATE

03/29/2018 12:54:25,26.687,25.187,off
03/29/2018 12:54:37,26.687,25.187,off
03/29/2018 12:54:49,26.687,25.125,off
03/29/2018 12:55:01,26.687,25.187,off
