TIME,INSIDE_TEMPERATURE,OUTSIDE_TEMPERATURE,LIGHTS_STATE

10/27/2017 12:17:25,35.875,41.875,off
10/27/2017 12:17:37,35.875,41.562,off
10/27/2017 12:17:49,35.875,41.375,off
10/27/2017 12:18:01,35.875,41.062,off
