TIME,INSIDE_TEMPERATURE,OUTSIDE_TEMPERATURE,LIGHTS_STATE

07/11/2016 12:07:25,28.687,28.75,off
07/11/2016 12:07:36,28.687,28.75,off
07/11/2016 12:07:48,28.75,28.75,off
07/11/2016 12:08:00,28.75,28.75,off
