TIME,INSIDE_TEMPERATURE,OUTSIDE_TEMPERATURE,LIGHTS_STATE

10/07/2017 12:42:26,33.687,29.187,off
10/07/2017 12:42:38,33.687,29.25,off
10/07/2017 12:42:49,33.687,29.25,off
10/07/2017 12:43:01,33.75,29.25,off
