TIME,INSIDE_TEMPERATURE,OUTSIDE_TEMPERATURE,LIGHTS_STATE

01/20/2017 12:24:25,16.312,10.437,off
01/20/2017 12:24:36,16.25,10.375,off
01/20/2017 12:24:48,16.25,10.312,off
01/20/2017 12:25:00,16.25,10.312,off
