TIME,INSIDE_TEMPERATURE,OUTSIDE_TEMPERATURE,LIGHTS_STATE

02/11/2018 12:16:25,22.187,17.937,off
02/11/2018 12:16:37,22.187,17.937,off
02/11/2018 12:16:49,22.187,17.937,off
02/11/2018 12:17:01,22.187,17.937,off
