TIME,INSIDE_TEMPERATURE,OUTSIDE_TEMPERATURE,LIGHTS_STATE

01/21/2018 12:07:25,22.875,18.625,off
01/21/2018 12:07:37,22.812,18.5,off
01/21/2018 12:07:49,22.875,18.437,off
01/21/2018 12:08:01,22.875,18.437,off
