TIME,INSIDE_TEMPERATURE,OUTSIDE_TEMPERATURE,LIGHTS_STATE

03/13/2017 12:00:25,24.125,21.75,off
03/13/2017 12:00:37,24.125,21.687,off
03/13/2017 12:00:48,24.125,21.625,off
03/13/2017 12:01:00,24.125,21.625,off
