TIME,INSIDE_TEMPERATURE,OUTSIDE_TEMPERATURE,LIGHTS_STATE

07/25/2016 12:00:26,29.625,31.625,off
07/25/2016 12:00:38,29.687,31.625,off
07/25/2016 12:00:49,29.687,31.625,off
07/25/2016 12:01:01,29.687,31.625,off
