TIME,INSIDE_TEMPERATURE,OUTSIDE_TEMPERATURE,LIGHTS_STATE

02/22/2018 12:58:25,21.437,36.187,off
02/22/2018 12:58:37,21.437,36.437,off
02/22/2018 12:58:49,21.5,36.5,off
02/22/2018 12:59:00,21.5,36.5,off
