TIME,INSIDE_TEMPERATURE,OUTSIDE_TEMPERATURE,LIGHTS_STATE

10/12/2017 12:12:25,28.25,25.312,off
10/12/2017 12:12:37,28.25,25.25,off
10/12/2017 12:12:49,28.25,25.187,off
10/12/2017 12:13:01,28.25,25.25,off
