TIME,INSIDE_TEMPERATURE,OUTSIDE_TEMPERATURE,LIGHTS_STATE

03/07/2018 12:08:25,23.937,34.562,off
03/07/2018 12:08:37,23.937,34.375,off
03/07/2018 12:08:49,23.937,34.25,off
03/07/2018 12:09:00,23.937,34.062,off
