TIME,INSIDE_TEMPERATURE,OUTSIDE_TEMPERATURE,LIGHTS_STATE

02/26/2018 12:47:25,19.937,19.187,off
02/26/2018 12:47:37,19.937,19.187,off
02/26/2018 12:47:49,19.937,19.187,off
02/26/2018 12:48:00,20.0,19.187,off
