TIME,INSIDE_TEMPERATURE,OUTSIDE_TEMPERATURE,LIGHTS_STATE

07/13/2017 12:56:25,33.375,32.5,off
07/13/2017 12:56:37,33.375,32.375,off
07/13/2017 12:56:48,33.375,32.25,off
07/13/2017 12:57:00,33.437,32.125,off
