TIME,INSIDE_TEMPERATURE,OUTSIDE_TEMPERATURE,LIGHTS_STATE

07/20/2016 12:24:25,26.5,27.062,off
07/20/2016 12:24:38,26.562,27.062,off
07/20/2016 12:24:50,26.625,27.062,off
07/20/2016 12:25:02,26.687,27.062,off
