TIME,INSIDE_TEMPERATURE,OUTSIDE_TEMPERATURE,LIGHTS_STATE

10/26/2017 12:48:25,36.125,44.625,off
10/26/2017 12:48:37,36.125,44.5,off
10/26/2017 12:48:49,36.125,44.312,off
10/26/2017 12:49:00,36.125,44.125,off
