TIME,INSIDE_TEMPERATURE,OUTSIDE_TEMPERATURE,LIGHTS_STATE

07/06/2017 12:09:25,32.875,29.062,off
07/06/2017 12:09:37,32.875,29.062,off
07/06/2017 12:09:49,32.937,29.062,off
07/06/2017 12:10:00,32.875,29.062,off
