TIME,INSIDE_TEMPERATURE,OUTSIDE_TEMPERATURE,LIGHTS_STATE

06/24/2017 12:17:25,29.937,27.562,off
06/24/2017 12:17:37,29.937,27.625,off
06/24/2017 12:17:49,29.937,27.562,off
06/24/2017 12:18:01,29.937,27.625,off
