TIME,INSIDE_TEMPERATURE,OUTSIDE_TEMPERATURE,LIGHTS_STATE

04/25/2017 12:29:25,23.375,20.0,off
04/25/2017 12:29:37,23.437,20.0,off
04/25/2017 12:29:48,23.437,20.0,off
04/25/2017 12:30:00,23.437,19.937,off
