TIME,INSIDE_TEMPERATURE,OUTSIDE_TEMPERATURE,LIGHTS_STATE

09/14/2017 12:39:25,27.687,24.5,off
09/14/2017 12:39:37,27.687,24.5,off
09/14/2017 12:39:49,27.687,24.437,off
09/14/2017 12:40:01,27.75,24.437,off
