TIME,INSIDE_TEMPERATURE,OUTSIDE_TEMPERATURE,LIGHTS_STATE

09/27/2017 12:28:26,33.062,31.187,off
09/27/2017 12:28:37,33.062,31.187,off
09/27/2017 12:28:49,33.062,31.187,off
09/27/2017 12:29:01,33.125,31.25,off
