TIME,INSIDE_TEMPERATURE,OUTSIDE_TEMPERATURE,LIGHTS_STATE

02/13/2017 12:08:25,25.187,21.75,off
02/13/2017 12:08:37,25.187,21.687,off
02/13/2017 12:08:48,25.125,21.687,off
02/13/2017 12:09:00,25.125,21.625,off
