TIME,INSIDE_TEMPERATURE,OUTSIDE_TEMPERATURE,LIGHTS_STATE

10/03/2017 12:52:25,28.062,26.125,off
10/03/2017 12:52:37,28.062,26.187,off
10/03/2017 12:52:49,28.062,26.25,off
10/03/2017 12:53:01,28.062,26.125,off
