TIME,INSIDE_TEMPERATURE,OUTSIDE_TEMPERATURE,LIGHTS_STATE

02/09/2017 12:40:25,19.625,14.625,off
02/09/2017 12:40:37,19.625,14.625,off
02/09/2017 12:40:48,19.687,14.625,off
02/09/2017 12:41:00,19.625,14.625,off
