TIME,INSIDE_TEMPERATURE,OUTSIDE_TEMPERATURE,LIGHTS_STATE

07/31/2016 12:40:25,29.187,29.125,off
07/31/2016 12:40:37,29.187,29.187,off
07/31/2016 12:40:48,29.187,29.187,off
07/31/2016 12:41:00,29.187,29.125,off
