TIME,INSIDE_TEMPERATURE,OUTSIDE_TEMPERATURE,LIGHTS_STATE

12/01/2016 12:14:25,22.312,19.125,off
12/01/2016 12:14:37,22.25,19.125,off
12/01/2016 12:14:48,22.312,19.062,off
12/01/2016 12:15:01,22.312,19.0,off
