TIME,INSIDE_TEMPERATURE,OUTSIDE_TEMPERATURE,LIGHTS_STATE

12/22/2016 12:17:25,22.937,19.0,off
12/22/2016 12:17:37,22.937,19.0,off
12/22/2016 12:17:49,22.937,19.125,off
12/22/2016 12:18:00,22.937,19.125,off
