TIME,INSIDE_TEMPERATURE,OUTSIDE_TEMPERATURE,LIGHTS_STATE

05/20/2017 12:05:25,29.437,29.0,off
05/20/2017 12:05:37,29.5,29.125,off
05/20/2017 12:05:49,29.5,29.125,off
05/20/2017 12:06:00,29.5,29.125,off
