TIME,INSIDE_TEMPERATURE,OUTSIDE_TEMPERATURE,LIGHTS_STATE

03/23/2017 12:35:25,20.937,17.625,off
03/23/2017 12:35:37,21.0,17.625,off
03/23/2017 12:35:49,20.937,17.625,off
03/23/2017 12:36:00,21.0,17.562,off
