TIME,INSIDE_TEMPERATURE,OUTSIDE_TEMPERATURE,LIGHTS_STATE

03/17/2017 12:56:26,25.562,23.375,off
03/17/2017 12:56:37,25.562,23.437,off
03/17/2017 12:56:49,25.625,23.437,off
03/17/2017 12:57:01,25.625,23.437,off
