TIME,INSIDE_TEMPERATURE,OUTSIDE_TEMPERATURE,LIGHTS_STATE

07/12/2016 12:55:25,25.875,25.437,off
07/12/2016 12:55:37,25.875,25.437,off
07/12/2016 12:55:48,25.937,25.562,off
07/12/2016 12:56:00,25.875,25.562,off
