TIME,INSIDE_TEMPERATURE,OUTSIDE_TEMPERATURE,LIGHTS_STATE

02/17/2018 12:23:25,26.812,28.437,off
02/17/2018 12:23:38,26.812,28.625,off
02/17/2018 12:23:50,26.812,28.875,off
02/17/2018 12:24:01,26.812,29.0,off
