TIME,INSIDE_TEMPERATURE,OUTSIDE_TEMPERATURE,LIGHTS_STATE

01/06/2017 12:12:25,16.687,9.812,off
01/06/2017 12:12:37,16.687,9.937,off
01/06/2017 12:12:48,16.687,10.125,off
01/06/2017 12:13:00,16.687,10.187,off
