TIME,INSIDE_TEMPERATURE,OUTSIDE_TEMPERATURE,LIGHTS_STATE

09/09/2016 12:03:25,26.562,36.125,off
09/09/2016 12:03:36,26.562,36.187,off
09/09/2016 12:03:48,26.562,36.312,off
09/09/2016 12:04:00,26.562,36.437,off
