TIME,INSIDE_TEMPERATURE,OUTSIDE_TEMPERATURE,LIGHTS_STATE

11/21/2016 12:27:25,23.25,18.875,off
11/21/2016 12:27:36,23.312,19.0,off
11/21/2016 12:27:48,23.312,19.0,off
11/21/2016 12:28:00,23.312,19.125,off
