TIME,INSIDE_TEMPERATURE,OUTSIDE_TEMPERATURE,LIGHTS_STATE

07/01/2016 12:03:25,27.625,27.062,off
07/01/2016 12:03:37,27.625,27.062,off
07/01/2016 12:03:48,27.687,27.0,off
07/01/2016 12:04:00,27.625,27.0,off
