TIME,INSIDE_TEMPERATURE,OUTSIDE_TEMPERATURE,LIGHTS_STATE

06/23/2016 12:09:25,26.937,27.562,off
06/23/2016 12:09:37,26.937,27.562,off
06/23/2016 12:09:48,27.0,27.5,off
06/23/2016 12:10:00,27.0,27.562,off
