TIME,INSIDE_TEMPERATURE,OUTSIDE_TEMPERATURE,LIGHTS_STATE

02/28/2017 12:17:25,23.187,20.562,off
02/28/2017 12:17:37,23.187,20.562,off
02/28/2017 12:17:48,23.187,20.562,off
02/28/2017 12:18:00,23.187,20.562,off
