TIME,INSIDE_TEMPERATURE,OUTSIDE_TEMPERATURE,LIGHTS_STATE

03/01/2018 12:27:25,18.75,12.875,off
03/01/2018 12:27:37,18.75,12.812,off
03/01/2018 12:27:49,18.75,12.812,off
03/01/2018 12:28:01,18.812,12.875,off
