TIME,INSIDE_TEMPERATURE,OUTSIDE_TEMPERATURE,LIGHTS_STATE

08/28/2017 12:29:25,37.937,36.187,off
08/28/2017 12:29:37,37.937,36.187,off
08/28/2017 12:29:48,37.937,36.187,off
08/28/2017 12:30:00,37.937,36.25,off
