TIME,INSIDE_TEMPERATURE,OUTSIDE_TEMPERATURE,LIGHTS_STATE

12/19/2016 12:23:25,18.687,15.062,off
12/19/2016 12:23:36,18.687,15.062,off
12/19/2016 12:23:48,18.687,15.187,off
12/19/2016 12:24:00,18.687,15.125,off
