TIME,INSIDE_TEMPERATURE,OUTSIDE_TEMPERATURE,LIGHTS_STATE

07/27/2016 12:04:25,35.875,37.125,off
07/27/2016 12:04:37,35.875,37.125,off
07/27/2016 12:04:50,35.875,37.062,off
07/27/2016 12:05:02,35.875,37.125,off
