TIME,INSIDE_TEMPERATURE,OUTSIDE_TEMPERATURE,LIGHTS_STATE

12/31/2017 12:43:25,21.937,18.812,off
12/31/2017 12:43:37,21.937,18.75,off
12/31/2017 12:43:48,21.937,18.687,off
12/31/2017 12:44:00,21.937,18.75,off
