TIME,INSIDE_TEMPERATURE,OUTSIDE_TEMPERATURE,LIGHTS_STATE

03/23/2018 12:40:25,19.187,14.812,off
03/23/2018 12:40:37,19.25,14.812,off
03/23/2018 12:40:49,19.25,14.812,off
03/23/2018 12:41:01,19.25,14.812,off
