TIME,INSIDE_TEMPERATURE,OUTSIDE_TEMPERATURE,LIGHTS_STATE

09/03/2016 12:24:25,24.187,23.375,off
09/03/2016 12:24:36,24.187,23.375,off
09/03/2016 12:24:48,24.187,23.437,off
09/03/2016 12:25:00,24.187,23.375,off
