TIME,INSIDE_TEMPERATURE,OUTSIDE_TEMPERATURE,LIGHTS_STATE

09/14/2017 12:01:25,27.0,23.875,off
09/14/2017 12:01:37,27.0,23.812,off
09/14/2017 12:01:48,27.0,23.812,off
09/14/2017 12:02:00,27.062,23.75,off
