TIME,INSIDE_TEMPERATURE,OUTSIDE_TEMPERATURE,LIGHTS_STATE

01/25/2018 12:10:25,19.062,12.937,off
01/25/2018 12:10:37,19.062,12.937,off
01/25/2018 12:10:49,19.062,12.937,off
01/25/2018 12:11:01,19.062,12.937,off
