TIME,INSIDE_TEMPERATURE,OUTSIDE_TEMPERATURE,LIGHTS_STATE

12/24/2017 12:58:25,16.562,11.562,off
12/24/2017 12:58:37,16.562,11.5,off
12/24/2017 12:58:49,16.562,11.5,off
12/24/2017 12:59:00,16.562,11.5,off
