TIME,INSIDE_TEMPERATURE,OUTSIDE_TEMPERATURE,LIGHTS_STATE

08/12/2017 12:02:26,28.25,25.812,off
08/12/2017 12:02:37,28.187,25.75,off
08/12/2017 12:02:49,28.25,25.75,off
08/12/2017 12:03:01,28.25,25.687,off
