TIME,INSIDE_TEMPERATURE,OUTSIDE_TEMPERATURE,LIGHTS_STATE

06/26/2017 12:21:25,27.562,23.812,off
06/26/2017 12:21:37,27.562,23.75,off
06/26/2017 12:21:49,27.562,23.75,off
06/26/2017 12:22:00,27.562,23.75,off
