TIME,INSIDE_TEMPERATURE,OUTSIDE_TEMPERATURE,LIGHTS_STATE

07/21/2017 12:56:25,31.187,27.625,off
07/21/2017 12:56:37,31.187,27.625,off
07/21/2017 12:56:48,31.187,27.625,off
07/21/2017 12:57:00,31.187,27.562,off
