TIME,INSIDE_TEMPERATURE,OUTSIDE_TEMPERATURE,LIGHTS_STATE

10/22/2017 12:46:25,30.437,29.875,off
10/22/2017 12:46:37,30.437,29.875,off
10/22/2017 12:46:49,30.437,29.937,off
10/22/2017 12:47:01,30.437,30.0,off
