TIME,INSIDE_TEMPERATURE,OUTSIDE_TEMPERATURE,LIGHTS_STATE

03/30/2018 12:31:25,28.187,27.5,off
03/30/2018 12:31:37,28.187,27.5,off
03/30/2018 12:31:48,28.25,27.5,off
03/30/2018 12:32:00,28.25,27.437,off
