TIME,INSIDE_TEMPERATURE,OUTSIDE_TEMPERATURE,LIGHTS_STATE

03/22/2017 12:22:25,20.687,15.687,off
03/22/2017 12:22:37,20.687,15.687,off
03/22/2017 12:22:49,20.687,15.687,off
03/22/2017 12:23:00,20.687,15.687,off
