TIME,INSIDE_TEMPERATURE,OUTSIDE_TEMPERATURE,LIGHTS_STATE

01/08/2018 12:05:25,17.0,11.375,off
01/08/2018 12:05:37,17.0,11.375,off
01/08/2018 12:05:48,17.0,11.375,off
01/08/2018 12:06:00,16.937,11.375,off
