TIME,INSIDE_TEMPERATURE,OUTSIDE_TEMPERATURE,LIGHTS_STATE

09/20/2016 12:45:25,33.0,32.437,off
09/20/2016 12:45:37,33.0,32.437,off
09/20/2016 12:45:49,33.0,32.5,off
09/20/2016 12:46:01,33.062,32.5,off
