TIME,INSIDE_TEMPERATURE,OUTSIDE_TEMPERATURE,LIGHTS_STATE

07/24/2017 12:08:25,30.375,27.875,off
07/24/2017 12:08:37,30.375,27.875,off
07/24/2017 12:08:48,30.25,27.875,off
07/24/2017 12:09:00,30.375,27.875,off
