TIME,INSIDE_TEMPERATURE,OUTSIDE_TEMPERATURE,LIGHTS_STATE

07/01/2017 12:32:25,25.812,22.25,off
07/01/2017 12:32:37,25.875,22.25,off
07/01/2017 12:32:49,25.875,22.25,off
07/01/2017 12:33:00,25.812,22.25,off
