TIME,INSIDE_TEMPERATURE,OUTSIDE_TEMPERATURE,LIGHTS_STATE

03/12/2018 12:10:25,26.437,33.437,off
03/12/2018 12:10:37,26.437,33.437,off
03/12/2018 12:10:49,26.437,33.437,off
03/12/2018 12:11:01,26.437,33.312,off
