TIME,INSIDE_TEMPERATURE,OUTSIDE_TEMPERATURE,LIGHTS_STATE

09/08/2016 12:12:25,28.312,32.75,off
09/08/2016 12:12:37,28.375,32.937,off
09/08/2016 12:12:49,28.312,33.125,off
09/08/2016 12:13:01,28.375,33.312,off
