TIME,INSIDE_TEMPERATURE,OUTSIDE_TEMPERATURE,LIGHTS_STATE

08/06/2017 12:00:25,30.625,28.125,off
08/06/2017 12:00:37,30.625,28.187,off
08/06/2017 12:00:48,30.625,28.187,off
08/06/2017 12:01:00,30.687,28.187,off
