TIME,INSIDE_TEMPERATURE,OUTSIDE_TEMPERATURE,LIGHTS_STATE

07/21/2017 12:42:25,30.812,28.5,off
07/21/2017 12:42:37,30.812,28.5,off
07/21/2017 12:42:49,30.875,28.437,off
07/21/2017 12:43:01,30.875,28.437,off
