TIME,INSIDE_TEMPERATURE,OUTSIDE_TEMPERATURE,LIGHTS_STATE

09/02/2017 12:26:26,40.375,38.812,off
09/02/2017 12:26:37,40.375,38.875,off
09/02/2017 12:26:49,40.437,38.937,off
09/02/2017 12:27:01,40.437,38.937,off
