TIME,INSIDE_TEMPERATURE,OUTSIDE_TEMPERATURE,LIGHTS_STATE

03/22/2017 12:24:25,20.625,15.5,off
03/22/2017 12:24:37,20.562,15.5,off
03/22/2017 12:24:48,20.562,15.5,off
03/22/2017 12:25:00,20.562,15.5,off
