TIME,INSIDE_TEMPERATURE,OUTSIDE_TEMPERATURE,LIGHTS_STATE

06/10/2017 12:54:25,25.0,21.0,off
06/10/2017 12:54:37,25.0,21.062,off
06/10/2017 12:54:49,25.0,21.062,off
06/10/2017 12:55:01,25.0,21.062,off
