TIME,INSIDE_TEMPERATURE,OUTSIDE_TEMPERATURE,LIGHTS_STATE

02/03/2018 12:31:25,28.812,30.937,off
02/03/2018 12:31:37,28.875,31.125,off
02/03/2018 12:31:49,28.937,31.25,off
02/03/2018 12:32:01,29.0,31.437,off
