TIME,INSIDE_TEMPERATURE,OUTSIDE_TEMPERATURE,LIGHTS_STATE

11/02/2016 12:09:25,29.875,26.625,off
11/02/2016 12:09:37,29.937,26.562,off
11/02/2016 12:09:48,29.937,26.437,off
11/02/2016 12:10:00,29.937,26.187,off
