TIME,INSIDE_TEMPERATURE,OUTSIDE_TEMPERATURE,LIGHTS_STATE

07/03/2017 12:05:25,30.312,27.812,off
07/03/2017 12:05:37,30.312,27.812,off
07/03/2017 12:05:49,30.375,27.812,off
07/03/2017 12:06:01,30.375,27.812,off
