TIME,INSIDE_TEMPERATURE,OUTSIDE_TEMPERATURE,LIGHTS_STATE

04/03/2017 12:30:25,23.625,21.187,off
04/03/2017 12:30:37,23.625,21.25,off
04/03/2017 12:30:48,23.625,21.25,off
04/03/2017 12:31:01,23.687,21.312,off
