TIME,INSIDE_TEMPERATURE,OUTSIDE_TEMPERATURE,LIGHTS_STATE

05/14/2017 12:04:25,21.0,18.062,off
05/14/2017 12:04:37,21.0,18.0,off
05/14/2017 12:04:49,21.0,17.875,off
05/14/2017 12:05:00,21.0,17.875,off
