TIME,INSIDE_TEMPERATURE,OUTSIDE_TEMPERATURE,LIGHTS_STATE

02/05/2018 12:53:25,30.437,40.125,off
02/05/2018 12:53:37,30.5,40.125,off
02/05/2018 12:53:49,30.5,40.125,off
02/05/2018 12:54:01,30.5,40.125,off
