TIME,INSIDE_TEMPERATURE,OUTSIDE_TEMPERATURE,LIGHTS_STATE

07/15/2016 12:27:26,29.0,29.0,off
07/15/2016 12:27:37,28.937,29.0,off
07/15/2016 12:27:49,28.937,28.937,off
07/15/2016 12:28:01,29.062,29.0,off
