TIME,INSIDE_TEMPERATURE,OUTSIDE_TEMPERATURE,LIGHTS_STATE

09/14/2017 12:29:25,27.312,24.062,off
09/14/2017 12:29:37,27.312,24.062,off
09/14/2017 12:29:49,27.312,24.0,off
09/14/2017 12:30:00,27.312,24.0,off
