TIME,INSIDE_TEMPERATURE,OUTSIDE_TEMPERATURE,LIGHTS_STATE

09/14/2017 12:03:25,27.062,23.75,off
09/14/2017 12:03:37,27.062,23.687,off
09/14/2017 12:03:49,27.062,23.687,off
09/14/2017 12:04:00,27.062,23.75,off
