TIME,INSIDE_TEMPERATURE,OUTSIDE_TEMPERATURE,LIGHTS_STATE

03/23/2018 12:18:26,18.875,15.875,off
03/23/2018 12:18:37,18.875,15.875,off
03/23/2018 12:18:49,18.875,16.125,off
03/23/2018 12:19:01,18.937,16.187,off
