TIME,INSIDE_TEMPERATURE,OUTSIDE_TEMPERATURE,LIGHTS_STATE

05/07/2017 12:00:25,23.5,21.375,off
05/07/2017 12:00:37,23.562,21.375,off
05/07/2017 12:00:48,23.562,21.375,off
05/07/2017 12:01:00,23.562,21.375,off
