TIME,INSIDE_TEMPERATURE,OUTSIDE_TEMPERATURE,LIGHTS_STATE

07/11/2017 12:20:25,32.625,29.062,off
07/11/2017 12:20:37,32.625,29.062,off
07/11/2017 12:20:49,32.625,29.0,off
07/11/2017 12:21:01,32.625,29.0,off
