TIME,INSIDE_TEMPERATURE,OUTSIDE_TEMPERATURE,LIGHTS_STATE

11/10/2016 12:38:25,30.562,33.75,off
11/10/2016 12:38:37,30.625,33.812,off
11/10/2016 12:38:49,30.625,33.812,off
11/10/2016 12:39:00,30.625,33.937,off
