TIME,INSIDE_TEMPERATURE,OUTSIDE_TEMPERATURE,LIGHTS_STATE

11/02/2016 12:20:25,29.625,30.187,off
11/02/2016 12:20:37,29.625,30.25,off
11/02/2016 12:20:48,29.687,30.0,off
11/02/2016 12:21:00,29.687,29.687,off
