TIME,INSIDE_TEMPERATURE,OUTSIDE_TEMPERATURE,LIGHTS_STATE

12/14/2016 12:04:25,21.187,18.187,off
12/14/2016 12:04:37,21.187,18.062,off
12/14/2016 12:04:49,21.187,18.062,off
12/14/2016 12:05:01,21.187,18.062,off
