TIME,INSIDE_TEMPERATURE,OUTSIDE_TEMPERATURE,LIGHTS_STATE

12/22/2016 12:27:25,22.812,21.25,off
12/22/2016 12:27:37,22.812,21.25,off
12/22/2016 12:27:48,22.875,21.312,off
12/22/2016 12:28:00,22.875,21.25,off
