TIME,INSIDE_TEMPERATURE,OUTSIDE_TEMPERATURE,LIGHTS_STATE

01/16/2018 12:53:25,23.812,18.375,off
01/16/2018 12:53:37,23.812,18.25,off
01/16/2018 12:53:48,23.812,18.25,off
01/16/2018 12:54:00,23.812,18.25,off
