TIME,INSIDE_TEMPERATURE,OUTSIDE_TEMPERATURE,LIGHTS_STATE

02/24/2017 12:53:26,21.687,22.75,off
02/24/2017 12:53:37,21.687,22.75,off
02/24/2017 12:53:49,21.687,22.875,off
02/24/2017 12:54:01,21.625,23.0,off
