TIME,INSIDE_TEMPERATURE,OUTSIDE_TEMPERATURE,LIGHTS_STATE

02/02/2018 12:38:25,28.5,26.062,off
02/02/2018 12:38:37,28.5,26.125,off
02/02/2018 12:38:49,28.5,26.187,off
02/02/2018 12:39:01,28.562,26.25,off
