TIME,INSIDE_TEMPERATURE,OUTSIDE_TEMPERATURE,LIGHTS_STATE

05/12/2017 12:09:25,20.687,17.937,off
05/12/2017 12:09:36,20.687,17.937,off
05/12/2017 12:09:48,20.687,17.937,off
05/12/2017 12:10:00,20.687,17.937,off
