TIME,INSIDE_TEMPERATURE,OUTSIDE_TEMPERATURE,LIGHTS_STATE

10/26/2016 12:11:25,33.937,32.812,off
10/26/2016 12:11:37,33.937,32.625,off
10/26/2016 12:11:49,33.937,32.375,off
10/26/2016 12:12:01,33.937,32.187,off
