TIME,INSIDE_TEMPERATURE,OUTSIDE_TEMPERATURE,LIGHTS_STATE

08/04/2016 12:19:26,25.125,24.812,off
08/04/2016 12:19:37,25.125,24.812,off
08/04/2016 12:19:49,25.125,24.875,off
08/04/2016 12:20:01,25.125,24.875,off
