TIME,INSIDE_TEMPERATURE,OUTSIDE_TEMPERATURE,LIGHTS_STATE

10/02/2017 12:25:26,29.187,28.437,off
10/02/2017 12:25:37,29.25,28.625,off
10/02/2017 12:25:49,29.25,28.75,off
10/02/2017 12:26:01,29.25,28.812,off
