TIME,INSIDE_TEMPERATURE,OUTSIDE_TEMPERATURE,LIGHTS_STATE

01/13/2018 12:43:25,17.375,12.5,off
01/13/2018 12:43:37,17.375,12.562,off
01/13/2018 12:43:48,17.375,12.562,off
01/13/2018 12:44:00,17.375,12.687,off
