TIME,INSIDE_TEMPERATURE,OUTSIDE_TEMPERATURE,LIGHTS_STATE

07/11/2017 12:53:25,33.375,31.375,off
07/11/2017 12:53:37,33.375,31.375,off
07/11/2017 12:53:49,33.375,31.375,off
07/11/2017 12:54:00,33.375,31.375,off
