TIME,INSIDE_TEMPERATURE,OUTSIDE_TEMPERATURE,LIGHTS_STATE

08/25/2017 12:36:25,30.437,28.375,off
08/25/2017 12:36:37,30.437,28.312,off
08/25/2017 12:36:48,30.437,28.312,off
08/25/2017 12:37:00,30.5,28.312,off
