TIME,INSIDE_TEMPERATURE,OUTSIDE_TEMPERATURE,LIGHTS_STATE

11/21/2016 12:04:25,24.187,23.937,off
11/21/2016 12:04:36,24.187,23.875,off
11/21/2016 12:04:48,24.187,23.875,off
11/21/2016 12:05:00,24.187,23.75,off
