TIME,INSIDE_TEMPERATURE,OUTSIDE_TEMPERATURE,LIGHTS_STATE

04/10/2017 12:10:25,22.375,19.625,off
04/10/2017 12:10:37,22.375,19.625,off
04/10/2017 12:10:48,22.375,19.625,off
04/10/2017 12:11:00,22.437,19.687,off
