TIME,INSIDE_TEMPERATURE,OUTSIDE_TEMPERATURE,LIGHTS_STATE

02/23/2017 12:10:26,24.0,20.187,off
02/23/2017 12:10:37,24.0,20.625,off
02/23/2017 12:10:49,23.937,21.0,off
02/23/2017 12:11:01,23.937,21.312,off
