TIME,INSIDE_TEMPERATURE,OUTSIDE_TEMPERATURE,LIGHTS_STATE

03/25/2018 12:12:25,17.0,12.562,off
03/25/2018 12:12:37,17.0,12.437,off
03/25/2018 12:12:49,17.0,12.437,off
03/25/2018 12:13:00,17.0,12.437,off
