TIME,INSIDE_TEMPERATURE,OUTSIDE_TEMPERATURE,LIGHTS_STATE

03/12/2017 12:25:26,28.187,24.5,off
03/12/2017 12:25:37,28.312,24.5,off
03/12/2017 12:25:49,28.437,24.5,off
03/12/2017 12:26:01,28.625,24.5,off
