TIME,INSIDE_TEMPERATURE,OUTSIDE_TEMPERATURE,LIGHTS_STATE

03/31/2017 12:53:25,22.625,19.437,off
03/31/2017 12:53:37,22.625,19.437,off
03/31/2017 12:53:48,22.625,19.375,off
03/31/2017 12:54:00,22.562,19.312,off
