TIME,INSIDE_TEMPERATURE,OUTSIDE_TEMPERATURE,LIGHTS_STATE

07/10/2016 12:03:25,24.062,23.687,off
07/10/2016 12:03:37,24.062,23.687,off
07/10/2016 12:03:49,24.062,23.687,off
07/10/2016 12:04:00,24.062,23.75,off
