TIME,INSIDE_TEMPERATURE,OUTSIDE_TEMPERATURE,LIGHTS_STATE

06/30/2017 12:10:26,26.562,22.937,off
06/30/2017 12:10:37,26.562,23.0,off
06/30/2017 12:10:49,26.562,23.0,off
06/30/2017 12:11:01,26.562,23.0,off
