TIME,INSIDE_TEMPERATURE,OUTSIDE_TEMPERATURE,LIGHTS_STATE

05/04/2017 12:55:25,31.812,29.25,off
05/04/2017 12:55:37,31.812,29.312,off
05/04/2017 12:55:48,31.812,29.375,off
05/04/2017 12:56:00,31.875,29.375,off
