TIME,INSIDE_TEMPERATURE,OUTSIDE_TEMPERATURE,LIGHTS_STATE

03/03/2018 12:04:26,18.937,12.0,off
03/03/2018 12:04:37,18.937,12.0,off
03/03/2018 12:04:49,18.937,12.0,off
03/03/2018 12:05:01,18.937,12.0,off
