TIME,INSIDE_TEMPERATURE,OUTSIDE_TEMPERATURE,LIGHTS_STATE

04/22/2017 12:16:25,25.812,23.437,off
04/22/2017 12:16:36,25.812,23.437,off
04/22/2017 12:16:48,25.812,23.437,off
04/22/2017 12:17:00,25.812,23.375,off
