TIME,INSIDE_TEMPERATURE,OUTSIDE_TEMPERATURE,LIGHTS_STATE

03/22/2018 12:34:25,19.75,14.687,off
03/22/2018 12:34:37,19.75,14.625,off
03/22/2018 12:34:49,19.75,14.562,off
03/22/2018 12:35:01,19.75,14.562,off
