TIME,INSIDE_TEMPERATURE,OUTSIDE_TEMPERATURE,LIGHTS_STATE

08/25/2017 12:04:25,29.375,27.437,off
08/25/2017 12:04:37,29.375,27.437,off
08/25/2017 12:04:48,29.375,27.5,off
08/25/2017 12:05:00,29.375,27.562,off
