TIME,INSIDE_TEMPERATURE,OUTSIDE_TEMPERATURE,LIGHTS_STATE

05/21/2017 12:02:26,31.625,29.562,off
05/21/2017 12:02:38,31.562,29.562,off
05/21/2017 12:02:49,31.625,29.562,off
05/21/2017 12:03:01,31.625,29.5,off
