TIME,INSIDE_TEMPERATURE,OUTSIDE_TEMPERATURE,LIGHTS_STATE

12/15/2016 12:05:26,20.25,17.375,off
12/15/2016 12:05:38,20.25,17.375,off
12/15/2016 12:05:50,20.312,17.375,off
12/15/2016 12:06:02,20.312,17.375,off
