TIME,INSIDE_TEMPERATURE,OUTSIDE_TEMPERATURE,LIGHTS_STATE

10/19/2017 12:07:25,25.187,19.75,off
10/19/2017 12:07:37,25.187,19.812,off
10/19/2017 12:07:49,25.187,19.812,off
10/19/2017 12:08:01,25.187,19.812,off
