TIME,INSIDE_TEMPERATURE,OUTSIDE_TEMPERATURE,LIGHTS_STATE

03/06/2017 12:18:26,19.937,16.5,off
03/06/2017 12:18:38,20.062,16.937,off
03/06/2017 12:18:49,20.125,17.187,off
03/06/2017 12:19:01,20.125,17.562,off
