TIME,INSIDE_TEMPERATURE,OUTSIDE_TEMPERATURE,LIGHTS_STATE

03/03/2017 12:40:25,26.25,24.0,off
03/03/2017 12:40:37,26.25,23.937,off
03/03/2017 12:40:48,26.25,23.937,off
03/03/2017 12:41:00,26.25,23.812,off
