TIME,INSIDE_TEMPERATURE,OUTSIDE_TEMPERATURE,LIGHTS_STATE

12/29/2017 12:27:25,23.062,23.687,off
12/29/2017 12:27:37,23.062,23.437,off
12/29/2017 12:27:49,23.062,23.187,off
12/29/2017 12:28:01,23.062,23.0,off
