TIME,INSIDE_TEMPERATURE,OUTSIDE_TEMPERATURE,LIGHTS_STATE

11/06/2016 12:17:24,28.5,29.25,off
11/06/2016 12:17:36,28.562,29.062,off
11/06/2016 12:17:48,28.562,29.0,off
11/06/2016 12:17:59,28.562,29.0,off
