TIME,INSIDE_TEMPERATURE,OUTSIDE_TEMPERATURE,LIGHTS_STATE

07/23/2017 12:12:25,35.625,32.875,off
07/23/2017 12:12:36,35.625,32.875,off
07/23/2017 12:12:48,35.625,32.937,off
07/23/2017 12:13:00,35.687,32.937,off
