TIME,INSIDE_TEMPERATURE,OUTSIDE_TEMPERATURE,LIGHTS_STATE

10/09/2017 12:55:25,31.812,28.062,off
10/09/2017 12:55:37,31.812,28.0,off
10/09/2017 12:55:49,31.812,27.875,off
10/09/2017 12:56:00,31.875,27.937,off
