TIME,INSIDE_TEMPERATURE,OUTSIDE_TEMPERATURE,LIGHTS_STATE

12/25/2017 12:38:25,20.312,16.875,off
12/25/2017 12:38:37,20.312,16.875,off
12/25/2017 12:38:48,20.312,16.937,off
12/25/2017 12:39:00,20.375,16.937,off
