TIME,INSIDE_TEMPERATURE,OUTSIDE_TEMPERATURE,LIGHTS_STATE

12/29/2017 12:54:26,23.125,23.75,off
12/29/2017 12:54:37,23.125,23.687,off
12/29/2017 12:54:49,23.125,23.5,off
12/29/2017 12:55:01,23.125,23.562,off
