TIME,INSIDE_TEMPERATURE,OUTSIDE_TEMPERATURE,LIGHTS_STATE

06/07/2017 12:13:25,22.625,22.125,off
06/07/2017 12:13:37,22.625,22.125,off
06/07/2017 12:13:49,22.625,22.125,off
06/07/2017 12:14:00,22.625,22.125,off
