TIME,INSIDE_TEMPERATURE,OUTSIDE_TEMPERATURE,LIGHTS_STATE

07/31/2017 12:21:25,31.312,29.687,off
07/31/2017 12:21:37,31.375,29.75,off
07/31/2017 12:21:48,31.375,29.75,off
07/31/2017 12:22:00,31.375,29.812,off
