TIME,INSIDE_TEMPERATURE,OUTSIDE_TEMPERATURE,LIGHTS_STATE

05/07/2017 12:39:26,23.812,21.75,off
05/07/2017 12:39:37,23.812,21.812,off
05/07/2017 12:39:49,23.812,21.812,off
05/07/2017 12:40:01,23.812,21.75,off
