TIME,INSIDE_TEMPERATURE,OUTSIDE_TEMPERATURE,LIGHTS_STATE

08/30/2017 12:04:26,28.937,26.875,off
08/30/2017 12:04:37,28.937,26.812,off
08/30/2017 12:04:49,28.937,26.875,off
08/30/2017 12:05:01,28.937,26.937,off
