TIME,INSIDE_TEMPERATURE,OUTSIDE_TEMPERATURE,LIGHTS_STATE

03/15/2018 12:09:25,18.437,13.125,off
03/15/2018 12:09:37,18.437,13.125,off
03/15/2018 12:09:49,18.437,13.125,off
03/15/2018 12:10:00,18.437,13.125,off
