TIME,INSIDE_TEMPERATURE,OUTSIDE_TEMPERATURE,LIGHTS_STATE

09/19/2017 12:17:25,26.562,24.187,off
09/19/2017 12:17:37,26.562,24.062,off
09/19/2017 12:17:49,26.562,24.0,off
09/19/2017 12:18:01,26.562,23.875,off
