TIME,INSIDE_TEMPERATURE,OUTSIDE_TEMPERATURE,LIGHTS_STATE

05/12/2017 12:44:25,21.187,18.375,off
05/12/2017 12:44:36,21.125,18.437,off
05/12/2017 12:44:48,21.125,18.437,off
05/12/2017 12:45:00,21.187,18.5,off
