TIME,INSIDE_TEMPERATURE,OUTSIDE_TEMPERATURE,LIGHTS_STATE

07/03/2017 12:02:25,30.187,27.625,off
07/03/2017 12:02:37,30.187,27.562,off
07/03/2017 12:02:49,30.25,27.625,off
07/03/2017 12:03:01,30.25,27.625,off
