TIME,INSIDE_TEMPERATURE,OUTSIDE_TEMPERATURE,LIGHTS_STATE

12/02/2016 12:58:26,21.812,17.5,off
12/02/2016 12:58:38,21.812,17.5,off
12/02/2016 12:58:49,21.75,17.5,off
12/02/2016 12:59:01,21.75,17.562,off
