TIME,INSIDE_TEMPERATURE,OUTSIDE_TEMPERATURE,LIGHTS_STATE

11/23/2016 12:44:25,23.375,20.5,off
11/23/2016 12:44:36,23.375,20.437,off
11/23/2016 12:44:48,23.375,20.437,off
11/23/2016 12:45:00,23.375,20.437,off
