TIME,INSIDE_TEMPERATURE,OUTSIDE_TEMPERATURE,LIGHTS_STATE

04/21/2017 12:44:25,24.437,22.187,off
04/21/2017 12:44:37,24.437,22.187,off
04/21/2017 12:44:48,24.437,22.125,off
04/21/2017 12:45:00,24.437,22.125,off
