TIME,INSIDE_TEMPERATURE,OUTSIDE_TEMPERATURE,LIGHTS_STATE

02/04/2017 12:39:25,24.562,22.062,off
02/04/2017 12:39:37,24.562,22.5,off
02/04/2017 12:39:49,24.625,22.812,off
02/04/2017 12:40:00,24.625,23.062,off
