TIME,INSIDE_TEMPERATURE,OUTSIDE_TEMPERATURE,LIGHTS_STATE

08/30/2017 12:00:26,28.875,26.437,off
08/30/2017 12:00:38,28.875,26.437,off
08/30/2017 12:00:50,28.875,26.437,off
08/30/2017 12:01:02,28.875,26.437,off
