TIME,INSIDE_TEMPERATURE,OUTSIDE_TEMPERATURE,LIGHTS_STATE

07/22/2016 12:36:26,29.562,28.687,off
07/22/2016 12:36:38,29.625,28.75,off
07/22/2016 12:36:49,29.625,28.75,off
07/22/2016 12:37:01,29.625,28.75,off
