TIME,INSIDE_TEMPERATURE,OUTSIDE_TEMPERATURE,LIGHTS_STATE

06/26/2016 12:08:25,31.437,31.375,off
06/26/2016 12:08:37,31.437,31.312,off
06/26/2016 12:08:49,31.5,31.375,off
06/26/2016 12:09:00,31.437,31.375,off
