TIME,INSIDE_TEMPERATURE,OUTSIDE_TEMPERATURE,LIGHTS_STATE

06/22/2016 12:49:25,28.562,28.812,off
06/22/2016 12:49:37,28.625,28.812,off
06/22/2016 12:49:49,28.562,28.812,off
06/22/2016 12:50:00,28.562,28.812,off
