TIME,INSIDE_TEMPERATURE,OUTSIDE_TEMPERATURE,LIGHTS_STATE

01/04/2018 12:58:25,23.0,23.5,off
01/04/2018 12:58:37,23.0,23.812,off
01/04/2018 12:58:48,23.062,24.125,off
01/04/2018 12:59:00,23.062,24.062,off
