TIME,INSIDE_TEMPERATURE,OUTSIDE_TEMPERATURE,LIGHTS_STATE

09/05/2017 12:37:25,34.562,31.812,off
09/05/2017 12:37:37,34.562,31.75,off
09/05/2017 12:37:49,34.562,31.812,off
09/05/2017 12:38:01,34.562,31.812,off
