TIME,INSIDE_TEMPERATURE,OUTSIDE_TEMPERATURE,LIGHTS_STATE

12/24/2017 12:57:25,16.562,11.5,off
12/24/2017 12:57:37,16.562,11.5,off
12/24/2017 12:57:48,16.562,11.5,off
12/24/2017 12:58:00,16.562,11.5,off
