TIME,INSIDE_TEMPERATURE,OUTSIDE_TEMPERATURE,LIGHTS_STATE

07/02/2017 12:55:25,30.437,28.562,off
07/02/2017 12:55:37,30.437,28.625,off
07/02/2017 12:55:49,30.5,28.625,off
07/02/2017 12:56:00,30.5,28.625,off
