TIME,INSIDE_TEMPERATURE,OUTSIDE_TEMPERATURE,LIGHTS_STATE

12/30/2016 12:22:25,16.75,15.062,off
12/30/2016 12:22:37,16.812,15.187,off
12/30/2016 12:22:49,16.812,15.312,off
12/30/2016 12:23:01,16.875,15.5,off
