TIME,INSIDE_TEMPERATURE,OUTSIDE_TEMPERATURE,LIGHTS_STATE

12/25/2017 12:54:25,20.687,17.75,off
12/25/2017 12:54:37,20.687,17.812,off
12/25/2017 12:54:48,20.687,17.812,off
12/25/2017 12:55:00,20.75,17.812,off
