TIME,INSIDE_TEMPERATURE,OUTSIDE_TEMPERATURE,LIGHTS_STATE

02/22/2018 12:06:26,22.312,23.875,off
02/22/2018 12:06:37,22.375,23.687,off
02/22/2018 12:06:49,22.375,23.375,off
02/22/2018 12:07:01,22.312,23.187,off
