TIME,INSIDE_TEMPERATURE,OUTSIDE_TEMPERATURE,LIGHTS_STATE

01/12/2017 12:18:25,12.687,8.0,off
01/12/2017 12:18:36,12.687,8.062,off
01/12/2017 12:18:48,12.687,8.0,off
01/12/2017 12:19:00,12.687,7.937,off
