TIME,INSIDE_TEMPERATURE,OUTSIDE_TEMPERATURE,LIGHTS_STATE

12/26/2016 12:51:24,16.062,13.687,off
12/26/2016 12:51:36,16.062,14.0,off
12/26/2016 12:51:47,16.062,14.062,off
12/26/2016 12:51:59,16.062,14.25,off
