TIME,INSIDE_TEMPERATURE,OUTSIDE_TEMPERATURE,LIGHTS_STATE

08/17/2017 12:35:26,31.062,28.5,off
08/17/2017 12:35:37,31.062,28.562,off
08/17/2017 12:35:49,31.062,28.562,off
08/17/2017 12:36:01,31.062,28.5,off
