TIME,INSIDE_TEMPERATURE,OUTSIDE_TEMPERATURE,LIGHTS_STATE

09/03/2017 12:33:25,41.562,40.187,off
09/03/2017 12:33:37,41.562,40.187,off
09/03/2017 12:33:49,41.562,40.187,off
09/03/2017 12:34:01,41.437,40.125,off
