TIME,INSIDE_TEMPERATURE,OUTSIDE_TEMPERATURE,LIGHTS_STATE

04/04/2017 12:19:25,24.0,21.562,off
04/04/2017 12:19:36,24.0,21.625,off
04/04/2017 12:19:48,23.937,21.687,off
04/04/2017 12:20:00,24.0,21.687,off
