TIME,INSIDE_TEMPERATURE,OUTSIDE_TEMPERATURE,LIGHTS_STATE

11/19/2016 12:42:25,20.437,15.875,off
11/19/2016 12:42:36,20.437,15.875,off
11/19/2016 12:42:48,20.5,15.875,off
11/19/2016 12:43:00,20.437,15.875,off
