TIME,INSIDE_TEMPERATURE,OUTSIDE_TEMPERATURE,LIGHTS_STATE

07/28/2017 12:15:25,33.437,30.625,off
07/28/2017 12:15:37,33.5,30.625,off
07/28/2017 12:15:49,33.5,30.687,off
07/28/2017 12:16:00,33.5,30.687,off
