TIME,INSIDE_TEMPERATURE,OUTSIDE_TEMPERATURE,LIGHTS_STATE

03/22/2018 12:06:25,19.937,12.375,off
03/22/2018 12:06:37,19.875,12.375,off
03/22/2018 12:06:48,19.875,12.437,off
03/22/2018 12:07:00,19.937,12.437,off
