TIME,INSIDE_TEMPERATURE,OUTSIDE_TEMPERATURE,LIGHTS_STATE

04/13/2017 12:10:25,21.812,17.312,off
04/13/2017 12:10:36,21.875,17.25,off
04/13/2017 12:10:48,21.812,17.062,off
04/13/2017 12:11:00,21.812,17.062,off
