TIME,INSIDE_TEMPERATURE,OUTSIDE_TEMPERATURE,LIGHTS_STATE

09/28/2017 12:47:25,35.0,32.937,off
09/28/2017 12:47:37,35.062,32.937,off
09/28/2017 12:47:49,35.062,32.937,off
09/28/2017 12:48:01,35.062,33.0,off
