TIME,INSIDE_TEMPERATURE,OUTSIDE_TEMPERATURE,LIGHTS_STATE

12/25/2016 12:15:24,19.062,14.812,off
12/25/2016 12:15:36,19.0,14.875,off
12/25/2016 12:15:48,19.062,14.875,off
12/25/2016 12:15:59,19.0,14.875,off
