TIME,INSIDE_TEMPERATURE,OUTSIDE_TEMPERATURE,LIGHTS_STATE

12/23/2017 12:36:25,20.75,19.875,off
12/23/2017 12:36:37,20.75,19.75,off
12/23/2017 12:36:48,20.75,19.75,off
12/23/2017 12:37:00,20.75,19.75,off
