TIME,INSIDE_TEMPERATURE,OUTSIDE_TEMPERATURE,LIGHTS_STATE

03/29/2018 12:37:25,26.062,24.75,off
03/29/2018 12:37:37,26.125,24.75,off
03/29/2018 12:37:48,26.125,24.687,off
03/29/2018 12:38:00,26.062,24.687,off
