TIME,INSIDE_TEMPERATURE,OUTSIDE_TEMPERATURE,LIGHTS_STATE

08/01/2016 12:12:25,27.312,27.375,off
08/01/2016 12:12:37,27.375,27.437,off
08/01/2016 12:12:49,27.375,27.375,off
08/01/2016 12:13:00,27.312,27.375,off
