TIME,INSIDE_TEMPERATURE,OUTSIDE_TEMPERATURE,LIGHTS_STATE

05/13/2017 12:15:25,21.187,18.875,off
05/13/2017 12:15:36,21.187,18.875,off
05/13/2017 12:15:49,21.187,18.875,off
05/13/2017 12:16:01,21.187,18.875,off
