TIME,INSIDE_TEMPERATURE,OUTSIDE_TEMPERATURE,LIGHTS_STATE

02/23/2017 12:27:25,22.437,22.812,off
02/23/2017 12:27:37,22.437,22.75,off
02/23/2017 12:27:49,22.437,22.75,off
02/23/2017 12:28:00,22.437,22.937,off
