TIME,INSIDE_TEMPERATURE,OUTSIDE_TEMPERATURE,LIGHTS_STATE

10/02/2017 12:13:25,28.812,25.625,off
10/02/2017 12:13:37,28.812,25.687,off
10/02/2017 12:13:49,28.812,25.687,off
10/02/2017 12:14:00,28.812,25.625,off
