TIME,INSIDE_TEMPERATURE,OUTSIDE_TEMPERATURE,LIGHTS_STATE

10/06/2017 12:19:25,31.687,29.5,off
10/06/2017 12:19:37,31.75,29.5,off
10/06/2017 12:19:48,31.687,29.5,off
10/06/2017 12:20:00,31.437,29.5,off
