TIME,INSIDE_TEMPERATURE,OUTSIDE_TEMPERATURE,LIGHTS_STATE

11/03/2016 12:25:25,30.187,30.375,off
11/03/2016 12:25:37,30.187,30.562,off
11/03/2016 12:25:48,30.187,30.75,off
11/03/2016 12:26:00,30.187,30.937,off
