TIME,INSIDE_TEMPERATURE,OUTSIDE_TEMPERATURE,LIGHTS_STATE

10/17/2017 12:23:25,30.312,29.187,off
10/17/2017 12:23:37,30.312,29.187,off
10/17/2017 12:23:48,30.312,29.25,off
10/17/2017 12:24:00,30.312,29.25,off
