TIME,INSIDE_TEMPERATURE,OUTSIDE_TEMPERATURE,LIGHTS_STATE

09/09/2017 12:25:25,30.0,27.875,off
09/09/2017 12:25:37,30.0,27.875,off
09/09/2017 12:25:49,30.0,27.875,off
09/09/2017 12:26:00,30.0,27.937,off
