TIME,INSIDE_TEMPERATURE,OUTSIDE_TEMPERATURE,LIGHTS_STATE

09/05/2016 12:54:25,27.437,29.562,off
09/05/2016 12:54:37,27.437,29.625,off
09/05/2016 12:54:48,27.437,29.625,off
09/05/2016 12:55:00,27.437,29.625,off
