TIME,INSIDE_TEMPERATURE,OUTSIDE_TEMPERATURE,LIGHTS_STATE

02/02/2018 12:55:25,28.562,25.812,off
02/02/2018 12:55:37,28.625,25.75,off
02/02/2018 12:55:49,28.562,25.812,off
02/02/2018 12:56:00,28.625,25.75,off
