TIME,INSIDE_TEMPERATURE,OUTSIDE_TEMPERATURE,LIGHTS_STATE

10/01/2017 12:31:25,30.0,28.625,off
10/01/2017 12:31:37,30.0,28.75,off
10/01/2017 12:31:49,30.0,28.812,off
10/01/2017 12:32:00,30.0,28.812,off
