TIME,INSIDE_TEMPERATURE,OUTSIDE_TEMPERATURE,LIGHTS_STATE

10/06/2017 12:46:26,31.437,29.875,off
10/06/2017 12:46:37,31.562,29.875,off
10/06/2017 12:46:49,31.625,29.875,off
10/06/2017 12:47:01,31.687,29.875,off
