TIME,INSIDE_TEMPERATURE,OUTSIDE_TEMPERATURE,LIGHTS_STATE

03/10/2017 12:44:26,28.187,24.125,off
03/10/2017 12:44:37,28.187,24.125,off
03/10/2017 12:44:49,28.187,24.125,off
03/10/2017 12:45:01,28.187,24.187,off
