TIME,INSIDE_TEMPERATURE,OUTSIDE_TEMPERATURE,LIGHTS_STATE

02/19/2017 12:07:26,17.25,12.812,off
02/19/2017 12:07:37,17.187,12.812,off
02/19/2017 12:07:49,17.187,12.75,off
02/19/2017 12:08:01,17.187,12.75,off
