TIME,INSIDE_TEMPERATURE,OUTSIDE_TEMPERATURE,LIGHTS_STATE

11/20/2016 12:20:24,21.562,17.625,off
11/20/2016 12:20:36,21.562,17.625,off
11/20/2016 12:20:48,21.562,17.625,off
11/20/2016 12:20:59,21.562,17.687,off
