TIME,INSIDE_TEMPERATURE,OUTSIDE_TEMPERATURE,LIGHTS_STATE

10/30/2017 12:55:25,26.875,26.125,off
10/30/2017 12:55:37,26.875,26.187,off
10/30/2017 12:55:49,26.875,26.312,off
10/30/2017 12:56:00,26.875,26.375,off
