TIME,INSIDE_TEMPERATURE,OUTSIDE_TEMPERATURE,LIGHTS_STATE

12/04/2016 12:39:25,23.375,20.187,off
12/04/2016 12:39:37,23.437,20.25,off
12/04/2016 12:39:48,23.437,20.375,off
12/04/2016 12:40:00,23.437,20.375,off
