TIME,INSIDE_TEMPERATURE,OUTSIDE_TEMPERATURE,LIGHTS_STATE

03/06/2018 12:07:26,22.0,29.125,off
03/06/2018 12:07:37,22.0,29.187,off
03/06/2018 12:07:49,22.0,28.937,off
03/06/2018 12:08:01,22.0,28.937,off
