TIME,INSIDE_TEMPERATURE,OUTSIDE_TEMPERATURE,LIGHTS_STATE

03/14/2018 12:21:25,18.125,11.875,off
03/14/2018 12:21:37,18.125,11.875,off
03/14/2018 12:21:48,18.125,11.937,off
03/14/2018 12:22:00,18.125,11.875,off
