TIME,INSIDE_TEMPERATURE,OUTSIDE_TEMPERATURE,LIGHTS_STATE

05/04/2017 12:48:25,31.687,29.25,off
05/04/2017 12:48:37,31.687,29.25,off
05/04/2017 12:48:48,31.75,29.25,off
05/04/2017 12:49:00,31.75,29.187,off
