TIME,INSIDE_TEMPERATURE,OUTSIDE_TEMPERATURE,LIGHTS_STATE

01/01/2017 12:42:25,20.375,22.312,off
01/01/2017 12:42:36,20.375,22.375,off
01/01/2017 12:42:48,20.375,22.437,off
01/01/2017 12:43:00,20.375,22.437,off
