TIME,INSIDE_TEMPERATURE,OUTSIDE_TEMPERATURE,LIGHTS_STATE

08/02/2016 12:42:26,28.75,28.687,off
08/02/2016 12:42:38,28.687,28.625,off
08/02/2016 12:42:50,28.75,28.625,off
08/02/2016 12:43:01,28.687,28.625,off
