TIME,INSIDE_TEMPERATURE,OUTSIDE_TEMPERATURE,LIGHTS_STATE

07/27/2016 12:38:25,36.875,37.937,off
07/27/2016 12:38:37,36.937,37.937,off
07/27/2016 12:38:49,36.937,37.937,off
07/27/2016 12:39:00,37.0,37.937,off
