TIME,INSIDE_TEMPERATURE,OUTSIDE_TEMPERATURE,LIGHTS_STATE

01/29/2018 12:04:26,19.25,15.437,off
01/29/2018 12:04:37,19.25,15.375,off
01/29/2018 12:04:49,19.312,15.437,off
01/29/2018 12:05:01,19.312,15.437,off
