TIME,INSIDE_TEMPERATURE,OUTSIDE_TEMPERATURE,LIGHTS_STATE

09/06/2017 12:13:25,33.0,30.5,off
09/06/2017 12:13:37,33.0,30.562,off
09/06/2017 12:13:49,33.062,30.625,off
09/06/2017 12:14:01,33.062,30.625,off
