TIME,INSIDE_TEMPERATURE,OUTSIDE_TEMPERATURE,LIGHTS_STATE

09/14/2016 12:39:25,26.687,25.75,off
09/14/2016 12:39:37,26.687,25.875,off
09/14/2016 12:39:49,26.687,25.937,off
09/14/2016 12:40:00,26.687,26.0,off
