TIME,INSIDE_TEMPERATURE,OUTSIDE_TEMPERATURE,LIGHTS_STATE

12/25/2017 12:52:25,20.687,17.5,off
12/25/2017 12:52:37,20.625,17.562,off
12/25/2017 12:52:49,20.687,17.625,off
12/25/2017 12:53:01,20.687,17.625,off
