TIME,INSIDE_TEMPERATURE,OUTSIDE_TEMPERATURE,LIGHTS_STATE

08/07/2017 12:38:25,28.187,24.875,off
08/07/2017 12:38:37,28.187,24.937,off
08/07/2017 12:38:49,28.187,24.937,off
08/07/2017 12:39:01,28.125,24.937,off
