TIME,INSIDE_TEMPERATURE,OUTSIDE_TEMPERATURE,LIGHTS_STATE

01/11/2018 12:02:25,22.375,18.375,off
01/11/2018 12:02:37,22.375,18.312,off
01/11/2018 12:02:49,22.375,18.187,off
01/11/2018 12:03:01,22.437,18.125,off
