TIME,INSIDE_TEMPERATURE,OUTSIDE_TEMPERATURE,LIGHTS_STATE

03/17/2018 12:55:25,19.312,15.5,off
03/17/2018 12:55:37,19.375,15.562,off
03/17/2018 12:55:49,19.375,15.625,off
03/17/2018 12:56:00,19.375,15.687,off
