TIME,INSIDE_TEMPERATURE,OUTSIDE_TEMPERATURE,LIGHTS_STATE

10/15/2017 12:57:25,30.5,27.187,off
10/15/2017 12:57:37,30.5,27.25,off
10/15/2017 12:57:48,30.562,27.437,off
10/15/2017 12:58:00,30.562,27.687,off
