TIME,INSIDE_TEMPERATURE,OUTSIDE_TEMPERATURE,LIGHTS_STATE

09/08/2016 12:23:26,28.625,33.875,off
09/08/2016 12:23:38,28.625,33.5,off
09/08/2016 12:23:49,28.625,33.375,off
09/08/2016 12:24:01,28.687,33.062,off
