TIME,INSIDE_TEMPERATURE,OUTSIDE_TEMPERATURE,LIGHTS_STATE

07/18/2016 12:47:25,23.25,23.312,off
07/18/2016 12:47:36,23.25,23.312,off
07/18/2016 12:47:48,23.312,23.312,off
07/18/2016 12:48:00,23.312,23.312,off
