TIME,INSIDE_TEMPERATURE,OUTSIDE_TEMPERATURE,LIGHTS_STATE

03/29/2017 12:29:25,25.375,23.0,off
03/29/2017 12:29:37,25.312,23.125,off
03/29/2017 12:29:49,25.375,23.25,off
03/29/2017 12:30:00,25.375,23.375,off
