TIME,INSIDE_TEMPERATURE,OUTSIDE_TEMPERATURE,LIGHTS_STATE

02/13/2018 12:41:25,23.312,26.062,off
02/13/2018 12:41:37,23.312,26.062,off
02/13/2018 12:41:49,23.312,25.937,off
02/13/2018 12:42:00,23.312,26.125,off
