TIME,INSIDE_TEMPERATURE,OUTSIDE_TEMPERATURE,LIGHTS_STATE

03/04/2018 12:39:26,20.75,34.25,off
03/04/2018 12:39:37,20.75,34.187,off
03/04/2018 12:39:49,20.75,34.25,off
03/04/2018 12:40:01,20.75,34.25,off
