TIME,INSIDE_TEMPERATURE,OUTSIDE_TEMPERATURE,LIGHTS_STATE

04/27/2017 12:05:25,23.0,20.437,off
04/27/2017 12:05:37,23.062,20.437,off
04/27/2017 12:05:48,23.062,20.437,off
04/27/2017 12:06:00,23.062,20.312,off
