TIME,INSIDE_TEMPERATURE,OUTSIDE_TEMPERATURE,LIGHTS_STATE

09/09/2016 12:43:25,28.437,29.875,off
09/09/2016 12:43:36,28.437,29.812,off
09/09/2016 12:43:48,28.5,29.812,off
09/09/2016 12:44:00,28.5,29.875,off
