TIME,INSIDE_TEMPERATURE,OUTSIDE_TEMPERATURE,LIGHTS_STATE

11/10/2016 12:53:25,30.25,25.937,off
11/10/2016 12:53:36,30.25,25.875,off
11/10/2016 12:53:48,30.25,25.875,off
11/10/2016 12:54:00,30.187,25.812,off
