TIME,INSIDE_TEMPERATURE,OUTSIDE_TEMPERATURE,LIGHTS_STATE

05/02/2017 12:29:26,31.437,29.562,off
05/02/2017 12:29:37,31.437,29.562,off
05/02/2017 12:29:49,31.437,29.625,off
05/02/2017 12:30:01,31.437,29.625,off
