TIME,INSIDE_TEMPERATURE,OUTSIDE_TEMPERATURE,LIGHTS_STATE

04/25/2017 12:49:26,24.25,20.625,off
04/25/2017 12:49:37,24.25,20.75,off
04/25/2017 12:49:49,24.312,20.812,off
04/25/2017 12:50:01,24.312,20.875,off
