TIME,INSIDE_TEMPERATURE,OUTSIDE_TEMPERATURE,LIGHTS_STATE

06/29/2017 12:27:25,27.812,24.937,off
06/29/2017 12:27:37,27.812,24.937,off
06/29/2017 12:27:49,27.812,24.937,off
06/29/2017 12:28:00,27.812,24.937,off
