TIME,INSIDE_TEMPERATURE,OUTSIDE_TEMPERATURE,LIGHTS_STATE

12/24/2016 12:11:25,19.875,15.125,off
12/24/2016 12:11:36,19.875,15.062,off
12/24/2016 12:11:48,19.937,14.875,off
12/24/2016 12:12:00,19.937,14.75,off
