TIME,INSIDE_TEMPERATURE,OUTSIDE_TEMPERATURE,LIGHTS_STATE

06/19/2017 12:48:25,39.75,35.5,off
06/19/2017 12:48:37,39.75,35.5,off
06/19/2017 12:48:48,39.75,35.5,off
06/19/2017 12:49:00,39.75,35.437,off
