TIME,INSIDE_TEMPERATURE,OUTSIDE_TEMPERATURE,LIGHTS_STATE

02/01/2018 12:15:25,27.312,26.062,off
02/01/2018 12:15:37,27.312,26.062,off
02/01/2018 12:15:49,27.312,26.0,off
02/01/2018 12:16:01,27.375,26.0,off
