TIME,INSIDE_TEMPERATURE,OUTSIDE_TEMPERATURE,LIGHTS_STATE

09/29/2017 12:23:25,29.5,28.062,off
09/29/2017 12:23:37,29.5,28.125,off
09/29/2017 12:23:48,29.562,28.125,off
09/29/2017 12:24:00,29.562,28.125,off
