TIME,INSIDE_TEMPERATURE,OUTSIDE_TEMPERATURE,LIGHTS_STATE

09/02/2017 12:11:25,39.812,38.5,off
09/02/2017 12:11:37,39.812,38.5,off
09/02/2017 12:11:49,39.812,38.5,off
09/02/2017 12:12:01,39.812,38.5,off
