TIME,INSIDE_TEMPERATURE,OUTSIDE_TEMPERATURE,LIGHTS_STATE

09/09/2016 12:26:25,27.562,31.5,off
09/09/2016 12:26:37,27.562,31.437,off
09/09/2016 12:26:48,27.625,31.375,off
09/09/2016 12:27:00,27.625,31.437,off
