TIME,INSIDE_TEMPERATURE,OUTSIDE_TEMPERATURE,LIGHTS_STATE

06/24/2016 12:52:25,26.687,26.875,off
06/24/2016 12:52:37,26.687,26.875,off
06/24/2016 12:52:48,26.625,26.812,off
06/24/2016 12:53:00,26.687,26.812,off
