TIME,INSIDE_TEMPERATURE,OUTSIDE_TEMPERATURE,LIGHTS_STATE

05/15/2017 12:40:25,22.25,19.375,off
05/15/2017 12:40:37,22.312,19.437,off
05/15/2017 12:40:48,22.25,19.437,off
05/15/2017 12:41:00,22.312,19.5,off
