TIME,INSIDE_TEMPERATURE,OUTSIDE_TEMPERATURE,LIGHTS_STATE

12/06/2016 12:16:25,19.812,17.312,off
12/06/2016 12:16:37,19.812,17.5,off
12/06/2016 12:16:49,19.812,17.562,off
12/06/2016 12:17:00,19.812,17.625,off
