TIME,INSIDE_TEMPERATURE,OUTSIDE_TEMPERATURE,LIGHTS_STATE

08/04/2016 12:27:26,25.312,25.062,off
08/04/2016 12:27:38,25.312,25.0,off
08/04/2016 12:27:49,25.375,25.062,off
08/04/2016 12:28:01,25.375,25.125,off
