TIME,INSIDE_TEMPERATURE,OUTSIDE_TEMPERATURE,LIGHTS_STATE

07/18/2016 12:54:25,23.437,23.25,off
07/18/2016 12:54:37,23.437,23.25,off
07/18/2016 12:54:49,23.437,23.25,off
07/18/2016 12:55:00,23.437,23.25,off
