TIME,INSIDE_TEMPERATURE,OUTSIDE_TEMPERATURE,LIGHTS_STATE

12/31/2017 12:32:25,21.812,21.75,off
12/31/2017 12:32:37,21.75,21.687,off
12/31/2017 12:32:49,21.75,21.562,off
12/31/2017 12:33:01,21.812,21.5,off
