TIME,INSIDE_TEMPERATURE,OUTSIDE_TEMPERATURE,LIGHTS_STATE

03/11/2017 12:05:26,29.937,26.125,off
03/11/2017 12:05:37,29.937,26.0,off
03/11/2017 12:05:49,30.0,25.937,off
03/11/2017 12:06:01,30.0,25.875,off
