TIME,INSIDE_TEMPERATURE,OUTSIDE_TEMPERATURE,LIGHTS_STATE

04/02/2017 12:26:25,24.562,22.437,off
04/02/2017 12:26:36,24.625,22.5,off
04/02/2017 12:26:48,24.625,22.5,off
04/02/2017 12:27:00,24.625,22.5,off
