TIME,INSIDE_TEMPERATURE,OUTSIDE_TEMPERATURE,LIGHTS_STATE

12/25/2017 12:26:25,19.937,18.062,off
12/25/2017 12:26:37,20.0,18.062,off
12/25/2017 12:26:48,20.0,18.0,off
12/25/2017 12:27:00,20.0,18.0,off
