TIME,INSIDE_TEMPERATURE,OUTSIDE_TEMPERATURE,LIGHTS_STATE

10/31/2016 12:14:25,23.625,18.75,off
10/31/2016 12:14:37,23.625,18.687,off
10/31/2016 12:14:49,23.625,18.687,off
10/31/2016 12:15:00,23.625,18.687,off
