TIME,INSIDE_TEMPERATURE,OUTSIDE_TEMPERATURE,LIGHTS_STATE

07/25/2016 12:54:26,31.937,31.312,off
07/25/2016 12:54:38,31.937,31.25,off
07/25/2016 12:54:49,31.937,31.312,off
07/25/2016 12:55:01,32.0,31.312,off
