TIME,INSIDE_TEMPERATURE,OUTSIDE_TEMPERATURE,LIGHTS_STATE

10/19/2017 12:33:25,25.437,19.5,off
10/19/2017 12:33:37,25.437,19.687,off
10/19/2017 12:33:49,25.437,19.75,off
10/19/2017 12:34:00,25.5,19.812,off
