TIME,INSIDE_TEMPERATURE,OUTSIDE_TEMPERATURE,LIGHTS_STATE

03/22/2017 12:17:26,20.875,16.187,off
03/22/2017 12:17:37,20.875,16.187,off
03/22/2017 12:17:49,20.875,16.187,off
03/22/2017 12:18:01,20.937,16.187,off
