TIME,INSIDE_TEMPERATURE,OUTSIDE_TEMPERATURE,LIGHTS_STATE

03/28/2018 12:52:25,25.687,19.312,off
03/28/2018 12:52:37,25.687,19.312,off
03/28/2018 12:52:49,25.687,19.312,off
03/28/2018 12:53:00,25.687,19.312,off
