TIME,INSIDE_TEMPERATURE,OUTSIDE_TEMPERATURE,LIGHTS_STATE

01/09/2018 12:50:26,20.25,14.062,off
01/09/2018 12:50:37,20.25,14.062,off
01/09/2018 12:50:49,20.25,14.062,off
01/09/2018 12:51:01,20.25,14.062,off
