TIME,INSIDE_TEMPERATURE,OUTSIDE_TEMPERATURE,LIGHTS_STATE

12/13/2016 12:56:25,17.937,13.437,off
12/13/2016 12:56:36,17.937,13.437,off
12/13/2016 12:56:48,17.937,13.437,off
12/13/2016 12:57:00,17.937,13.437,off
