TIME,INSIDE_TEMPERATURE,OUTSIDE_TEMPERATURE,LIGHTS_STATE

10/08/2017 12:15:25,30.312,26.875,off
10/08/2017 12:15:37,30.312,26.875,off
10/08/2017 12:15:48,30.375,26.875,off
10/08/2017 12:16:00,30.375,26.875,off
