TIME,INSIDE_TEMPERATURE,OUTSIDE_TEMPERATURE,LIGHTS_STATE

08/14/2017 12:04:25,25.937,22.25,off
08/14/2017 12:04:37,25.937,22.312,off
08/14/2017 12:04:49,25.875,22.375,off
08/14/2017 12:05:01,25.562,22.312,off
