TIME,INSIDE_TEMPERATURE,OUTSIDE_TEMPERATURE,LIGHTS_STATE

11/03/2016 12:46:25,28.5,31.312,off
11/03/2016 12:46:36,28.5,31.5,off
11/03/2016 12:46:48,28.5,31.75,off
11/03/2016 12:47:00,28.562,31.812,off
