TIME,INSIDE_TEMPERATURE,OUTSIDE_TEMPERATURE,LIGHTS_STATE

09/12/2016 12:33:25,24.812,23.187,off
09/12/2016 12:33:37,24.812,23.125,off
09/12/2016 12:33:48,24.812,23.062,off
09/12/2016 12:34:00,24.812,22.937,off
