TIME,INSIDE_TEMPERATURE,OUTSIDE_TEMPERATURE,LIGHTS_STATE

08/19/2017 12:28:26,30.375,28.375,off
08/19/2017 12:28:37,30.437,28.375,off
08/19/2017 12:28:49,30.437,28.375,off
08/19/2017 12:29:01,30.437,28.437,off
