TIME,INSIDE_TEMPERATURE,OUTSIDE_TEMPERATURE,LIGHTS_STATE

05/17/2017 12:10:25,22.25,20.125,off
05/17/2017 12:10:37,22.25,20.125,off
05/17/2017 12:10:48,22.25,20.187,off
05/17/2017 12:11:00,22.25,20.187,off
