TIME,INSIDE_TEMPERATURE,OUTSIDE_TEMPERATURE,LIGHTS_STATE

09/12/2017 12:20:25,35.875,33.187,off
09/12/2017 12:20:37,35.875,33.187,off
09/12/2017 12:20:49,35.75,33.187,off
09/12/2017 12:21:01,35.812,33.187,off
