TIME,INSIDE_TEMPERATURE,OUTSIDE_TEMPERATURE,LIGHTS_STATE

11/02/2017 12:55:25,26.625,21.5,off
11/02/2017 12:55:37,26.625,21.562,off
11/02/2017 12:55:49,26.625,21.562,off
11/02/2017 12:56:01,26.625,21.5,off
