TIME,INSIDE_TEMPERATURE,OUTSIDE_TEMPERATURE,LIGHTS_STATE

04/24/2017 12:39:25,20.937,16.312,off
04/24/2017 12:39:37,20.937,16.312,off
04/24/2017 12:39:49,20.937,16.375,off
04/24/2017 12:40:00,20.937,16.375,off
