TIME,INSIDE_TEMPERATURE,OUTSIDE_TEMPERATURE,LIGHTS_STATE

11/30/2016 12:44:25,19.437,16.187,off
11/30/2016 12:44:37,19.437,16.187,off
11/30/2016 12:44:48,19.437,16.187,off
11/30/2016 12:45:00,19.437,16.187,off
