TIME,INSIDE_TEMPERATURE,OUTSIDE_TEMPERATURE,LIGHTS_STATE

02/25/2018 12:22:25,22.125,26.875,off
02/25/2018 12:22:37,22.125,26.937,off
02/25/2018 12:22:48,22.187,26.875,off
02/25/2018 12:23:00,22.187,26.812,off
