TIME,INSIDE_TEMPERATURE,OUTSIDE_TEMPERATURE,LIGHTS_STATE

09/09/2017 12:27:26,30.062,27.937,off
09/09/2017 12:27:37,30.062,27.937,off
09/09/2017 12:27:49,30.062,27.937,off
09/09/2017 12:28:01,30.125,27.937,off
