TIME,INSIDE_TEMPERATURE,OUTSIDE_TEMPERATURE,LIGHTS_STATE

02/28/2018 12:04:25,19.5,18.937,off
02/28/2018 12:04:37,19.5,19.125,off
02/28/2018 12:04:49,19.5,19.312,off
02/28/2018 12:05:00,19.562,19.562,off
