TIME,INSIDE_TEMPERATURE,OUTSIDE_TEMPERATURE,LIGHTS_STATE

07/05/2017 12:20:25,29.625,27.375,off
07/05/2017 12:20:37,29.562,27.375,off
07/05/2017 12:20:48,29.437,27.312,off
07/05/2017 12:21:00,29.5,27.312,off
