TIME,INSIDE_TEMPERATURE,OUTSIDE_TEMPERATURE,LIGHTS_STATE

01/30/2018 12:25:25,26.125,22.937,off
01/30/2018 12:25:37,26.125,23.0,off
01/30/2018 12:25:48,26.125,23.0,off
01/30/2018 12:26:00,26.125,22.937,off
