TIME,INSIDE_TEMPERATURE,OUTSIDE_TEMPERATURE,LIGHTS_STATE

12/12/2016 12:51:25,19.25,14.187,off
12/12/2016 12:51:37,19.25,14.125,off
12/12/2016 12:51:49,19.312,14.187,off
12/12/2016 12:52:00,19.25,14.187,off
