TIME,INSIDE_TEMPERATURE,OUTSIDE_TEMPERATURE,LIGHTS_STATE

11/29/2016 12:22:25,21.875,18.625,off
11/29/2016 12:22:38,21.875,18.687,off
11/29/2016 12:22:49,21.875,18.75,off
11/29/2016 12:23:01,21.875,18.75,off
