TIME,INSIDE_TEMPERATURE,OUTSIDE_TEMPERATURE,LIGHTS_STATE

02/11/2017 12:25:26,23.75,19.687,off
02/11/2017 12:25:37,23.75,19.687,off
02/11/2017 12:25:50,23.75,19.75,off
02/11/2017 12:26:01,23.75,19.75,off
