TIME,INSIDE_TEMPERATURE,OUTSIDE_TEMPERATURE,LIGHTS_STATE

04/02/2017 12:53:25,25.75,23.125,off
04/02/2017 12:53:37,25.812,23.062,off
04/02/2017 12:53:49,25.812,23.125,off
04/02/2017 12:54:00,25.812,23.125,off
