TIME,INSIDE_TEMPERATURE,OUTSIDE_TEMPERATURE,LIGHTS_STATE

01/12/2018 12:18:26,20.437,20.125,off
01/12/2018 12:18:37,20.437,20.375,off
01/12/2018 12:18:49,20.437,20.625,off
01/12/2018 12:19:01,20.437,20.75,off
