TIME,INSIDE_TEMPERATURE,OUTSIDE_TEMPERATURE,LIGHTS_STATE

09/25/2017 12:37:26,30.812,28.25,off
09/25/2017 12:37:37,30.812,28.25,off
09/25/2017 12:37:49,30.812,28.25,off
09/25/2017 12:38:01,30.812,28.187,off
