TIME,INSIDE_TEMPERATURE,OUTSIDE_TEMPERATURE,LIGHTS_STATE

04/29/2017 12:46:26,25.687,23.875,off
04/29/2017 12:46:37,25.687,23.875,off
04/29/2017 12:46:49,25.687,23.812,off
04/29/2017 12:47:01,25.687,23.812,off
