TIME,INSIDE_TEMPERATURE,OUTSIDE_TEMPERATURE,LIGHTS_STATE

02/06/2017 12:44:25,18.0,13.812,off
02/06/2017 12:44:36,18.0,13.812,off
02/06/2017 12:44:48,18.0,13.812,off
02/06/2017 12:45:00,18.0,13.812,off
