TIME,INSIDE_TEMPERATURE,OUTSIDE_TEMPERATURE,LIGHTS_STATE

01/18/2018 12:15:25,25.0,22.25,off
01/18/2018 12:15:37,25.0,22.375,off
01/18/2018 12:15:49,25.062,22.375,off
01/18/2018 12:16:00,25.062,22.437,off
