TIME,INSIDE_TEMPERATURE,OUTSIDE_TEMPERATURE,LIGHTS_STATE

06/22/2017 12:50:26,40.75,35.687,off
06/22/2017 12:50:38,40.812,35.687,off
06/22/2017 12:50:49,40.812,35.687,off
06/22/2017 12:51:01,40.812,35.625,off
