TIME,INSIDE_TEMPERATURE,OUTSIDE_TEMPERATURE,LIGHTS_STATE

07/07/2016 12:18:25,22.5,21.812,off
07/07/2016 12:18:36,22.5,21.812,off
07/07/2016 12:18:48,22.5,21.812,off
07/07/2016 12:19:00,22.5,21.875,off
