TIME,INSIDE_TEMPERATURE,OUTSIDE_TEMPERATURE,LIGHTS_STATE

12/15/2016 12:48:25,20.812,17.062,off
12/15/2016 12:48:36,20.812,17.062,off
12/15/2016 12:48:48,20.812,17.125,off
12/15/2016 12:49:00,20.812,17.062,off
