TIME,INSIDE_TEMPERATURE,OUTSIDE_TEMPERATURE,LIGHTS_STATE

03/10/2017 12:51:25,28.437,25.25,off
03/10/2017 12:51:37,28.437,25.187,off
03/10/2017 12:51:49,28.437,25.125,off
03/10/2017 12:52:00,28.437,25.187,off
