TIME,INSIDE_TEMPERATURE,OUTSIDE_TEMPERATURE,LIGHTS_STATE

03/01/2018 12:40:25,19.125,17.375,off
03/01/2018 12:40:37,19.125,17.062,off
03/01/2018 12:40:49,19.125,16.687,off
03/01/2018 12:41:01,19.125,16.312,off
