TIME,INSIDE_TEMPERATURE,OUTSIDE_TEMPERATURE,LIGHTS_STATE

03/01/2018 12:34:25,18.875,14.687,off
03/01/2018 12:34:37,18.937,14.812,off
03/01/2018 12:34:49,18.937,14.812,off
03/01/2018 12:35:00,18.937,14.812,off
