TIME,INSIDE_TEMPERATURE,OUTSIDE_TEMPERATURE,LIGHTS_STATE

03/26/2018 12:05:25,17.625,14.125,off
03/26/2018 12:05:37,17.687,14.125,off
03/26/2018 12:05:48,17.687,14.125,off
03/26/2018 12:06:00,17.687,14.125,off
