TIME,INSIDE_TEMPERATURE,OUTSIDE_TEMPERATURE,LIGHTS_STATE

08/11/2017 12:53:25,29.562,27.625,off
08/11/2017 12:53:37,29.625,27.625,off
08/11/2017 12:53:48,29.625,27.625,off
08/11/2017 12:54:00,29.625,27.625,off
