TIME,INSIDE_TEMPERATURE,OUTSIDE_TEMPERATURE,LIGHTS_STATE

02/24/2018 12:15:26,21.812,21.25,off
02/24/2018 12:15:37,21.875,21.25,off
02/24/2018 12:15:49,21.875,21.312,off
02/24/2018 12:16:01,21.875,21.312,off
