TIME,INSIDE_TEMPERATURE,OUTSIDE_TEMPERATURE,LIGHTS_STATE

02/27/2017 12:08:25,25.375,19.687,off
02/27/2017 12:08:37,25.375,19.562,off
02/27/2017 12:08:48,25.375,19.5,off
02/27/2017 12:09:00,25.375,19.5,off
