TIME,INSIDE_TEMPERATURE,OUTSIDE_TEMPERATURE,LIGHTS_STATE

10/13/2017 12:52:25,29.437,32.437,off
10/13/2017 12:52:37,29.437,32.625,off
10/13/2017 12:52:49,29.437,32.687,off
10/13/2017 12:53:00,29.437,32.625,off
