TIME,INSIDE_TEMPERATURE,OUTSIDE_TEMPERATURE,LIGHTS_STATE

05/08/2017 12:14:25,25.375,23.562,off
05/08/2017 12:14:37,25.375,23.5,off
05/08/2017 12:14:49,25.375,23.437,off
05/08/2017 12:15:00,25.375,23.375,off
