TIME,INSIDE_TEMPERATURE,OUTSIDE_TEMPERATURE,LIGHTS_STATE

02/16/2017 12:12:25,26.187,20.437,off
02/16/2017 12:12:37,26.125,20.312,off
02/16/2017 12:12:48,26.062,20.187,off
02/16/2017 12:13:00,26.0,20.187,off
