TIME,INSIDE_TEMPERATURE,OUTSIDE_TEMPERATURE,LIGHTS_STATE

10/15/2017 12:48:25,30.562,28.5,off
10/15/2017 12:48:37,30.562,28.5,off
10/15/2017 12:48:49,30.562,28.5,off
10/15/2017 12:49:00,30.437,28.437,off
