TIME,INSIDE_TEMPERATURE,OUTSIDE_TEMPERATURE,LIGHTS_STATE

05/21/2017 12:58:25,32.875,30.375,off
05/21/2017 12:58:37,32.937,30.375,off
05/21/2017 12:58:49,32.875,30.312,off
05/21/2017 12:59:00,32.875,30.312,off
