TIME,INSIDE_TEMPERATURE,OUTSIDE_TEMPERATURE,LIGHTS_STATE

08/03/2016 12:04:26,28.5,28.937,off
08/03/2016 12:04:37,28.5,29.0,off
08/03/2016 12:04:49,28.5,29.062,off
08/03/2016 12:05:01,28.562,29.062,off
