TIME,INSIDE_TEMPERATURE,OUTSIDE_TEMPERATURE,LIGHTS_STATE

04/09/2017 12:26:25,19.5,16.437,off
04/09/2017 12:26:36,19.5,16.437,off
04/09/2017 12:26:48,19.5,16.375,off
04/09/2017 12:27:00,19.5,16.375,off
