TIME,INSIDE_TEMPERATURE,OUTSIDE_TEMPERATURE,LIGHTS_STATE

05/15/2017 12:52:25,22.5,19.625,off
05/15/2017 12:52:37,22.562,19.625,off
05/15/2017 12:52:49,22.562,19.625,off
05/15/2017 12:53:00,22.562,19.625,off
