TIME,INSIDE_TEMPERATURE,OUTSIDE_TEMPERATURE,LIGHTS_STATE

04/29/2017 12:09:25,25.0,23.25,off
04/29/2017 12:09:37,25.0,23.25,off
04/29/2017 12:09:49,25.0,23.25,off
04/29/2017 12:10:00,25.062,23.25,off
