TIME,INSIDE_TEMPERATURE,OUTSIDE_TEMPERATURE,LIGHTS_STATE

03/28/2017 12:54:26,23.5,20.312,off
03/28/2017 12:54:37,23.5,20.312,off
03/28/2017 12:54:49,23.562,20.375,off
03/28/2017 12:55:01,23.562,20.437,off
