TIME,INSIDE_TEMPERATURE,OUTSIDE_TEMPERATURE,LIGHTS_STATE

05/15/2017 12:33:25,22.125,19.312,off
05/15/2017 12:33:37,22.125,19.312,off
05/15/2017 12:33:48,22.187,19.312,off
05/15/2017 12:34:00,22.125,19.312,off
