TIME,INSIDE_TEMPERATURE,OUTSIDE_TEMPERATURE,LIGHTS_STATE

04/22/2017 12:09:25,25.375,22.687,off
04/22/2017 12:09:37,25.312,22.75,off
04/22/2017 12:09:48,25.312,22.812,off
04/22/2017 12:10:00,25.375,22.75,off
