TIME,INSIDE_TEMPERATURE,OUTSIDE_TEMPERATURE,LIGHTS_STATE

03/06/2018 12:32:25,22.5,33.937,off
03/06/2018 12:32:37,22.5,34.0,off
03/06/2018 12:32:49,22.5,33.937,off
03/06/2018 12:33:01,22.5,33.687,off
