TIME,INSIDE_TEMPERATURE,OUTSIDE_TEMPERATURE,LIGHTS_STATE

01/22/2018 12:16:26,21.687,20.187,off
01/22/2018 12:16:37,21.687,20.25,off
01/22/2018 12:16:49,21.687,20.125,off
01/22/2018 12:17:01,21.687,20.187,off
