TIME,INSIDE_TEMPERATURE,OUTSIDE_TEMPERATURE,LIGHTS_STATE

05/16/2017 12:43:26,21.312,16.375,off
05/16/2017 12:43:38,21.312,16.312,off
05/16/2017 12:43:50,21.25,16.375,off
05/16/2017 12:44:01,21.312,16.375,off
