TIME,INSIDE_TEMPERATURE,OUTSIDE_TEMPERATURE,LIGHTS_STATE

07/09/2016 12:21:25,26.437,26.0,off
07/09/2016 12:21:37,26.437,26.0,off
07/09/2016 12:21:48,26.437,26.0,off
07/09/2016 12:22:00,26.437,25.937,off
