TIME,INSIDE_TEMPERATURE,OUTSIDE_TEMPERATURE,LIGHTS_STATE

12/19/2016 12:50:25,17.875,13.937,off
12/19/2016 12:50:37,17.875,13.812,off
12/19/2016 12:50:49,17.875,13.687,off
12/19/2016 12:51:00,17.812,13.5,off
