TIME,INSIDE_TEMPERATURE,OUTSIDE_TEMPERATURE,LIGHTS_STATE

12/06/2016 12:18:26,19.812,17.187,off
12/06/2016 12:18:37,19.812,17.125,off
12/06/2016 12:18:49,19.812,17.125,off
12/06/2016 12:19:01,19.812,17.062,off
