TIME,INSIDE_TEMPERATURE,OUTSIDE_TEMPERATURE,LIGHTS_STATE

11/01/2017 12:32:26,30.5,24.875,off
11/01/2017 12:32:37,30.5,24.937,off
11/01/2017 12:32:49,30.5,25.0,off
11/01/2017 12:33:01,30.5,24.937,off
