TIME,INSIDE_TEMPERATURE,OUTSIDE_TEMPERATURE,LIGHTS_STATE

11/29/2016 12:17:25,21.875,19.187,off
11/29/2016 12:17:37,21.937,19.187,off
11/29/2016 12:17:49,21.937,19.187,off
11/29/2016 12:18:00,21.937,19.062,off
