TIME,INSIDE_TEMPERATURE,OUTSIDE_TEMPERATURE,LIGHTS_STATE

01/20/2018 12:09:25,22.5,20.187,off
01/20/2018 12:09:37,22.5,20.437,off
01/20/2018 12:09:50,22.562,20.687,off
01/20/2018 12:10:01,22.5,20.937,off
