TIME,INSIDE_TEMPERATURE,OUTSIDE_TEMPERATURE,LIGHTS_STATE

01/10/2018 12:04:26,16.75,12.312,off
01/10/2018 12:04:37,16.812,12.312,off
01/10/2018 12:04:49,16.812,12.312,off
01/10/2018 12:05:01,16.812,12.25,off
