TIME,INSIDE_TEMPERATURE,OUTSIDE_TEMPERATURE,LIGHTS_STATE

07/07/2016 12:41:25,23.125,22.75,off
07/07/2016 12:41:36,23.062,22.75,off
07/07/2016 12:41:48,23.125,22.75,off
07/07/2016 12:42:00,23.125,22.75,off
