TIME,INSIDE_TEMPERATURE,OUTSIDE_TEMPERATURE,LIGHTS_STATE

02/05/2017 12:01:25,21.125,18.562,off
02/05/2017 12:01:37,21.187,18.625,off
02/05/2017 12:01:49,21.187,18.75,off
02/05/2017 12:02:01,21.187,18.812,off
