TIME,INSIDE_TEMPERATURE,OUTSIDE_TEMPERATURE,LIGHTS_STATE

04/15/2017 12:34:25,21.687,18.687,off
04/15/2017 12:34:37,21.75,18.687,off
04/15/2017 12:34:48,21.75,18.687,off
04/15/2017 12:35:00,21.75,18.687,off
