TIME,INSIDE_TEMPERATURE,OUTSIDE_TEMPERATURE,LIGHTS_STATE

01/17/2017 12:42:27,15.125,12.687,off
01/17/2017 12:42:39,15.125,12.562,off
01/17/2017 12:42:50,15.125,12.5,off
01/17/2017 12:43:02,15.187,12.5,off
