TIME,INSIDE_TEMPERATURE,OUTSIDE_TEMPERATURE,LIGHTS_STATE

07/28/2017 12:20:25,33.562,30.5,off
07/28/2017 12:20:37,33.625,30.5,off
07/28/2017 12:20:48,33.625,30.5,off
07/28/2017 12:21:00,33.562,30.5,off
