TIME,INSIDE_TEMPERATURE,OUTSIDE_TEMPERATURE,LIGHTS_STATE

07/08/2017 12:14:25,38.75,34.0,off
07/08/2017 12:14:37,38.75,34.0,off
07/08/2017 12:14:49,38.812,34.0,off
07/08/2017 12:15:01,38.75,33.937,off
