TIME,INSIDE_TEMPERATURE,OUTSIDE_TEMPERATURE,LIGHTS_STATE

03/26/2017 12:19:25,23.937,20.937,off
03/26/2017 12:19:37,23.937,20.937,off
03/26/2017 12:19:48,23.937,21.062,off
03/26/2017 12:20:00,23.937,21.125,off
