TIME,INSIDE_TEMPERATURE,OUTSIDE_TEMPERATURE,LIGHTS_STATE

03/28/2018 12:11:25,24.312,18.75,off
03/28/2018 12:11:37,24.312,18.75,off
03/28/2018 12:11:49,24.375,18.75,off
03/28/2018 12:12:01,24.312,18.812,off
