TIME,INSIDE_TEMPERATURE,OUTSIDE_TEMPERATURE,LIGHTS_STATE

09/06/2017 12:39:26,33.875,31.562,off
09/06/2017 12:39:38,33.875,31.562,off
09/06/2017 12:39:49,33.875,31.562,off
09/06/2017 12:40:02,33.875,31.625,off
