TIME,INSIDE_TEMPERATURE,OUTSIDE_TEMPERATURE,LIGHTS_STATE

06/07/2017 12:40:25,22.75,22.25,off
06/07/2017 12:40:37,22.75,22.25,off
06/07/2017 12:40:48,22.75,22.25,off
06/07/2017 12:41:00,22.812,22.25,off
