TIME,INSIDE_TEMPERATURE,OUTSIDE_TEMPERATURE,LIGHTS_STATE

07/20/2017 12:15:25,29.125,26.062,off
07/20/2017 12:15:37,29.125,26.062,off
07/20/2017 12:15:49,29.125,26.125,off
07/20/2017 12:16:01,29.125,26.125,off
