TIME,INSIDE_TEMPERATURE,OUTSIDE_TEMPERATURE,LIGHTS_STATE

06/07/2017 12:35:25,22.75,22.187,off
06/07/2017 12:35:37,22.75,22.25,off
06/07/2017 12:35:49,22.75,22.187,off
06/07/2017 12:36:00,22.75,22.187,off
