TIME,INSIDE_TEMPERATURE,OUTSIDE_TEMPERATURE,LIGHTS_STATE

11/05/2016 12:47:24,30.125,33.5,off
11/05/2016 12:47:36,30.125,33.5,off
11/05/2016 12:47:48,30.062,33.437,off
11/05/2016 12:48:00,30.062,33.437,off
