TIME,INSIDE_TEMPERATURE,OUTSIDE_TEMPERATURE,LIGHTS_STATE

01/24/2018 12:09:25,19.5,15.875,off
01/24/2018 12:09:37,19.5,15.875,off
01/24/2018 12:09:49,19.5,15.875,off
01/24/2018 12:10:00,19.5,15.812,off
