TIME,INSIDE_TEMPERATURE,OUTSIDE_TEMPERATURE,LIGHTS_STATE

06/28/2016 12:06:25,31.875,31.437,off
06/28/2016 12:06:37,31.875,31.437,off
06/28/2016 12:06:49,31.875,31.437,off
06/28/2016 12:07:00,31.875,31.437,off
