TIME,INSIDE_TEMPERATURE,OUTSIDE_TEMPERATURE,LIGHTS_STATE

05/18/2017 12:22:25,24.625,23.312,off
05/18/2017 12:22:37,24.625,23.312,off
05/18/2017 12:22:48,24.625,23.312,off
05/18/2017 12:23:00,24.625,23.312,off
