TIME,INSIDE_TEMPERATURE,OUTSIDE_TEMPERATURE,LIGHTS_STATE

02/24/2017 12:21:26,22.437,24.437,off
02/24/2017 12:21:37,22.437,24.562,off
02/24/2017 12:21:49,22.437,24.562,off
02/24/2017 12:22:01,22.437,24.687,off
