TIME,INSIDE_TEMPERATURE,OUTSIDE_TEMPERATURE,LIGHTS_STATE

12/25/2016 12:22:25,18.875,14.812,off
12/25/2016 12:22:37,18.875,14.875,off
12/25/2016 12:22:48,18.875,15.062,off
12/25/2016 12:23:01,18.875,15.125,off
