TIME,INSIDE_TEMPERATURE,OUTSIDE_TEMPERATURE,LIGHTS_STATE

12/11/2016 12:56:24,17.125,12.812,off
12/11/2016 12:56:36,17.062,12.812,off
12/11/2016 12:56:48,17.125,12.875,off
12/11/2016 12:56:59,17.062,12.812,off
