TIME,INSIDE_TEMPERATURE,OUTSIDE_TEMPERATURE,LIGHTS_STATE

04/25/2017 12:33:25,23.5,20.062,off
04/25/2017 12:33:37,23.5,20.062,off
04/25/2017 12:33:48,23.5,20.0,off
04/25/2017 12:34:00,23.5,20.062,off
