TIME,INSIDE_TEMPERATURE,OUTSIDE_TEMPERATURE,LIGHTS_STATE

08/10/2017 12:16:25,26.687,24.0,off
08/10/2017 12:16:37,26.687,24.0,off
08/10/2017 12:16:49,26.75,23.937,off
08/10/2017 12:17:00,26.75,23.875,off
