TIME,INSIDE_TEMPERATURE,OUTSIDE_TEMPERATURE,LIGHTS_STATE

09/13/2016 12:16:25,24.562,22.5,off
09/13/2016 12:16:37,24.562,22.75,off
09/13/2016 12:16:49,24.562,22.687,off
09/13/2016 12:17:00,24.562,22.562,off
