TIME,INSIDE_TEMPERATURE,OUTSIDE_TEMPERATURE,LIGHTS_STATE

04/11/2017 12:35:25,25.687,21.562,off
04/11/2017 12:35:37,25.75,21.562,off
04/11/2017 12:35:48,25.75,21.625,off
04/11/2017 12:36:00,25.75,21.75,off
