TIME,INSIDE_TEMPERATURE,OUTSIDE_TEMPERATURE,LIGHTS_STATE

12/19/2016 12:14:25,18.562,14.75,off
12/19/2016 12:14:36,18.625,14.75,off
12/19/2016 12:14:48,18.625,14.687,off
12/19/2016 12:15:00,18.625,14.812,off
