TIME,INSIDE_TEMPERATURE,OUTSIDE_TEMPERATURE,LIGHTS_STATE

03/16/2018 12:38:26,17.312,12.25,off
03/16/2018 12:38:37,17.312,12.312,off
03/16/2018 12:38:49,17.375,12.187,off
03/16/2018 12:39:01,17.375,12.187,off
