TIME,INSIDE_TEMPERATURE,OUTSIDE_TEMPERATURE,LIGHTS_STATE

08/15/2017 12:11:25,26.312,23.25,off
08/15/2017 12:11:37,26.312,23.25,off
08/15/2017 12:11:49,26.375,23.187,off
08/15/2017 12:12:01,26.375,23.25,off
