TIME,INSIDE_TEMPERATURE,OUTSIDE_TEMPERATURE,LIGHTS_STATE

03/20/2018 12:15:25,17.0,11.125,off
03/20/2018 12:15:37,17.0,11.062,off
03/20/2018 12:15:49,17.0,11.062,off
03/20/2018 12:16:00,17.0,11.062,off
