TIME,INSIDE_TEMPERATURE,OUTSIDE_TEMPERATURE,LIGHTS_STATE

01/04/2018 12:54:26,22.875,24.562,off
01/04/2018 12:54:37,22.875,24.562,off
01/04/2018 12:54:49,22.875,24.437,off
01/04/2018 12:55:01,22.937,24.375,off
