TIME,INSIDE_TEMPERATURE,OUTSIDE_TEMPERATURE,LIGHTS_STATE

09/06/2016 12:47:25,30.187,34.5,off
09/06/2016 12:47:37,30.25,34.75,off
09/06/2016 12:47:48,30.25,34.937,off
09/06/2016 12:48:00,30.25,35.062,off
