TIME,INSIDE_TEMPERATURE,OUTSIDE_TEMPERATURE,LIGHTS_STATE

03/15/2018 12:03:25,18.437,13.0,off
03/15/2018 12:03:37,18.437,13.062,off
03/15/2018 12:03:48,18.437,13.125,off
03/15/2018 12:04:00,18.437,13.187,off
