TIME,INSIDE_TEMPERATURE,OUTSIDE_TEMPERATURE,LIGHTS_STATE

07/24/2017 12:12:26,30.75,28.062,off
07/24/2017 12:12:37,30.75,28.062,off
07/24/2017 12:12:49,30.812,28.062,off
07/24/2017 12:13:01,30.812,28.062,off
