TIME,INSIDE_TEMPERATURE,OUTSIDE_TEMPERATURE,LIGHTS_STATE

12/31/2017 12:29:25,21.625,23.625,off
12/31/2017 12:29:37,21.687,23.562,off
12/31/2017 12:29:49,21.687,23.562,off
12/31/2017 12:30:01,21.687,23.5,off
