TIME,INSIDE_TEMPERATURE,OUTSIDE_TEMPERATURE,LIGHTS_STATE

10/18/2017 12:44:26,31.687,33.75,off
10/18/2017 12:44:37,31.687,33.812,off
10/18/2017 12:44:49,31.687,33.812,off
10/18/2017 12:45:01,31.687,33.875,off
