TIME,INSIDE_TEMPERATURE,OUTSIDE_TEMPERATURE,LIGHTS_STATE

11/05/2016 12:37:25,31.125,31.812,off
11/05/2016 12:37:37,31.125,31.875,off
11/05/2016 12:37:48,31.125,31.625,off
11/05/2016 12:38:00,31.062,31.562,off
