TIME,INSIDE_TEMPERATURE,OUTSIDE_TEMPERATURE,LIGHTS_STATE

07/01/2017 12:00:26,24.937,21.562,off
07/01/2017 12:00:37,24.937,21.562,off
07/01/2017 12:00:49,24.937,21.562,off
07/01/2017 12:01:01,24.937,21.562,off
