TIME,INSIDE_TEMPERATURE,OUTSIDE_TEMPERATURE,LIGHTS_STATE

09/14/2016 12:42:25,26.812,26.062,off
09/14/2016 12:42:37,26.812,26.0,off
09/14/2016 12:42:49,26.812,26.0,off
09/14/2016 12:43:01,26.812,26.062,off
