TIME,INSIDE_TEMPERATURE,OUTSIDE_TEMPERATURE,LIGHTS_STATE

09/18/2016 12:54:26,34.312,35.687,off
09/18/2016 12:54:37,34.312,35.875,off
09/18/2016 12:54:49,34.312,35.875,off
09/18/2016 12:55:01,34.375,35.875,off
