TIME,INSIDE_TEMPERATURE,OUTSIDE_TEMPERATURE,LIGHTS_STATE

09/06/2016 12:35:25,29.562,32.812,off
09/06/2016 12:35:37,29.562,32.812,off
09/06/2016 12:35:48,29.562,32.875,off
09/06/2016 12:36:00,29.562,32.875,off
