TIME,INSIDE_TEMPERATURE,OUTSIDE_TEMPERATURE,LIGHTS_STATE

10/31/2016 12:37:25,24.75,20.375,off
10/31/2016 12:37:37,24.687,20.312,off
10/31/2016 12:37:48,24.687,20.25,off
10/31/2016 12:38:00,24.687,20.187,off
