TIME,INSIDE_TEMPERATURE,OUTSIDE_TEMPERATURE,LIGHTS_STATE

12/13/2016 12:36:25,18.25,14.812,off
12/13/2016 12:36:37,18.25,14.812,off
12/13/2016 12:36:49,18.25,14.812,off
12/13/2016 12:37:00,18.312,14.75,off
