TIME,INSIDE_TEMPERATURE,OUTSIDE_TEMPERATURE,LIGHTS_STATE

03/17/2018 12:56:25,19.375,15.625,off
03/17/2018 12:56:37,19.375,15.562,off
03/17/2018 12:56:49,19.375,15.5,off
03/17/2018 12:57:01,19.437,15.437,off
