TIME,INSIDE_TEMPERATURE,OUTSIDE_TEMPERATURE,LIGHTS_STATE

02/25/2018 12:16:25,21.812,26.312,off
02/25/2018 12:16:37,21.812,26.312,off
02/25/2018 12:16:48,21.812,26.312,off
02/25/2018 12:17:00,21.812,26.375,off
