TIME,INSIDE_TEMPERATURE,OUTSIDE_TEMPERATURE,LIGHTS_STATE

12/28/2017 12:38:25,24.75,27.062,off
12/28/2017 12:38:37,24.75,27.0,off
12/28/2017 12:38:49,24.75,26.875,off
12/28/2017 12:39:00,24.75,26.625,off
