TIME,INSIDE_TEMPERATURE,OUTSIDE_TEMPERATURE,LIGHTS_STATE

04/13/2017 12:13:25,21.625,17.125,off
04/13/2017 12:13:37,21.687,17.125,off
04/13/2017 12:13:49,21.625,17.125,off
04/13/2017 12:14:00,21.625,17.125,off
