TIME,INSIDE_TEMPERATURE,OUTSIDE_TEMPERATURE,LIGHTS_STATE

12/12/2016 12:21:25,20.0,15.562,off
12/12/2016 12:21:36,20.0,15.625,off
12/12/2016 12:21:48,20.062,15.625,off
12/12/2016 12:22:01,20.062,15.625,off
