TIME,INSIDE_TEMPERATURE,OUTSIDE_TEMPERATURE,LIGHTS_STATE

08/02/2016 12:36:26,28.312,28.25,off
08/02/2016 12:36:38,28.375,28.25,off
08/02/2016 12:36:49,28.375,28.312,off
08/02/2016 12:37:01,28.375,28.312,off
