TIME,INSIDE_TEMPERATURE,OUTSIDE_TEMPERATURE,LIGHTS_STATE

02/13/2017 12:13:25,24.75,21.0,off
02/13/2017 12:13:37,24.687,21.0,off
02/13/2017 12:13:49,24.687,21.0,off
02/13/2017 12:14:00,24.687,21.062,off
