TIME,INSIDE_TEMPERATURE,OUTSIDE_TEMPERATURE,LIGHTS_STATE

02/09/2017 12:53:26,19.437,14.5,off
02/09/2017 12:53:37,19.375,14.5,off
02/09/2017 12:53:49,19.375,14.5,off
02/09/2017 12:54:01,19.437,14.5,off
