TIME,INSIDE_TEMPERATURE,OUTSIDE_TEMPERATURE,LIGHTS_STATE

07/29/2016 12:34:26,32.937,33.375,off
07/29/2016 12:34:37,32.937,33.312,off
07/29/2016 12:34:49,32.937,33.312,off
07/29/2016 12:35:01,32.937,33.25,off
