TIME,INSIDE_TEMPERATURE,OUTSIDE_TEMPERATURE,LIGHTS_STATE

06/27/2017 12:25:25,26.375,22.375,off
06/27/2017 12:25:38,26.437,22.375,off
06/27/2017 12:25:49,26.437,22.437,off
06/27/2017 12:26:01,26.437,22.5,off
