TIME,INSIDE_TEMPERATURE,OUTSIDE_TEMPERATURE,LIGHTS_STATE

07/04/2017 12:12:25,29.5,26.312,off
07/04/2017 12:12:37,29.5,26.312,off
07/04/2017 12:12:48,29.5,26.312,off
07/04/2017 12:13:00,29.5,26.312,off
