TIME,INSIDE_TEMPERATURE,OUTSIDE_TEMPERATURE,LIGHTS_STATE

02/25/2017 12:03:26,24.812,18.25,off
02/25/2017 12:03:37,24.812,18.25,off
02/25/2017 12:03:49,24.812,18.312,off
02/25/2017 12:04:01,24.812,18.312,off
