TIME,INSIDE_TEMPERATURE,OUTSIDE_TEMPERATURE,LIGHTS_STATE

07/19/2017 12:45:26,30.937,28.687,off
07/19/2017 12:45:37,30.937,28.625,off
07/19/2017 12:45:49,30.937,28.625,off
07/19/2017 12:46:01,31.0,28.625,off
