TIME,INSIDE_TEMPERATURE,OUTSIDE_TEMPERATURE,LIGHTS_STATE

01/14/2017 12:09:25,21.812,17.5,off
01/14/2017 12:09:37,21.812,17.312,off
01/14/2017 12:09:48,21.75,17.187,off
01/14/2017 12:10:00,21.75,17.187,off
