TIME,INSIDE_TEMPERATURE,OUTSIDE_TEMPERATURE,LIGHTS_STATE

10/27/2016 12:18:25,22.25,19.062,off
10/27/2016 12:18:37,22.25,19.125,off
10/27/2016 12:18:48,22.25,19.125,off
10/27/2016 12:19:00,22.25,19.125,off
