TIME,INSIDE_TEMPERATURE,OUTSIDE_TEMPERATURE,LIGHTS_STATE

01/22/2018 12:23:25,22.0,17.937,off
01/22/2018 12:23:37,22.0,17.937,off
01/22/2018 12:23:49,22.0,17.875,off
01/22/2018 12:24:01,22.0,18.0,off
