TIME,INSIDE_TEMPERATURE,OUTSIDE_TEMPERATURE,LIGHTS_STATE

01/16/2017 12:37:24,19.125,14.312,off
01/16/2017 12:37:36,19.125,14.437,off
01/16/2017 12:37:48,19.062,14.437,off
01/16/2017 12:37:59,19.125,14.562,off
