TIME,INSIDE_TEMPERATURE,OUTSIDE_TEMPERATURE,LIGHTS_STATE

04/12/2017 12:47:25,19.687,14.875,off
04/12/2017 12:47:36,19.687,14.937,off
04/12/2017 12:47:48,19.687,14.937,off
04/12/2017 12:48:00,19.687,14.875,off
