TIME,INSIDE_TEMPERATURE,OUTSIDE_TEMPERATURE,LIGHTS_STATE

03/27/2017 12:32:25,21.812,18.437,off
03/27/2017 12:32:37,21.812,18.375,off
03/27/2017 12:32:49,21.812,18.375,off
03/27/2017 12:33:01,21.812,18.437,off
