TIME,INSIDE_TEMPERATURE,OUTSIDE_TEMPERATURE,LIGHTS_STATE

07/23/2017 12:43:25,36.312,33.375,off
07/23/2017 12:43:37,36.312,33.375,off
07/23/2017 12:43:49,36.375,33.312,off
07/23/2017 12:44:00,36.375,33.312,off
