TIME,INSIDE_TEMPERATURE,OUTSIDE_TEMPERATURE,LIGHTS_STATE

02/17/2017 12:06:25,19.25,16.062,off
02/17/2017 12:06:37,19.25,16.0,off
02/17/2017 12:06:48,19.25,16.062,off
02/17/2017 12:07:00,19.25,16.0,off
