TIME,INSIDE_TEMPERATURE,OUTSIDE_TEMPERATURE,LIGHTS_STATE

03/30/2017 12:07:25,22.375,18.437,off
03/30/2017 12:07:37,22.375,18.437,off
03/30/2017 12:07:49,22.375,18.437,off
03/30/2017 12:08:00,22.375,18.5,off
