TIME,INSIDE_TEMPERATURE,OUTSIDE_TEMPERATURE,LIGHTS_STATE

11/01/2017 12:44:25,30.375,31.5,off
11/01/2017 12:44:37,30.375,31.5,off
11/01/2017 12:44:49,30.375,31.5,off
11/01/2017 12:45:00,30.375,31.437,off
