TIME,INSIDE_TEMPERATURE,OUTSIDE_TEMPERATURE,LIGHTS_STATE

12/05/2016 12:16:24,16.625,13.187,off
12/05/2016 12:16:36,16.625,13.25,off
12/05/2016 12:16:48,16.625,13.25,off
12/05/2016 12:16:59,16.625,13.25,off
