TIME,INSIDE_TEMPERATURE,OUTSIDE_TEMPERATURE,LIGHTS_STATE

01/10/2017 12:17:25,16.562,12.75,off
01/10/2017 12:17:37,16.562,12.75,off
01/10/2017 12:17:48,16.562,12.75,off
01/10/2017 12:18:00,16.562,12.75,off
