TIME,INSIDE_TEMPERATURE,OUTSIDE_TEMPERATURE,LIGHTS_STATE

07/30/2016 12:00:26,29.375,30.0,off
07/30/2016 12:00:38,29.375,29.937,off
07/30/2016 12:00:49,29.437,30.0,off
07/30/2016 12:01:01,29.437,29.937,off
