TIME,INSIDE_TEMPERATURE,OUTSIDE_TEMPERATURE,LIGHTS_STATE

03/14/2018 12:05:25,18.562,13.125,off
03/14/2018 12:05:37,18.562,13.187,off
03/14/2018 12:05:48,18.562,13.125,off
03/14/2018 12:06:00,18.562,13.062,off
