TIME,INSIDE_TEMPERATURE,OUTSIDE_TEMPERATURE,LIGHTS_STATE

06/21/2016 12:08:25,31.312,31.375,off
06/21/2016 12:08:37,31.375,31.437,off
06/21/2016 12:08:48,31.312,31.375,off
06/21/2016 12:09:00,31.312,31.375,off
