TIME,INSIDE_TEMPERATURE,OUTSIDE_TEMPERATURE,LIGHTS_STATE

02/26/2017 12:45:26,22.125,23.875,off
02/26/2017 12:45:38,22.125,23.812,off
02/26/2017 12:45:49,22.125,23.812,off
02/26/2017 12:46:01,22.125,23.937,off
