TIME,INSIDE_TEMPERATURE,OUTSIDE_TEMPERATURE,LIGHTS_STATE

10/24/2016 12:25:25,22.437,19.25,off
10/24/2016 12:25:36,22.437,19.25,off
10/24/2016 12:25:48,22.437,19.312,off
10/24/2016 12:26:00,22.437,19.312,off
