TIME,INSIDE_TEMPERATURE,OUTSIDE_TEMPERATURE,LIGHTS_STATE

09/27/2017 12:24:25,32.812,31.062,off
09/27/2017 12:24:37,32.875,31.062,off
09/27/2017 12:24:49,32.875,31.062,off
09/27/2017 12:25:01,32.875,31.125,off
