TIME,INSIDE_TEMPERATURE,OUTSIDE_TEMPERATURE,LIGHTS_STATE

07/04/2016 12:15:25,27.75,27.562,off
07/04/2016 12:15:37,27.75,27.562,off
07/04/2016 12:15:49,27.812,27.625,off
07/04/2016 12:16:00,27.812,27.625,off
