TIME,INSIDE_TEMPERATURE,OUTSIDE_TEMPERATURE,LIGHTS_STATE

07/12/2017 12:10:25,31.5,28.625,off
07/12/2017 12:10:37,31.5,28.625,off
07/12/2017 12:10:49,31.5,28.625,off
07/12/2017 12:11:01,31.5,28.625,off
