TIME,INSIDE_TEMPERATURE,OUTSIDE_TEMPERATURE,LIGHTS_STATE

11/29/2016 12:44:25,21.312,18.125,off
11/29/2016 12:44:38,21.312,18.0,off
11/29/2016 12:44:50,21.312,18.0,off
11/29/2016 12:45:02,21.312,18.062,off
