TIME,INSIDE_TEMPERATURE,OUTSIDE_TEMPERATURE,LIGHTS_STATE

04/14/2017 12:02:26,18.937,16.375,off
04/14/2017 12:02:37,19.0,16.375,off
04/14/2017 12:02:49,18.937,16.437,off
04/14/2017 12:03:01,19.0,16.375,off
