TIME,INSIDE_TEMPERATURE,OUTSIDE_TEMPERATURE,LIGHTS_STATE

01/11/2018 12:46:25,23.0,18.687,off
01/11/2018 12:46:37,23.0,18.625,off
01/11/2018 12:46:48,23.0,18.625,off
01/11/2018 12:47:00,23.0,18.625,off
