TIME,INSIDE_TEMPERATURE,OUTSIDE_TEMPERATURE,LIGHTS_STATE

07/26/2016 12:34:26,34.562,33.312,off
07/26/2016 12:34:37,34.562,33.312,off
07/26/2016 12:34:49,34.5,33.312,off
07/26/2016 12:35:01,34.5,33.312,off
