TIME,INSIDE_TEMPERATURE,OUTSIDE_TEMPERATURE,LIGHTS_STATE

12/29/2017 12:12:25,22.562,23.937,off
12/29/2017 12:12:37,22.562,24.0,off
12/29/2017 12:12:49,22.625,24.125,off
12/29/2017 12:13:01,22.625,24.25,off
