TIME,INSIDE_TEMPERATURE,OUTSIDE_TEMPERATURE,LIGHTS_STATE

11/01/2016 12:22:25,29.062,28.0,off
11/01/2016 12:22:37,28.875,27.875,off
11/01/2016 12:22:48,28.687,27.375,off
11/01/2016 12:23:00,28.5,26.875,off
