TIME,INSIDE_TEMPERATURE,OUTSIDE_TEMPERATURE,LIGHTS_STATE

05/18/2017 12:32:25,24.875,23.875,off
05/18/2017 12:32:37,24.875,23.875,off
05/18/2017 12:32:49,24.875,23.875,off
05/18/2017 12:33:00,24.875,23.937,off
