TIME,INSIDE_TEMPERATURE,OUTSIDE_TEMPERATURE,LIGHTS_STATE

03/08/2017 12:04:26,25.062,22.25,off
03/08/2017 12:04:37,25.125,22.125,off
03/08/2017 12:04:49,25.125,22.062,off
03/08/2017 12:05:01,25.187,22.125,off
