TIME,INSIDE_TEMPERATURE,OUTSIDE_TEMPERATURE,LIGHTS_STATE

05/25/2017 12:41:25,22.312,20.187,off
05/25/2017 12:41:37,22.375,20.187,off
05/25/2017 12:41:49,22.25,20.187,off
05/25/2017 12:42:00,22.25,20.187,off
