TIME,INSIDE_TEMPERATURE,OUTSIDE_TEMPERATURE,LIGHTS_STATE

10/19/2017 12:10:25,25.187,19.875,off
10/19/2017 12:10:37,25.187,19.875,off
10/19/2017 12:10:49,25.187,19.875,off
10/19/2017 12:11:01,25.187,19.875,off
