TIME,INSIDE_TEMPERATURE,OUTSIDE_TEMPERATURE,LIGHTS_STATE

07/22/2016 12:15:25,28.875,28.687,off
07/22/2016 12:15:37,28.875,28.75,off
07/22/2016 12:15:49,28.875,28.75,off
07/22/2016 12:16:00,28.875,28.75,off
