TIME,INSIDE_TEMPERATURE,OUTSIDE_TEMPERATURE,LIGHTS_STATE

10/28/2016 12:23:24,23.812,20.562,off
10/28/2016 12:23:36,23.875,20.562,off
10/28/2016 12:23:48,23.875,20.625,off
10/28/2016 12:23:59,23.875,20.625,off
