TIME,INSIDE_TEMPERATURE,OUTSIDE_TEMPERATURE,LIGHTS_STATE

12/18/2016 12:34:25,16.437,13.437,off
12/18/2016 12:34:36,16.437,13.562,off
12/18/2016 12:34:48,16.437,13.5,off
12/18/2016 12:35:00,16.437,13.5,off
