TIME,INSIDE_TEMPERATURE,OUTSIDE_TEMPERATURE,LIGHTS_STATE

08/21/2017 12:57:26,29.375,26.812,off
08/21/2017 12:57:37,29.375,26.812,off
08/21/2017 12:57:49,29.375,26.875,off
08/21/2017 12:58:01,29.375,26.875,off
