TIME,INSIDE_TEMPERATURE,OUTSIDE_TEMPERATURE,LIGHTS_STATE

09/12/2016 12:35:25,24.875,22.5,off
09/12/2016 12:35:37,24.812,22.562,off
09/12/2016 12:35:48,24.812,22.625,off
09/12/2016 12:36:00,24.875,22.812,off
