TIME,INSIDE_TEMPERATURE,OUTSIDE_TEMPERATURE,LIGHTS_STATE

04/10/2017 12:07:26,22.312,19.437,off
04/10/2017 12:07:38,22.312,19.5,off
04/10/2017 12:07:49,22.312,19.437,off
04/10/2017 12:08:01,22.312,19.437,off
