TIME,INSIDE_TEMPERATURE,OUTSIDE_TEMPERATURE,LIGHTS_STATE

02/05/2017 12:35:25,21.687,18.125,off
02/05/2017 12:35:38,21.75,18.062,off
02/05/2017 12:35:50,21.687,18.125,off
02/05/2017 12:36:01,21.687,18.062,off
