TIME,INSIDE_TEMPERATURE,OUTSIDE_TEMPERATURE,LIGHTS_STATE

04/12/2017 12:40:25,19.687,14.75,off
04/12/2017 12:40:37,19.687,14.75,off
04/12/2017 12:40:48,19.687,14.75,off
04/12/2017 12:41:00,19.75,14.75,off
