TIME,INSIDE_TEMPERATURE,OUTSIDE_TEMPERATURE,LIGHTS_STATE

10/04/2017 12:58:25,30.062,30.187,off
10/04/2017 12:58:37,30.125,30.125,off
10/04/2017 12:58:49,30.125,30.125,off
10/04/2017 12:59:01,30.125,29.812,off
