TIME,INSIDE_TEMPERATURE,OUTSIDE_TEMPERATURE,LIGHTS_STATE

01/19/2018 12:57:25,24.625,20.25,off
01/19/2018 12:57:37,24.562,20.187,off
01/19/2018 12:57:49,24.562,20.0,off
01/19/2018 12:58:01,24.562,19.812,off
