TIME,INSIDE_TEMPERATURE,OUTSIDE_TEMPERATURE,LIGHTS_STATE

08/19/2017 12:07:25,29.437,27.437,off
08/19/2017 12:07:37,29.437,27.375,off
08/19/2017 12:07:49,29.562,27.437,off
08/19/2017 12:08:00,29.625,27.5,off
