TIME,INSIDE_TEMPERATURE,OUTSIDE_TEMPERATURE,LIGHTS_STATE

10/23/2017 12:07:25,35.437,35.812,off
10/23/2017 12:07:37,35.437,35.812,off
10/23/2017 12:07:49,35.437,35.562,off
10/23/2017 12:08:00,35.437,35.375,off
