TIME,INSIDE_TEMPERATURE,OUTSIDE_TEMPERATURE,LIGHTS_STATE

06/25/2016 12:04:25,30.375,32.125,off
06/25/2016 12:04:37,30.375,32.125,off
06/25/2016 12:04:49,30.437,32.125,off
06/25/2016 12:05:00,30.437,32.125,off
