TIME,INSIDE_TEMPERATURE,OUTSIDE_TEMPERATURE,LIGHTS_STATE

04/14/2017 12:56:25,19.937,16.875,off
04/14/2017 12:56:37,19.937,16.875,off
04/14/2017 12:56:48,19.937,16.875,off
04/14/2017 12:57:00,19.937,16.875,off
