TIME,INSIDE_TEMPERATURE,OUTSIDE_TEMPERATURE,LIGHTS_STATE

09/22/2016 12:16:26,24.062,21.437,off
09/22/2016 12:16:37,24.125,21.312,off
09/22/2016 12:16:49,24.062,21.187,off
09/22/2016 12:17:01,24.062,21.062,off
