TIME,INSIDE_TEMPERATURE,OUTSIDE_TEMPERATURE,LIGHTS_STATE

06/06/2017 12:26:26,22.812,22.625,off
06/06/2017 12:26:38,22.812,22.625,off
06/06/2017 12:26:49,22.812,22.625,off
06/06/2017 12:27:01,22.812,22.625,off
