TIME,INSIDE_TEMPERATURE,OUTSIDE_TEMPERATURE,LIGHTS_STATE

09/29/2017 12:04:26,28.75,27.0,off
09/29/2017 12:04:37,28.75,27.062,off
09/29/2017 12:04:49,28.812,27.0,off
09/29/2017 12:05:01,28.812,27.062,off
