TIME,INSIDE_TEMPERATURE,OUTSIDE_TEMPERATURE,LIGHTS_STATE

07/31/2017 12:26:25,31.5,29.562,off
07/31/2017 12:26:37,31.562,29.5,off
07/31/2017 12:26:48,31.562,29.5,off
07/31/2017 12:27:00,31.562,29.5,off
