TIME,INSIDE_TEMPERATURE,OUTSIDE_TEMPERATURE,LIGHTS_STATE

09/11/2017 12:06:26,34.437,31.875,off
09/11/2017 12:06:37,34.437,31.875,off
09/11/2017 12:06:49,34.437,31.812,off
09/11/2017 12:07:01,34.437,31.812,off
