TIME,INSIDE_TEMPERATURE,OUTSIDE_TEMPERATURE,LIGHTS_STATE

10/30/2017 12:45:25,26.75,24.937,off
10/30/2017 12:45:37,26.75,25.187,off
10/30/2017 12:45:49,26.75,25.437,off
10/30/2017 12:46:01,26.75,25.437,off
