TIME,INSIDE_TEMPERATURE,OUTSIDE_TEMPERATURE,LIGHTS_STATE

10/05/2017 12:08:25,29.687,26.937,off
10/05/2017 12:08:37,29.687,26.875,off
10/05/2017 12:08:49,29.687,26.875,off
10/05/2017 12:09:00,29.687,26.875,off
