TIME,INSIDE_TEMPERATURE,OUTSIDE_TEMPERATURE,LIGHTS_STATE

03/25/2017 12:31:25,22.437,18.062,off
03/25/2017 12:31:36,22.437,18.125,off
03/25/2017 12:31:48,22.5,18.125,off
03/25/2017 12:32:00,22.5,18.187,off
