TIME,INSIDE_TEMPERATURE,OUTSIDE_TEMPERATURE,LIGHTS_STATE

06/18/2017 12:16:25,38.062,32.562,off
06/18/2017 12:16:36,38.062,32.562,off
06/18/2017 12:16:48,38.125,32.562,off
06/18/2017 12:17:00,38.125,32.562,off
