TIME,INSIDE_TEMPERATURE,OUTSIDE_TEMPERATURE,LIGHTS_STATE

05/06/2017 12:58:25,20.937,17.062,off
05/06/2017 12:58:37,20.937,17.062,off
05/06/2017 12:58:48,20.937,17.125,off
05/06/2017 12:59:01,20.875,17.187,off
