TIME,INSIDE_TEMPERATURE,OUTSIDE_TEMPERATURE,LIGHTS_STATE

12/22/2017 12:20:25,19.437,18.562,off
12/22/2017 12:20:37,19.437,18.562,off
12/22/2017 12:20:49,19.437,18.5,off
12/22/2017 12:21:01,19.437,18.5,off
