TIME,INSIDE_TEMPERATURE,OUTSIDE_TEMPERATURE,LIGHTS_STATE

05/11/2017 12:44:25,23.375,19.937,off
05/11/2017 12:44:37,23.375,19.937,off
05/11/2017 12:44:48,23.437,19.875,off
05/11/2017 12:45:00,23.437,19.875,off
