TIME,INSIDE_TEMPERATURE,OUTSIDE_TEMPERATURE,LIGHTS_STATE

04/06/2017 12:32:25,22.375,19.0,off
04/06/2017 12:32:37,22.375,19.0,off
04/06/2017 12:32:48,22.375,19.0,off
04/06/2017 12:33:01,22.375,19.062,off
