TIME,INSIDE_TEMPERATURE,OUTSIDE_TEMPERATURE,LIGHTS_STATE

08/07/2017 12:24:25,27.937,24.375,off
08/07/2017 12:24:37,27.937,24.25,off
08/07/2017 12:24:48,27.937,24.187,off
08/07/2017 12:25:00,27.937,24.187,off
