TIME,INSIDE_TEMPERATURE,OUTSIDE_TEMPERATURE,LIGHTS_STATE

11/05/2016 12:56:25,29.937,31.562,off
11/05/2016 12:56:36,30.0,31.5,off
11/05/2016 12:56:48,29.937,31.437,off
11/05/2016 12:57:00,29.937,31.312,off
