TIME,INSIDE_TEMPERATURE,OUTSIDE_TEMPERATURE,LIGHTS_STATE

05/15/2017 12:30:25,22.062,19.562,off
05/15/2017 12:30:37,22.125,19.625,off
05/15/2017 12:30:49,22.125,19.625,off
05/15/2017 12:31:00,22.125,19.625,off
