TIME,INSIDE_TEMPERATURE,OUTSIDE_TEMPERATURE,LIGHTS_STATE

10/26/2017 12:41:25,36.062,47.625,off
10/26/2017 12:41:37,36.062,47.687,off
10/26/2017 12:41:48,36.062,47.562,off
10/26/2017 12:42:00,36.062,47.437,off
