TIME,INSIDE_TEMPERATURE,OUTSIDE_TEMPERATURE,LIGHTS_STATE

03/31/2018 12:13:25,26.937,25.187,off
03/31/2018 12:13:37,26.937,25.25,off
03/31/2018 12:13:48,26.937,25.187,off
03/31/2018 12:14:00,26.937,25.187,off
