TIME,INSIDE_TEMPERATURE,OUTSIDE_TEMPERATURE,LIGHTS_STATE

03/24/2018 12:02:25,19.187,14.562,off
03/24/2018 12:02:37,19.187,14.625,off
03/24/2018 12:02:48,19.187,14.687,off
03/24/2018 12:03:00,19.187,14.75,off
