TIME,INSIDE_TEMPERATURE,OUTSIDE_TEMPERATURE,LIGHTS_STATE

10/30/2017 12:37:25,26.75,21.875,off
10/30/2017 12:37:37,26.75,22.0,off
10/30/2017 12:37:48,26.75,22.187,off
10/30/2017 12:38:00,26.75,22.187,off
