TIME,INSIDE_TEMPERATURE,OUTSIDE_TEMPERATURE,LIGHTS_STATE

09/22/2017 12:00:26,25.5,20.937,off
09/22/2017 12:00:38,25.5,20.937,off
09/22/2017 12:00:50,25.5,20.937,off
09/22/2017 12:01:02,25.5,20.937,off
