TIME,INSIDE_TEMPERATURE,OUTSIDE_TEMPERATURE,LIGHTS_STATE

05/23/2017 12:53:26,30.312,28.562,off
05/23/2017 12:53:37,30.312,28.562,off
05/23/2017 12:53:49,30.375,28.562,off
05/23/2017 12:54:01,30.437,28.5,off
