TIME,INSIDE_TEMPERATURE,OUTSIDE_TEMPERATURE,LIGHTS_STATE

11/14/2016 12:36:25,28.437,29.0,off
11/14/2016 12:36:37,28.437,29.062,off
11/14/2016 12:36:49,28.437,29.125,off
11/14/2016 12:37:00,28.437,29.125,off
