TIME,INSIDE_TEMPERATURE,OUTSIDE_TEMPERATURE,LIGHTS_STATE

01/31/2018 12:34:25,27.0,23.75,off
01/31/2018 12:34:37,27.0,23.687,off
01/31/2018 12:34:49,27.0,23.562,off
01/31/2018 12:35:00,27.0,23.562,off
