TIME,INSIDE_TEMPERATURE,OUTSIDE_TEMPERATURE,LIGHTS_STATE

01/16/2018 12:50:25,23.875,19.75,off
01/16/2018 12:50:37,23.812,19.937,off
01/16/2018 12:50:49,23.812,20.0,off
01/16/2018 12:51:01,23.812,20.125,off
