TIME,INSIDE_TEMPERATURE,OUTSIDE_TEMPERATURE,LIGHTS_STATE

07/05/2017 12:49:25,29.625,26.812,off
07/05/2017 12:49:37,29.625,26.875,off
07/05/2017 12:49:48,29.687,26.875,off
07/05/2017 12:50:00,29.687,26.875,off
