TIME,INSIDE_TEMPERATURE,OUTSIDE_TEMPERATURE,LIGHTS_STATE

06/29/2016 12:52:24,28.125,27.562,off
06/29/2016 12:52:36,28.125,27.562,off
06/29/2016 12:52:48,28.187,27.625,off
06/29/2016 12:53:00,28.312,27.625,off
