TIME,INSIDE_TEMPERATURE,OUTSIDE_TEMPERATURE,LIGHTS_STATE

04/10/2017 12:32:25,22.375,19.562,off
04/10/2017 12:32:37,22.375,19.562,off
04/10/2017 12:32:49,22.375,19.5,off
04/10/2017 12:33:01,22.437,19.5,off
