TIME,INSIDE_TEMPERATURE,OUTSIDE_TEMPERATURE,LIGHTS_STATE

02/15/2017 12:52:25,21.687,18.375,off
02/15/2017 12:52:37,21.687,18.375,off
02/15/2017 12:52:49,21.687,18.375,off
02/15/2017 12:53:00,21.687,18.375,off
