TIME,INSIDE_TEMPERATURE,OUTSIDE_TEMPERATURE,LIGHTS_STATE

02/26/2018 12:14:25,18.687,17.75,off
02/26/2018 12:14:37,18.75,17.937,off
02/26/2018 12:14:49,18.75,18.187,off
02/26/2018 12:15:00,18.75,18.437,off
