TIME,INSIDE_TEMPERATURE,OUTSIDE_TEMPERATURE,LIGHTS_STATE

06/29/2017 12:39:25,28.125,25.25,off
06/29/2017 12:39:37,28.125,25.25,off
06/29/2017 12:39:49,28.125,25.25,off
06/29/2017 12:40:00,28.125,25.187,off
