TIME,INSIDE_TEMPERATURE,OUTSIDE_TEMPERATURE,LIGHTS_STATE

12/27/2017 12:45:25,23.625,25.375,off
12/27/2017 12:45:37,23.687,25.187,off
12/27/2017 12:45:49,23.687,25.0,off
12/27/2017 12:46:01,23.687,24.875,off
