TIME,INSIDE_TEMPERATURE,OUTSIDE_TEMPERATURE,LIGHTS_STATE

12/30/2016 12:39:25,17.312,15.25,off
12/30/2016 12:39:37,17.312,15.187,off
12/30/2016 12:39:48,17.312,15.125,off
12/30/2016 12:40:00,17.312,15.125,off
