TIME,INSIDE_TEMPERATURE,OUTSIDE_TEMPERATURE,LIGHTS_STATE

12/22/2016 12:30:25,22.75,20.062,off
12/22/2016 12:30:36,22.812,20.187,off
12/22/2016 12:30:48,22.812,20.062,off
12/22/2016 12:31:00,22.812,19.937,off
