TIME,INSIDE_TEMPERATURE,OUTSIDE_TEMPERATURE,LIGHTS_STATE

11/14/2016 12:14:25,29.0,30.187,off
11/14/2016 12:14:36,29.0,30.312,off
11/14/2016 12:14:48,29.0,30.5,off
11/14/2016 12:15:00,29.0,30.687,off
