TIME,INSIDE_TEMPERATURE,OUTSIDE_TEMPERATURE,LIGHTS_STATE

04/28/2017 12:12:25,22.812,20.937,off
04/28/2017 12:12:37,22.812,20.937,off
04/28/2017 12:12:49,22.812,20.937,off
04/28/2017 12:13:00,22.812,20.937,off
