TIME,INSIDE_TEMPERATURE,OUTSIDE_TEMPERATURE,LIGHTS_STATE

06/21/2016 12:23:25,31.625,31.687,off
06/21/2016 12:23:37,31.562,31.75,off
06/21/2016 12:23:49,31.625,31.75,off
06/21/2016 12:24:00,31.625,31.75,off
