TIME,INSIDE_TEMPERATURE,OUTSIDE_TEMPERATURE,LIGHTS_STATE

10/09/2017 12:58:25,31.937,29.437,off
10/09/2017 12:58:37,31.875,29.687,off
10/09/2017 12:58:49,31.937,29.875,off
10/09/2017 12:59:00,31.875,30.125,off
