TIME,INSIDE_TEMPERATURE,OUTSIDE_TEMPERATURE,LIGHTS_STATE

02/17/2017 12:53:26,18.437,14.625,off
02/17/2017 12:53:37,18.437,14.625,off
02/17/2017 12:53:49,18.437,14.625,off
02/17/2017 12:54:01,18.437,14.625,off
