TIME,INSIDE_TEMPERATURE,OUTSIDE_TEMPERATURE,LIGHTS_STATE

04/30/2017 12:58:25,26.937,25.437,off
04/30/2017 12:58:37,26.937,25.437,off
04/30/2017 12:58:49,26.937,25.437,off
04/30/2017 12:59:00,27.0,25.437,off
