TIME,INSIDE_TEMPERATURE,OUTSIDE_TEMPERATURE,LIGHTS_STATE

09/05/2017 12:52:25,34.937,32.062,off
09/05/2017 12:52:37,34.937,32.125,off
09/05/2017 12:52:49,35.0,32.062,off
09/05/2017 12:53:01,35.0,32.062,off
