TIME,INSIDE_TEMPERATURE,OUTSIDE_TEMPERATURE,LIGHTS_STATE

11/01/2016 12:57:25,27.687,29.312,off
11/01/2016 12:57:37,27.687,29.25,off
11/01/2016 12:57:49,27.687,29.0,off
11/01/2016 12:58:00,27.687,28.937,off
