TIME,INSIDE_TEMPERATURE,OUTSIDE_TEMPERATURE,LIGHTS_STATE

07/09/2016 12:14:25,26.312,25.937,off
07/09/2016 12:14:37,26.312,26.0,off
07/09/2016 12:14:49,26.312,26.0,off
07/09/2016 12:15:00,26.375,26.062,off
