TIME,INSIDE_TEMPERATURE,OUTSIDE_TEMPERATURE,LIGHTS_STATE

09/19/2017 12:18:25,26.5,23.625,off
09/19/2017 12:18:37,26.5,23.437,off
09/19/2017 12:18:48,26.5,23.312,off
09/19/2017 12:19:00,26.562,23.25,off
