TIME,INSIDE_TEMPERATURE,OUTSIDE_TEMPERATURE,LIGHTS_STATE

04/28/2017 12:29:25,22.937,21.375,off
04/28/2017 12:29:36,22.937,21.375,off
04/28/2017 12:29:48,23.0,21.437,off
04/28/2017 12:30:00,23.0,21.437,off
