TIME,INSIDE_TEMPERATURE,OUTSIDE_TEMPERATURE,LIGHTS_STATE

08/02/2016 12:44:26,28.812,28.75,off
08/02/2016 12:44:38,28.875,28.812,off
08/02/2016 12:44:50,28.875,28.812,off
08/02/2016 12:45:01,28.875,28.812,off
