TIME,INSIDE_TEMPERATURE,OUTSIDE_TEMPERATURE,LIGHTS_STATE

02/08/2017 12:47:25,22.437,19.062,off
02/08/2017 12:47:37,22.5,19.0,off
02/08/2017 12:47:49,22.5,19.0,off
02/08/2017 12:48:00,22.5,19.062,off
