TIME,INSIDE_TEMPERATURE,OUTSIDE_TEMPERATURE,LIGHTS_STATE

10/25/2017 12:36:25,35.812,35.0,off
10/25/2017 12:36:37,35.75,35.062,off
10/25/2017 12:36:48,35.75,35.0,off
10/25/2017 12:37:00,35.75,35.0,off
