TIME,INSIDE_TEMPERATURE,OUTSIDE_TEMPERATURE,LIGHTS_STATE

10/16/2017 12:46:25,34.562,32.562,off
10/16/2017 12:46:37,34.562,32.437,off
10/16/2017 12:46:49,34.562,32.312,off
10/16/2017 12:47:01,34.562,32.25,off
