TIME,INSIDE_TEMPERATURE,OUTSIDE_TEMPERATURE,LIGHTS_STATE

07/17/2017 12:50:25,37.187,33.625,off
07/17/2017 12:50:37,37.125,33.687,off
07/17/2017 12:50:49,37.187,33.812,off
07/17/2017 12:51:00,37.187,33.875,off
