TIME,INSIDE_TEMPERATURE,OUTSIDE_TEMPERATURE,LIGHTS_STATE

09/19/2017 12:07:26,26.187,22.5,off
09/19/2017 12:07:37,26.187,22.5,off
09/19/2017 12:07:49,26.187,22.5,off
09/19/2017 12:08:01,26.25,22.562,off
