TIME,INSIDE_TEMPERATURE,OUTSIDE_TEMPERATURE,LIGHTS_STATE

06/28/2016 12:57:26,33.0,32.5,off
06/28/2016 12:57:37,33.062,32.5,off
06/28/2016 12:57:49,33.062,32.562,off
06/28/2016 12:58:01,33.062,32.562,off
