TIME,INSIDE_TEMPERATURE,OUTSIDE_TEMPERATURE,LIGHTS_STATE

02/08/2017 12:16:25,22.062,18.437,off
02/08/2017 12:16:37,22.125,18.437,off
02/08/2017 12:16:49,22.125,18.437,off
02/08/2017 12:17:01,22.125,18.437,off
