TIME,INSIDE_TEMPERATURE,OUTSIDE_TEMPERATURE,LIGHTS_STATE

01/10/2017 12:22:25,16.5,12.625,off
01/10/2017 12:22:37,16.5,12.625,off
01/10/2017 12:22:49,16.437,12.687,off
01/10/2017 12:23:00,16.437,12.687,off
