TIME,INSIDE_TEMPERATURE,OUTSIDE_TEMPERATURE,LIGHTS_STATE

10/29/2017 12:03:25,23.875,19.687,off
10/29/2017 12:03:37,23.875,19.75,off
10/29/2017 12:03:49,23.875,19.75,off
10/29/2017 12:04:01,23.875,19.75,off
