TIME,INSIDE_TEMPERATURE,OUTSIDE_TEMPERATURE,LIGHTS_STATE

10/10/2017 12:51:26,32.562,33.25,off
10/10/2017 12:51:37,32.562,33.312,off
10/10/2017 12:51:49,32.625,33.375,off
10/10/2017 12:52:01,32.625,33.562,off
