TIME,INSIDE_TEMPERATURE,OUTSIDE_TEMPERATURE,LIGHTS_STATE

01/23/2018 12:25:25,22.75,21.562,off
01/23/2018 12:25:37,22.75,21.812,off
01/23/2018 12:25:49,22.75,22.125,off
01/23/2018 12:26:00,22.75,22.187,off
