TIME,INSIDE_TEMPERATURE,OUTSIDE_TEMPERATURE,LIGHTS_STATE

09/21/2017 12:55:26,26.875,22.75,off
09/21/2017 12:55:38,26.875,22.812,off
09/21/2017 12:55:49,26.875,22.687,off
09/21/2017 12:56:01,26.875,22.625,off
