TIME,INSIDE_TEMPERATURE,OUTSIDE_TEMPERATURE,LIGHTS_STATE

09/22/2017 12:05:26,25.625,21.375,off
09/22/2017 12:05:38,25.625,21.375,off
09/22/2017 12:05:49,25.625,21.375,off
09/22/2017 12:06:01,25.625,21.437,off
