TIME,INSIDE_TEMPERATURE,OUTSIDE_TEMPERATURE,LIGHTS_STATE

04/13/2017 12:43:25,21.875,17.312,off
04/13/2017 12:43:36,21.875,17.25,off
04/13/2017 12:43:48,21.875,17.125,off
04/13/2017 12:44:00,21.875,17.0,off
