TIME,INSIDE_TEMPERATURE,OUTSIDE_TEMPERATURE,LIGHTS_STATE

10/21/2017 12:53:26,27.875,38.5,off
10/21/2017 12:53:37,27.875,38.312,off
10/21/2017 12:53:49,27.875,38.187,off
10/21/2017 12:54:01,27.875,38.25,off
