TIME,INSIDE_TEMPERATURE,OUTSIDE_TEMPERATURE,LIGHTS_STATE

08/01/2016 12:14:26,27.375,27.437,off
08/01/2016 12:14:38,27.375,27.437,off
08/01/2016 12:14:50,27.437,27.437,off
08/01/2016 12:15:02,27.375,27.5,off
