TIME,INSIDE_TEMPERATURE,OUTSIDE_TEMPERATURE,LIGHTS_STATE

01/20/2018 12:10:25,22.5,21.312,off
01/20/2018 12:10:37,22.5,21.375,off
01/20/2018 12:10:49,22.5,21.562,off
01/20/2018 12:11:01,22.562,21.687,off
