TIME,INSIDE_TEMPERATURE,OUTSIDE_TEMPERATURE,LIGHTS_STATE

09/04/2017 12:43:25,33.437,30.25,off
09/04/2017 12:43:37,33.437,30.312,off
09/04/2017 12:43:49,33.437,30.312,off
09/04/2017 12:44:01,33.437,30.312,off
