TIME,INSIDE_TEMPERATURE,OUTSIDE_TEMPERATURE,LIGHTS_STATE

12/28/2017 12:33:25,24.75,27.437,off
12/28/2017 12:33:37,24.75,27.375,off
12/28/2017 12:33:48,24.75,27.5,off
12/28/2017 12:34:00,24.75,27.562,off
