TIME,INSIDE_TEMPERATURE,OUTSIDE_TEMPERATURE,LIGHTS_STATE

07/04/2016 12:31:25,28.312,28.125,off
07/04/2016 12:31:37,28.375,28.125,off
07/04/2016 12:31:49,28.375,28.187,off
07/04/2016 12:32:01,28.5,28.187,off
