TIME,INSIDE_TEMPERATURE,OUTSIDE_TEMPERATURE,LIGHTS_STATE

02/28/2018 12:50:26,21.437,18.875,off
02/28/2018 12:50:37,21.437,18.875,off
02/28/2018 12:50:49,21.437,18.937,off
02/28/2018 12:51:01,21.437,19.0,off
