TIME,INSIDE_TEMPERATURE,OUTSIDE_TEMPERATURE,LIGHTS_STATE

09/18/2016 12:58:26,34.562,35.562,off
09/18/2016 12:58:37,34.562,35.625,off
09/18/2016 12:58:49,34.562,35.687,off
09/18/2016 12:59:01,34.625,35.687,off
