TIME,INSIDE_TEMPERATURE,OUTSIDE_TEMPERATURE,LIGHTS_STATE

10/21/2017 12:09:26,26.812,34.25,off
10/21/2017 12:09:37,26.812,33.75,off
10/21/2017 12:09:49,26.812,33.312,off
10/21/2017 12:10:01,26.812,32.875,off
