TIME,INSIDE_TEMPERATURE,OUTSIDE_TEMPERATURE,LIGHTS_STATE

03/22/2017 12:57:24,21.5,17.187,off
03/22/2017 12:57:36,21.5,17.187,off
03/22/2017 12:57:48,21.5,17.187,off
03/22/2017 12:57:59,21.5,17.187,off
