TIME,INSIDE_TEMPERATURE,OUTSIDE_TEMPERATURE,LIGHTS_STATE

04/09/2017 12:55:25,20.25,17.062,off
04/09/2017 12:55:37,20.25,17.062,off
04/09/2017 12:55:49,20.25,17.062,off
04/09/2017 12:56:00,20.25,17.062,off
