TIME,INSIDE_TEMPERATURE,OUTSIDE_TEMPERATURE,LIGHTS_STATE

03/14/2017 12:11:25,26.562,23.687,off
03/14/2017 12:11:37,26.562,23.687,off
03/14/2017 12:11:49,26.562,23.625,off
03/14/2017 12:12:00,26.625,23.687,off
