TIME,INSIDE_TEMPERATURE,OUTSIDE_TEMPERATURE,LIGHTS_STATE

05/10/2017 12:36:25,23.937,21.187,off
05/10/2017 12:36:37,23.937,21.187,off
05/10/2017 12:36:48,23.937,21.125,off
05/10/2017 12:37:00,23.937,21.125,off
