TIME,INSIDE_TEMPERATURE,OUTSIDE_TEMPERATURE,LIGHTS_STATE

05/24/2017 12:01:25,26.75,24.937,off
05/24/2017 12:01:37,26.75,25.0,off
05/24/2017 12:01:49,26.75,24.937,off
05/24/2017 12:02:00,26.75,24.875,off
