TIME,INSIDE_TEMPERATURE,OUTSIDE_TEMPERATURE,LIGHTS_STATE

05/21/2017 12:32:25,32.187,30.0,off
05/21/2017 12:32:36,32.187,30.0,off
05/21/2017 12:32:48,32.187,30.0,off
05/21/2017 12:33:00,32.187,30.0,off
