TIME,INSIDE_TEMPERATURE,OUTSIDE_TEMPERATURE,LIGHTS_STATE

12/22/2017 12:53:25,19.375,20.0,off
12/22/2017 12:53:37,19.375,20.125,off
12/22/2017 12:53:49,19.375,20.187,off
12/22/2017 12:54:01,19.375,20.437,off
