TIME,INSIDE_TEMPERATURE,OUTSIDE_TEMPERATURE,LIGHTS_STATE

12/07/2016 12:02:25,13.312,10.375,off
12/07/2016 12:02:37,13.312,10.437,off
12/07/2016 12:02:48,13.312,10.437,off
12/07/2016 12:03:00,13.312,10.437,off
