TIME,INSIDE_TEMPERATURE,OUTSIDE_TEMPERATURE,LIGHTS_STATE

12/11/2016 12:52:25,17.187,12.562,off
12/11/2016 12:52:37,17.187,12.625,off
12/11/2016 12:52:49,17.187,12.562,off
12/11/2016 12:53:00,17.187,12.625,off
