TIME,INSIDE_TEMPERATURE,OUTSIDE_TEMPERATURE,LIGHTS_STATE

06/16/2017 12:28:25,33.375,29.75,off
06/16/2017 12:28:37,33.375,29.687,off
06/16/2017 12:28:49,33.375,29.687,off
06/16/2017 12:29:00,33.375,29.687,off
