TIME,INSIDE_TEMPERATURE,OUTSIDE_TEMPERATURE,LIGHTS_STATE

12/24/2016 12:58:24,19.125,21.125,off
12/24/2016 12:58:36,19.125,21.187,off
12/24/2016 12:58:48,19.125,21.187,off
12/24/2016 12:58:59,19.125,21.0,off
