TIME,INSIDE_TEMPERATURE,OUTSIDE_TEMPERATURE,LIGHTS_STATE

03/02/2017 12:49:25,24.062,24.187,off
03/02/2017 12:49:37,24.125,24.0,off
03/02/2017 12:49:49,24.062,23.875,off
03/02/2017 12:50:00,24.125,23.875,off
