TIME,INSIDE_TEMPERATURE,OUTSIDE_TEMPERATURE,LIGHTS_STATE

12/23/2017 12:38:25,20.812,18.937,off
12/23/2017 12:38:37,20.812,18.812,off
12/23/2017 12:38:48,20.812,18.625,off
12/23/2017 12:39:00,20.812,18.5,off
