TIME,INSIDE_TEMPERATURE,OUTSIDE_TEMPERATURE,LIGHTS_STATE

03/06/2017 12:43:25,20.875,18.937,off
03/06/2017 12:43:37,20.812,18.75,off
03/06/2017 12:43:48,20.875,18.625,off
03/06/2017 12:44:00,20.875,18.5,off
