TIME,INSIDE_TEMPERATURE,OUTSIDE_TEMPERATURE,LIGHTS_STATE

08/18/2017 12:00:26,30.75,29.0,off
08/18/2017 12:00:37,30.75,29.0,off
08/18/2017 12:00:49,30.75,29.062,off
08/18/2017 12:01:01,30.75,29.0,off
