TIME,INSIDE_TEMPERATURE,OUTSIDE_TEMPERATURE,LIGHTS_STATE

03/11/2017 12:47:25,29.75,26.062,off
03/11/2017 12:47:37,29.687,26.062,off
03/11/2017 12:47:48,29.75,26.125,off
03/11/2017 12:48:00,29.687,26.125,off
