TIME,INSIDE_TEMPERATURE,OUTSIDE_TEMPERATURE,LIGHTS_STATE

03/14/2018 12:11:25,18.5,12.687,off
03/14/2018 12:11:37,18.5,12.687,off
03/14/2018 12:11:49,18.5,12.687,off
03/14/2018 12:12:01,18.5,12.625,off
