TIME,INSIDE_TEMPERATURE,OUTSIDE_TEMPERATURE,LIGHTS_STATE

11/13/2016 12:45:25,29.937,28.25,off
11/13/2016 12:45:37,29.937,28.25,off
11/13/2016 12:45:48,30.0,28.187,off
11/13/2016 12:46:00,30.0,28.187,off
