TIME,INSIDE_TEMPERATURE,OUTSIDE_TEMPERATURE,LIGHTS_STATE

12/17/2016 12:21:26,18.0,12.812,off
12/17/2016 12:21:37,18.0,12.687,off
12/17/2016 12:21:50,18.0,12.5,off
12/17/2016 12:22:01,18.0,12.312,off
