TIME,INSIDE_TEMPERATURE,OUTSIDE_TEMPERATURE,LIGHTS_STATE

08/06/2016 12:47:26,25.187,25.125,off
08/06/2016 12:47:38,25.125,25.125,off
08/06/2016 12:47:49,25.125,25.125,off
08/06/2016 12:48:01,25.125,25.125,off
