TIME,INSIDE_TEMPERATURE,OUTSIDE_TEMPERATURE,LIGHTS_STATE

12/28/2017 12:19:25,24.625,27.25,off
12/28/2017 12:19:37,24.625,27.187,off
12/28/2017 12:19:49,24.687,27.312,off
12/28/2017 12:20:01,24.687,27.187,off
