TIME,INSIDE_TEMPERATURE,OUTSIDE_TEMPERATURE,LIGHTS_STATE

07/03/2017 12:17:25,30.625,28.187,off
07/03/2017 12:17:37,30.562,28.187,off
07/03/2017 12:17:48,30.625,28.187,off
07/03/2017 12:18:00,30.625,28.187,off
