TIME,INSIDE_TEMPERATURE,OUTSIDE_TEMPERATURE,LIGHTS_STATE

08/28/2017 12:06:25,37.125,35.562,off
08/28/2017 12:06:37,37.125,35.562,off
08/28/2017 12:06:48,37.187,35.562,off
08/28/2017 12:07:00,37.125,35.562,off
