TIME,INSIDE_TEMPERATURE,OUTSIDE_TEMPERATURE,LIGHTS_STATE

06/23/2017 12:07:25,32.375,29.437,off
06/23/2017 12:07:37,32.375,29.437,off
06/23/2017 12:07:49,32.312,29.437,off
06/23/2017 12:08:00,32.375,29.437,off
