TIME,INSIDE_TEMPERATURE,OUTSIDE_TEMPERATURE,LIGHTS_STATE

12/17/2016 12:48:25,17.625,15.437,off
12/17/2016 12:48:37,17.625,15.687,off
12/17/2016 12:48:49,17.625,16.0,off
12/17/2016 12:49:00,17.562,16.25,off
