TIME,INSIDE_TEMPERATURE,OUTSIDE_TEMPERATURE,LIGHTS_STATE

07/05/2016 12:29:25,25.812,25.625,off
07/05/2016 12:29:37,25.812,25.625,off
07/05/2016 12:29:49,25.812,25.687,off
07/05/2016 12:30:00,25.812,25.687,off
