TIME,INSIDE_TEMPERATURE,OUTSIDE_TEMPERATURE,LIGHTS_STATE

02/16/2018 12:45:25,25.625,42.625,off
02/16/2018 12:45:37,25.687,42.562,off
02/16/2018 12:45:49,25.687,42.562,off
02/16/2018 12:46:00,25.687,42.312,off
