TIME,INSIDE_TEMPERATURE,OUTSIDE_TEMPERATURE,LIGHTS_STATE

07/30/2016 12:27:25,30.687,31.0,off
07/30/2016 12:27:37,30.687,31.0,off
07/30/2016 12:27:49,30.687,31.0,off
07/30/2016 12:28:00,30.687,31.0,off
