TIME,INSIDE_TEMPERATURE,OUTSIDE_TEMPERATURE,LIGHTS_STATE

12/11/2016 12:43:24,17.312,13.5,off
12/11/2016 12:43:36,17.375,13.5,off
12/11/2016 12:43:48,17.375,13.5,off
12/11/2016 12:43:59,17.375,13.437,off
