TIME,INSIDE_TEMPERATURE,OUTSIDE_TEMPERATURE,LIGHTS_STATE

01/19/2018 12:31:25,24.875,23.437,off
01/19/2018 12:31:37,24.875,23.437,off
01/19/2018 12:31:49,24.937,23.375,off
01/19/2018 12:32:01,24.875,23.437,off
