TIME,INSIDE_TEMPERATURE,OUTSIDE_TEMPERATURE,LIGHTS_STATE

12/21/2016 12:29:25,23.062,21.875,off
12/21/2016 12:29:36,23.062,22.0,off
12/21/2016 12:29:48,23.125,22.062,off
12/21/2016 12:30:00,23.062,22.062,off
