TIME,INSIDE_TEMPERATURE,OUTSIDE_TEMPERATURE,LIGHTS_STATE

01/16/2017 12:35:25,19.187,13.875,off
01/16/2017 12:35:36,19.187,13.875,off
01/16/2017 12:35:48,19.125,13.75,off
01/16/2017 12:36:00,19.187,13.812,off
