TIME,INSIDE_TEMPERATURE,OUTSIDE_TEMPERATURE,LIGHTS_STATE

10/24/2017 12:44:25,36.125,39.562,off
10/24/2017 12:44:37,36.125,39.562,off
10/24/2017 12:44:48,36.125,39.25,off
10/24/2017 12:45:00,36.125,39.125,off
