TIME,INSIDE_TEMPERATURE,OUTSIDE_TEMPERATURE,LIGHTS_STATE

03/16/2017 12:42:26,26.312,22.437,off
03/16/2017 12:42:37,26.312,22.437,off
03/16/2017 12:42:49,26.312,22.437,off
03/16/2017 12:43:01,26.312,22.5,off
