TIME,INSIDE_TEMPERATURE,OUTSIDE_TEMPERATURE,LIGHTS_STATE

02/17/2017 12:48:25,18.437,14.625,off
02/17/2017 12:48:37,18.437,14.562,off
02/17/2017 12:48:49,18.437,14.562,off
02/17/2017 12:49:00,18.437,14.562,off
