TIME,INSIDE_TEMPERATURE,OUTSIDE_TEMPERATURE,LIGHTS_STATE

02/15/2018 12:39:26,25.25,27.812,off
02/15/2018 12:39:37,25.25,28.062,off
02/15/2018 12:39:49,25.25,28.187,off
02/15/2018 12:40:01,25.25,28.187,off
