TIME,INSIDE_TEMPERATURE,OUTSIDE_TEMPERATURE,LIGHTS_STATE

08/17/2017 12:34:25,31.0,28.562,off
08/17/2017 12:34:37,31.062,28.5,off
08/17/2017 12:34:49,31.062,28.5,off
08/17/2017 12:35:00,31.062,28.5,off
