TIME,INSIDE_TEMPERATURE,OUTSIDE_TEMPERATURE,LIGHTS_STATE

01/24/2018 12:02:25,19.437,15.937,off
01/24/2018 12:02:37,19.437,16.0,off
01/24/2018 12:02:49,19.5,15.937,off
01/24/2018 12:03:00,19.437,15.937,off
