TIME,INSIDE_TEMPERATURE,OUTSIDE_TEMPERATURE,LIGHTS_STATE

01/14/2017 12:01:25,21.75,16.062,off
01/14/2017 12:01:36,21.75,15.875,off
01/14/2017 12:01:48,21.75,15.875,off
01/14/2017 12:02:00,21.75,15.812,off
