TIME,INSIDE_TEMPERATURE,OUTSIDE_TEMPERATURE,LIGHTS_STATE

06/30/2016 12:44:26,30.25,29.937,off
06/30/2016 12:44:38,30.25,29.937,off
06/30/2016 12:44:50,30.312,29.937,off
06/30/2016 12:45:02,30.312,30.0,off
