TIME,INSIDE_TEMPERATURE,OUTSIDE_TEMPERATURE,LIGHTS_STATE

09/05/2016 12:45:25,27.0,29.187,off
09/05/2016 12:45:37,27.0,29.25,off
09/05/2016 12:45:48,27.062,29.25,off
09/05/2016 12:46:00,27.0,29.312,off
