TIME,INSIDE_TEMPERATURE,OUTSIDE_TEMPERATURE,LIGHTS_STATE

09/19/2016 12:51:25,35.125,37.0,off
09/19/2016 12:51:37,35.187,37.062,off
09/19/2016 12:51:49,35.187,37.0,off
09/19/2016 12:52:00,35.187,37.062,off
