TIME,INSIDE_TEMPERATURE,OUTSIDE_TEMPERATURE,LIGHTS_STATE

09/20/2016 12:44:25,32.937,32.437,off
09/20/2016 12:44:37,32.937,32.437,off
09/20/2016 12:44:49,32.937,32.437,off
09/20/2016 12:45:00,32.937,32.437,off
