TIME,INSIDE_TEMPERATURE,OUTSIDE_TEMPERATURE,LIGHTS_STATE

03/12/2017 12:35:26,30.75,24.312,off
03/12/2017 12:35:37,30.625,24.312,off
03/12/2017 12:35:49,30.5,24.25,off
03/12/2017 12:36:01,30.437,24.25,off
