TIME,INSIDE_TEMPERATURE,OUTSIDE_TEMPERATURE,LIGHTS_STATE

07/21/2016 12:11:26,24.875,25.5,off
07/21/2016 12:11:37,24.875,25.5,off
07/21/2016 12:11:49,24.875,25.5,off
07/21/2016 12:12:01,24.875,25.437,off
