TIME,INSIDE_TEMPERATURE,OUTSIDE_TEMPERATURE,LIGHTS_STATE

02/09/2017 12:00:25,20.375,15.5,off
02/09/2017 12:00:37,20.375,15.5,off
02/09/2017 12:00:48,20.375,15.5,off
02/09/2017 12:01:00,20.375,15.562,off
