TIME,INSIDE_TEMPERATURE,OUTSIDE_TEMPERATURE,LIGHTS_STATE

09/13/2016 12:19:26,24.562,22.25,off
09/13/2016 12:19:37,24.562,22.25,off
09/13/2016 12:19:49,24.562,22.187,off
09/13/2016 12:20:01,24.5,22.125,off
