TIME,INSIDE_TEMPERATURE,OUTSIDE_TEMPERATURE,LIGHTS_STATE

03/15/2018 12:54:26,18.0,12.0,off
03/15/2018 12:54:37,18.0,11.937,off
03/15/2018 12:54:49,18.0,11.937,off
03/15/2018 12:55:01,18.0,11.875,off
