TIME,INSIDE_TEMPERATURE,OUTSIDE_TEMPERATURE,LIGHTS_STATE

05/01/2017 12:28:25,28.937,28.25,off
05/01/2017 12:28:37,28.937,28.25,off
05/01/2017 12:28:48,28.937,28.25,off
05/01/2017 12:29:00,28.937,28.25,off
