TIME,INSIDE_TEMPERATURE,OUTSIDE_TEMPERATURE,LIGHTS_STATE

12/25/2016 12:43:24,18.562,15.625,off
12/25/2016 12:43:36,18.562,15.562,off
12/25/2016 12:43:48,18.562,15.375,off
12/25/2016 12:43:59,18.562,15.187,off
