TIME,INSIDE_TEMPERATURE,OUTSIDE_TEMPERATURE,LIGHTS_STATE

06/11/2017 12:38:25,23.125,18.687,off
06/11/2017 12:38:37,23.125,18.687,off
06/11/2017 12:38:49,23.125,18.687,off
06/11/2017 12:39:00,23.125,18.562,off
