TIME,INSIDE_TEMPERATURE,OUTSIDE_TEMPERATURE,LIGHTS_STATE

01/25/2018 12:46:25,18.062,10.687,off
01/25/2018 12:46:37,18.125,10.625,off
01/25/2018 12:46:49,18.062,10.625,off
01/25/2018 12:47:00,18.062,10.625,off
