TIME,INSIDE_TEMPERATURE,OUTSIDE_TEMPERATURE,LIGHTS_STATE

03/10/2018 12:41:26,21.375,16.437,off
03/10/2018 12:41:37,21.375,16.437,off
03/10/2018 12:41:49,21.375,16.437,off
03/10/2018 12:42:01,21.437,16.5,off
