TIME,INSIDE_TEMPERATURE,OUTSIDE_TEMPERATURE,LIGHTS_STATE

06/20/2017 12:44:25,36.5,33.312,off
06/20/2017 12:44:37,36.5,33.312,off
06/20/2017 12:44:48,36.5,33.375,off
06/20/2017 12:45:00,36.5,33.375,off
