TIME,INSIDE_TEMPERATURE,OUTSIDE_TEMPERATURE,LIGHTS_STATE

12/06/2016 12:22:25,19.875,17.312,off
12/06/2016 12:22:37,19.937,17.312,off
12/06/2016 12:22:49,19.937,17.25,off
12/06/2016 12:23:01,19.875,17.25,off
