TIME,INSIDE_TEMPERATURE,OUTSIDE_TEMPERATURE,LIGHTS_STATE

07/20/2017 12:30:25,29.125,26.062,off
07/20/2017 12:30:37,29.187,26.125,off
07/20/2017 12:30:49,29.187,26.125,off
07/20/2017 12:31:00,29.125,26.125,off
