TIME,INSIDE_TEMPERATURE,OUTSIDE_TEMPERATURE,LIGHTS_STATE

07/03/2017 12:47:26,31.75,28.875,off
07/03/2017 12:47:38,31.687,28.812,off
07/03/2017 12:47:49,31.75,28.812,off
07/03/2017 12:48:01,31.75,28.812,off
