TIME,INSIDE_TEMPERATURE,OUTSIDE_TEMPERATURE,LIGHTS_STATE

03/07/2017 12:14:25,23.625,18.875,off
03/07/2017 12:14:37,23.562,18.75,off
03/07/2017 12:14:48,23.562,18.75,off
03/07/2017 12:15:00,23.562,18.812,off
