TIME,INSIDE_TEMPERATURE,OUTSIDE_TEMPERATURE,LIGHTS_STATE

10/26/2016 12:48:25,32.0,35.062,off
10/26/2016 12:48:36,32.0,35.062,off
10/26/2016 12:48:48,32.0,35.0,off
10/26/2016 12:49:00,32.0,34.875,off
