TIME,INSIDE_TEMPERATURE,OUTSIDE_TEMPERATURE,LIGHTS_STATE

02/04/2018 12:10:25,26.0,28.812,off
02/04/2018 12:10:36,26.0,29.125,off
02/04/2018 12:10:48,26.0,29.437,off
02/04/2018 12:11:00,26.0,29.75,off
