TIME,INSIDE_TEMPERATURE,OUTSIDE_TEMPERATURE,LIGHTS_STATE

02/03/2018 12:33:25,29.0,31.75,off
02/03/2018 12:33:36,29.062,31.75,off
02/03/2018 12:33:48,29.125,31.625,off
02/03/2018 12:34:00,29.125,31.562,off
