TIME,INSIDE_TEMPERATURE,OUTSIDE_TEMPERATURE,LIGHTS_STATE

03/06/2017 12:14:26,20.0,16.25,off
03/06/2017 12:14:37,20.0,16.25,off
03/06/2017 12:14:49,19.937,16.062,off
03/06/2017 12:15:01,19.937,16.062,off
