TIME,INSIDE_TEMPERATURE,OUTSIDE_TEMPERATURE,LIGHTS_STATE

10/03/2017 12:47:26,27.812,25.562,off
10/03/2017 12:47:38,27.812,25.625,off
10/03/2017 12:47:49,27.812,25.687,off
10/03/2017 12:48:01,27.812,25.75,off
