TIME,INSIDE_TEMPERATURE,OUTSIDE_TEMPERATURE,LIGHTS_STATE

03/07/2017 12:24:25,22.562,17.812,off
03/07/2017 12:24:37,22.562,17.875,off
03/07/2017 12:24:48,22.5,17.812,off
03/07/2017 12:25:00,22.5,17.875,off
