TIME,INSIDE_TEMPERATURE,OUTSIDE_TEMPERATURE,LIGHTS_STATE

07/05/2017 12:45:26,29.562,26.687,off
07/05/2017 12:45:37,29.562,26.687,off
07/05/2017 12:45:49,29.562,26.687,off
07/05/2017 12:46:01,29.562,26.687,off
