TIME,INSIDE_TEMPERATURE,OUTSIDE_TEMPERATURE,LIGHTS_STATE

08/17/2017 12:50:25,31.437,29.062,off
08/17/2017 12:50:37,31.437,29.062,off
08/17/2017 12:50:48,31.437,29.062,off
08/17/2017 12:51:00,31.437,29.0,off
