TIME,INSIDE_TEMPERATURE,OUTSIDE_TEMPERATURE,LIGHTS_STATE

05/04/2017 12:08:25,31.062,28.687,off
05/04/2017 12:08:37,31.062,28.687,off
05/04/2017 12:08:49,31.062,28.687,off
05/04/2017 12:09:00,31.062,28.625,off
