TIME,INSIDE_TEMPERATURE,OUTSIDE_TEMPERATURE,LIGHTS_STATE

11/23/2016 12:42:25,23.312,20.75,off
11/23/2016 12:42:36,23.312,20.687,off
11/23/2016 12:42:48,23.312,20.625,off
11/23/2016 12:43:00,23.312,20.562,off
