TIME,INSIDE_TEMPERATURE,OUTSIDE_TEMPERATURE,LIGHTS_STATE

02/26/2017 12:49:25,22.125,25.312,off
02/26/2017 12:49:37,22.125,25.375,off
02/26/2017 12:49:48,22.062,25.375,off
02/26/2017 12:50:00,22.062,25.375,off
