TIME,INSIDE_TEMPERATURE,OUTSIDE_TEMPERATURE,LIGHTS_STATE

09/21/2016 12:10:26,27.0,23.125,off
09/21/2016 12:10:38,27.0,23.125,off
09/21/2016 12:10:50,27.0,23.062,off
09/21/2016 12:11:02,27.062,23.0,off
