TIME,INSIDE_TEMPERATURE,OUTSIDE_TEMPERATURE,LIGHTS_STATE

02/19/2018 12:21:25,20.312,31.937,off
02/19/2018 12:21:37,20.375,32.312,off
02/19/2018 12:21:49,20.375,32.562,off
02/19/2018 12:22:01,20.375,32.625,off
