TIME,INSIDE_TEMPERATURE,OUTSIDE_TEMPERATURE,LIGHTS_STATE

02/08/2018 12:26:25,29.375,45.875,off
02/08/2018 12:26:37,29.375,46.0,off
02/08/2018 12:26:49,29.375,46.125,off
02/08/2018 12:27:00,29.375,46.25,off
