TIME,INSIDE_TEMPERATURE,OUTSIDE_TEMPERATURE,LIGHTS_STATE

06/07/2017 12:29:25,22.687,22.187,off
06/07/2017 12:29:37,22.687,22.187,off
06/07/2017 12:29:49,22.687,22.187,off
06/07/2017 12:30:00,22.687,22.187,off
