TIME,INSIDE_TEMPERATURE,OUTSIDE_TEMPERATURE,LIGHTS_STATE

10/26/2016 12:56:25,31.75,33.937,off
10/26/2016 12:56:37,31.75,34.0,off
10/26/2016 12:56:49,31.75,34.25,off
10/26/2016 12:57:00,31.75,34.562,off
