TIME,INSIDE_TEMPERATURE,OUTSIDE_TEMPERATURE,LIGHTS_STATE

07/28/2017 12:33:26,33.062,30.5,off
07/28/2017 12:33:37,33.062,30.5,off
07/28/2017 12:33:49,33.187,30.562,off
07/28/2017 12:34:01,33.25,30.562,off
