TIME,INSIDE_TEMPERATURE,OUTSIDE_TEMPERATURE,LIGHTS_STATE

03/21/2017 12:21:26,22.25,19.125,off
03/21/2017 12:21:37,22.25,19.312,off
03/21/2017 12:21:49,22.25,19.5,off
03/21/2017 12:22:01,22.25,19.625,off
