TIME,INSIDE_TEMPERATURE,OUTSIDE_TEMPERATURE,LIGHTS_STATE

12/13/2016 12:09:25,18.062,15.687,off
12/13/2016 12:09:36,18.125,15.687,off
12/13/2016 12:09:48,18.125,15.687,off
12/13/2016 12:10:00,18.125,15.687,off
