TIME,INSIDE_TEMPERATURE,OUTSIDE_TEMPERATURE,LIGHTS_STATE

02/12/2018 12:11:25,23.437,26.812,off
02/12/2018 12:11:37,23.437,26.937,off
02/12/2018 12:11:48,23.437,27.0,off
02/12/2018 12:12:00,23.5,27.25,off
