TIME,INSIDE_TEMPERATURE,OUTSIDE_TEMPERATURE,LIGHTS_STATE

12/25/2016 12:31:25,18.75,15.25,off
12/25/2016 12:31:37,18.75,15.312,off
12/25/2016 12:31:48,18.75,15.437,off
12/25/2016 12:32:00,18.75,15.562,off
