TIME,INSIDE_TEMPERATURE,OUTSIDE_TEMPERATURE,LIGHTS_STATE

02/19/2017 12:09:25,17.125,12.937,off
02/19/2017 12:09:37,17.125,12.937,off
02/19/2017 12:09:48,17.187,12.937,off
02/19/2017 12:10:00,17.187,12.937,off
