TIME,INSIDE_TEMPERATURE,OUTSIDE_TEMPERATURE,LIGHTS_STATE

01/13/2018 12:34:25,17.25,12.312,off
01/13/2018 12:34:37,17.25,12.312,off
01/13/2018 12:34:48,17.25,12.375,off
01/13/2018 12:35:00,17.25,12.375,off
