TIME,INSIDE_TEMPERATURE,OUTSIDE_TEMPERATURE,LIGHTS_STATE

02/08/2018 12:37:25,29.437,47.312,off
02/08/2018 12:37:37,29.5,47.125,off
02/08/2018 12:37:49,29.5,46.937,off
02/08/2018 12:38:00,29.5,46.75,off
