TIME,INSIDE_TEMPERATURE,OUTSIDE_TEMPERATURE,LIGHTS_STATE

03/27/2018 12:49:25,23.0,17.687,off
03/27/2018 12:49:37,23.062,17.687,off
03/27/2018 12:49:48,23.062,17.625,off
03/27/2018 12:50:00,23.0,17.625,off
