TIME,INSIDE_TEMPERATURE,OUTSIDE_TEMPERATURE,LIGHTS_STATE

03/05/2018 12:33:25,20.187,27.937,off
03/05/2018 12:33:37,20.187,28.062,off
03/05/2018 12:33:49,20.187,28.187,off
03/05/2018 12:34:01,20.187,28.125,off
