TIME,INSIDE_TEMPERATURE,OUTSIDE_TEMPERATURE,LIGHTS_STATE

03/04/2017 12:30:26,24.125,23.875,off
03/04/2017 12:30:37,24.062,24.0,off
03/04/2017 12:30:49,24.125,24.125,off
03/04/2017 12:31:01,24.125,24.312,off
