TIME,INSIDE_TEMPERATURE,OUTSIDE_TEMPERATURE,LIGHTS_STATE

01/26/2018 12:56:26,21.937,18.562,off
01/26/2018 12:56:37,21.937,18.75,off
01/26/2018 12:56:49,21.937,18.812,off
01/26/2018 12:57:01,21.937,18.75,off
