TIME,INSIDE_TEMPERATURE,OUTSIDE_TEMPERATURE,LIGHTS_STATE

05/23/2017 12:42:25,29.937,28.25,off
05/23/2017 12:42:37,29.937,28.312,off
05/23/2017 12:42:49,29.937,28.312,off
05/23/2017 12:43:00,29.937,28.375,off
