TIME,INSIDE_TEMPERATURE,OUTSIDE_TEMPERATURE,LIGHTS_STATE

09/12/2016 12:40:25,25.0,23.0,off
09/12/2016 12:40:38,25.0,22.812,off
09/12/2016 12:40:49,25.062,22.687,off
09/12/2016 12:41:01,25.0,22.75,off
