TIME,INSIDE_TEMPERATURE,OUTSIDE_TEMPERATURE,LIGHTS_STATE

02/10/2017 12:05:25,19.937,15.812,off
02/10/2017 12:05:37,19.937,15.812,off
02/10/2017 12:05:49,20.0,15.875,off
02/10/2017 12:06:01,20.0,15.812,off
