TIME,INSIDE_TEMPERATURE,OUTSIDE_TEMPERATURE,LIGHTS_STATE

02/15/2017 12:44:25,21.75,18.187,off
02/15/2017 12:44:37,21.75,18.187,off
02/15/2017 12:44:48,21.75,18.187,off
02/15/2017 12:45:00,21.75,18.125,off
