TIME,INSIDE_TEMPERATURE,OUTSIDE_TEMPERATURE,LIGHTS_STATE

03/29/2017 12:54:25,26.25,23.062,off
03/29/2017 12:54:36,26.25,23.0,off
03/29/2017 12:54:48,26.25,23.062,off
03/29/2017 12:55:00,26.25,23.062,off
