TIME,INSIDE_TEMPERATURE,OUTSIDE_TEMPERATURE,LIGHTS_STATE

08/05/2017 12:11:25,33.375,31.187,off
08/05/2017 12:11:37,33.375,31.125,off
08/05/2017 12:11:48,33.375,31.187,off
08/05/2017 12:12:00,33.375,31.125,off
