TIME,INSIDE_TEMPERATURE,OUTSIDE_TEMPERATURE,LIGHTS_STATE

10/08/2017 12:58:25,30.5,27.312,off
10/08/2017 12:58:37,30.562,27.312,off
10/08/2017 12:58:49,30.625,27.312,off
10/08/2017 12:59:00,30.562,27.312,off
