TIME,INSIDE_TEMPERATURE,OUTSIDE_TEMPERATURE,LIGHTS_STATE

11/05/2016 12:23:24,31.312,29.25,off
11/05/2016 12:23:36,31.375,29.375,off
11/05/2016 12:23:48,31.375,29.625,off
11/05/2016 12:23:59,31.375,29.75,off
