TIME,INSIDE_TEMPERATURE,OUTSIDE_TEMPERATURE,LIGHTS_STATE

09/14/2017 12:11:25,27.062,23.625,off
09/14/2017 12:11:37,27.062,23.562,off
09/14/2017 12:11:49,27.062,23.625,off
09/14/2017 12:12:01,27.062,23.625,off
