TIME,INSIDE_TEMPERATURE,OUTSIDE_TEMPERATURE,LIGHTS_STATE

01/26/2018 12:31:25,22.187,21.25,off
01/26/2018 12:31:37,22.187,21.187,off
01/26/2018 12:31:48,22.187,21.062,off
01/26/2018 12:32:00,22.187,21.125,off
