TIME,INSIDE_TEMPERATURE,OUTSIDE_TEMPERATURE,LIGHTS_STATE

09/27/2017 12:53:26,34.25,32.062,off
09/27/2017 12:53:37,34.312,32.125,off
09/27/2017 12:53:49,34.25,32.125,off
09/27/2017 12:54:01,34.312,32.125,off
