TIME,INSIDE_TEMPERATURE,OUTSIDE_TEMPERATURE,LIGHTS_STATE

04/19/2017 12:24:25,23.125,20.5,off
04/19/2017 12:24:37,23.125,20.5,off
04/19/2017 12:24:49,23.187,20.5,off
04/19/2017 12:25:01,23.125,20.562,off
