TIME,INSIDE_TEMPERATURE,OUTSIDE_TEMPERATURE,LIGHTS_STATE

07/03/2016 12:31:25,29.437,29.5,off
07/03/2016 12:31:37,29.437,29.562,off
07/03/2016 12:31:49,29.5,29.562,off
07/03/2016 12:32:00,29.5,29.562,off
