TIME,INSIDE_TEMPERATURE,OUTSIDE_TEMPERATURE,LIGHTS_STATE

03/02/2018 12:34:26,19.187,17.687,off
03/02/2018 12:34:37,19.187,17.5,off
03/02/2018 12:34:49,19.187,17.312,off
03/02/2018 12:35:01,19.187,17.125,off
