TIME,INSIDE_TEMPERATURE,OUTSIDE_TEMPERATURE,LIGHTS_STATE

06/26/2016 12:29:25,32.125,32.125,off
06/26/2016 12:29:37,32.125,32.125,off
06/26/2016 12:29:49,32.125,32.125,off
06/26/2016 12:30:00,32.125,32.125,off
