TIME,INSIDE_TEMPERATURE,OUTSIDE_TEMPERATURE,LIGHTS_STATE

01/20/2018 12:32:25,22.562,23.312,off
01/20/2018 12:32:37,22.562,23.437,off
01/20/2018 12:32:49,22.562,23.437,off
01/20/2018 12:33:01,22.562,23.5,off
