TIME,INSIDE_TEMPERATURE,OUTSIDE_TEMPERATURE,LIGHTS_STATE

02/11/2018 12:58:25,22.687,15.75,off
02/11/2018 12:58:37,22.687,15.75,off
02/11/2018 12:58:49,22.75,15.75,off
02/11/2018 12:59:01,22.687,15.75,off
