TIME,INSIDE_TEMPERATURE,OUTSIDE_TEMPERATURE,LIGHTS_STATE

01/19/2018 12:40:25,24.875,24.312,off
01/19/2018 12:40:37,24.875,24.375,off
01/19/2018 12:40:48,24.812,24.562,off
01/19/2018 12:41:00,24.875,24.687,off
