TIME,INSIDE_TEMPERATURE,OUTSIDE_TEMPERATURE,LIGHTS_STATE

12/13/2016 12:12:25,18.375,16.562,off
12/13/2016 12:12:36,18.375,16.687,off
12/13/2016 12:12:48,18.437,16.812,off
12/13/2016 12:13:00,18.437,17.0,off
