TIME,INSIDE_TEMPERATURE,OUTSIDE_TEMPERATURE,LIGHTS_STATE

03/02/2018 12:13:25,18.812,22.437,off
03/02/2018 12:13:37,18.812,22.062,off
03/02/2018 12:13:49,18.812,21.937,off
03/02/2018 12:14:00,18.812,21.812,off
