TIME,INSIDE_TEMPERATURE,OUTSIDE_TEMPERATURE,LIGHTS_STATE

09/24/2017 12:04:26,27.187,25.062,off
09/24/2017 12:04:38,27.25,25.125,off
09/24/2017 12:04:49,27.25,25.187,off
09/24/2017 12:05:01,27.312,25.187,off
