TIME,INSIDE_TEMPERATURE,OUTSIDE_TEMPERATURE,LIGHTS_STATE

07/12/2017 12:04:25,31.375,28.75,off
07/12/2017 12:04:37,31.375,28.812,off
07/12/2017 12:04:49,31.375,28.812,off
07/12/2017 12:05:00,31.375,28.812,off
