TIME,INSIDE_TEMPERATURE,OUTSIDE_TEMPERATURE,LIGHTS_STATE

01/25/2018 12:52:25,17.937,10.875,off
01/25/2018 12:52:37,17.937,10.812,off
01/25/2018 12:52:48,17.937,10.812,off
01/25/2018 12:53:00,17.937,10.875,off
