TIME,INSIDE_TEMPERATURE,OUTSIDE_TEMPERATURE,LIGHTS_STATE

01/02/2018 12:11:25,20.187,17.062,off
01/02/2018 12:11:37,20.187,17.062,off
01/02/2018 12:11:49,20.187,17.062,off
01/02/2018 12:12:01,20.187,17.0,off
