TIME,INSIDE_TEMPERATURE,OUTSIDE_TEMPERATURE,LIGHTS_STATE

03/11/2018 12:31:25,22.875,35.312,off
03/11/2018 12:31:37,22.875,35.375,off
03/11/2018 12:31:50,22.937,35.5,off
03/11/2018 12:32:01,22.937,35.625,off
