TIME,INSIDE_TEMPERATURE,OUTSIDE_TEMPERATURE,LIGHTS_STATE

01/20/2018 12:02:25,22.375,17.75,off
01/20/2018 12:02:37,22.375,17.875,off
01/20/2018 12:02:50,22.375,17.812,off
01/20/2018 12:03:01,22.375,17.812,off
