TIME,INSIDE_TEMPERATURE,OUTSIDE_TEMPERATURE,LIGHTS_STATE

11/23/2016 12:16:25,23.062,17.5,off
11/23/2016 12:16:37,23.062,17.562,off
11/23/2016 12:16:48,23.125,17.625,off
11/23/2016 12:17:00,23.125,17.687,off
