TIME,INSIDE_TEMPERATURE,OUTSIDE_TEMPERATURE,LIGHTS_STATE

02/10/2017 12:16:25,19.812,15.5,off
02/10/2017 12:16:37,19.812,15.437,off
02/10/2017 12:16:48,19.812,15.437,off
02/10/2017 12:17:00,19.812,15.437,off
