TIME,INSIDE_TEMPERATURE,OUTSIDE_TEMPERATURE,LIGHTS_STATE

02/17/2017 12:52:25,18.437,14.625,off
02/17/2017 12:52:37,18.437,14.625,off
02/17/2017 12:52:48,18.375,14.625,off
02/17/2017 12:53:00,18.437,14.625,off
