TIME,INSIDE_TEMPERATURE,OUTSIDE_TEMPERATURE,LIGHTS_STATE

03/14/2018 12:28:25,17.812,11.062,off
03/14/2018 12:28:38,17.812,11.062,off
03/14/2018 12:28:50,17.812,11.0,off
03/14/2018 12:29:02,17.812,11.0,off
