TIME,INSIDE_TEMPERATURE,OUTSIDE_TEMPERATURE,LIGHTS_STATE

09/16/2017 12:51:26,32.75,29.25,off
09/16/2017 12:51:38,32.875,29.312,off
09/16/2017 12:51:49,33.0,29.25,off
09/16/2017 12:52:01,33.062,29.25,off
