TIME,INSIDE_TEMPERATURE,OUTSIDE_TEMPERATURE,LIGHTS_STATE

02/26/2017 12:21:25,23.25,21.25,off
02/26/2017 12:21:37,23.25,21.25,off
02/26/2017 12:21:48,23.25,21.312,off
02/26/2017 12:22:00,23.187,21.5,off
