TIME,INSIDE_TEMPERATURE,OUTSIDE_TEMPERATURE,LIGHTS_STATE

06/06/2017 12:51:26,23.187,23.062,off
06/06/2017 12:51:38,23.187,23.062,off
06/06/2017 12:51:50,23.187,23.062,off
06/06/2017 12:52:01,23.187,23.125,off
