TIME,INSIDE_TEMPERATURE,OUTSIDE_TEMPERATURE,LIGHTS_STATE

09/18/2017 12:18:25,29.937,26.25,off
09/18/2017 12:18:37,29.937,26.25,off
09/18/2017 12:18:49,29.937,26.187,off
09/18/2017 12:19:00,29.937,26.125,off
