TIME,INSIDE_TEMPERATURE,OUTSIDE_TEMPERATURE,LIGHTS_STATE

03/15/2017 12:12:25,26.625,23.187,off
03/15/2017 12:12:37,26.625,23.187,off
03/15/2017 12:12:48,26.625,23.187,off
03/15/2017 12:13:00,26.687,23.25,off
