TIME,INSIDE_TEMPERATURE,OUTSIDE_TEMPERATURE,LIGHTS_STATE

04/11/2017 12:04:25,25.187,21.062,off
04/11/2017 12:04:37,25.25,21.062,off
04/11/2017 12:04:49,25.187,21.062,off
04/11/2017 12:05:00,25.25,21.0,off
