TIME,INSIDE_TEMPERATURE,OUTSIDE_TEMPERATURE,LIGHTS_STATE

07/29/2017 12:22:25,31.187,28.375,off
07/29/2017 12:22:37,31.25,28.375,off
07/29/2017 12:22:49,31.25,28.375,off
07/29/2017 12:23:01,31.25,28.375,off
