TIME,INSIDE_TEMPERATURE,OUTSIDE_TEMPERATURE,LIGHTS_STATE

01/13/2018 12:05:25,16.687,12.0,off
01/13/2018 12:05:37,16.75,12.0,off
01/13/2018 12:05:49,16.75,12.062,off
01/13/2018 12:06:00,16.75,12.062,off
