TIME,INSIDE_TEMPERATURE,OUTSIDE_TEMPERATURE,LIGHTS_STATE

10/01/2017 12:55:25,30.812,28.75,off
10/01/2017 12:55:37,30.812,28.875,off
10/01/2017 12:55:49,30.875,28.875,off
10/01/2017 12:56:01,30.875,28.937,off
