TIME,INSIDE_TEMPERATURE,OUTSIDE_TEMPERATURE,LIGHTS_STATE

08/26/2017 12:57:26,37.0,35.25,off
08/26/2017 12:57:37,37.0,35.25,off
08/26/2017 12:57:49,37.062,35.25,off
08/26/2017 12:58:01,37.062,35.25,off
