TIME,INSIDE_TEMPERATURE,OUTSIDE_TEMPERATURE,LIGHTS_STATE

08/23/2017 12:32:25,30.0,27.687,off
08/23/2017 12:32:37,30.0,27.75,off
08/23/2017 12:32:48,30.062,27.812,off
08/23/2017 12:33:00,30.062,27.75,off
