TIME,INSIDE_TEMPERATURE,OUTSIDE_TEMPERATURE,LIGHTS_STATE

09/09/2016 12:06:25,26.687,36.5,off
09/09/2016 12:06:37,26.687,36.437,off
09/09/2016 12:06:49,26.687,36.437,off
09/09/2016 12:07:00,26.75,36.375,off
