TIME,INSIDE_TEMPERATURE,OUTSIDE_TEMPERATURE,LIGHTS_STATE

12/03/2016 12:02:24,24.75,22.125,off
12/03/2016 12:02:36,24.75,22.187,off
12/03/2016 12:02:48,24.75,22.062,off
12/03/2016 12:02:59,24.75,22.062,off
