TIME,INSIDE_TEMPERATURE,OUTSIDE_TEMPERATURE,LIGHTS_STATE

02/09/2017 12:32:25,20.062,15.062,off
02/09/2017 12:32:37,20.0,15.0,off
02/09/2017 12:32:48,20.062,15.0,off
02/09/2017 12:33:00,20.0,15.0,off
