TIME,INSIDE_TEMPERATURE,OUTSIDE_TEMPERATURE,LIGHTS_STATE

03/24/2018 12:23:25,18.937,12.562,off
03/24/2018 12:23:36,19.0,12.437,off
03/24/2018 12:23:48,19.0,12.375,off
03/24/2018 12:24:00,19.0,12.375,off
