TIME,INSIDE_TEMPERATURE,OUTSIDE_TEMPERATURE,LIGHTS_STATE

10/23/2016 12:28:24,24.75,21.312,off
10/23/2016 12:28:36,24.75,21.312,off
10/23/2016 12:28:47,24.687,21.312,off
10/23/2016 12:28:59,24.75,21.312,off
