TIME,INSIDE_TEMPERATURE,OUTSIDE_TEMPERATURE,LIGHTS_STATE

05/18/2017 12:19:25,24.562,23.625,off
05/18/2017 12:19:37,24.562,23.625,off
05/18/2017 12:19:48,24.562,23.625,off
05/18/2017 12:20:00,24.562,23.625,off
