TIME,INSIDE_TEMPERATURE,OUTSIDE_TEMPERATURE,LIGHTS_STATE

03/21/2018 12:04:25,21.687,17.187,off
03/21/2018 12:04:36,21.687,17.187,off
03/21/2018 12:04:48,21.687,17.25,off
03/21/2018 12:05:00,21.687,17.312,off
