TIME,INSIDE_TEMPERATURE,OUTSIDE_TEMPERATURE,LIGHTS_STATE

02/23/2017 12:56:25,19.687,13.437,off
02/23/2017 12:56:37,19.625,13.437,off
02/23/2017 12:56:49,19.625,13.437,off
02/23/2017 12:57:00,19.625,13.437,off
