TIME,INSIDE_TEMPERATURE,OUTSIDE_TEMPERATURE,LIGHTS_STATE

09/12/2016 12:29:25,24.75,22.25,off
09/12/2016 12:29:37,24.687,22.125,off
09/12/2016 12:29:49,24.687,22.125,off
09/12/2016 12:30:00,24.687,22.187,off
