TIME,INSIDE_TEMPERATURE,OUTSIDE_TEMPERATURE,LIGHTS_STATE

07/28/2017 12:53:25,33.687,30.812,off
07/28/2017 12:53:37,33.687,30.812,off
07/28/2017 12:53:48,33.75,30.875,off
07/28/2017 12:54:00,33.812,30.875,off
