TIME,INSIDE_TEMPERATURE,OUTSIDE_TEMPERATURE,LIGHTS_STATE

03/09/2018 12:36:25,25.75,21.187,off
03/09/2018 12:36:37,25.75,21.187,off
03/09/2018 12:36:49,25.812,21.125,off
03/09/2018 12:37:00,25.75,21.125,off
