TIME,INSIDE_TEMPERATURE,OUTSIDE_TEMPERATURE,LIGHTS_STATE

01/06/2018 12:18:25,24.562,30.625,off
01/06/2018 12:18:37,24.625,30.812,off
01/06/2018 12:18:49,24.625,31.062,off
01/06/2018 12:19:01,24.625,31.375,off
