TIME,INSIDE_TEMPERATURE,OUTSIDE_TEMPERATURE,LIGHTS_STATE

09/02/2017 12:08:25,39.687,38.625,off
09/02/2017 12:08:37,39.687,38.562,off
09/02/2017 12:08:48,39.687,38.562,off
09/02/2017 12:09:00,39.687,38.562,off
