TIME,INSIDE_TEMPERATURE,OUTSIDE_TEMPERATURE,LIGHTS_STATE

10/28/2016 12:55:26,24.125,20.625,off
10/28/2016 12:55:38,24.125,20.625,off
10/28/2016 12:55:49,24.125,20.625,off
10/28/2016 12:56:01,24.125,20.625,off
