TIME,INSIDE_TEMPERATURE,OUTSIDE_TEMPERATURE,LIGHTS_STATE

05/18/2017 12:27:25,24.687,23.5,off
05/18/2017 12:27:37,24.687,23.5,off
05/18/2017 12:27:48,24.687,23.5,off
05/18/2017 12:28:00,24.687,23.437,off
