TIME,INSIDE_TEMPERATURE,OUTSIDE_TEMPERATURE,LIGHTS_STATE

03/03/2017 12:36:25,26.25,24.562,off
03/03/2017 12:36:37,26.25,24.562,off
03/03/2017 12:36:49,26.25,24.625,off
03/03/2017 12:37:00,26.25,24.5,off
