TIME,INSIDE_TEMPERATURE,OUTSIDE_TEMPERATURE,LIGHTS_STATE

03/30/2017 12:17:26,22.187,18.25,off
03/30/2017 12:17:37,22.187,18.187,off
03/30/2017 12:17:49,22.187,18.187,off
03/30/2017 12:18:01,22.187,18.25,off
