TIME,INSIDE_TEMPERATURE,OUTSIDE_TEMPERATURE,LIGHTS_STATE

04/11/2017 12:10:25,25.25,21.375,off
04/11/2017 12:10:37,25.25,21.375,off
04/11/2017 12:10:48,25.25,21.25,off
04/11/2017 12:11:00,25.312,21.187,off
