TIME,INSIDE_TEMPERATURE,OUTSIDE_TEMPERATURE,LIGHTS_STATE

11/02/2017 12:40:25,27.125,21.812,off
11/02/2017 12:40:37,27.125,21.875,off
11/02/2017 12:40:49,27.125,21.875,off
11/02/2017 12:41:00,27.125,21.875,off
