TIME,INSIDE_TEMPERATURE,OUTSIDE_TEMPERATURE,LIGHTS_STATE

04/15/2017 12:06:26,21.562,18.375,off
04/15/2017 12:06:38,21.5,18.437,off
04/15/2017 12:06:50,21.562,18.437,off
04/15/2017 12:07:01,21.562,18.5,off
