TIME,INSIDE_TEMPERATURE,OUTSIDE_TEMPERATURE,LIGHTS_STATE

05/23/2017 12:25:25,29.312,27.562,off
05/23/2017 12:25:37,29.375,27.5,off
05/23/2017 12:25:48,29.312,27.562,off
05/23/2017 12:26:00,29.375,27.5,off
