TIME,INSIDE_TEMPERATURE,OUTSIDE_TEMPERATURE,LIGHTS_STATE

04/14/2017 12:26:25,19.187,16.187,off
04/14/2017 12:26:36,19.187,16.187,off
04/14/2017 12:26:48,19.25,16.25,off
04/14/2017 12:27:00,19.187,16.25,off
