TIME,INSIDE_TEMPERATURE,OUTSIDE_TEMPERATURE,LIGHTS_STATE

01/27/2018 12:33:25,24.312,21.812,off
01/27/2018 12:33:37,24.25,21.937,off
01/27/2018 12:33:49,24.25,22.062,off
01/27/2018 12:34:01,24.25,22.125,off
