TIME,INSIDE_TEMPERATURE,OUTSIDE_TEMPERATURE,LIGHTS_STATE

01/08/2017 12:30:25,18.875,15.25,off
01/08/2017 12:30:37,18.875,15.25,off
01/08/2017 12:30:48,18.875,15.25,off
01/08/2017 12:31:00,18.875,15.25,off
