TIME,INSIDE_TEMPERATURE,OUTSIDE_TEMPERATURE,LIGHTS_STATE

08/07/2017 12:06:25,27.75,24.875,off
08/07/2017 12:06:37,27.75,24.75,off
08/07/2017 12:06:48,27.75,24.625,off
08/07/2017 12:07:00,27.75,24.625,off
