TIME,INSIDE_TEMPERATURE,OUTSIDE_TEMPERATURE,LIGHTS_STATE

11/15/2016 12:14:25,27.5,22.937,off
11/15/2016 12:14:37,27.5,22.875,off
11/15/2016 12:14:49,27.5,22.812,off
11/15/2016 12:15:00,27.5,22.75,off
