TIME,INSIDE_TEMPERATURE,OUTSIDE_TEMPERATURE,LIGHTS_STATE

12/23/2016 12:36:24,14.187,9.937,off
12/23/2016 12:36:36,14.187,9.937,off
12/23/2016 12:36:48,14.187,9.875,off
12/23/2016 12:36:59,14.187,9.812,off
