TIME,INSIDE_TEMPERATURE,OUTSIDE_TEMPERATURE,LIGHTS_STATE

07/18/2017 12:25:25,28.875,25.937,off
07/18/2017 12:25:37,28.875,25.937,off
07/18/2017 12:25:48,28.875,26.0,off
07/18/2017 12:26:00,28.937,26.0,off
