TIME,INSIDE_TEMPERATURE,OUTSIDE_TEMPERATURE,LIGHTS_STATE

08/10/2017 12:04:25,26.437,23.625,off
08/10/2017 12:04:37,26.437,23.625,off
08/10/2017 12:04:49,26.437,23.562,off
08/10/2017 12:05:00,26.437,23.625,off
