TIME,INSIDE_TEMPERATURE,OUTSIDE_TEMPERATURE,LIGHTS_STATE

02/28/2017 12:53:26,22.437,24.25,off
02/28/2017 12:53:38,22.437,24.25,off
02/28/2017 12:53:49,22.437,24.375,off
02/28/2017 12:54:01,22.375,24.375,off
