TIME,INSIDE_TEMPERATURE,OUTSIDE_TEMPERATURE,LIGHTS_STATE

08/13/2017 12:18:26,29.5,27.25,off
08/13/2017 12:18:37,29.562,27.312,off
08/13/2017 12:18:49,29.562,27.312,off
08/13/2017 12:19:01,29.562,27.375,off
