TIME,INSIDE_TEMPERATURE,OUTSIDE_TEMPERATURE,LIGHTS_STATE

11/22/2016 12:51:25,23.625,19.187,off
11/22/2016 12:51:38,23.625,19.25,off
11/22/2016 12:51:49,23.625,19.25,off
11/22/2016 12:52:01,23.625,19.312,off
