TIME,INSIDE_TEMPERATURE,OUTSIDE_TEMPERATURE,LIGHTS_STATE

04/27/2017 12:13:25,23.062,20.187,off
04/27/2017 12:13:37,23.0,20.187,off
04/27/2017 12:13:49,23.0,20.187,off
04/27/2017 12:14:00,23.062,20.187,off
