TIME,INSIDE_TEMPERATURE,OUTSIDE_TEMPERATURE,LIGHTS_STATE

03/17/2018 12:45:25,19.187,14.625,off
03/17/2018 12:45:37,19.187,14.687,off
03/17/2018 12:45:49,19.187,14.625,off
03/17/2018 12:46:01,19.25,14.5,off
