TIME,INSIDE_TEMPERATURE,OUTSIDE_TEMPERATURE,LIGHTS_STATE

05/20/2017 12:11:25,29.625,29.125,off
05/20/2017 12:11:37,29.625,29.062,off
05/20/2017 12:11:48,29.625,29.062,off
05/20/2017 12:12:00,29.625,29.062,off
