TIME,INSIDE_TEMPERATURE,OUTSIDE_TEMPERATURE,LIGHTS_STATE

03/07/2018 12:10:26,24.0,32.5,off
03/07/2018 12:10:37,24.0,32.5,off
03/07/2018 12:10:49,24.062,32.687,off
03/07/2018 12:11:01,24.062,32.812,off
