TIME,INSIDE_TEMPERATURE,OUTSIDE_TEMPERATURE,LIGHTS_STATE

06/22/2016 12:23:25,28.0,28.437,off
06/22/2016 12:23:37,28.0,28.437,off
06/22/2016 12:23:48,28.0,28.5,off
06/22/2016 12:24:00,28.0,28.437,off
