TIME,INSIDE_TEMPERATURE,OUTSIDE_TEMPERATURE,LIGHTS_STATE

03/10/2017 12:22:25,28.0,24.187,off
03/10/2017 12:22:37,28.0,24.187,off
03/10/2017 12:22:48,28.0,24.187,off
03/10/2017 12:23:00,28.0,24.187,off
