TIME,INSIDE_TEMPERATURE,OUTSIDE_TEMPERATURE,LIGHTS_STATE

11/02/2016 12:37:25,29.375,29.312,off
11/02/2016 12:37:37,29.312,29.187,off
11/02/2016 12:37:48,29.375,29.375,off
11/02/2016 12:38:00,29.312,29.5,off
