TIME,INSIDE_TEMPERATURE,OUTSIDE_TEMPERATURE,LIGHTS_STATE

01/03/2018 12:10:25,16.875,12.75,off
01/03/2018 12:10:37,16.875,12.75,off
01/03/2018 12:10:49,16.875,12.75,off
01/03/2018 12:11:01,16.875,12.812,off
