TIME,INSIDE_TEMPERATURE,OUTSIDE_TEMPERATURE,LIGHTS_STATE

03/04/2018 12:34:25,20.687,36.0,off
03/04/2018 12:34:37,20.687,36.312,off
03/04/2018 12:34:48,20.687,36.625,off
03/04/2018 12:35:00,20.687,36.75,off
