TIME,INSIDE_TEMPERATURE,OUTSIDE_TEMPERATURE,LIGHTS_STATE

03/25/2017 12:17:25,22.812,19.625,off
03/25/2017 12:17:37,22.812,19.687,off
03/25/2017 12:17:49,22.812,19.75,off
03/25/2017 12:18:00,22.812,19.75,off
