TIME,INSIDE_TEMPERATURE,OUTSIDE_TEMPERATURE,LIGHTS_STATE

05/16/2017 12:33:25,21.437,16.312,off
05/16/2017 12:33:36,21.437,16.312,off
05/16/2017 12:33:48,21.437,16.312,off
05/16/2017 12:34:00,21.375,16.375,off
