TIME,INSIDE_TEMPERATURE,OUTSIDE_TEMPERATURE,LIGHTS_STATE

03/22/2017 12:47:25,21.0,16.937,off
03/22/2017 12:47:37,21.062,17.0,off
03/22/2017 12:47:49,21.062,17.0,off
03/22/2017 12:48:00,21.062,17.0,off
