TIME,INSIDE_TEMPERATURE,OUTSIDE_TEMPERATURE,LIGHTS_STATE

09/05/2016 12:03:25,25.437,27.75,off
09/05/2016 12:03:36,25.437,27.75,off
09/05/2016 12:03:48,25.437,27.75,off
09/05/2016 12:04:00,25.437,27.812,off
