TIME,INSIDE_TEMPERATURE,OUTSIDE_TEMPERATURE,LIGHTS_STATE

11/01/2017 12:38:25,30.437,26.75,off
11/01/2017 12:38:37,30.437,26.75,off
11/01/2017 12:38:49,30.375,26.875,off
11/01/2017 12:39:00,30.437,27.0,off
