TIME,INSIDE_TEMPERATURE,OUTSIDE_TEMPERATURE,LIGHTS_STATE

11/02/2016 12:51:25,27.875,30.375,off
11/02/2016 12:51:36,27.875,30.187,off
11/02/2016 12:51:48,27.875,30.187,off
11/02/2016 12:52:00,27.812,30.0,off
