TIME,INSIDE_TEMPERATURE,OUTSIDE_TEMPERATURE,LIGHTS_STATE

01/18/2018 12:22:25,25.312,22.0,off
01/18/2018 12:22:37,25.312,21.75,off
01/18/2018 12:22:49,25.312,21.687,off
01/18/2018 12:23:01,25.25,21.687,off
