TIME,INSIDE_TEMPERATURE,OUTSIDE_TEMPERATURE,LIGHTS_STATE

11/02/2016 12:42:26,28.5,30.187,off
11/02/2016 12:42:37,28.437,30.25,off
11/02/2016 12:42:49,28.437,30.312,off
11/02/2016 12:43:01,28.375,30.562,off
