TIME,INSIDE_TEMPERATURE,OUTSIDE_TEMPERATURE,LIGHTS_STATE

07/12/2016 12:40:25,25.437,25.125,off
07/12/2016 12:40:36,25.437,25.187,off
07/12/2016 12:40:48,25.437,25.187,off
07/12/2016 12:41:00,25.437,25.25,off
