TIME,INSIDE_TEMPERATURE,OUTSIDE_TEMPERATURE,LIGHTS_STATE

07/30/2017 12:45:25,31.062,28.125,off
07/30/2017 12:45:36,31.125,28.062,off
07/30/2017 12:45:48,31.125,28.062,off
07/30/2017 12:46:00,31.125,28.062,off
