TIME,INSIDE_TEMPERATURE,OUTSIDE_TEMPERATURE,LIGHTS_STATE

02/27/2018 12:56:25,21.125,20.812,off
02/27/2018 12:56:37,21.125,20.75,off
02/27/2018 12:56:49,21.125,20.687,off
02/27/2018 12:57:00,21.125,20.687,off
