TIME,INSIDE_TEMPERATURE,OUTSIDE_TEMPERATURE,LIGHTS_STATE

03/22/2017 12:34:25,20.375,15.687,off
03/22/2017 12:34:38,20.375,15.687,off
03/22/2017 12:34:49,20.375,15.75,off
03/22/2017 12:35:01,20.375,15.687,off
