TIME,INSIDE_TEMPERATURE,OUTSIDE_TEMPERATURE,LIGHTS_STATE

03/19/2017 12:38:25,24.125,21.937,off
03/19/2017 12:38:37,24.187,22.0,off
03/19/2017 12:38:48,24.187,22.062,off
03/19/2017 12:39:00,24.187,22.062,off
