TIME,INSIDE_TEMPERATURE,OUTSIDE_TEMPERATURE,LIGHTS_STATE

08/23/2017 12:03:25,29.375,27.5,off
08/23/2017 12:03:37,29.375,27.5,off
08/23/2017 12:03:49,29.375,27.562,off
08/23/2017 12:04:00,29.437,27.562,off
