TIME,INSIDE_TEMPERATURE,OUTSIDE_TEMPERATURE,LIGHTS_STATE

10/18/2017 12:26:25,31.125,34.187,off
10/18/2017 12:26:37,31.187,34.125,off
10/18/2017 12:26:49,31.187,34.125,off
10/18/2017 12:27:01,31.187,34.062,off
