TIME,INSIDE_TEMPERATURE,OUTSIDE_TEMPERATURE,LIGHTS_STATE

02/01/2018 12:30:25,27.625,26.437,off
02/01/2018 12:30:37,27.625,26.25,off
02/01/2018 12:30:49,27.625,26.125,off
02/01/2018 12:31:01,27.625,26.187,off
