TIME,INSIDE_TEMPERATURE,OUTSIDE_TEMPERATURE,LIGHTS_STATE

02/09/2018 12:24:26,31.062,33.937,off
02/09/2018 12:24:37,31.125,34.062,off
02/09/2018 12:24:49,31.062,34.062,off
02/09/2018 12:25:01,31.125,34.062,off
