TIME,INSIDE_TEMPERATURE,OUTSIDE_TEMPERATURE,LIGHTS_STATE

09/12/2016 12:48:26,25.25,23.25,off
09/12/2016 12:48:38,25.25,23.25,off
09/12/2016 12:48:50,25.312,23.187,off
09/12/2016 12:49:01,25.312,23.25,off
