TIME,INSIDE_TEMPERATURE,OUTSIDE_TEMPERATURE,LIGHTS_STATE

08/18/2017 12:45:25,32.0,30.125,off
08/18/2017 12:45:37,32.0,30.187,off
08/18/2017 12:45:49,32.062,30.187,off
08/18/2017 12:46:01,32.062,30.125,off
