TIME,INSIDE_TEMPERATURE,OUTSIDE_TEMPERATURE,LIGHTS_STATE

08/06/2016 12:35:26,24.75,24.75,off
08/06/2016 12:35:37,24.75,24.812,off
08/06/2016 12:35:49,24.812,24.812,off
08/06/2016 12:36:01,24.75,24.75,off
