TIME,INSIDE_TEMPERATURE,OUTSIDE_TEMPERATURE,LIGHTS_STATE

07/26/2016 12:37:25,34.625,33.312,off
07/26/2016 12:37:37,34.687,33.312,off
07/26/2016 12:37:49,34.687,33.312,off
07/26/2016 12:38:00,34.687,33.312,off
