TIME,INSIDE_TEMPERATURE,OUTSIDE_TEMPERATURE,LIGHTS_STATE

04/21/2017 12:57:25,24.687,22.5,off
04/21/2017 12:57:37,24.75,22.5,off
04/21/2017 12:57:49,24.75,22.562,off
04/21/2017 12:58:00,24.75,22.562,off
