TIME,INSIDE_TEMPERATURE,OUTSIDE_TEMPERATURE,LIGHTS_STATE

08/10/2017 12:50:25,27.562,24.687,off
08/10/2017 12:50:37,27.562,24.687,off
08/10/2017 12:50:49,27.562,24.687,off
08/10/2017 12:51:01,27.312,24.75,off
