TIME,INSIDE_TEMPERATURE,OUTSIDE_TEMPERATURE,LIGHTS_STATE

11/20/2016 12:49:25,21.812,17.687,off
11/20/2016 12:49:37,21.812,17.75,off
11/20/2016 12:49:49,21.812,17.75,off
11/20/2016 12:50:00,21.812,17.75,off
