TIME,INSIDE_TEMPERATURE,OUTSIDE_TEMPERATURE,LIGHTS_STATE

07/23/2017 12:39:25,36.375,33.312,off
07/23/2017 12:39:37,36.375,33.375,off
07/23/2017 12:39:49,36.375,33.312,off
07/23/2017 12:40:01,36.375,33.312,off
