TIME,INSIDE_TEMPERATURE,OUTSIDE_TEMPERATURE,LIGHTS_STATE

03/01/2018 12:19:25,18.625,12.562,off
03/01/2018 12:19:37,18.625,12.562,off
03/01/2018 12:19:49,18.625,12.625,off
03/01/2018 12:20:00,18.625,12.687,off
