TIME,INSIDE_TEMPERATURE,OUTSIDE_TEMPERATURE,LIGHTS_STATE

10/16/2017 12:13:26,33.625,35.875,off
10/16/2017 12:13:38,33.625,36.0,off
10/16/2017 12:13:49,33.687,36.0,off
10/16/2017 12:14:01,33.687,36.125,off
