TIME,INSIDE_TEMPERATURE,OUTSIDE_TEMPERATURE,LIGHTS_STATE

03/23/2018 12:10:25,18.562,16.187,off
03/23/2018 12:10:37,18.562,16.187,off
03/23/2018 12:10:49,18.562,16.062,off
03/23/2018 12:11:01,18.625,16.062,off
