TIME,INSIDE_TEMPERATURE,OUTSIDE_TEMPERATURE,LIGHTS_STATE

01/13/2018 12:07:26,16.75,12.25,off
01/13/2018 12:07:37,16.75,12.25,off
01/13/2018 12:07:49,16.812,12.25,off
01/13/2018 12:08:01,16.75,12.25,off
