TIME,INSIDE_TEMPERATURE,OUTSIDE_TEMPERATURE,LIGHTS_STATE

06/16/2017 12:29:25,33.375,29.625,off
06/16/2017 12:29:37,33.375,29.562,off
06/16/2017 12:29:49,33.375,29.625,off
06/16/2017 12:30:01,33.375,29.562,off
