TIME,INSIDE_TEMPERATURE,OUTSIDE_TEMPERATURE,LIGHTS_STATE

06/13/2017 12:01:26,25.687,22.562,off
06/13/2017 12:01:37,25.687,22.625,off
06/13/2017 12:01:49,25.687,22.625,off
06/13/2017 12:02:01,25.687,22.687,off
