TIME,INSIDE_TEMPERATURE,OUTSIDE_TEMPERATURE,LIGHTS_STATE

08/02/2017 12:16:25,36.437,34.562,off
08/02/2017 12:16:37,36.437,34.562,off
08/02/2017 12:16:48,36.5,34.625,off
08/02/2017 12:17:00,36.5,34.625,off
