TIME,INSIDE_TEMPERATURE,OUTSIDE_TEMPERATURE,LIGHTS_STATE

09/22/2016 12:00:25,23.937,22.437,off
09/22/2016 12:00:37,23.937,22.812,off
09/22/2016 12:00:49,23.937,22.812,off
09/22/2016 12:01:01,24.0,22.75,off
