TIME,INSIDE_TEMPERATURE,OUTSIDE_TEMPERATURE,LIGHTS_STATE

01/19/2017 12:12:25,20.75,16.937,off
01/19/2017 12:12:37,20.75,16.875,off
01/19/2017 12:12:48,20.687,16.75,off
01/19/2017 12:13:00,20.687,16.562,off
