TIME,INSIDE_TEMPERATURE,OUTSIDE_TEMPERATURE,LIGHTS_STATE

06/29/2017 12:10:25,27.5,24.312,off
06/29/2017 12:10:36,27.5,24.375,off
06/29/2017 12:10:49,27.562,24.375,off
06/29/2017 12:11:01,27.5,24.5,off
