TIME,INSIDE_TEMPERATURE,OUTSIDE_TEMPERATURE,LIGHTS_STATE

11/16/2016 12:48:25,24.312,20.375,off
11/16/2016 12:48:36,24.312,20.437,off
11/16/2016 12:48:48,24.312,20.375,off
11/16/2016 12:49:00,24.312,20.437,off
