TIME,INSIDE_TEMPERATURE,OUTSIDE_TEMPERATURE,LIGHTS_STATE

09/09/2017 12:23:25,29.937,28.062,off
09/09/2017 12:23:37,29.937,28.0,off
09/09/2017 12:23:49,29.937,28.0,off
09/09/2017 12:24:01,29.937,28.0,off
