TIME,INSIDE_TEMPERATURE,OUTSIDE_TEMPERATURE,LIGHTS_STATE

07/21/2017 12:52:25,31.125,27.75,off
07/21/2017 12:52:37,31.125,27.75,off
07/21/2017 12:52:49,31.125,27.75,off
07/21/2017 12:53:00,31.125,27.75,off
