TIME,INSIDE_TEMPERATURE,OUTSIDE_TEMPERATURE,LIGHTS_STATE

03/13/2018 12:36:25,20.562,13.937,off
03/13/2018 12:36:37,20.562,14.0,off
03/13/2018 12:36:48,20.562,14.0,off
03/13/2018 12:37:00,20.562,14.0,off
