TIME,INSIDE_TEMPERATURE,OUTSIDE_TEMPERATURE,LIGHTS_STATE

01/01/2017 12:41:24,20.375,22.625,off
01/01/2017 12:41:36,20.375,22.375,off
01/01/2017 12:41:48,20.375,22.312,off
01/01/2017 12:41:59,20.375,22.375,off
