TIME,INSIDE_TEMPERATURE,OUTSIDE_TEMPERATURE,LIGHTS_STATE

08/20/2017 12:54:25,30.875,28.625,off
08/20/2017 12:54:37,30.875,28.687,off
08/20/2017 12:54:49,30.875,28.75,off
08/20/2017 12:55:01,30.875,28.812,off
