TIME,INSIDE_TEMPERATURE,OUTSIDE_TEMPERATURE,LIGHTS_STATE

12/30/2016 12:54:25,17.687,16.5,off
12/30/2016 12:54:37,17.687,16.5,off
12/30/2016 12:54:49,17.687,16.5,off
12/30/2016 12:55:00,17.687,16.437,off
