TIME,INSIDE_TEMPERATURE,OUTSIDE_TEMPERATURE,LIGHTS_STATE

03/04/2017 12:29:25,24.062,24.312,off
03/04/2017 12:29:37,24.062,24.0,off
03/04/2017 12:29:48,24.062,23.875,off
03/04/2017 12:30:00,24.125,23.812,off
