TIME,INSIDE_TEMPERATURE,OUTSIDE_TEMPERATURE,LIGHTS_STATE

11/19/2016 12:34:25,20.312,15.687,off
11/19/2016 12:34:36,20.312,15.687,off
11/19/2016 12:34:48,20.312,15.75,off
11/19/2016 12:35:00,20.375,15.75,off
