TIME,INSIDE_TEMPERATURE,OUTSIDE_TEMPERATURE,LIGHTS_STATE

06/21/2016 12:44:25,32.25,32.125,off
06/21/2016 12:44:37,32.25,32.062,off
06/21/2016 12:44:48,32.25,32.125,off
06/21/2016 12:45:00,32.25,32.125,off
