TIME,INSIDE_TEMPERATURE,OUTSIDE_TEMPERATURE,LIGHTS_STATE

01/12/2017 12:54:25,13.125,8.625,off
01/12/2017 12:54:37,13.187,8.625,off
01/12/2017 12:54:49,13.187,8.625,off
01/12/2017 12:55:00,13.187,8.625,off
