TIME,INSIDE_TEMPERATURE,OUTSIDE_TEMPERATURE,LIGHTS_STATE

06/11/2017 12:41:25,23.187,18.875,off
06/11/2017 12:41:37,23.187,18.812,off
06/11/2017 12:41:48,23.187,18.812,off
06/11/2017 12:42:00,23.187,18.812,off
