TIME,INSIDE_TEMPERATURE,OUTSIDE_TEMPERATURE,LIGHTS_STATE

01/02/2017 12:10:25,15.812,12.062,off
01/02/2017 12:10:37,15.812,12.25,off
01/02/2017 12:10:48,15.812,12.187,off
01/02/2017 12:11:00,15.812,12.25,off
