TIME,INSIDE_TEMPERATURE,OUTSIDE_TEMPERATURE,LIGHTS_STATE

10/20/2017 12:25:25,24.812,17.25,off
10/20/2017 12:25:37,24.812,17.187,off
10/20/2017 12:25:49,24.812,17.25,off
10/20/2017 12:26:01,24.812,17.187,off
