TIME,INSIDE_TEMPERATURE,OUTSIDE_TEMPERATURE,LIGHTS_STATE

02/10/2018 12:30:25,27.25,25.687,off
02/10/2018 12:30:37,27.25,25.75,off
02/10/2018 12:30:49,27.25,25.812,off
02/10/2018 12:31:00,27.25,25.875,off
