TIME,INSIDE_TEMPERATURE,OUTSIDE_TEMPERATURE,LIGHTS_STATE

06/12/2017 12:20:25,22.937,18.375,off
06/12/2017 12:20:37,22.937,18.437,off
06/12/2017 12:20:49,22.937,18.437,off
06/12/2017 12:21:00,22.937,18.5,off
