TIME,INSIDE_TEMPERATURE,OUTSIDE_TEMPERATURE,LIGHTS_STATE

05/11/2017 12:15:25,23.062,19.375,off
05/11/2017 12:15:37,23.062,19.375,off
05/11/2017 12:15:49,23.062,19.437,off
05/11/2017 12:16:00,23.125,19.5,off
