TIME,INSIDE_TEMPERATURE,OUTSIDE_TEMPERATURE,LIGHTS_STATE

03/02/2017 12:46:26,24.25,23.312,off
03/02/2017 12:46:37,24.25,23.375,off
03/02/2017 12:46:49,24.25,23.375,off
03/02/2017 12:47:01,24.25,23.375,off
