TIME,INSIDE_TEMPERATURE,OUTSIDE_TEMPERATURE,LIGHTS_STATE

09/26/2017 12:36:26,32.312,30.125,off
09/26/2017 12:36:37,32.375,30.187,off
09/26/2017 12:36:49,32.375,30.25,off
09/26/2017 12:37:01,32.375,30.25,off
