TIME,INSIDE_TEMPERATURE,OUTSIDE_TEMPERATURE,LIGHTS_STATE

02/03/2018 12:28:26,28.25,29.875,off
02/03/2018 12:28:38,28.125,29.937,off
02/03/2018 12:28:49,28.187,29.937,off
02/03/2018 12:29:01,28.5,29.937,off
