TIME,INSIDE_TEMPERATURE,OUTSIDE_TEMPERATURE,LIGHTS_STATE

12/24/2017 12:07:25,16.937,12.375,off
12/24/2017 12:07:37,16.875,12.375,off
12/24/2017 12:07:49,16.937,12.375,off
12/24/2017 12:08:01,16.937,12.375,off
