TIME,INSIDE_TEMPERATURE,OUTSIDE_TEMPERATURE,LIGHTS_STATE

03/24/2018 12:27:26,19.0,13.875,off
03/24/2018 12:27:37,19.0,14.0,off
03/24/2018 12:27:49,19.0,14.125,off
03/24/2018 12:28:01,19.062,14.25,off
