TIME,INSIDE_TEMPERATURE,OUTSIDE_TEMPERATURE,LIGHTS_STATE

01/28/2018 12:08:25,24.75,20.625,off
01/28/2018 12:08:37,24.75,20.687,off
01/28/2018 12:08:49,24.75,20.687,off
01/28/2018 12:09:01,24.812,20.687,off
