TIME,INSIDE_TEMPERATURE,OUTSIDE_TEMPERATURE,LIGHTS_STATE

02/28/2018 12:28:25,20.75,26.812,off
02/28/2018 12:28:37,20.812,26.812,off
02/28/2018 12:28:48,20.812,26.812,off
02/28/2018 12:29:00,20.812,26.687,off
