TIME,INSIDE_TEMPERATURE,OUTSIDE_TEMPERATURE,LIGHTS_STATE

03/26/2017 12:14:25,23.875,21.187,off
03/26/2017 12:14:36,23.875,21.062,off
03/26/2017 12:14:48,23.875,20.937,off
03/26/2017 12:15:00,23.875,20.75,off
