TIME,INSIDE_TEMPERATURE,OUTSIDE_TEMPERATURE,LIGHTS_STATE

10/07/2017 12:48:26,34.062,29.312,off
10/07/2017 12:48:37,34.062,29.375,off
10/07/2017 12:48:49,34.062,29.375,off
10/07/2017 12:49:01,34.062,29.375,off
