TIME,INSIDE_TEMPERATURE,OUTSIDE_TEMPERATURE,LIGHTS_STATE

10/04/2017 12:39:26,29.25,27.312,off
10/04/2017 12:39:37,29.25,27.187,off
10/04/2017 12:39:49,29.25,27.187,off
10/04/2017 12:40:01,29.25,27.187,off
