TIME,INSIDE_TEMPERATURE,OUTSIDE_TEMPERATURE,LIGHTS_STATE

11/01/2016 12:37:25,28.812,30.875,off
11/01/2016 12:37:37,28.812,30.937,off
11/01/2016 12:37:48,28.812,31.0,off
11/01/2016 12:38:00,28.75,31.125,off
