TIME,INSIDE_TEMPERATURE,OUTSIDE_TEMPERATURE,LIGHTS_STATE

05/03/2017 12:16:25,32.312,30.375,off
05/03/2017 12:16:37,32.312,30.437,off
05/03/2017 12:16:49,32.312,30.375,off
05/03/2017 12:17:00,32.312,30.375,off
