TIME,INSIDE_TEMPERATURE,OUTSIDE_TEMPERATURE,LIGHTS_STATE

01/02/2018 12:28:25,20.312,17.0,off
01/02/2018 12:28:37,20.25,17.0,off
01/02/2018 12:28:49,20.312,17.0,off
01/02/2018 12:29:00,20.312,17.0,off
