TIME,INSIDE_TEMPERATURE,OUTSIDE_TEMPERATURE,LIGHTS_STATE

03/05/2017 12:55:25,17.0,12.375,off
03/05/2017 12:55:37,17.0,12.312,off
03/05/2017 12:55:48,17.0,12.375,off
03/05/2017 12:56:00,17.0,12.375,off
