TIME,INSIDE_TEMPERATURE,OUTSIDE_TEMPERATURE,LIGHTS_STATE

12/02/2016 12:19:25,22.562,18.75,off
12/02/2016 12:19:37,22.5,18.875,off
12/02/2016 12:19:48,22.5,19.062,off
12/02/2016 12:20:01,22.562,19.125,off
