TIME,INSIDE_TEMPERATURE,OUTSIDE_TEMPERATURE,LIGHTS_STATE

01/08/2018 12:07:25,17.0,11.312,off
01/08/2018 12:07:37,17.0,11.312,off
01/08/2018 12:07:49,17.0,11.312,off
01/08/2018 12:08:01,17.0,11.25,off
