TIME,INSIDE_TEMPERATURE,OUTSIDE_TEMPERATURE,LIGHTS_STATE

02/12/2017 12:30:26,25.75,22.812,off
02/12/2017 12:30:37,25.75,22.875,off
02/12/2017 12:30:49,25.75,22.875,off
02/12/2017 12:31:01,25.75,22.937,off
