TIME,INSIDE_TEMPERATURE,OUTSIDE_TEMPERATURE,LIGHTS_STATE

07/24/2017 12:30:25,31.125,27.937,off
07/24/2017 12:30:37,31.187,27.937,off
07/24/2017 12:30:48,31.187,27.875,off
07/24/2017 12:31:00,31.187,27.937,off
