TIME,INSIDE_TEMPERATURE,OUTSIDE_TEMPERATURE,LIGHTS_STATE

01/27/2018 12:55:25,24.312,22.062,off
01/27/2018 12:55:37,24.312,21.875,off
01/27/2018 12:55:49,24.312,21.75,off
01/27/2018 12:56:01,24.312,21.875,off
