TIME,INSIDE_TEMPERATURE,OUTSIDE_TEMPERATURE,LIGHTS_STATE

03/15/2018 12:39:25,18.187,12.25,off
03/15/2018 12:39:37,18.187,12.312,off
03/15/2018 12:39:49,18.187,12.312,off
03/15/2018 12:40:01,18.187,12.312,off
