TIME,INSIDE_TEMPERATURE,OUTSIDE_TEMPERATURE,LIGHTS_STATE

08/01/2017 12:13:26,35.562,34.5,off
08/01/2017 12:13:37,35.562,34.5,off
08/01/2017 12:13:49,35.562,34.5,off
08/01/2017 12:14:01,35.625,34.5,off
