TIME,INSIDE_TEMPERATURE,OUTSIDE_TEMPERATURE,LIGHTS_STATE

09/21/2016 12:19:26,27.375,24.437,off
09/21/2016 12:19:38,27.437,24.437,off
09/21/2016 12:19:50,27.437,24.437,off
09/21/2016 12:20:01,27.437,24.437,off
