TIME,INSIDE_TEMPERATURE,OUTSIDE_TEMPERATURE,LIGHTS_STATE

06/17/2017 12:56:25,35.312,30.062,off
06/17/2017 12:56:37,35.312,30.125,off
06/17/2017 12:56:49,35.375,30.125,off
06/17/2017 12:57:00,35.375,30.187,off
