TIME,INSIDE_TEMPERATURE,OUTSIDE_TEMPERATURE,LIGHTS_STATE

09/07/2017 12:39:25,29.687,25.875,off
09/07/2017 12:39:37,29.687,25.812,off
09/07/2017 12:39:49,29.75,25.812,off
09/07/2017 12:40:01,29.687,25.812,off
