TIME,INSIDE_TEMPERATURE,OUTSIDE_TEMPERATURE,LIGHTS_STATE

07/05/2016 12:22:25,25.75,25.5,off
07/05/2016 12:22:36,25.687,25.562,off
07/05/2016 12:22:48,25.687,25.5,off
07/05/2016 12:23:00,25.75,25.5,off
