TIME,INSIDE_TEMPERATURE,OUTSIDE_TEMPERATURE,LIGHTS_STATE

12/25/2017 12:11:26,19.562,15.5,off
12/25/2017 12:11:37,19.562,15.5,off
12/25/2017 12:11:49,19.562,15.437,off
12/25/2017 12:12:01,19.625,15.437,off
