TIME,INSIDE_TEMPERATURE,OUTSIDE_TEMPERATURE,LIGHTS_STATE

07/06/2017 12:52:26,34.187,31.312,off
07/06/2017 12:52:37,34.187,31.312,off
07/06/2017 12:52:49,34.187,31.312,off
07/06/2017 12:53:01,34.187,31.312,off
