TIME,INSIDE_TEMPERATURE,OUTSIDE_TEMPERATURE,LIGHTS_STATE

07/20/2016 12:45:25,27.125,27.062,off
07/20/2016 12:45:37,27.125,27.062,off
07/20/2016 12:45:49,27.125,27.0,off
07/20/2016 12:46:01,27.125,27.062,off
