TIME,INSIDE_TEMPERATURE,OUTSIDE_TEMPERATURE,LIGHTS_STATE

07/23/2016 12:05:25,32.25,32.437,off
07/23/2016 12:05:37,32.25,32.437,off
07/23/2016 12:05:48,32.25,32.437,off
07/23/2016 12:06:00,32.312,32.437,off
