TIME,INSIDE_TEMPERATURE,OUTSIDE_TEMPERATURE,LIGHTS_STATE

03/24/2017 12:16:25,17.5,12.125,off
03/24/2017 12:16:37,17.5,12.062,off
03/24/2017 12:16:48,17.437,12.062,off
03/24/2017 12:17:00,17.437,11.937,off
