TIME,INSIDE_TEMPERATURE,OUTSIDE_TEMPERATURE,LIGHTS_STATE

12/26/2016 12:28:25,16.562,12.5,off
12/26/2016 12:28:36,16.562,12.562,off
12/26/2016 12:28:48,16.562,12.5,off
12/26/2016 12:29:00,16.5,12.375,off
