TIME,INSIDE_TEMPERATURE,OUTSIDE_TEMPERATURE,LIGHTS_STATE

10/25/2016 12:38:26,27.875,25.812,off
10/25/2016 12:38:37,27.875,25.875,off
10/25/2016 12:38:49,27.875,25.812,off
10/25/2016 12:39:01,27.875,25.812,off
