TIME,INSIDE_TEMPERATURE,OUTSIDE_TEMPERATURE,LIGHTS_STATE

01/08/2017 12:36:25,18.75,15.187,off
01/08/2017 12:36:37,18.75,15.187,off
01/08/2017 12:36:49,18.75,15.187,off
01/08/2017 12:37:00,18.75,15.187,off
