TIME,INSIDE_TEMPERATURE,OUTSIDE_TEMPERATURE,LIGHTS_STATE

01/10/2018 12:50:25,18.312,13.625,off
01/10/2018 12:50:37,18.312,13.625,off
01/10/2018 12:50:48,18.312,13.625,off
01/10/2018 12:51:00,18.312,13.625,off
