TIME,INSIDE_TEMPERATURE,OUTSIDE_TEMPERATURE,LIGHTS_STATE

05/05/2017 12:33:25,22.75,19.625,off
05/05/2017 12:33:37,22.75,19.687,off
05/05/2017 12:33:49,22.75,19.75,off
05/05/2017 12:34:00,22.75,19.75,off
