TIME,INSIDE_TEMPERATURE,OUTSIDE_TEMPERATURE,LIGHTS_STATE

06/08/2017 12:47:25,25.062,22.062,off
06/08/2017 12:47:37,25.062,22.062,off
06/08/2017 12:47:49,25.062,22.062,off
06/08/2017 12:48:00,25.062,22.062,off
