TIME,INSIDE_TEMPERATURE,OUTSIDE_TEMPERATURE,LIGHTS_STATE

05/17/2017 12:00:25,22.187,20.0,off
05/17/2017 12:00:37,22.187,20.0,off
05/17/2017 12:00:49,22.187,20.0,off
05/17/2017 12:01:00,22.187,19.937,off
