TIME,INSIDE_TEMPERATURE,OUTSIDE_TEMPERATURE,LIGHTS_STATE

07/22/2017 12:51:25,33.937,29.562,off
07/22/2017 12:51:37,33.937,29.562,off
07/22/2017 12:51:49,33.937,29.562,off
07/22/2017 12:52:00,33.937,29.5,off
