TIME,INSIDE_TEMPERATURE,OUTSIDE_TEMPERATURE,LIGHTS_STATE

02/08/2018 12:58:25,29.625,46.5,off
02/08/2018 12:58:37,29.625,46.625,off
02/08/2018 12:58:48,29.625,46.687,off
02/08/2018 12:59:00,29.687,46.625,off
