TIME,INSIDE_TEMPERATURE,OUTSIDE_TEMPERATURE,LIGHTS_STATE

12/21/2016 12:55:25,22.437,24.75,off
12/21/2016 12:55:37,22.5,24.812,off
12/21/2016 12:55:49,22.437,24.5,off
12/21/2016 12:56:01,22.437,24.437,off
