TIME,INSIDE_TEMPERATURE,OUTSIDE_TEMPERATURE,LIGHTS_STATE

03/03/2017 12:51:26,25.937,23.937,off
03/03/2017 12:51:37,25.937,23.937,off
03/03/2017 12:51:49,25.937,24.0,off
03/03/2017 12:52:01,25.937,24.125,off
