TIME,INSIDE_TEMPERATURE,OUTSIDE_TEMPERATURE,LIGHTS_STATE

07/26/2016 12:26:26,34.562,33.437,off
07/26/2016 12:26:37,34.562,33.437,off
07/26/2016 12:26:49,34.562,33.437,off
07/26/2016 12:27:01,34.5,33.437,off
