TIME,INSIDE_TEMPERATURE,OUTSIDE_TEMPERATURE,LIGHTS_STATE

02/25/2017 12:53:25,21.562,23.25,off
02/25/2017 12:53:37,21.562,23.25,off
02/25/2017 12:53:49,21.562,23.5,off
02/25/2017 12:54:00,21.562,23.75,off
