TIME,INSIDE_TEMPERATURE,OUTSIDE_TEMPERATURE,LIGHTS_STATE

06/30/2016 12:15:25,28.812,28.687,off
06/30/2016 12:15:37,28.812,28.75,off
06/30/2016 12:15:49,28.812,28.75,off
06/30/2016 12:16:00,28.812,28.75,off
