TIME,INSIDE_TEMPERATURE,OUTSIDE_TEMPERATURE,LIGHTS_STATE

08/06/2017 12:13:25,30.812,28.25,off
08/06/2017 12:13:36,30.812,28.25,off
08/06/2017 12:13:48,30.812,28.312,off
08/06/2017 12:14:00,30.812,28.312,off
