TIME,INSIDE_TEMPERATURE,OUTSIDE_TEMPERATURE,LIGHTS_STATE

07/09/2016 12:57:26,27.0,26.125,off
07/09/2016 12:57:37,26.937,26.125,off
07/09/2016 12:57:49,27.0,26.125,off
07/09/2016 12:58:01,27.0,26.187,off
