TIME,INSIDE_TEMPERATURE,OUTSIDE_TEMPERATURE,LIGHTS_STATE

10/07/2017 12:19:25,32.562,28.0,off
10/07/2017 12:19:37,32.562,28.0,off
10/07/2017 12:19:48,32.562,28.0,off
10/07/2017 12:20:00,32.625,28.0,off
