TIME,INSIDE_TEMPERATURE,OUTSIDE_TEMPERATURE,LIGHTS_STATE

09/28/2017 12:41:26,34.687,32.562,off
09/28/2017 12:41:37,34.687,32.625,off
09/28/2017 12:41:49,34.687,32.625,off
09/28/2017 12:42:01,34.75,32.687,off
