TIME,INSIDE_TEMPERATURE,OUTSIDE_TEMPERATURE,LIGHTS_STATE

11/13/2016 12:16:24,30.437,34.187,off
11/13/2016 12:16:36,30.437,34.0,off
11/13/2016 12:16:48,30.437,34.062,off
11/13/2016 12:16:59,30.437,34.125,off
