TIME,INSIDE_TEMPERATURE,OUTSIDE_TEMPERATURE,LIGHTS_STATE

10/17/2017 12:40:25,30.625,29.5,off
10/17/2017 12:40:37,30.625,29.5,off
10/17/2017 12:40:49,30.625,29.5,off
10/17/2017 12:41:00,30.625,29.562,off
