TIME,INSIDE_TEMPERATURE,OUTSIDE_TEMPERATURE,LIGHTS_STATE

03/11/2018 12:11:26,22.0,27.25,off
03/11/2018 12:11:38,21.937,27.562,off
03/11/2018 12:11:49,22.0,27.75,off
03/11/2018 12:12:01,22.0,27.875,off
