TIME,INSIDE_TEMPERATURE,OUTSIDE_TEMPERATURE,LIGHTS_STATE

03/11/2018 12:55:25,23.937,26.5,off
03/11/2018 12:55:37,23.937,26.312,off
03/11/2018 12:55:48,23.937,26.062,off
03/11/2018 12:56:00,23.937,25.875,off
