TIME,INSIDE_TEMPERATURE,OUTSIDE_TEMPERATURE,LIGHTS_STATE

08/01/2016 12:52:26,28.312,28.187,off
08/01/2016 12:52:38,28.375,28.312,off
08/01/2016 12:52:50,28.375,28.312,off
08/01/2016 12:53:01,28.375,28.437,off
