TIME,INSIDE_TEMPERATURE,OUTSIDE_TEMPERATURE,LIGHTS_STATE

08/02/2017 12:13:25,36.375,34.562,off
08/02/2017 12:13:37,36.375,34.562,off
08/02/2017 12:13:49,36.375,34.562,off
08/02/2017 12:14:00,36.437,34.562,off
