TIME,INSIDE_TEMPERATURE,OUTSIDE_TEMPERATURE,LIGHTS_STATE

02/19/2018 12:47:25,20.062,29.125,off
02/19/2018 12:47:37,20.062,29.375,off
02/19/2018 12:47:49,20.062,29.375,off
02/19/2018 12:48:01,20.062,29.187,off
