TIME,INSIDE_TEMPERATURE,OUTSIDE_TEMPERATURE,LIGHTS_STATE

12/02/2016 12:32:25,22.312,18.812,off
12/02/2016 12:32:36,22.312,18.75,off
12/02/2016 12:32:48,22.312,18.687,off
12/02/2016 12:33:00,22.312,18.687,off
