TIME,INSIDE_TEMPERATURE,OUTSIDE_TEMPERATURE,LIGHTS_STATE

03/15/2018 12:28:25,18.312,11.875,off
03/15/2018 12:28:37,18.312,11.875,off
03/15/2018 12:28:49,18.312,11.875,off
03/15/2018 12:29:00,18.25,11.875,off
