TIME,INSIDE_TEMPERATURE,OUTSIDE_TEMPERATURE,LIGHTS_STATE

02/13/2017 12:28:25,24.375,21.125,off
02/13/2017 12:28:37,24.375,21.125,off
02/13/2017 12:28:49,24.437,21.125,off
02/13/2017 12:29:00,24.437,21.187,off
