TIME,INSIDE_TEMPERATURE,OUTSIDE_TEMPERATURE,LIGHTS_STATE

07/07/2017 12:08:25,36.125,32.312,off
07/07/2017 12:08:37,36.187,32.312,off
07/07/2017 12:08:48,36.187,32.312,off
07/07/2017 12:09:00,36.187,32.312,off
