TIME,INSIDE_TEMPERATURE,OUTSIDE_TEMPERATURE,LIGHTS_STATE

04/06/2017 12:54:25,21.625,17.937,off
04/06/2017 12:54:37,21.625,17.937,off
04/06/2017 12:54:49,21.625,17.937,off
04/06/2017 12:55:00,21.625,18.0,off
