TIME,INSIDE_TEMPERATURE,OUTSIDE_TEMPERATURE,LIGHTS_STATE

02/05/2018 12:25:25,30.312,35.125,off
02/05/2018 12:25:37,30.312,35.062,off
02/05/2018 12:25:49,30.312,35.062,off
02/05/2018 12:26:00,30.312,35.062,off
