TIME,INSIDE_TEMPERATURE,OUTSIDE_TEMPERATURE,LIGHTS_STATE

01/08/2018 12:18:25,17.0,11.375,off
01/08/2018 12:18:37,17.0,11.375,off
01/08/2018 12:18:49,17.0,11.375,off
01/08/2018 12:19:01,17.0,11.312,off
