TIME,INSIDE_TEMPERATURE,OUTSIDE_TEMPERATURE,LIGHTS_STATE

01/13/2018 12:56:25,17.562,12.375,off
01/13/2018 12:56:37,17.562,12.375,off
01/13/2018 12:56:48,17.625,12.375,off
01/13/2018 12:57:00,17.625,12.375,off
