TIME,INSIDE_TEMPERATURE,OUTSIDE_TEMPERATURE,LIGHTS_STATE

07/25/2016 12:12:26,30.062,31.25,off
07/25/2016 12:12:37,30.062,31.25,off
07/25/2016 12:12:49,30.062,31.25,off
07/25/2016 12:13:01,30.125,31.25,off
