TIME,INSIDE_TEMPERATURE,OUTSIDE_TEMPERATURE,LIGHTS_STATE

09/30/2017 12:12:25,28.5,25.75,off
09/30/2017 12:12:37,28.5,25.812,off
09/30/2017 12:12:49,28.562,25.812,off
09/30/2017 12:13:00,28.562,25.875,off
