TIME,INSIDE_TEMPERATURE,OUTSIDE_TEMPERATURE,LIGHTS_STATE

09/13/2016 12:28:25,24.437,21.812,off
09/13/2016 12:28:37,24.437,21.562,off
09/13/2016 12:28:50,24.437,21.5,off
09/13/2016 12:29:01,24.437,21.375,off
