TIME,INSIDE_TEMPERATURE,OUTSIDE_TEMPERATURE,LIGHTS_STATE

08/19/2017 12:41:25,30.562,28.125,off
08/19/2017 12:41:37,30.625,28.062,off
08/19/2017 12:41:49,30.625,28.062,off
08/19/2017 12:42:01,30.562,28.062,off
