TIME,INSIDE_TEMPERATURE,OUTSIDE_TEMPERATURE,LIGHTS_STATE

06/23/2016 12:49:25,27.875,28.812,off
06/23/2016 12:49:37,27.875,28.812,off
06/23/2016 12:49:48,27.875,28.812,off
06/23/2016 12:50:00,27.875,28.75,off
