TIME,INSIDE_TEMPERATURE,OUTSIDE_TEMPERATURE,LIGHTS_STATE

07/17/2017 12:53:26,37.312,34.562,off
07/17/2017 12:53:37,37.312,34.625,off
07/17/2017 12:53:49,37.312,34.75,off
07/17/2017 12:54:01,37.312,34.75,off
