TIME,INSIDE_TEMPERATURE,OUTSIDE_TEMPERATURE,LIGHTS_STATE

08/27/2017 12:03:25,37.062,35.625,off
08/27/2017 12:03:37,37.062,35.562,off
08/27/2017 12:03:49,37.125,35.562,off
08/27/2017 12:04:01,37.125,35.562,off
