TIME,INSIDE_TEMPERATURE,OUTSIDE_TEMPERATURE,LIGHTS_STATE

09/03/2017 12:44:26,42.25,40.125,off
09/03/2017 12:44:37,42.25,40.125,off
09/03/2017 12:44:49,42.25,40.125,off
09/03/2017 12:45:01,42.312,40.125,off
