TIME,INSIDE_TEMPERATURE,OUTSIDE_TEMPERATURE,LIGHTS_STATE

09/12/2016 12:26:26,24.687,23.187,off
09/12/2016 12:26:37,24.75,23.375,off
09/12/2016 12:26:49,24.75,23.375,off
09/12/2016 12:27:01,24.75,23.25,off
