TIME,INSIDE_TEMPERATURE,OUTSIDE_TEMPERATURE,LIGHTS_STATE

07/17/2016 12:35:25,26.25,26.312,off
07/17/2016 12:35:36,26.25,26.312,off
07/17/2016 12:35:48,26.25,26.312,off
07/17/2016 12:36:00,26.25,26.312,off
