TIME,INSIDE_TEMPERATURE,OUTSIDE_TEMPERATURE,LIGHTS_STATE

04/27/2017 12:47:25,23.437,20.437,off
04/27/2017 12:47:37,23.437,20.437,off
04/27/2017 12:47:49,23.437,20.437,off
04/27/2017 12:48:00,23.437,20.5,off
