TIME,INSIDE_TEMPERATURE,OUTSIDE_TEMPERATURE,LIGHTS_STATE

02/17/2017 12:23:25,18.812,15.375,off
02/17/2017 12:23:37,18.812,15.375,off
02/17/2017 12:23:48,18.812,15.375,off
02/17/2017 12:24:00,18.75,15.375,off
