TIME,INSIDE_TEMPERATURE,OUTSIDE_TEMPERATURE,LIGHTS_STATE

01/04/2018 12:18:25,21.625,18.0,off
01/04/2018 12:18:37,21.625,18.0,off
01/04/2018 12:18:49,21.625,18.0,off
01/04/2018 12:19:01,21.625,18.0,off
