TIME,INSIDE_TEMPERATURE,OUTSIDE_TEMPERATURE,LIGHTS_STATE

03/16/2018 12:47:25,17.75,12.875,off
03/16/2018 12:47:37,17.75,12.875,off
03/16/2018 12:47:49,17.812,13.0,off
03/16/2018 12:48:00,17.812,13.125,off
