TIME,INSIDE_TEMPERATURE,OUTSIDE_TEMPERATURE,LIGHTS_STATE

02/26/2018 12:17:25,18.812,20.562,off
02/26/2018 12:17:37,18.875,20.687,off
02/26/2018 12:17:49,18.875,20.75,off
02/26/2018 12:18:00,18.937,20.75,off
