TIME,INSIDE_TEMPERATURE,OUTSIDE_TEMPERATURE,LIGHTS_STATE

07/21/2016 12:41:26,25.812,25.75,off
07/21/2016 12:41:37,25.812,25.75,off
07/21/2016 12:41:49,25.875,25.812,off
07/21/2016 12:42:01,25.875,25.812,off
