TIME,INSIDE_TEMPERATURE,OUTSIDE_TEMPERATURE,LIGHTS_STATE

04/28/2017 12:07:25,22.75,21.125,off
04/28/2017 12:07:37,22.75,21.187,off
04/28/2017 12:07:49,22.75,21.187,off
04/28/2017 12:08:00,22.75,21.125,off
