TIME,INSIDE_TEMPERATURE,OUTSIDE_TEMPERATURE,LIGHTS_STATE

02/21/2017 12:28:26,23.5,22.0,off
02/21/2017 12:28:38,23.5,22.062,off
02/21/2017 12:28:50,23.562,22.25,off
02/21/2017 12:29:02,23.562,22.375,off
