TIME,INSIDE_TEMPERATURE,OUTSIDE_TEMPERATURE,LIGHTS_STATE

03/18/2017 12:29:25,20.312,17.312,off
03/18/2017 12:29:36,20.312,17.312,off
03/18/2017 12:29:48,20.312,17.312,off
03/18/2017 12:30:00,20.312,17.312,off
