TIME,INSIDE_TEMPERATURE,OUTSIDE_TEMPERATURE,LIGHTS_STATE

10/14/2017 12:36:25,29.562,27.437,off
10/14/2017 12:36:37,29.625,27.125,off
10/14/2017 12:36:49,29.562,27.375,off
10/14/2017 12:37:00,29.625,27.625,off
