TIME,INSIDE_TEMPERATURE,OUTSIDE_TEMPERATURE,LIGHTS_STATE

10/18/2017 12:35:25,31.437,34.625,off
10/18/2017 12:35:37,31.437,34.562,off
10/18/2017 12:35:49,31.437,34.562,off
10/18/2017 12:36:00,31.437,34.437,off
