TIME,INSIDE_TEMPERATURE,OUTSIDE_TEMPERATURE,LIGHTS_STATE

02/27/2017 12:54:25,23.25,24.625,off
02/27/2017 12:54:37,23.25,24.5,off
02/27/2017 12:54:48,23.187,24.625,off
02/27/2017 12:55:01,23.25,24.562,off
