TIME,INSIDE_TEMPERATURE,OUTSIDE_TEMPERATURE,LIGHTS_STATE

04/07/2017 12:54:25,21.312,17.125,off
04/07/2017 12:54:36,21.312,17.125,off
04/07/2017 12:54:48,21.312,17.125,off
04/07/2017 12:55:00,21.312,17.062,off
