TIME,INSIDE_TEMPERATURE,OUTSIDE_TEMPERATURE,LIGHTS_STATE

09/07/2017 12:28:25,29.437,26.562,off
09/07/2017 12:28:37,29.437,26.625,off
09/07/2017 12:28:48,29.437,26.687,off
09/07/2017 12:29:00,29.437,26.687,off
