TIME,INSIDE_TEMPERATURE,OUTSIDE_TEMPERATURE,LIGHTS_STATE

03/30/2017 12:37:25,22.312,18.437,off
03/30/2017 12:37:37,22.312,18.437,off
03/30/2017 12:37:49,22.375,18.437,off
03/30/2017 12:38:00,22.312,18.375,off
