TIME,INSIDE_TEMPERATURE,OUTSIDE_TEMPERATURE,LIGHTS_STATE

08/23/2017 12:15:25,29.75,27.25,off
08/23/2017 12:15:37,29.687,27.187,off
08/23/2017 12:15:48,29.75,27.187,off
08/23/2017 12:16:00,29.75,27.187,off
