TIME,INSIDE_TEMPERATURE,OUTSIDE_TEMPERATURE,LIGHTS_STATE

07/23/2016 12:01:25,32.312,32.75,off
07/23/2016 12:01:37,32.312,32.687,off
07/23/2016 12:01:48,32.25,32.687,off
07/23/2016 12:02:00,32.25,32.687,off
