TIME,INSIDE_TEMPERATURE,OUTSIDE_TEMPERATURE,LIGHTS_STATE

05/20/2017 12:50:25,30.812,29.75,off
05/20/2017 12:50:37,30.812,29.75,off
05/20/2017 12:50:49,30.812,29.75,off
05/20/2017 12:51:00,30.812,29.75,off
