TIME,INSIDE_TEMPERATURE,OUTSIDE_TEMPERATURE,LIGHTS_STATE

11/04/2016 12:37:25,31.937,33.875,off
11/04/2016 12:37:37,31.875,34.062,off
11/04/2016 12:37:48,31.875,34.125,off
11/04/2016 12:38:00,31.812,33.937,off
