TIME,INSIDE_TEMPERATURE,OUTSIDE_TEMPERATURE,LIGHTS_STATE

01/16/2018 12:03:26,23.437,19.937,off
01/16/2018 12:03:37,23.5,20.0,off
01/16/2018 12:03:49,23.5,20.062,off
01/16/2018 12:04:01,23.5,20.062,off
