TIME,INSIDE_TEMPERATURE,OUTSIDE_TEMPERATURE,LIGHTS_STATE

08/08/2017 12:46:25,29.625,27.437,off
08/08/2017 12:46:37,29.625,27.437,off
08/08/2017 12:46:49,29.625,27.437,off
08/08/2017 12:47:00,29.687,27.375,off
