TIME,INSIDE_TEMPERATURE,OUTSIDE_TEMPERATURE,LIGHTS_STATE

06/06/2017 12:16:26,22.687,22.562,off
06/06/2017 12:16:37,22.687,22.562,off
06/06/2017 12:16:49,22.687,22.562,off
06/06/2017 12:17:01,22.687,22.562,off
