TIME,INSIDE_TEMPERATURE,OUTSIDE_TEMPERATURE,LIGHTS_STATE

03/23/2018 12:39:25,19.25,14.875,off
03/23/2018 12:39:37,19.25,14.875,off
03/23/2018 12:39:49,19.25,14.875,off
03/23/2018 12:40:00,19.25,14.875,off
