TIME,INSIDE_TEMPERATURE,OUTSIDE_TEMPERATURE,LIGHTS_STATE

09/04/2017 12:38:25,33.312,29.812,off
09/04/2017 12:38:37,33.312,29.812,off
09/04/2017 12:38:49,33.312,29.812,off
09/04/2017 12:39:00,33.312,29.812,off
