TIME,INSIDE_TEMPERATURE,OUTSIDE_TEMPERATURE,LIGHTS_STATE

09/16/2016 12:26:26,26.0,27.437,off
09/16/2016 12:26:38,26.0,27.437,off
09/16/2016 12:26:49,26.0,27.312,off
09/16/2016 12:27:01,26.062,27.25,off
