TIME,INSIDE_TEMPERATURE,OUTSIDE_TEMPERATURE,LIGHTS_STATE

09/06/2016 12:32:25,29.375,32.75,off
09/06/2016 12:32:38,29.375,32.75,off
09/06/2016 12:32:50,29.375,32.75,off
09/06/2016 12:33:02,29.437,32.812,off
