TIME,INSIDE_TEMPERATURE,OUTSIDE_TEMPERATURE,LIGHTS_STATE

03/02/2018 12:18:25,18.875,23.062,off
03/02/2018 12:18:37,18.937,23.375,off
03/02/2018 12:18:49,18.937,23.562,off
03/02/2018 12:19:01,18.875,23.687,off
