TIME,INSIDE_TEMPERATURE,OUTSIDE_TEMPERATURE,LIGHTS_STATE

09/17/2017 12:44:25,29.75,27.25,off
09/17/2017 12:44:37,29.687,27.25,off
09/17/2017 12:44:48,29.75,27.312,off
09/17/2017 12:45:00,29.75,27.312,off
