TIME,INSIDE_TEMPERATURE,OUTSIDE_TEMPERATURE,LIGHTS_STATE

05/17/2017 12:36:25,22.562,20.062,off
05/17/2017 12:36:37,22.562,20.062,off
05/17/2017 12:36:49,22.562,20.062,off
05/17/2017 12:37:00,22.625,20.062,off
