TIME,INSIDE_TEMPERATURE,OUTSIDE_TEMPERATURE,LIGHTS_STATE

06/10/2017 12:38:25,24.812,20.75,off
06/10/2017 12:38:38,24.875,20.687,off
06/10/2017 12:38:49,24.875,20.687,off
06/10/2017 12:39:01,24.562,20.687,off
