TIME,INSIDE_TEMPERATURE,OUTSIDE_TEMPERATURE,LIGHTS_STATE

09/14/2016 12:32:26,26.375,25.5,off
09/14/2016 12:32:38,26.375,25.5,off
09/14/2016 12:32:49,26.437,25.5,off
09/14/2016 12:33:01,26.437,25.5,off
