TIME,INSIDE_TEMPERATURE,OUTSIDE_TEMPERATURE,LIGHTS_STATE

03/18/2017 12:41:25,20.937,17.562,off
03/18/2017 12:41:36,20.937,17.562,off
03/18/2017 12:41:48,20.875,17.5,off
03/18/2017 12:42:00,20.937,17.5,off
