TIME,INSIDE_TEMPERATURE,OUTSIDE_TEMPERATURE,LIGHTS_STATE

08/10/2017 12:34:25,27.125,24.312,off
08/10/2017 12:34:37,27.125,24.312,off
08/10/2017 12:34:49,27.125,24.375,off
08/10/2017 12:35:01,27.125,24.375,off
