TIME,INSIDE_TEMPERATURE,OUTSIDE_TEMPERATURE,LIGHTS_STATE

04/29/2017 12:44:25,25.562,23.625,off
04/29/2017 12:44:37,25.562,23.625,off
04/29/2017 12:44:48,25.625,23.687,off
04/29/2017 12:45:00,25.625,23.75,off
