TIME,INSIDE_TEMPERATURE,OUTSIDE_TEMPERATURE,LIGHTS_STATE

10/05/2017 12:26:25,30.25,28.0,off
10/05/2017 12:26:37,30.25,28.062,off
10/05/2017 12:26:49,30.25,28.062,off
10/05/2017 12:27:01,30.25,28.062,off
