TIME,INSIDE_TEMPERATURE,OUTSIDE_TEMPERATURE,LIGHTS_STATE

03/08/2018 12:05:25,26.375,23.062,off
03/08/2018 12:05:37,26.375,23.187,off
03/08/2018 12:05:49,26.375,23.25,off
03/08/2018 12:06:01,26.437,23.312,off
