TIME,INSIDE_TEMPERATURE,OUTSIDE_TEMPERATURE,LIGHTS_STATE

01/17/2017 12:06:25,12.75,10.125,off
01/17/2017 12:06:36,12.75,10.0,off
01/17/2017 12:06:48,12.75,9.937,off
01/17/2017 12:07:00,12.75,10.0,off
