TIME,INSIDE_TEMPERATURE,OUTSIDE_TEMPERATURE,LIGHTS_STATE

09/05/2017 12:09:25,33.812,31.25,off
09/05/2017 12:09:37,33.812,31.187,off
09/05/2017 12:09:49,33.812,31.187,off
09/05/2017 12:10:00,33.812,31.187,off
