TIME,INSIDE_TEMPERATURE,OUTSIDE_TEMPERATURE,LIGHTS_STATE

12/23/2017 12:41:25,20.875,16.687,off
12/23/2017 12:41:37,20.875,16.5,off
12/23/2017 12:41:50,20.875,16.437,off
12/23/2017 12:42:01,20.875,16.375,off
