TIME,INSIDE_TEMPERATURE,OUTSIDE_TEMPERATURE,LIGHTS_STATE

09/07/2017 12:48:26,29.875,26.687,off
09/07/2017 12:48:37,29.875,26.687,off
09/07/2017 12:48:49,29.875,26.687,off
09/07/2017 12:49:01,29.937,26.687,off
