TIME,INSIDE_TEMPERATURE,OUTSIDE_TEMPERATURE,LIGHTS_STATE

01/12/2017 12:26:24,12.687,8.125,off
01/12/2017 12:26:36,12.625,8.125,off
01/12/2017 12:26:48,12.625,8.125,off
01/12/2017 12:27:00,12.687,8.125,off
