TIME,INSIDE_TEMPERATURE,OUTSIDE_TEMPERATURE,LIGHTS_STATE

07/26/2017 12:34:25,29.25,26.375,off
07/26/2017 12:34:36,29.25,26.375,off
07/26/2017 12:34:48,29.25,26.375,off
07/26/2017 12:35:00,29.25,26.375,off
