TIME,INSIDE_TEMPERATURE,OUTSIDE_TEMPERATURE,LIGHTS_STATE

07/11/2017 12:06:25,32.437,29.125,off
07/11/2017 12:06:37,32.437,29.125,off
07/11/2017 12:06:49,32.437,29.125,off
07/11/2017 12:07:01,32.437,29.125,off
