TIME,INSIDE_TEMPERATURE,OUTSIDE_TEMPERATURE,LIGHTS_STATE

04/30/2017 12:43:26,26.375,25.062,off
04/30/2017 12:43:38,26.437,25.125,off
04/30/2017 12:43:49,26.437,25.125,off
04/30/2017 12:44:01,26.437,25.187,off
