TIME,INSIDE_TEMPERATURE,OUTSIDE_TEMPERATURE,LIGHTS_STATE

09/12/2017 12:14:26,35.562,32.812,off
09/12/2017 12:14:37,35.625,32.875,off
09/12/2017 12:14:49,35.625,33.0,off
09/12/2017 12:15:01,35.625,33.0,off
