TIME,INSIDE_TEMPERATURE,OUTSIDE_TEMPERATURE,LIGHTS_STATE

02/25/2017 12:22:26,22.375,23.625,off
02/25/2017 12:22:38,22.375,23.625,off
02/25/2017 12:22:49,22.437,23.625,off
02/25/2017 12:23:01,22.437,23.687,off
