TIME,INSIDE_TEMPERATURE,OUTSIDE_TEMPERATURE,LIGHTS_STATE

09/13/2017 12:49:25,30.812,27.625,off
09/13/2017 12:49:37,30.812,27.625,off
09/13/2017 12:49:48,30.812,27.625,off
09/13/2017 12:50:00,30.812,27.625,off
