TIME,INSIDE_TEMPERATURE,OUTSIDE_TEMPERATURE,LIGHTS_STATE

01/08/2018 12:32:25,17.062,11.625,off
01/08/2018 12:32:37,17.062,11.625,off
01/08/2018 12:32:48,17.062,11.625,off
01/08/2018 12:33:00,17.062,11.625,off
