TIME,INSIDE_TEMPERATURE,OUTSIDE_TEMPERATURE,LIGHTS_STATE

02/02/2018 12:21:25,28.375,25.125,off
02/02/2018 12:21:37,28.375,25.187,off
02/02/2018 12:21:49,28.375,25.187,off
02/02/2018 12:22:00,28.375,25.187,off
