TIME,INSIDE_TEMPERATURE,OUTSIDE_TEMPERATURE,LIGHTS_STATE

02/15/2017 12:38:25,21.75,18.25,off
02/15/2017 12:38:37,21.75,18.187,off
02/15/2017 12:38:48,21.75,18.125,off
02/15/2017 12:39:00,21.812,18.125,off
