TIME,INSIDE_TEMPERATURE,OUTSIDE_TEMPERATURE,LIGHTS_STATE

03/04/2018 12:01:25,20.312,26.875,off
03/04/2018 12:01:37,20.312,27.0,off
03/04/2018 12:01:48,20.312,27.375,off
03/04/2018 12:02:00,20.312,27.625,off
