TIME,INSIDE_TEMPERATURE,OUTSIDE_TEMPERATURE,LIGHTS_STATE

01/10/2017 12:52:25,16.25,12.437,off
01/10/2017 12:52:36,16.25,12.437,off
01/10/2017 12:52:48,16.25,12.437,off
01/10/2017 12:53:00,16.25,12.437,off
