TIME,INSIDE_TEMPERATURE,OUTSIDE_TEMPERATURE,LIGHTS_STATE

01/23/2018 12:57:25,22.625,20.5,off
01/23/2018 12:57:37,22.625,20.312,off
01/23/2018 12:57:49,22.625,20.187,off
01/23/2018 12:58:01,22.625,20.187,off
