TIME,INSIDE_TEMPERATURE,OUTSIDE_TEMPERATURE,LIGHTS_STATE

03/25/2017 12:13:25,22.875,18.687,off
03/25/2017 12:13:37,22.875,18.687,off
03/25/2017 12:13:49,22.875,18.687,off
03/25/2017 12:14:00,22.875,18.687,off
