TIME,INSIDE_TEMPERATURE,OUTSIDE_TEMPERATURE,LIGHTS_STATE

10/28/2016 12:58:25,24.062,20.5,off
10/28/2016 12:58:37,24.062,20.5,off
10/28/2016 12:58:49,24.062,20.562,off
10/28/2016 12:59:01,24.062,20.562,off
