TIME,INSIDE_TEMPERATURE,OUTSIDE_TEMPERATURE,LIGHTS_STATE

05/03/2017 12:52:25,33.0,30.937,off
05/03/2017 12:52:37,33.0,30.937,off
05/03/2017 12:52:48,33.062,30.937,off
05/03/2017 12:53:00,33.062,30.937,off
