TIME,INSIDE_TEMPERATURE,OUTSIDE_TEMPERATURE,LIGHTS_STATE

02/16/2018 12:58:26,25.5,39.062,off
02/16/2018 12:58:37,25.437,39.062,off
02/16/2018 12:58:49,25.5,39.5,off
02/16/2018 12:59:01,25.5,39.812,off
