TIME,INSIDE_TEMPERATURE,OUTSIDE_TEMPERATURE,LIGHTS_STATE

05/18/2017 12:34:25,24.937,23.937,off
05/18/2017 12:34:37,24.937,24.0,off
05/18/2017 12:34:49,24.937,24.062,off
05/18/2017 12:35:00,24.937,24.062,off
