TIME,INSIDE_TEMPERATURE,OUTSIDE_TEMPERATURE,LIGHTS_STATE

12/13/2016 12:11:25,18.25,16.062,off
12/13/2016 12:11:37,18.312,16.125,off
12/13/2016 12:11:49,18.312,16.187,off
12/13/2016 12:12:01,18.312,16.375,off
