TIME,INSIDE_TEMPERATURE,OUTSIDE_TEMPERATURE,LIGHTS_STATE

03/30/2018 12:19:25,27.687,26.562,off
03/30/2018 12:19:37,27.687,26.562,off
03/30/2018 12:19:49,27.687,26.562,off
03/30/2018 12:20:01,27.687,26.562,off
