TIME,INSIDE_TEMPERATURE,OUTSIDE_TEMPERATURE,LIGHTS_STATE

04/11/2017 12:08:25,25.312,20.875,off
04/11/2017 12:08:37,25.25,20.875,off
04/11/2017 12:08:49,25.312,20.937,off
04/11/2017 12:09:00,25.25,21.0,off
