TIME,INSIDE_TEMPERATURE,OUTSIDE_TEMPERATURE,LIGHTS_STATE

01/01/2017 12:30:25,20.687,21.375,off
01/01/2017 12:30:37,20.687,21.062,off
01/01/2017 12:30:49,20.625,20.5,off
01/01/2017 12:31:00,20.562,19.625,off
