TIME,INSIDE_TEMPERATURE,OUTSIDE_TEMPERATURE,LIGHTS_STATE

12/25/2016 12:33:24,18.75,15.687,off
12/25/2016 12:33:36,18.75,15.687,off
12/25/2016 12:33:48,18.75,15.625,off
12/25/2016 12:33:59,18.75,15.75,off
