TIME,INSIDE_TEMPERATURE,OUTSIDE_TEMPERATURE,LIGHTS_STATE

11/06/2016 12:27:25,28.625,25.062,off
11/06/2016 12:27:36,28.625,24.875,off
11/06/2016 12:27:48,28.625,24.625,off
11/06/2016 12:28:00,28.625,24.437,off
