TIME,INSIDE_TEMPERATURE,OUTSIDE_TEMPERATURE,LIGHTS_STATE

08/05/2016 12:15:26,24.562,24.75,off
08/05/2016 12:15:38,24.562,24.75,off
08/05/2016 12:15:50,24.562,24.75,off
08/05/2016 12:16:01,24.625,24.687,off
