TIME,INSIDE_TEMPERATURE,OUTSIDE_TEMPERATURE,LIGHTS_STATE

03/16/2017 12:41:25,26.25,22.75,off
03/16/2017 12:41:37,26.312,22.75,off
03/16/2017 12:41:49,26.312,22.75,off
03/16/2017 12:42:00,26.312,22.687,off
