TIME,INSIDE_TEMPERATURE,OUTSIDE_TEMPERATURE,LIGHTS_STATE

07/28/2016 12:34:26,32.312,32.687,off
07/28/2016 12:34:38,32.375,32.687,off
07/28/2016 12:34:49,32.375,32.75,off
07/28/2016 12:35:01,32.375,32.75,off
