TIME,INSIDE_TEMPERATURE,OUTSIDE_TEMPERATURE,LIGHTS_STATE

02/05/2017 12:05:26,21.5,19.375,off
02/05/2017 12:05:38,21.5,19.25,off
02/05/2017 12:05:50,21.5,19.25,off
02/05/2017 12:06:01,21.562,19.375,off
