TIME,INSIDE_TEMPERATURE,OUTSIDE_TEMPERATURE,LIGHTS_STATE

11/01/2017 12:06:26,30.625,31.5,off
11/01/2017 12:06:37,30.562,31.687,off
11/01/2017 12:06:49,30.625,31.75,off
11/01/2017 12:07:01,30.625,31.875,off
