TIME,INSIDE_TEMPERATURE,OUTSIDE_TEMPERATURE,LIGHTS_STATE

06/07/2017 12:30:25,22.687,22.187,off
06/07/2017 12:30:37,22.687,22.187,off
06/07/2017 12:30:49,22.687,22.187,off
06/07/2017 12:31:01,22.687,22.187,off
