TIME,INSIDE_TEMPERATURE,OUTSIDE_TEMPERATURE,LIGHTS_STATE

09/09/2016 12:45:25,28.562,30.062,off
09/09/2016 12:45:37,28.562,30.062,off
09/09/2016 12:45:49,28.562,30.125,off
09/09/2016 12:46:00,28.625,30.125,off
