TIME,INSIDE_TEMPERATURE,OUTSIDE_TEMPERATURE,LIGHTS_STATE

03/18/2018 12:28:25,17.625,14.437,off
03/18/2018 12:28:37,17.625,14.437,off
03/18/2018 12:28:49,17.625,14.437,off
03/18/2018 12:29:00,17.625,14.437,off
