TIME,INSIDE_TEMPERATURE,OUTSIDE_TEMPERATURE,LIGHTS_STATE

02/25/2017 12:36:25,21.375,19.125,off
02/25/2017 12:36:37,21.312,19.0,off
02/25/2017 12:36:49,21.312,18.75,off
02/25/2017 12:37:00,21.25,18.5,off
