TIME,INSIDE_TEMPERATURE,OUTSIDE_TEMPERATURE,LIGHTS_STATE

03/11/2017 12:07:26,30.062,25.875,off
03/11/2017 12:07:37,30.125,25.937,off
03/11/2017 12:07:49,30.125,25.875,off
03/11/2017 12:08:01,30.125,25.75,off
