TIME,INSIDE_TEMPERATURE,OUTSIDE_TEMPERATURE,LIGHTS_STATE

07/02/2017 12:02:25,28.812,25.875,off
07/02/2017 12:02:37,28.812,25.875,off
07/02/2017 12:02:49,28.812,25.875,off
07/02/2017 12:03:01,28.812,25.812,off
