TIME,INSIDE_TEMPERATURE,OUTSIDE_TEMPERATURE,LIGHTS_STATE

03/23/2017 12:44:25,21.125,17.437,off
03/23/2017 12:44:37,21.125,17.375,off
03/23/2017 12:44:48,21.125,17.437,off
03/23/2017 12:45:00,21.062,17.375,off
