TIME,INSIDE_TEMPERATURE,OUTSIDE_TEMPERATURE,LIGHTS_STATE

03/21/2018 12:03:25,21.625,17.062,off
03/21/2018 12:03:37,21.687,17.062,off
03/21/2018 12:03:48,21.687,17.125,off
03/21/2018 12:04:00,21.687,17.125,off
