TIME,INSIDE_TEMPERATURE,OUTSIDE_TEMPERATURE,LIGHTS_STATE

02/05/2017 12:14:25,21.625,18.437,off
02/05/2017 12:14:36,21.625,18.375,off
02/05/2017 12:14:48,21.625,18.5,off
02/05/2017 12:15:00,21.625,18.625,off
