TIME,INSIDE_TEMPERATURE,OUTSIDE_TEMPERATURE,LIGHTS_STATE

04/07/2017 12:48:25,21.312,16.812,off
04/07/2017 12:48:37,21.312,16.812,off
04/07/2017 12:48:49,21.312,16.75,off
04/07/2017 12:49:00,21.312,16.75,off
