TIME,INSIDE_TEMPERATURE,OUTSIDE_TEMPERATURE,LIGHTS_STATE

12/26/2016 12:55:25,16.0,16.687,off
12/26/2016 12:55:37,16.0,16.687,off
12/26/2016 12:55:49,16.0,16.687,off
12/26/2016 12:56:00,16.0,16.687,off
