TIME,INSIDE_TEMPERATURE,OUTSIDE_TEMPERATURE,LIGHTS_STATE

03/03/2018 12:57:25,17.125,11.125,off
03/03/2018 12:57:37,17.125,11.125,off
03/03/2018 12:57:49,17.125,11.187,off
03/03/2018 12:58:00,17.125,11.187,off
