TIME,INSIDE_TEMPERATURE,OUTSIDE_TEMPERATURE,LIGHTS_STATE

06/13/2017 12:11:26,25.812,22.75,off
06/13/2017 12:11:37,25.875,22.75,off
06/13/2017 12:11:49,25.875,22.75,off
06/13/2017 12:12:01,25.875,22.75,off
