TIME,INSIDE_TEMPERATURE,OUTSIDE_TEMPERATURE,LIGHTS_STATE

11/22/2016 12:18:25,23.75,21.187,off
11/22/2016 12:18:36,23.812,21.125,off
11/22/2016 12:18:48,23.812,21.062,off
11/22/2016 12:19:00,23.812,21.062,off
