TIME,INSIDE_TEMPERATURE,OUTSIDE_TEMPERATURE,LIGHTS_STATE

01/06/2017 12:39:25,16.375,11.875,off
01/06/2017 12:39:37,16.437,11.937,off
01/06/2017 12:39:48,16.375,12.062,off
01/06/2017 12:40:00,16.437,12.062,off
