TIME,INSIDE_TEMPERATURE,OUTSIDE_TEMPERATURE,LIGHTS_STATE

01/10/2017 12:21:25,16.437,12.687,off
01/10/2017 12:21:37,16.5,12.687,off
01/10/2017 12:21:48,16.437,12.625,off
01/10/2017 12:22:00,16.5,12.687,off
