TIME,INSIDE_TEMPERATURE,OUTSIDE_TEMPERATURE,LIGHTS_STATE

03/21/2018 12:00:26,21.562,16.812,off
03/21/2018 12:00:38,21.562,16.812,off
03/21/2018 12:00:50,21.562,16.812,off
03/21/2018 12:01:02,21.562,16.812,off
