TIME,INSIDE_TEMPERATURE,OUTSIDE_TEMPERATURE,LIGHTS_STATE

09/22/2016 12:35:26,24.437,21.937,off
09/22/2016 12:35:37,24.437,21.937,off
09/22/2016 12:35:49,24.437,22.0,off
09/22/2016 12:36:01,24.375,22.062,off
