TIME,INSIDE_TEMPERATURE,OUTSIDE_TEMPERATURE,LIGHTS_STATE

10/26/2016 12:09:25,33.937,34.0,off
10/26/2016 12:09:36,33.937,33.75,off
10/26/2016 12:09:48,33.937,33.687,off
10/26/2016 12:10:00,33.937,33.687,off
