TIME,INSIDE_TEMPERATURE,OUTSIDE_TEMPERATURE,LIGHTS_STATE

09/28/2017 12:14:25,33.062,30.437,off
09/28/2017 12:14:37,33.062,30.5,off
09/28/2017 12:14:49,33.062,30.5,off
09/28/2017 12:15:01,33.062,30.562,off
