TIME,INSIDE_TEMPERATURE,OUTSIDE_TEMPERATURE,LIGHTS_STATE

03/24/2017 12:28:25,17.0,11.625,off
03/24/2017 12:28:37,17.062,11.562,off
03/24/2017 12:28:49,17.0,11.625,off
03/24/2017 12:29:00,17.0,11.625,off
