TIME,INSIDE_TEMPERATURE,OUTSIDE_TEMPERATURE,LIGHTS_STATE

08/09/2017 12:01:25,26.875,24.125,off
08/09/2017 12:01:37,26.937,24.187,off
08/09/2017 12:01:49,26.937,24.25,off
08/09/2017 12:02:00,26.937,24.25,off
