TIME,INSIDE_TEMPERATURE,OUTSIDE_TEMPERATURE,LIGHTS_STATE

03/14/2018 12:42:25,17.187,7.75,off
03/14/2018 12:42:37,17.187,7.75,off
03/14/2018 12:42:49,17.187,7.75,off
03/14/2018 12:43:00,17.187,7.75,off
