TIME,INSIDE_TEMPERATURE,OUTSIDE_TEMPERATURE,LIGHTS_STATE

09/21/2016 12:24:26,27.625,25.062,off
09/21/2016 12:24:37,27.625,25.125,off
09/21/2016 12:24:49,27.625,25.187,off
09/21/2016 12:25:01,27.687,25.375,off
