TIME,INSIDE_TEMPERATURE,OUTSIDE_TEMPERATURE,LIGHTS_STATE

04/13/2017 12:22:25,21.75,16.562,off
04/13/2017 12:22:36,21.75,16.625,off
04/13/2017 12:22:48,21.687,16.687,off
04/13/2017 12:23:00,21.687,16.75,off
