TIME,INSIDE_TEMPERATURE,OUTSIDE_TEMPERATURE,LIGHTS_STATE

01/20/2017 12:03:24,18.937,14.375,off
01/20/2017 12:03:37,19.0,14.437,off
01/20/2017 12:03:49,19.0,14.437,off
01/20/2017 12:04:00,19.0,14.5,off
