TIME,INSIDE_TEMPERATURE,OUTSIDE_TEMPERATURE,LIGHTS_STATE

12/23/2016 12:24:24,13.812,9.937,off
12/23/2016 12:24:36,13.812,9.937,off
12/23/2016 12:24:47,13.812,9.937,off
12/23/2016 12:24:59,13.812,9.937,off
