TIME,INSIDE_TEMPERATURE,OUTSIDE_TEMPERATURE,LIGHTS_STATE

03/20/2017 12:43:25,20.687,17.062,off
03/20/2017 12:43:36,20.687,17.062,off
03/20/2017 12:43:48,20.75,17.125,off
03/20/2017 12:44:00,20.687,17.125,off
