TIME,INSIDE_TEMPERATURE,OUTSIDE_TEMPERATURE,LIGHTS_STATE

12/26/2016 12:52:25,16.125,15.0,off
12/26/2016 12:52:36,16.125,15.312,off
12/26/2016 12:52:48,16.125,15.562,off
12/26/2016 12:53:00,16.125,15.687,off
