TIME,INSIDE_TEMPERATURE,OUTSIDE_TEMPERATURE,LIGHTS_STATE

02/07/2018 12:10:25,28.75,26.875,off
02/07/2018 12:10:37,28.75,26.875,off
02/07/2018 12:10:49,28.75,26.937,off
02/07/2018 12:11:01,28.75,27.0,off
