TIME,INSIDE_TEMPERATURE,OUTSIDE_TEMPERATURE,LIGHTS_STATE

09/03/2017 12:17:25,40.25,38.5,off
09/03/2017 12:17:37,40.312,38.5,off
09/03/2017 12:17:49,40.375,38.562,off
09/03/2017 12:18:01,40.375,38.625,off
