TIME,INSIDE_TEMPERATURE,OUTSIDE_TEMPERATURE,LIGHTS_STATE

07/06/2016 12:41:25,24.75,24.562,off
07/06/2016 12:41:37,24.812,24.562,off
07/06/2016 12:41:48,24.812,24.562,off
07/06/2016 12:42:00,24.875,24.687,off
