TIME,INSIDE_TEMPERATURE,OUTSIDE_TEMPERATURE,LIGHTS_STATE

12/28/2016 12:27:25,19.937,16.625,off
12/28/2016 12:27:37,19.937,16.75,off
12/28/2016 12:27:48,19.937,16.875,off
12/28/2016 12:28:00,19.937,16.812,off
