TIME,INSIDE_TEMPERATURE,OUTSIDE_TEMPERATURE,LIGHTS_STATE

07/09/2016 12:34:25,26.625,26.125,off
07/09/2016 12:34:37,26.625,26.187,off
07/09/2016 12:34:48,26.625,26.187,off
07/09/2016 12:35:00,26.625,26.187,off
