TIME,INSIDE_TEMPERATURE,OUTSIDE_TEMPERATURE,LIGHTS_STATE

01/30/2018 12:30:26,26.125,22.875,off
01/30/2018 12:30:37,26.125,22.687,off
01/30/2018 12:30:49,26.125,22.562,off
01/30/2018 12:31:01,26.125,22.562,off
