TIME,INSIDE_TEMPERATURE,OUTSIDE_TEMPERATURE,LIGHTS_STATE

11/05/2016 12:46:25,30.125,33.25,off
11/05/2016 12:46:36,30.125,33.25,off
11/05/2016 12:46:48,30.187,33.125,off
11/05/2016 12:47:00,30.125,33.187,off
