TIME,INSIDE_TEMPERATURE,OUTSIDE_TEMPERATURE,LIGHTS_STATE

02/15/2017 12:17:25,22.0,20.5,off
02/15/2017 12:17:37,22.0,20.437,off
02/15/2017 12:17:48,22.0,20.437,off
02/15/2017 12:18:00,22.0,20.375,off
