TIME,INSIDE_TEMPERATURE,OUTSIDE_TEMPERATURE,LIGHTS_STATE

04/21/2017 12:18:25,24.0,22.125,off
04/21/2017 12:18:36,24.0,22.125,off
04/21/2017 12:18:48,24.0,22.062,off
04/21/2017 12:19:00,24.0,22.0,off
