TIME,INSIDE_TEMPERATURE,OUTSIDE_TEMPERATURE,LIGHTS_STATE

03/19/2018 12:57:25,20.312,17.125,off
03/19/2018 12:57:37,20.312,17.062,off
03/19/2018 12:57:49,20.375,17.062,off
03/19/2018 12:58:01,20.312,17.0,off
