TIME,INSIDE_TEMPERATURE,OUTSIDE_TEMPERATURE,LIGHTS_STATE

07/07/2017 12:52:25,37.687,33.187,off
07/07/2017 12:52:37,37.687,33.187,off
07/07/2017 12:52:48,37.687,33.25,off
07/07/2017 12:53:00,37.687,33.312,off
