TIME,INSIDE_TEMPERATURE,OUTSIDE_TEMPERATURE,LIGHTS_STATE

02/10/2018 12:18:25,26.625,24.875,off
02/10/2018 12:18:37,26.687,24.812,off
02/10/2018 12:18:49,26.687,24.75,off
02/10/2018 12:19:00,26.687,24.687,off
