TIME,INSIDE_TEMPERATURE,OUTSIDE_TEMPERATURE,LIGHTS_STATE

02/26/2017 12:35:25,22.5,24.125,off
02/26/2017 12:35:37,22.5,24.125,off
02/26/2017 12:35:48,22.5,24.125,off
02/26/2017 12:36:00,22.5,24.062,off
