TIME,INSIDE_TEMPERATURE,OUTSIDE_TEMPERATURE,LIGHTS_STATE

11/05/2016 12:03:25,31.625,27.25,off
11/05/2016 12:03:36,31.625,27.312,off
11/05/2016 12:03:48,31.687,27.312,off
11/05/2016 12:04:00,31.625,27.312,off
