TIME,INSIDE_TEMPERATURE,OUTSIDE_TEMPERATURE,LIGHTS_STATE

09/16/2016 12:28:26,26.125,27.25,off
09/16/2016 12:28:38,26.187,27.25,off
09/16/2016 12:28:49,26.125,27.125,off
09/16/2016 12:29:01,26.187,27.062,off
