TIME,INSIDE_TEMPERATURE,OUTSIDE_TEMPERATURE,LIGHTS_STATE

09/13/2016 12:41:26,24.812,22.375,off
09/13/2016 12:41:38,24.812,22.437,off
09/13/2016 12:41:50,24.875,22.5,off
09/13/2016 12:42:02,24.875,22.562,off
