TIME,INSIDE_TEMPERATURE,OUTSIDE_TEMPERATURE,LIGHTS_STATE

02/16/2017 12:55:26,24.75,20.937,off
02/16/2017 12:55:37,24.75,20.937,off
02/16/2017 12:55:49,24.812,20.875,off
02/16/2017 12:56:01,24.75,20.875,off
