TIME,INSIDE_TEMPERATURE,OUTSIDE_TEMPERATURE,LIGHTS_STATE

05/22/2017 12:40:25,31.687,29.75,off
05/22/2017 12:40:37,31.687,29.75,off
05/22/2017 12:40:49,31.687,29.687,off
05/22/2017 12:41:01,31.687,29.687,off
