TIME,INSIDE_TEMPERATURE,OUTSIDE_TEMPERATURE,LIGHTS_STATE

04/28/2017 12:50:25,23.375,21.75,off
04/28/2017 12:50:37,23.437,21.75,off
04/28/2017 12:50:48,23.437,21.687,off
04/28/2017 12:51:00,23.437,21.687,off
