TIME,INSIDE_TEMPERATURE,OUTSIDE_TEMPERATURE,LIGHTS_STATE

04/09/2017 12:53:25,20.125,16.875,off
04/09/2017 12:53:36,20.187,16.812,off
04/09/2017 12:53:48,20.187,16.875,off
04/09/2017 12:54:00,20.187,16.875,off
