TIME,INSIDE_TEMPERATURE,OUTSIDE_TEMPERATURE,LIGHTS_STATE

03/15/2017 12:24:25,27.187,23.562,off
03/15/2017 12:24:37,27.187,23.687,off
03/15/2017 12:24:49,27.25,23.687,off
03/15/2017 12:25:00,27.25,23.562,off
