TIME,INSIDE_TEMPERATURE,OUTSIDE_TEMPERATURE,LIGHTS_STATE

12/23/2017 12:27:25,20.437,20.375,off
12/23/2017 12:27:37,20.437,20.5,off
12/23/2017 12:27:49,20.437,20.437,off
12/23/2017 12:28:01,20.437,20.5,off
