TIME,INSIDE_TEMPERATURE,OUTSIDE_TEMPERATURE,LIGHTS_STATE

07/23/2017 12:29:25,36.187,33.0,off
07/23/2017 12:29:37,36.187,33.062,off
07/23/2017 12:29:49,36.25,33.062,off
07/23/2017 12:30:00,36.187,33.0,off
