TIME,INSIDE_TEMPERATURE,OUTSIDE_TEMPERATURE,LIGHTS_STATE

03/31/2018 12:07:26,26.75,24.937,off
03/31/2018 12:07:37,26.75,25.0,off
03/31/2018 12:07:49,26.75,25.062,off
03/31/2018 12:08:01,26.75,25.0,off
