TIME,INSIDE_TEMPERATURE,OUTSIDE_TEMPERATURE,LIGHTS_STATE

01/02/2018 12:40:25,20.375,17.0,off
01/02/2018 12:40:37,20.375,17.062,off
01/02/2018 12:40:49,20.375,17.062,off
01/02/2018 12:41:00,20.375,17.0,off
