TIME,INSIDE_TEMPERATURE,OUTSIDE_TEMPERATURE,LIGHTS_STATE

03/30/2017 12:03:25,22.312,18.375,off
03/30/2017 12:03:37,22.375,18.312,off
03/30/2017 12:03:49,22.437,18.375,off
03/30/2017 12:04:01,22.375,18.437,off
