TIME,INSIDE_TEMPERATURE,OUTSIDE_TEMPERATURE,LIGHTS_STATE

01/30/2018 12:05:25,25.937,23.125,off
01/30/2018 12:05:37,25.937,23.125,off
01/30/2018 12:05:49,25.937,23.062,off
01/30/2018 12:06:01,25.937,23.0,off
