TIME,INSIDE_TEMPERATURE,OUTSIDE_TEMPERATURE,LIGHTS_STATE

06/27/2017 12:51:25,27.0,24.25,off
06/27/2017 12:51:37,27.0,24.187,off
06/27/2017 12:51:49,27.0,24.062,off
06/27/2017 12:52:00,27.062,23.937,off
