TIME,INSIDE_TEMPERATURE,OUTSIDE_TEMPERATURE,LIGHTS_STATE

09/09/2016 12:16:25,27.062,43.0,off
09/09/2016 12:16:36,27.062,43.25,off
09/09/2016 12:16:48,27.062,43.5,off
09/09/2016 12:17:00,27.125,43.812,off
