TIME,INSIDE_TEMPERATURE,OUTSIDE_TEMPERATURE,LIGHTS_STATE

09/03/2016 12:31:25,24.375,23.75,off
09/03/2016 12:31:37,24.375,23.75,off
09/03/2016 12:31:48,24.437,23.75,off
09/03/2016 12:32:00,24.437,23.75,off
