TIME,INSIDE_TEMPERATURE,OUTSIDE_TEMPERATURE,LIGHTS_STATE

08/06/2016 12:36:26,24.812,24.812,off
08/06/2016 12:36:38,24.812,24.687,off
08/06/2016 12:36:49,24.812,24.687,off
08/06/2016 12:37:01,24.812,24.687,off
