TIME,INSIDE_TEMPERATURE,OUTSIDE_TEMPERATURE,LIGHTS_STATE

12/21/2016 12:45:25,22.937,20.875,off
12/21/2016 12:45:37,22.875,20.875,off
12/21/2016 12:45:49,22.875,20.812,off
12/21/2016 12:46:00,22.875,20.75,off
