TIME,INSIDE_TEMPERATURE,OUTSIDE_TEMPERATURE,LIGHTS_STATE

10/24/2016 12:35:25,22.437,19.062,off
10/24/2016 12:35:37,22.437,19.062,off
10/24/2016 12:35:49,22.437,19.062,off
10/24/2016 12:36:02,22.437,19.062,off
