TIME,INSIDE_TEMPERATURE,OUTSIDE_TEMPERATURE,LIGHTS_STATE

07/27/2016 12:16:26,36.062,37.062,off
07/27/2016 12:16:38,36.0,36.937,off
07/27/2016 12:16:50,36.062,36.937,off
07/27/2016 12:17:01,36.0,36.937,off
