TIME,INSIDE_TEMPERATURE,OUTSIDE_TEMPERATURE,LIGHTS_STATE

10/26/2016 12:04:25,34.187,36.437,off
10/26/2016 12:04:37,34.125,36.125,off
10/26/2016 12:04:48,34.125,36.25,off
10/26/2016 12:05:00,34.125,36.312,off
