TIME,INSIDE_TEMPERATURE,OUTSIDE_TEMPERATURE,LIGHTS_STATE

02/26/2018 12:29:25,19.25,21.437,off
02/26/2018 12:29:37,19.25,21.562,off
02/26/2018 12:29:49,19.25,21.562,off
02/26/2018 12:30:01,19.25,21.625,off
