TIME,INSIDE_TEMPERATURE,OUTSIDE_TEMPERATURE,LIGHTS_STATE

03/09/2017 12:26:26,28.312,29.0,off
03/09/2017 12:26:37,28.312,29.125,off
03/09/2017 12:26:50,28.312,29.312,off
03/09/2017 12:27:02,28.312,29.312,off
