TIME,INSIDE_TEMPERATURE,OUTSIDE_TEMPERATURE,LIGHTS_STATE

03/03/2018 12:40:25,17.375,10.312,off
03/03/2018 12:40:37,17.375,10.25,off
03/03/2018 12:40:49,17.375,10.25,off
03/03/2018 12:41:00,17.375,10.25,off
