TIME,INSIDE_TEMPERATURE,OUTSIDE_TEMPERATURE,LIGHTS_STATE

01/04/2018 12:14:25,21.562,17.937,off
01/04/2018 12:14:37,21.562,17.937,off
01/04/2018 12:14:49,21.562,17.937,off
01/04/2018 12:15:01,21.562,17.937,off
