TIME,INSIDE_TEMPERATURE,OUTSIDE_TEMPERATURE,LIGHTS_STATE

08/12/2017 12:31:25,28.687,26.062,off
08/12/2017 12:31:37,28.687,26.125,off
08/12/2017 12:31:49,28.75,26.125,off
08/12/2017 12:32:00,28.75,26.187,off
