TIME,INSIDE_TEMPERATURE,OUTSIDE_TEMPERATURE,LIGHTS_STATE

04/21/2017 12:09:25,23.937,21.937,off
04/21/2017 12:09:37,23.937,22.0,off
04/21/2017 12:09:48,23.937,21.937,off
04/21/2017 12:10:00,23.937,21.875,off
