TIME,INSIDE_TEMPERATURE,OUTSIDE_TEMPERATURE,LIGHTS_STATE

01/28/2018 12:47:25,25.125,21.937,off
01/28/2018 12:47:37,25.125,22.062,off
01/28/2018 12:47:48,25.125,22.062,off
01/28/2018 12:48:00,25.125,22.125,off
