TIME,INSIDE_TEMPERATURE,OUTSIDE_TEMPERATURE,LIGHTS_STATE

02/23/2018 12:52:25,18.625,34.375,off
02/23/2018 12:52:37,18.625,34.5,off
02/23/2018 12:52:49,18.687,34.687,off
02/23/2018 12:53:01,18.687,34.687,off
