TIME,INSIDE_TEMPERATURE,OUTSIDE_TEMPERATURE,LIGHTS_STATE

10/07/2017 12:05:26,31.562,27.625,off
10/07/2017 12:05:37,31.562,27.625,off
10/07/2017 12:05:49,31.625,27.625,off
10/07/2017 12:06:01,31.625,27.625,off
