TIME,INSIDE_TEMPERATURE,OUTSIDE_TEMPERATURE,LIGHTS_STATE

08/05/2016 12:11:26,24.562,25.687,off
08/05/2016 12:11:37,24.562,25.687,off
08/05/2016 12:11:49,24.562,25.687,off
08/05/2016 12:12:01,24.5,25.562,off
