TIME,INSIDE_TEMPERATURE,OUTSIDE_TEMPERATURE,LIGHTS_STATE

02/13/2017 12:26:25,24.312,21.0,off
02/13/2017 12:26:37,24.375,21.062,off
02/13/2017 12:26:49,24.375,21.125,off
02/13/2017 12:27:00,24.375,21.125,off
