TIME,INSIDE_TEMPERATURE,OUTSIDE_TEMPERATURE,LIGHTS_STATE

07/26/2016 12:42:26,34.687,33.437,off
07/26/2016 12:42:37,34.75,33.437,off
07/26/2016 12:42:49,34.812,33.437,off
07/26/2016 12:43:01,34.812,33.437,off
