TIME,INSIDE_TEMPERATURE,OUTSIDE_TEMPERATURE,LIGHTS_STATE

06/10/2017 12:39:26,24.562,20.687,off
06/10/2017 12:39:37,24.625,20.687,off
06/10/2017 12:39:49,24.687,20.75,off
06/10/2017 12:40:01,24.687,20.75,off
