TIME,INSIDE_TEMPERATURE,OUTSIDE_TEMPERATURE,LIGHTS_STATE

06/27/2017 12:21:25,26.375,22.25,off
06/27/2017 12:21:37,26.312,22.312,off
06/27/2017 12:21:48,26.312,22.375,off
06/27/2017 12:22:00,26.375,22.375,off
