TIME,INSIDE_TEMPERATURE,OUTSIDE_TEMPERATURE,LIGHTS_STATE

05/05/2017 12:08:26,22.375,19.937,off
05/05/2017 12:08:37,22.375,20.0,off
05/05/2017 12:08:49,22.375,20.0,off
05/05/2017 12:09:01,22.437,19.937,off
