TIME,INSIDE_TEMPERATURE,OUTSIDE_TEMPERATURE,LIGHTS_STATE

10/23/2017 12:26:25,35.187,31.5,off
10/23/2017 12:26:37,35.187,31.5,off
10/23/2017 12:26:48,35.187,31.375,off
10/23/2017 12:27:00,35.187,31.375,off
