TIME,INSIDE_TEMPERATURE,OUTSIDE_TEMPERATURE,LIGHTS_STATE

10/22/2017 12:45:25,30.437,29.375,off
10/22/2017 12:45:37,30.375,29.437,off
10/22/2017 12:45:49,30.375,29.562,off
10/22/2017 12:46:00,30.437,29.75,off
