TIME,INSIDE_TEMPERATURE,OUTSIDE_TEMPERATURE,LIGHTS_STATE

09/13/2016 12:58:25,25.437,23.312,off
09/13/2016 12:58:37,25.5,23.375,off
09/13/2016 12:58:49,25.5,23.375,off
09/13/2016 12:59:00,25.5,23.375,off
