TIME,INSIDE_TEMPERATURE,OUTSIDE_TEMPERATURE,LIGHTS_STATE

09/10/2017 12:27:26,37.687,33.812,off
09/10/2017 12:27:38,37.687,33.812,off
09/10/2017 12:27:50,37.625,33.875,off
09/10/2017 12:28:01,37.687,33.875,off
