TIME,INSIDE_TEMPERATURE,OUTSIDE_TEMPERATURE,LIGHTS_STATE

12/25/2016 12:55:25,18.25,18.812,off
12/25/2016 12:55:36,18.25,18.562,off
12/25/2016 12:55:48,18.187,18.437,off
12/25/2016 12:56:00,18.187,18.375,off
