TIME,INSIDE_TEMPERATURE,OUTSIDE_TEMPERATURE,LIGHTS_STATE

07/22/2017 12:16:26,32.5,28.75,off
07/22/2017 12:16:37,32.562,28.75,off
07/22/2017 12:16:49,32.562,28.75,off
07/22/2017 12:17:01,32.562,28.75,off
