TIME,INSIDE_TEMPERATURE,OUTSIDE_TEMPERATURE,LIGHTS_STATE

12/16/2016 12:54:26,17.875,18.25,off
12/16/2016 12:54:37,17.812,18.5,off
12/16/2016 12:54:49,17.812,18.687,off
12/16/2016 12:55:01,17.812,18.812,off
