TIME,INSIDE_TEMPERATURE,OUTSIDE_TEMPERATURE,LIGHTS_STATE

08/26/2017 12:22:26,35.625,34.125,off
08/26/2017 12:22:37,35.687,34.125,off
08/26/2017 12:22:49,35.687,34.125,off
08/26/2017 12:23:01,35.75,34.187,off
