TIME,INSIDE_TEMPERATURE,OUTSIDE_TEMPERATURE,LIGHTS_STATE

08/25/2017 12:11:26,29.562,27.437,off
08/25/2017 12:11:37,29.562,27.437,off
08/25/2017 12:11:49,29.562,27.437,off
08/25/2017 12:12:01,29.625,27.437,off
