TIME,INSIDE_TEMPERATURE,OUTSIDE_TEMPERATURE,LIGHTS_STATE

10/30/2016 12:29:25,19.375,16.0,off
10/30/2016 12:29:36,19.375,16.062,off
10/30/2016 12:29:48,19.375,16.062,off
10/30/2016 12:30:00,19.375,16.062,off
