TIME,INSIDE_TEMPERATURE,OUTSIDE_TEMPERATURE,LIGHTS_STATE

07/25/2016 12:34:25,31.0,31.187,off
07/25/2016 12:34:37,31.0,31.187,off
07/25/2016 12:34:48,31.0,31.187,off
07/25/2016 12:35:00,31.0,31.187,off
