TIME,INSIDE_TEMPERATURE,OUTSIDE_TEMPERATURE,LIGHTS_STATE

07/26/2016 12:56:26,35.562,33.562,off
07/26/2016 12:56:38,35.562,33.5,off
07/26/2016 12:56:50,35.625,33.5,off
07/26/2016 12:57:01,35.625,33.5,off
