TIME,INSIDE_TEMPERATURE,OUTSIDE_TEMPERATURE,LIGHTS_STATE

01/17/2017 12:24:24,14.0,11.625,off
01/17/2017 12:24:36,14.0,11.625,off
01/17/2017 12:24:48,14.062,11.75,off
01/17/2017 12:24:59,14.062,11.875,off
