TIME,INSIDE_TEMPERATURE,OUTSIDE_TEMPERATURE,LIGHTS_STATE

03/08/2017 12:15:26,24.937,22.375,off
03/08/2017 12:15:38,24.937,22.312,off
03/08/2017 12:15:50,24.937,22.25,off
03/08/2017 12:16:01,24.937,22.25,off
