TIME,INSIDE_TEMPERATURE,OUTSIDE_TEMPERATURE,LIGHTS_STATE

12/23/2016 12:46:24,14.437,10.437,off
12/23/2016 12:46:36,14.437,10.437,off
12/23/2016 12:46:48,14.437,10.437,off
12/23/2016 12:46:59,14.437,10.5,off
