TIME,INSIDE_TEMPERATURE,OUTSIDE_TEMPERATURE,LIGHTS_STATE

03/02/2018 12:39:25,19.187,16.0,off
03/02/2018 12:39:37,19.187,16.062,off
03/02/2018 12:39:49,19.187,16.0,off
03/02/2018 12:40:01,19.25,16.0,off
