TIME,INSIDE_TEMPERATURE,OUTSIDE_TEMPERATURE,LIGHTS_STATE

08/01/2016 12:56:26,28.5,28.562,off
08/01/2016 12:56:37,28.5,28.625,off
08/01/2016 12:56:49,28.5,28.625,off
08/01/2016 12:57:01,28.437,28.562,off
