TIME,INSIDE_TEMPERATURE,OUTSIDE_TEMPERATURE,LIGHTS_STATE

12/25/2017 12:13:25,19.625,15.937,off
12/25/2017 12:13:37,19.625,16.062,off
12/25/2017 12:13:48,19.625,16.125,off
12/25/2017 12:14:00,19.625,16.187,off
