TIME,INSIDE_TEMPERATURE,OUTSIDE_TEMPERATURE,LIGHTS_STATE

05/14/2017 12:08:26,21.062,17.75,off
05/14/2017 12:08:37,21.062,17.812,off
05/14/2017 12:08:49,21.062,17.812,off
05/14/2017 12:09:01,21.062,17.687,off
