TIME,INSIDE_TEMPERATURE,OUTSIDE_TEMPERATURE,LIGHTS_STATE

07/29/2017 12:08:25,31.125,28.375,off
07/29/2017 12:08:37,31.125,28.312,off
07/29/2017 12:08:50,31.125,28.375,off
07/29/2017 12:09:01,31.125,28.375,off
