TIME,INSIDE_TEMPERATURE,OUTSIDE_TEMPERATURE,LIGHTS_STATE

10/31/2017 12:15:25,29.812,27.812,off
10/31/2017 12:15:37,29.812,27.875,off
10/31/2017 12:15:49,29.812,28.0,off
10/31/2017 12:16:00,29.812,28.125,off
