TIME,INSIDE_TEMPERATURE,OUTSIDE_TEMPERATURE,LIGHTS_STATE

04/29/2017 12:26:25,25.312,23.437,off
04/29/2017 12:26:37,25.312,23.437,off
04/29/2017 12:26:49,25.312,23.375,off
04/29/2017 12:27:01,25.25,23.375,off
