TIME,INSIDE_TEMPERATURE,OUTSIDE_TEMPERATURE,LIGHTS_STATE

07/27/2016 12:51:25,37.375,38.5,off
07/27/2016 12:51:37,37.375,38.562,off
07/27/2016 12:51:49,37.375,38.625,off
07/27/2016 12:52:01,37.437,38.687,off
