TIME,INSIDE_TEMPERATURE,OUTSIDE_TEMPERATURE,LIGHTS_STATE

03/15/2018 12:22:26,18.375,12.062,off
03/15/2018 12:22:37,18.375,12.0,off
03/15/2018 12:22:49,18.312,12.0,off
03/15/2018 12:23:01,18.375,12.0,off
