TIME,INSIDE_TEMPERATURE,OUTSIDE_TEMPERATURE,LIGHTS_STATE

03/31/2017 12:16:25,22.0,18.812,off
03/31/2017 12:16:37,22.062,18.812,off
03/31/2017 12:16:48,22.0,18.75,off
03/31/2017 12:17:00,22.0,18.75,off
