TIME,INSIDE_TEMPERATURE,OUTSIDE_TEMPERATURE,LIGHTS_STATE

02/01/2018 12:41:25,27.875,26.937,off
02/01/2018 12:41:37,27.875,26.937,off
02/01/2018 12:41:48,27.875,26.75,off
02/01/2018 12:42:00,27.875,26.812,off
