TIME,INSIDE_TEMPERATURE,OUTSIDE_TEMPERATURE,LIGHTS_STATE

02/15/2017 12:03:26,20.437,18.125,off
02/15/2017 12:03:37,20.437,18.187,off
02/15/2017 12:03:49,20.5,18.25,off
02/15/2017 12:04:01,20.5,18.312,off
