TIME,INSIDE_TEMPERATURE,OUTSIDE_TEMPERATURE,LIGHTS_STATE

12/29/2017 12:07:25,22.5,24.062,off
12/29/2017 12:07:37,22.437,24.0,off
12/29/2017 12:07:49,22.437,24.0,off
12/29/2017 12:08:00,22.5,24.062,off
