TIME,INSIDE_TEMPERATURE,OUTSIDE_TEMPERATURE,LIGHTS_STATE

12/03/2016 12:23:26,24.812,21.937,off
12/03/2016 12:23:37,24.812,22.062,off
12/03/2016 12:23:49,24.812,22.125,off
12/03/2016 12:24:01,24.812,22.125,off
