TIME,INSIDE_TEMPERATURE,OUTSIDE_TEMPERATURE,LIGHTS_STATE

03/16/2017 12:49:26,26.437,22.437,off
03/16/2017 12:49:38,26.437,22.5,off
03/16/2017 12:49:49,26.437,22.5,off
03/16/2017 12:50:01,26.437,22.562,off
