TIME,INSIDE_TEMPERATURE,OUTSIDE_TEMPERATURE,LIGHTS_STATE

03/11/2017 12:11:25,29.937,25.125,off
03/11/2017 12:11:37,29.937,25.187,off
03/11/2017 12:11:49,29.937,25.125,off
03/11/2017 12:12:00,29.937,25.125,off
