TIME,INSIDE_TEMPERATURE,OUTSIDE_TEMPERATURE,LIGHTS_STATE

07/22/2017 12:31:25,33.125,29.062,off
07/22/2017 12:31:37,33.125,29.0,off
07/22/2017 12:31:49,33.125,29.062,off
07/22/2017 12:32:01,33.187,29.062,off
