TIME,INSIDE_TEMPERATURE,OUTSIDE_TEMPERATURE,LIGHTS_STATE

08/31/2017 12:58:26,34.5,33.937,off
08/31/2017 12:58:37,34.375,33.937,off
08/31/2017 12:58:49,34.375,33.875,off
08/31/2017 12:59:01,34.437,33.812,off
