TIME,INSIDE_TEMPERATURE,OUTSIDE_TEMPERATURE,LIGHTS_STATE

03/06/2018 12:52:26,23.0,32.125,off
03/06/2018 12:52:37,23.0,32.312,off
03/06/2018 12:52:49,23.0,32.125,off
03/06/2018 12:53:01,23.062,32.062,off
