TIME,INSIDE_TEMPERATURE,OUTSIDE_TEMPERATURE,LIGHTS_STATE

10/24/2016 12:49:25,22.375,19.062,off
10/24/2016 12:49:36,22.375,19.0,off
10/24/2016 12:49:48,22.375,19.0,off
10/24/2016 12:50:00,22.375,19.0,off
