TIME,INSIDE_TEMPERATURE,OUTSIDE_TEMPERATURE,LIGHTS_STATE

10/28/2017 12:24:25,34.687,35.375,off
10/28/2017 12:24:37,34.687,35.25,off
10/28/2017 12:24:48,34.687,35.187,off
10/28/2017 12:25:00,34.75,35.062,off
