TIME,INSIDE_TEMPERATURE,OUTSIDE_TEMPERATURE,LIGHTS_STATE

10/10/2017 12:04:26,30.687,28.812,off
10/10/2017 12:04:37,30.687,28.937,off
10/10/2017 12:04:49,30.75,29.0,off
10/10/2017 12:05:01,30.75,29.125,off
