TIME,INSIDE_TEMPERATURE,OUTSIDE_TEMPERATURE,LIGHTS_STATE

07/04/2017 12:06:25,29.312,26.25,off
07/04/2017 12:06:37,29.312,26.25,off
07/04/2017 12:06:49,29.312,26.25,off
07/04/2017 12:07:01,29.375,26.25,off
