TIME,INSIDE_TEMPERATURE,OUTSIDE_TEMPERATURE,LIGHTS_STATE

02/05/2017 12:18:25,21.625,18.937,off
02/05/2017 12:18:36,21.625,19.0,off
02/05/2017 12:18:48,21.625,19.062,off
02/05/2017 12:19:00,21.625,19.062,off
