TIME,INSIDE_TEMPERATURE,OUTSIDE_TEMPERATURE,LIGHTS_STATE

02/05/2017 12:26:26,21.562,18.187,off
02/05/2017 12:26:37,21.625,18.125,off
02/05/2017 12:26:49,21.625,18.062,off
02/05/2017 12:27:01,21.625,18.0,off
