TIME,INSIDE_TEMPERATURE,OUTSIDE_TEMPERATURE,LIGHTS_STATE

10/28/2017 12:19:26,34.625,38.062,off
10/28/2017 12:19:37,34.625,37.875,off
10/28/2017 12:19:49,34.625,37.75,off
10/28/2017 12:20:01,34.687,37.562,off
