TIME,INSIDE_TEMPERATURE,OUTSIDE_TEMPERATURE,LIGHTS_STATE

10/11/2017 12:12:25,26.625,22.812,off
10/11/2017 12:12:37,26.687,22.812,off
10/11/2017 12:12:49,26.625,22.875,off
10/11/2017 12:13:00,26.687,22.812,off
