TIME,INSIDE_TEMPERATURE,OUTSIDE_TEMPERATURE,LIGHTS_STATE

07/10/2017 12:08:25,33.375,30.875,off
07/10/2017 12:08:37,33.437,30.875,off
07/10/2017 12:08:49,33.437,30.875,off
07/10/2017 12:09:00,33.437,30.875,off
