TIME,INSIDE_TEMPERATURE,OUTSIDE_TEMPERATURE,LIGHTS_STATE

03/28/2018 12:08:25,24.187,18.812,off
03/28/2018 12:08:37,24.25,18.812,off
03/28/2018 12:08:48,24.25,18.812,off
03/28/2018 12:09:00,24.25,18.812,off
