TIME,INSIDE_TEMPERATURE,OUTSIDE_TEMPERATURE,LIGHTS_STATE

03/28/2018 12:45:25,25.375,19.312,off
03/28/2018 12:45:37,25.437,19.312,off
03/28/2018 12:45:49,25.437,19.312,off
03/28/2018 12:46:01,25.437,19.312,off
