TIME,INSIDE_TEMPERATURE,OUTSIDE_TEMPERATURE,LIGHTS_STATE

09/06/2016 12:49:26,30.375,35.312,off
09/06/2016 12:49:37,30.375,35.312,off
09/06/2016 12:49:49,30.375,35.312,off
09/06/2016 12:50:01,30.375,35.312,off
