TIME,INSIDE_TEMPERATURE,OUTSIDE_TEMPERATURE,LIGHTS_STATE

08/14/2017 12:53:25,26.5,22.875,off
08/14/2017 12:53:37,26.5,22.875,off
08/14/2017 12:53:49,26.562,22.875,off
08/14/2017 12:54:00,26.562,22.812,off
