TIME,INSIDE_TEMPERATURE,OUTSIDE_TEMPERATURE,LIGHTS_STATE

01/17/2017 12:08:24,12.75,9.875,off
01/17/2017 12:08:36,12.75,9.812,off
01/17/2017 12:08:48,12.812,9.812,off
01/17/2017 12:08:59,12.812,9.812,off
