TIME,INSIDE_TEMPERATURE,OUTSIDE_TEMPERATURE,LIGHTS_STATE

06/28/2017 12:12:25,26.0,23.562,off
06/28/2017 12:12:37,26.187,23.5,off
06/28/2017 12:12:49,26.375,23.5,off
06/28/2017 12:13:01,26.375,23.5,off
