TIME,INSIDE_TEMPERATURE,OUTSIDE_TEMPERATURE,LIGHTS_STATE

07/04/2017 12:10:25,29.437,26.25,off
07/04/2017 12:10:37,29.437,26.25,off
07/04/2017 12:10:49,29.437,26.312,off
07/04/2017 12:11:01,29.437,26.312,off
