TIME,INSIDE_TEMPERATURE,OUTSIDE_TEMPERATURE,LIGHTS_STATE

01/16/2018 12:19:25,23.75,18.75,off
01/16/2018 12:19:37,23.75,18.687,off
01/16/2018 12:19:48,23.75,18.687,off
01/16/2018 12:20:00,23.75,18.625,off
