TIME,INSIDE_TEMPERATURE,OUTSIDE_TEMPERATURE,LIGHTS_STATE

05/14/2017 12:01:25,21.0,17.937,off
05/14/2017 12:01:36,21.0,17.937,off
05/14/2017 12:01:48,21.0,17.937,off
05/14/2017 12:02:00,21.0,17.875,off
