TIME,INSIDE_TEMPERATURE,OUTSIDE_TEMPERATURE,LIGHTS_STATE

11/08/2016 12:48:25,30.5,26.625,off
11/08/2016 12:48:37,30.437,26.625,off
11/08/2016 12:48:48,30.437,26.625,off
11/08/2016 12:49:00,30.5,26.625,off
