TIME,INSIDE_TEMPERATURE,OUTSIDE_TEMPERATURE,LIGHTS_STATE

10/10/2017 12:18:26,31.25,29.437,off
10/10/2017 12:18:38,31.25,29.25,off
10/10/2017 12:18:49,31.25,29.187,off
10/10/2017 12:19:01,31.312,29.312,off
