TIME,INSIDE_TEMPERATURE,OUTSIDE_TEMPERATURE,LIGHTS_STATE

01/16/2017 12:51:25,18.687,14.0,off
01/16/2017 12:51:36,18.75,14.062,off
01/16/2017 12:51:48,18.687,14.187,off
01/16/2017 12:52:00,18.687,14.25,off
