TIME,INSIDE_TEMPERATURE,OUTSIDE_TEMPERATURE,LIGHTS_STATE

01/12/2018 12:24:25,20.625,19.062,off
01/12/2018 12:24:37,20.625,18.75,off
01/12/2018 12:24:49,20.625,18.562,off
01/12/2018 12:25:00,20.687,18.5,off
