TIME,INSIDE_TEMPERATURE,OUTSIDE_TEMPERATURE,LIGHTS_STATE

01/15/2018 12:53:25,23.562,21.375,off
01/15/2018 12:53:37,23.562,21.25,off
01/15/2018 12:53:49,23.562,21.125,off
01/15/2018 12:54:01,23.562,21.062,off
