TIME,INSIDE_TEMPERATURE,OUTSIDE_TEMPERATURE,LIGHTS_STATE

06/06/2017 12:57:26,23.187,23.062,off
06/06/2017 12:57:38,23.187,23.062,off
06/06/2017 12:57:50,23.187,23.062,off
06/06/2017 12:58:02,23.187,23.062,off
