TIME,INSIDE_TEMPERATURE,OUTSIDE_TEMPERATURE,LIGHTS_STATE

11/08/2016 12:18:25,30.875,33.062,off
11/08/2016 12:18:37,30.875,33.25,off
11/08/2016 12:18:49,30.875,33.437,off
11/08/2016 12:19:00,30.875,33.5,off
