TIME,INSIDE_TEMPERATURE,OUTSIDE_TEMPERATURE,LIGHTS_STATE

03/03/2018 12:39:25,17.437,10.375,off
03/03/2018 12:39:37,17.437,10.375,off
03/03/2018 12:39:48,17.437,10.375,off
03/03/2018 12:40:00,17.437,10.375,off
