TIME,INSIDE_TEMPERATURE,OUTSIDE_TEMPERATURE,LIGHTS_STATE

12/30/2016 12:28:25,17.062,16.125,off
12/30/2016 12:28:36,17.125,16.062,off
12/30/2016 12:28:48,17.125,16.062,off
12/30/2016 12:29:00,17.062,16.0,off
