TIME,INSIDE_TEMPERATURE,OUTSIDE_TEMPERATURE,LIGHTS_STATE

08/20/2017 12:40:25,30.375,27.875,off
08/20/2017 12:40:37,30.375,27.937,off
08/20/2017 12:40:49,30.375,27.937,off
08/20/2017 12:41:01,30.437,27.937,off
