TIME,INSIDE_TEMPERATURE,OUTSIDE_TEMPERATURE,LIGHTS_STATE

01/22/2018 12:28:25,22.062,16.875,off
01/22/2018 12:28:37,22.125,16.875,off
01/22/2018 12:28:48,22.125,16.875,off
01/22/2018 12:29:00,22.125,16.875,off
