TIME,INSIDE_TEMPERATURE,OUTSIDE_TEMPERATURE,LIGHTS_STATE

06/17/2017 12:44:25,34.937,29.875,off
06/17/2017 12:44:37,34.937,29.875,off
06/17/2017 12:44:49,34.937,29.875,off
06/17/2017 12:45:01,34.937,29.875,off
