TIME,INSIDE_TEMPERATURE,OUTSIDE_TEMPERATURE,LIGHTS_STATE

09/06/2017 12:53:26,34.5,32.062,off
09/06/2017 12:53:37,34.5,32.062,off
09/06/2017 12:53:49,34.5,32.0,off
09/06/2017 12:54:01,34.5,32.062,off
