TIME,INSIDE_TEMPERATURE,OUTSIDE_TEMPERATURE,LIGHTS_STATE

12/20/2016 12:13:24,20.062,16.625,off
12/20/2016 12:13:36,20.125,16.5,off
12/20/2016 12:13:48,20.125,16.5,off
12/20/2016 12:13:59,20.062,16.437,off
