TIME,INSIDE_TEMPERATURE,OUTSIDE_TEMPERATURE,LIGHTS_STATE

04/24/2017 12:23:25,20.875,17.5,off
04/24/2017 12:23:37,20.875,17.5,off
04/24/2017 12:23:49,20.875,17.375,off
04/24/2017 12:24:00,20.875,17.312,off
