TIME,INSIDE_TEMPERATURE,OUTSIDE_TEMPERATURE,LIGHTS_STATE

07/13/2017 12:27:25,32.375,28.812,off
07/13/2017 12:27:37,32.375,28.875,off
07/13/2017 12:27:49,32.375,28.812,off
07/13/2017 12:28:00,32.375,28.812,off
