TIME,INSIDE_TEMPERATURE,OUTSIDE_TEMPERATURE,LIGHTS_STATE

12/22/2016 12:24:25,22.75,20.0,off
12/22/2016 12:24:36,22.75,20.125,off
12/22/2016 12:24:48,22.75,20.125,off
12/22/2016 12:25:00,22.75,20.25,off
