TIME,INSIDE_TEMPERATURE,OUTSIDE_TEMPERATURE,LIGHTS_STATE

11/05/2016 12:58:25,29.937,30.5,off
11/05/2016 12:58:36,29.937,30.312,off
11/05/2016 12:58:48,29.937,30.125,off
11/05/2016 12:59:00,29.937,29.937,off
