TIME,INSIDE_TEMPERATURE,OUTSIDE_TEMPERATURE,LIGHTS_STATE

11/19/2016 12:23:25,20.187,15.437,off
11/19/2016 12:23:36,20.187,15.437,off
11/19/2016 12:23:48,20.187,15.5,off
11/19/2016 12:24:00,20.25,15.5,off
