TIME,INSIDE_TEMPERATURE,OUTSIDE_TEMPERATURE,LIGHTS_STATE

02/18/2017 12:43:25,16.875,12.812,off
02/18/2017 12:43:37,16.875,12.812,off
02/18/2017 12:43:49,16.875,12.812,off
02/18/2017 12:44:00,16.875,12.812,off
