TIME,INSIDE_TEMPERATURE,OUTSIDE_TEMPERATURE,LIGHTS_STATE

01/03/2017 12:42:25,15.062,11.937,off
01/03/2017 12:42:37,15.062,11.937,off
01/03/2017 12:42:48,15.062,11.937,off
01/03/2017 12:43:00,15.062,11.937,off
