TIME,INSIDE_TEMPERATURE,OUTSIDE_TEMPERATURE,LIGHTS_STATE

06/26/2017 12:57:25,28.25,24.812,off
06/26/2017 12:57:37,28.312,24.875,off
06/26/2017 12:57:49,28.312,24.875,off
06/26/2017 12:58:01,28.312,24.937,off
