TIME,INSIDE_TEMPERATURE,OUTSIDE_TEMPERATURE,LIGHTS_STATE

12/23/2016 12:39:25,14.375,10.562,off
12/23/2016 12:39:37,14.375,10.562,off
12/23/2016 12:39:48,14.375,10.562,off
12/23/2016 12:40:00,14.375,10.562,off
