TIME,INSIDE_TEMPERATURE,OUTSIDE_TEMPERATURE,LIGHTS_STATE

01/06/2018 12:50:25,23.812,28.625,off
01/06/2018 12:50:37,23.812,28.625,off
01/06/2018 12:50:49,23.812,28.562,off
01/06/2018 12:51:01,23.812,28.625,off
