TIME,INSIDE_TEMPERATURE,OUTSIDE_TEMPERATURE,LIGHTS_STATE

05/08/2017 12:13:25,25.375,23.562,off
05/08/2017 12:13:37,25.375,23.562,off
05/08/2017 12:13:48,25.375,23.625,off
05/08/2017 12:14:00,25.375,23.562,off
