TIME,INSIDE_TEMPERATURE,OUTSIDE_TEMPERATURE,LIGHTS_STATE

08/17/2017 12:38:25,31.125,28.562,off
08/17/2017 12:38:37,31.125,28.562,off
08/17/2017 12:38:49,31.125,28.562,off
08/17/2017 12:39:01,31.125,28.625,off
