TIME,INSIDE_TEMPERATURE,OUTSIDE_TEMPERATURE,LIGHTS_STATE

03/31/2017 12:28:25,22.125,18.875,off
03/31/2017 12:28:37,22.125,18.875,off
03/31/2017 12:28:49,22.125,19.0,off
03/31/2017 12:29:00,22.125,19.062,off
