TIME,INSIDE_TEMPERATURE,OUTSIDE_TEMPERATURE,LIGHTS_STATE

07/14/2016 12:23:26,33.5,33.437,off
07/14/2016 12:23:38,33.5,33.437,off
07/14/2016 12:23:49,33.5,33.437,off
07/14/2016 12:24:01,33.5,33.5,off
