TIME,INSIDE_TEMPERATURE,OUTSIDE_TEMPERATURE,LIGHTS_STATE

06/11/2017 12:00:25,22.812,19.125,off
06/11/2017 12:00:37,22.812,19.062,off
06/11/2017 12:00:49,22.812,19.062,off
06/11/2017 12:01:01,22.812,19.062,off
