TIME,INSIDE_TEMPERATURE,OUTSIDE_TEMPERATURE,LIGHTS_STATE

01/30/2018 12:37:25,26.125,22.625,off
01/30/2018 12:37:37,26.125,22.562,off
01/30/2018 12:37:49,26.125,22.562,off
01/30/2018 12:38:00,26.125,22.375,off
