TIME,INSIDE_TEMPERATURE,OUTSIDE_TEMPERATURE,LIGHTS_STATE

03/20/2017 12:18:25,21.0,17.75,off
03/20/2017 12:18:37,21.0,17.687,off
03/20/2017 12:18:49,21.062,17.687,off
03/20/2017 12:19:00,21.062,17.625,off
