TIME,INSIDE_TEMPERATURE,OUTSIDE_TEMPERATURE,LIGHTS_STATE

12/01/2016 12:29:24,22.0,18.687,off
12/01/2016 12:29:36,22.0,18.687,off
12/01/2016 12:29:48,22.0,18.687,off
12/01/2016 12:29:59,22.0,18.75,off
