TIME,INSIDE_TEMPERATURE,OUTSIDE_TEMPERATURE,LIGHTS_STATE

06/20/2017 12:14:26,35.5,32.937,off
06/20/2017 12:14:37,35.562,32.937,off
06/20/2017 12:14:49,35.562,32.937,off
06/20/2017 12:15:01,35.562,33.0,off
