TIME,INSIDE_TEMPERATURE,OUTSIDE_TEMPERATURE,LIGHTS_STATE

05/22/2017 12:26:25,31.0,28.937,off
05/22/2017 12:26:37,31.0,29.0,off
05/22/2017 12:26:48,31.062,29.0,off
05/22/2017 12:27:00,31.062,29.0,off
