TIME,INSIDE_TEMPERATURE,OUTSIDE_TEMPERATURE,LIGHTS_STATE

04/04/2017 12:05:25,23.75,21.625,off
04/04/2017 12:05:37,23.812,21.625,off
04/04/2017 12:05:49,23.812,21.562,off
04/04/2017 12:06:00,23.812,21.562,off
