TIME,INSIDE_TEMPERATURE,OUTSIDE_TEMPERATURE,LIGHTS_STATE

11/23/2016 12:53:25,23.312,19.687,off
11/23/2016 12:53:37,23.312,19.75,off
11/23/2016 12:53:48,23.312,19.812,off
11/23/2016 12:54:00,23.312,19.75,off
