TIME,INSIDE_TEMPERATURE,OUTSIDE_TEMPERATURE,LIGHTS_STATE

02/05/2017 12:55:25,21.937,17.75,off
02/05/2017 12:55:36,21.937,17.625,off
02/05/2017 12:55:48,22.0,17.437,off
02/05/2017 12:56:00,22.0,17.437,off
