TIME,INSIDE_TEMPERATURE,OUTSIDE_TEMPERATURE,LIGHTS_STATE

06/28/2017 12:23:25,27.375,24.187,off
06/28/2017 12:23:37,27.437,24.25,off
06/28/2017 12:23:49,27.437,24.312,off
06/28/2017 12:24:01,27.437,24.25,off
