TIME,INSIDE_TEMPERATURE,OUTSIDE_TEMPERATURE,LIGHTS_STATE

03/03/2017 12:43:26,26.187,22.937,off
03/03/2017 12:43:37,26.187,22.937,off
03/03/2017 12:43:49,26.187,23.062,off
03/03/2017 12:44:01,26.187,23.125,off
