TIME,INSIDE_TEMPERATURE,OUTSIDE_TEMPERATURE,LIGHTS_STATE

07/27/2017 12:52:25,34.062,30.0,off
07/27/2017 12:52:37,34.062,30.062,off
07/27/2017 12:52:49,34.062,30.062,off
07/27/2017 12:53:01,34.062,30.062,off
