TIME,INSIDE_TEMPERATURE,OUTSIDE_TEMPERATURE,LIGHTS_STATE

01/05/2018 12:32:25,21.5,17.562,off
01/05/2018 12:32:37,21.5,17.562,off
01/05/2018 12:32:49,21.5,17.562,off
01/05/2018 12:33:01,21.5,17.562,off
