TIME,INSIDE_TEMPERATURE,OUTSIDE_TEMPERATURE,LIGHTS_STATE

04/18/2017 12:47:25,23.125,18.437,off
04/18/2017 12:47:37,23.125,18.437,off
04/18/2017 12:47:49,23.125,18.437,off
04/18/2017 12:48:00,23.125,18.437,off
