TIME,INSIDE_TEMPERATURE,OUTSIDE_TEMPERATURE,LIGHTS_STATE

09/26/2017 12:55:26,33.0,30.5,off
09/26/2017 12:55:37,33.0,30.562,off
09/26/2017 12:55:49,33.0,30.562,off
09/26/2017 12:56:01,33.062,30.562,off
