TIME,INSIDE_TEMPERATURE,OUTSIDE_TEMPERATURE,LIGHTS_STATE

02/19/2018 12:34:25,19.75,28.875,off
02/19/2018 12:34:37,20.0,28.75,off
02/19/2018 12:34:49,20.062,28.625,off
02/19/2018 12:35:01,20.125,28.562,off
