TIME,INSIDE_TEMPERATURE,OUTSIDE_TEMPERATURE,LIGHTS_STATE

01/25/2018 12:28:25,18.625,12.25,off
01/25/2018 12:28:37,18.625,12.25,off
01/25/2018 12:28:49,18.625,12.25,off
01/25/2018 12:29:01,18.625,12.25,off
