TIME,INSIDE_TEMPERATURE,OUTSIDE_TEMPERATURE,LIGHTS_STATE

08/26/2017 12:04:26,35.0,33.562,off
08/26/2017 12:04:37,35.0,33.562,off
08/26/2017 12:04:49,35.0,33.625,off
08/26/2017 12:05:01,35.0,33.625,off
