TIME,INSIDE_TEMPERATURE,OUTSIDE_TEMPERATURE,LIGHTS_STATE

02/05/2017 12:49:25,21.687,17.937,off
02/05/2017 12:49:37,21.687,17.875,off
02/05/2017 12:49:48,21.75,17.75,off
02/05/2017 12:50:00,21.687,17.562,off
