TIME,INSIDE_TEMPERATURE,OUTSIDE_TEMPERATURE,LIGHTS_STATE

02/27/2017 12:26:25,23.937,22.562,off
02/27/2017 12:26:37,23.937,22.687,off
02/27/2017 12:26:48,23.937,22.75,off
02/27/2017 12:27:00,23.875,22.937,off
