TIME,INSIDE_TEMPERATURE,OUTSIDE_TEMPERATURE,LIGHTS_STATE

03/24/2017 12:08:25,17.625,12.25,off
03/24/2017 12:08:37,17.687,12.25,off
03/24/2017 12:08:48,17.687,12.187,off
03/24/2017 12:09:00,17.687,12.187,off
