TIME,INSIDE_TEMPERATURE,OUTSIDE_TEMPERATURE,LIGHTS_STATE

08/04/2017 12:27:25,31.937,27.875,off
08/04/2017 12:27:37,32.0,27.875,off
08/04/2017 12:27:48,32.0,27.875,off
08/04/2017 12:28:00,31.937,27.937,off
