TIME,INSIDE_TEMPERATURE,OUTSIDE_TEMPERATURE,LIGHTS_STATE

12/17/2016 12:52:26,17.562,18.937,off
12/17/2016 12:52:37,17.562,19.187,off
12/17/2016 12:52:49,17.562,19.312,off
12/17/2016 12:53:01,17.562,19.312,off
