TIME,INSIDE_TEMPERATURE,OUTSIDE_TEMPERATURE,LIGHTS_STATE

02/02/2018 12:35:25,28.5,26.375,off
02/02/2018 12:35:37,28.5,26.437,off
02/02/2018 12:35:49,28.5,26.437,off
02/02/2018 12:36:00,28.5,26.5,off
