TIME,INSIDE_TEMPERATURE,OUTSIDE_TEMPERATURE,LIGHTS_STATE

01/14/2017 12:43:25,21.312,17.687,off
01/14/2017 12:43:37,21.312,17.687,off
01/14/2017 12:43:49,21.312,17.625,off
01/14/2017 12:44:01,21.312,17.562,off
