TIME,INSIDE_TEMPERATURE,OUTSIDE_TEMPERATURE,LIGHTS_STATE

02/24/2017 12:07:25,23.875,18.062,off
02/24/2017 12:07:37,23.875,18.187,off
02/24/2017 12:07:49,23.875,18.25,off
02/24/2017 12:08:00,23.875,18.437,off
