TIME,INSIDE_TEMPERATURE,OUTSIDE_TEMPERATURE,LIGHTS_STATE

10/31/2016 12:53:25,25.25,27.312,off
10/31/2016 12:53:36,25.25,27.5,off
10/31/2016 12:53:48,25.312,27.687,off
10/31/2016 12:54:00,25.312,27.75,off
