TIME,INSIDE_TEMPERATURE,OUTSIDE_TEMPERATURE,LIGHTS_STATE

08/21/2017 12:43:25,28.937,26.5,off
08/21/2017 12:43:37,28.937,26.5,off
08/21/2017 12:43:49,29.0,26.5,off
08/21/2017 12:44:01,28.937,26.437,off
