TIME,INSIDE_TEMPERATURE,OUTSIDE_TEMPERATURE,LIGHTS_STATE

11/12/2016 12:03:25,31.75,34.75,off
11/12/2016 12:03:37,31.75,34.812,off
11/12/2016 12:03:48,31.75,34.75,off
11/12/2016 12:04:00,31.75,34.625,off
