TIME,INSIDE_TEMPERATURE,OUTSIDE_TEMPERATURE,LIGHTS_STATE

07/29/2017 12:05:25,31.0,28.375,off
07/29/2017 12:05:37,30.937,28.375,off
07/29/2017 12:05:49,31.0,28.437,off
07/29/2017 12:06:01,31.0,28.375,off
