TIME,INSIDE_TEMPERATURE,OUTSIDE_TEMPERATURE,LIGHTS_STATE

02/06/2018 12:15:26,29.687,32.937,off
02/06/2018 12:15:37,29.687,33.062,off
02/06/2018 12:15:49,29.687,33.187,off
02/06/2018 12:16:01,29.687,33.375,off
