TIME,INSIDE_TEMPERATURE,OUTSIDE_TEMPERATURE,LIGHTS_STATE

10/27/2016 12:57:25,21.937,18.312,off
10/27/2016 12:57:37,21.937,18.25,off
10/27/2016 12:57:48,21.937,18.25,off
10/27/2016 12:58:00,21.937,18.25,off
