TIME,INSIDE_TEMPERATURE,OUTSIDE_TEMPERATURE,LIGHTS_STATE

09/22/2016 12:22:26,24.25,22.437,off
09/22/2016 12:22:37,24.312,22.375,off
09/22/2016 12:22:49,24.312,22.375,off
09/22/2016 12:23:01,24.312,22.375,off
