TIME,INSIDE_TEMPERATURE,OUTSIDE_TEMPERATURE,LIGHTS_STATE

05/16/2017 12:36:26,21.375,16.25,off
05/16/2017 12:36:37,21.375,16.312,off
05/16/2017 12:36:49,21.375,16.312,off
05/16/2017 12:37:01,21.375,16.312,off
