TIME,INSIDE_TEMPERATURE,OUTSIDE_TEMPERATURE,LIGHTS_STATE

09/07/2016 12:21:26,31.5,38.187,off
09/07/2016 12:21:38,31.437,38.0,off
09/07/2016 12:21:50,31.5,37.75,off
09/07/2016 12:22:01,31.5,37.75,off
