TIME,INSIDE_TEMPERATURE,OUTSIDE_TEMPERATURE,LIGHTS_STATE

04/28/2017 12:35:25,23.062,21.187,off
04/28/2017 12:35:37,23.062,21.25,off
04/28/2017 12:35:49,23.062,21.25,off
04/28/2017 12:36:00,23.062,21.312,off
