TIME,INSIDE_TEMPERATURE,OUTSIDE_TEMPERATURE,LIGHTS_STATE

01/08/2017 12:17:25,19.0,15.187,off
01/08/2017 12:17:36,18.937,15.187,off
01/08/2017 12:17:48,19.0,15.187,off
01/08/2017 12:18:00,19.0,15.25,off
