TIME,INSIDE_TEMPERATURE,OUTSIDE_TEMPERATURE,LIGHTS_STATE

09/19/2017 12:09:25,26.25,22.937,off
09/19/2017 12:09:37,26.25,22.937,off
09/19/2017 12:09:49,26.312,23.0,off
09/19/2017 12:10:01,26.25,23.0,off
