TIME,INSIDE_TEMPERATURE,OUTSIDE_TEMPERATURE,LIGHTS_STATE

11/08/2016 12:10:25,31.0,34.25,off
11/08/2016 12:10:36,31.062,34.187,off
11/08/2016 12:10:48,31.062,34.062,off
11/08/2016 12:11:00,31.062,34.125,off
