TIME,INSIDE_TEMPERATURE,OUTSIDE_TEMPERATURE,LIGHTS_STATE

03/05/2017 12:33:25,17.312,12.375,off
03/05/2017 12:33:37,17.312,12.437,off
03/05/2017 12:33:48,17.312,12.312,off
03/05/2017 12:34:00,17.25,12.187,off
