TIME,INSIDE_TEMPERATURE,OUTSIDE_TEMPERATURE,LIGHTS_STATE

09/21/2016 12:13:26,26.937,22.875,off
09/21/2016 12:13:38,26.937,22.875,off
09/21/2016 12:13:50,27.0,23.0,off
09/21/2016 12:14:02,27.0,23.125,off
