TIME,INSIDE_TEMPERATURE,OUTSIDE_TEMPERATURE,LIGHTS_STATE

01/13/2018 12:09:25,16.812,12.125,off
01/13/2018 12:09:37,16.812,12.125,off
01/13/2018 12:09:49,16.812,12.062,off
01/13/2018 12:10:00,16.812,12.0,off
