TIME,INSIDE_TEMPERATURE,OUTSIDE_TEMPERATURE,LIGHTS_STATE

11/23/2016 12:34:24,23.187,20.312,off
11/23/2016 12:34:36,23.25,20.375,off
11/23/2016 12:34:48,23.25,20.312,off
11/23/2016 12:35:00,23.25,20.312,off
