TIME,INSIDE_TEMPERATURE,OUTSIDE_TEMPERATURE,LIGHTS_STATE

07/10/2017 12:54:26,35.25,33.437,off
07/10/2017 12:54:37,35.25,33.625,off
07/10/2017 12:54:49,35.25,33.687,off
07/10/2017 12:55:01,35.25,33.75,off
