TIME,INSIDE_TEMPERATURE,OUTSIDE_TEMPERATURE,LIGHTS_STATE

01/03/2017 12:41:25,15.062,11.875,off
01/03/2017 12:41:37,15.062,11.875,off
01/03/2017 12:41:48,15.062,11.937,off
01/03/2017 12:42:00,15.062,11.937,off
