TIME,INSIDE_TEMPERATURE,OUTSIDE_TEMPERATURE,LIGHTS_STATE

09/05/2016 12:55:25,27.437,29.625,off
09/05/2016 12:55:37,27.5,29.562,off
09/05/2016 12:55:48,27.5,29.562,off
09/05/2016 12:56:00,27.5,29.562,off
