TIME,INSIDE_TEMPERATURE,OUTSIDE_TEMPERATURE,LIGHTS_STATE

02/06/2018 12:53:25,29.812,45.0,off
02/06/2018 12:53:37,29.812,45.062,off
02/06/2018 12:53:49,29.812,45.125,off
02/06/2018 12:54:01,29.812,45.187,off
