TIME,INSIDE_TEMPERATURE,OUTSIDE_TEMPERATURE,LIGHTS_STATE

04/06/2017 12:58:25,21.437,17.875,off
04/06/2017 12:58:37,21.437,17.812,off
04/06/2017 12:58:49,21.437,17.812,off
04/06/2017 12:59:00,21.437,17.812,off
