TIME,INSIDE_TEMPERATURE,OUTSIDE_TEMPERATURE,LIGHTS_STATE

02/06/2017 12:14:25,18.25,14.375,off
02/06/2017 12:14:37,18.25,14.375,off
02/06/2017 12:14:49,18.25,14.375,off
02/06/2017 12:15:00,18.25,14.375,off
