TIME,INSIDE_TEMPERATURE,OUTSIDE_TEMPERATURE,LIGHTS_STATE

12/05/2016 12:21:25,16.625,13.312,off
12/05/2016 12:21:37,16.625,13.312,off
12/05/2016 12:21:49,16.625,13.25,off
12/05/2016 12:22:00,16.625,13.25,off
