TIME,INSIDE_TEMPERATURE,OUTSIDE_TEMPERATURE,LIGHTS_STATE

03/07/2017 12:52:26,22.062,17.375,off
03/07/2017 12:52:37,22.062,17.375,off
03/07/2017 12:52:49,22.062,17.375,off
03/07/2017 12:53:01,22.125,17.375,off
