TIME,INSIDE_TEMPERATURE,OUTSIDE_TEMPERATURE,LIGHTS_STATE

03/24/2017 12:45:25,16.5,10.687,off
03/24/2017 12:45:37,16.5,10.75,off
03/24/2017 12:45:49,16.437,10.75,off
03/24/2017 12:46:00,16.437,10.75,off
