TIME,INSIDE_TEMPERATURE,OUTSIDE_TEMPERATURE,LIGHTS_STATE

07/26/2017 12:35:26,29.25,26.375,off
07/26/2017 12:35:37,29.312,26.375,off
07/26/2017 12:35:49,29.312,26.375,off
07/26/2017 12:36:01,29.312,26.437,off
