TIME,INSIDE_TEMPERATURE,OUTSIDE_TEMPERATURE,LIGHTS_STATE

09/09/2016 12:37:25,28.125,30.0,off
09/09/2016 12:37:37,28.125,30.0,off
09/09/2016 12:37:49,28.187,30.0,off
09/09/2016 12:38:00,28.125,30.0,off
