TIME,INSIDE_TEMPERATURE,OUTSIDE_TEMPERATURE,LIGHTS_STATE

08/28/2017 12:25:26,37.75,35.937,off
08/28/2017 12:25:37,37.75,36.0,off
08/28/2017 12:25:49,37.75,36.0,off
08/28/2017 12:26:01,37.75,36.0,off
