TIME,INSIDE_TEMPERATURE,OUTSIDE_TEMPERATURE,LIGHTS_STATE

08/23/2017 12:02:25,29.375,27.375,off
08/23/2017 12:02:37,29.375,27.375,off
08/23/2017 12:02:48,29.375,27.312,off
08/23/2017 12:03:00,29.375,27.375,off
