TIME,INSIDE_TEMPERATURE,OUTSIDE_TEMPERATURE,LIGHTS_STATE

10/22/2017 12:36:25,30.375,28.0,off
10/22/2017 12:36:37,30.375,28.0,off
10/22/2017 12:36:49,30.375,28.062,off
10/22/2017 12:37:01,30.375,28.125,off
