TIME,INSIDE_TEMPERATURE,OUTSIDE_TEMPERATURE,LIGHTS_STATE

02/12/2017 12:45:26,25.187,22.75,off
02/12/2017 12:45:37,25.187,22.687,off
02/12/2017 12:45:49,25.187,22.625,off
02/12/2017 12:46:01,25.187,22.562,off
