TIME,INSIDE_TEMPERATURE,OUTSIDE_TEMPERATURE,LIGHTS_STATE

09/17/2016 12:48:25,31.062,32.187,off
09/17/2016 12:48:37,31.062,32.187,off
09/17/2016 12:48:49,31.062,32.125,off
09/17/2016 12:49:00,31.062,32.0,off
