TIME,INSIDE_TEMPERATURE,OUTSIDE_TEMPERATURE,LIGHTS_STATE

05/16/2017 12:22:26,21.812,16.812,off
05/16/2017 12:22:37,21.812,16.812,off
05/16/2017 12:22:49,21.812,16.812,off
05/16/2017 12:23:01,21.812,16.75,off
