TIME,INSIDE_TEMPERATURE,OUTSIDE_TEMPERATURE,LIGHTS_STATE

07/09/2017 12:00:25,32.812,30.5,off
07/09/2017 12:00:37,32.875,30.5,off
07/09/2017 12:00:49,32.875,30.5,off
07/09/2017 12:01:01,32.875,30.562,off
