TIME,INSIDE_TEMPERATURE,OUTSIDE_TEMPERATURE,LIGHTS_STATE

09/08/2016 12:49:26,29.437,30.125,off
09/08/2016 12:49:37,29.5,30.062,off
09/08/2016 12:49:49,29.5,30.0,off
09/08/2016 12:50:01,29.5,30.0,off
