TIME,INSIDE_TEMPERATURE,OUTSIDE_TEMPERATURE,LIGHTS_STATE

07/11/2017 12:27:25,32.75,29.0,off
07/11/2017 12:27:37,32.75,29.0,off
07/11/2017 12:27:49,32.75,29.062,off
07/11/2017 12:28:01,32.812,29.062,off
