TIME,INSIDE_TEMPERATURE,OUTSIDE_TEMPERATURE,LIGHTS_STATE

10/30/2016 12:54:25,21.812,24.5,off
10/30/2016 12:54:36,21.875,24.75,off
10/30/2016 12:54:48,21.875,24.75,off
10/30/2016 12:55:00,21.875,24.875,off
