TIME,INSIDE_TEMPERATURE,OUTSIDE_TEMPERATURE,LIGHTS_STATE

07/16/2016 12:17:26,27.812,27.875,off
07/16/2016 12:17:38,27.812,27.875,off
07/16/2016 12:17:49,27.812,27.875,off
07/16/2016 12:18:01,27.875,27.812,off
