TIME,INSIDE_TEMPERATURE,OUTSIDE_TEMPERATURE,LIGHTS_STATE

08/29/2017 12:05:25,30.0,28.125,off
08/29/2017 12:05:37,30.0,28.125,off
08/29/2017 12:05:49,30.0,28.125,off
08/29/2017 12:06:01,30.062,28.125,off
