TIME,INSIDE_TEMPERATURE,OUTSIDE_TEMPERATURE,LIGHTS_STATE

10/26/2017 12:13:26,35.875,50.0,off
10/26/2017 12:13:37,35.875,49.937,off
10/26/2017 12:13:49,35.875,49.687,off
10/26/2017 12:14:01,35.875,49.5,off
