TIME,INSIDE_TEMPERATURE,OUTSIDE_TEMPERATURE,LIGHTS_STATE

01/23/2018 12:51:25,22.75,21.75,off
01/23/2018 12:51:37,22.687,21.812,off
01/23/2018 12:51:48,22.687,21.937,off
01/23/2018 12:52:00,22.687,22.125,off
