TIME,INSIDE_TEMPERATURE,OUTSIDE_TEMPERATURE,LIGHTS_STATE

02/27/2017 12:02:25,25.0,21.25,off
02/27/2017 12:02:37,25.062,21.187,off
02/27/2017 12:02:48,25.0,21.25,off
02/27/2017 12:03:00,25.062,21.125,off
