TIME,INSIDE_TEMPERATURE,OUTSIDE_TEMPERATURE,LIGHTS_STATE

03/06/2018 12:39:25,22.687,32.625,off
03/06/2018 12:39:37,22.687,32.687,off
03/06/2018 12:39:49,22.687,32.75,off
03/06/2018 12:40:01,22.687,33.125,off
