TIME,INSIDE_TEMPERATURE,OUTSIDE_TEMPERATURE,LIGHTS_STATE

07/09/2017 12:58:25,35.125,32.437,off
07/09/2017 12:58:37,35.125,32.437,off
07/09/2017 12:58:48,35.125,32.375,off
07/09/2017 12:59:00,35.187,32.375,off
