TIME,INSIDE_TEMPERATURE,OUTSIDE_TEMPERATURE,LIGHTS_STATE

01/19/2017 12:51:25,19.75,14.25,off
01/19/2017 12:51:36,19.75,14.312,off
01/19/2017 12:51:48,19.687,14.312,off
01/19/2017 12:52:00,19.75,14.312,off
