TIME,INSIDE_TEMPERATURE,OUTSIDE_TEMPERATURE,LIGHTS_STATE

08/07/2016 12:17:26,24.75,24.562,off
08/07/2016 12:17:38,24.75,24.562,off
08/07/2016 12:17:49,24.75,24.562,off
08/07/2016 12:18:01,24.75,24.5,off
