TIME,INSIDE_TEMPERATURE,OUTSIDE_TEMPERATURE,LIGHTS_STATE

12/16/2016 12:16:26,17.687,14.5,off
12/16/2016 12:16:37,17.687,14.437,off
12/16/2016 12:16:49,17.687,14.375,off
12/16/2016 12:17:01,17.75,14.312,off
