TIME,INSIDE_TEMPERATURE,OUTSIDE_TEMPERATURE,LIGHTS_STATE

09/20/2017 12:46:26,24.687,21.25,off
09/20/2017 12:46:37,24.687,21.25,off
09/20/2017 12:46:49,24.687,21.25,off
09/20/2017 12:47:01,24.625,21.25,off
