TIME,INSIDE_TEMPERATURE,OUTSIDE_TEMPERATURE,LIGHTS_STATE

03/02/2018 12:22:25,19.0,24.312,off
03/02/2018 12:22:37,19.0,24.25,off
03/02/2018 12:22:49,19.062,24.062,off
03/02/2018 12:23:01,19.062,23.937,off
