TIME,INSIDE_TEMPERATURE,OUTSIDE_TEMPERATURE,LIGHTS_STATE

10/16/2017 12:58:26,34.375,31.937,off
10/16/2017 12:58:37,34.375,31.875,off
10/16/2017 12:58:49,34.375,31.812,off
10/16/2017 12:59:01,34.375,31.812,off
