TIME,INSIDE_TEMPERATURE,OUTSIDE_TEMPERATURE,LIGHTS_STATE

12/21/2016 12:53:25,22.562,24.187,off
12/21/2016 12:53:36,22.562,24.5,off
12/21/2016 12:53:48,22.5,24.625,off
12/21/2016 12:54:00,22.5,24.625,off
