TIME,INSIDE_TEMPERATURE,OUTSIDE_TEMPERATURE,LIGHTS_STATE

11/07/2016 12:11:25,28.312,27.125,off
11/07/2016 12:11:37,28.312,27.312,off
11/07/2016 12:11:48,28.375,27.562,off
11/07/2016 12:12:00,28.375,27.937,off
