TIME,INSIDE_TEMPERATURE,OUTSIDE_TEMPERATURE,LIGHTS_STATE

03/06/2018 12:34:25,22.562,32.437,off
03/06/2018 12:34:37,22.562,32.562,off
03/06/2018 12:34:48,22.562,32.437,off
03/06/2018 12:35:00,22.562,32.375,off
