TIME,INSIDE_TEMPERATURE,OUTSIDE_TEMPERATURE,LIGHTS_STATE

03/24/2018 12:39:26,19.0,13.125,off
03/24/2018 12:39:37,19.0,13.125,off
03/24/2018 12:39:49,19.0,13.125,off
03/24/2018 12:40:01,19.0,13.062,off
