TIME,INSIDE_TEMPERATURE,OUTSIDE_TEMPERATURE,LIGHTS_STATE

03/09/2017 12:07:25,28.5,25.437,off
03/09/2017 12:07:37,28.562,25.5,off
03/09/2017 12:07:48,28.562,25.5,off
03/09/2017 12:08:00,28.562,25.562,off
