TIME,INSIDE_TEMPERATURE,OUTSIDE_TEMPERATURE,LIGHTS_STATE

11/01/2016 12:44:25,27.875,30.562,off
11/01/2016 12:44:37,27.875,30.437,off
11/01/2016 12:44:48,27.875,30.375,off
11/01/2016 12:45:00,27.875,30.437,off
