TIME,INSIDE_TEMPERATURE,OUTSIDE_TEMPERATURE,LIGHTS_STATE

04/28/2017 12:44:26,23.25,21.312,off
04/28/2017 12:44:37,23.25,21.375,off
04/28/2017 12:44:49,23.25,21.375,off
04/28/2017 12:45:01,23.25,21.375,off
