TIME,INSIDE_TEMPERATURE,OUTSIDE_TEMPERATURE,LIGHTS_STATE

01/29/2018 12:54:25,20.0,16.062,off
01/29/2018 12:54:37,20.062,16.0,off
01/29/2018 12:54:49,20.062,15.937,off
01/29/2018 12:55:01,20.062,15.875,off
