TIME,INSIDE_TEMPERATURE,OUTSIDE_TEMPERATURE,LIGHTS_STATE

01/31/2018 12:39:25,27.062,23.125,off
01/31/2018 12:39:37,27.062,23.187,off
01/31/2018 12:39:49,27.062,23.375,off
01/31/2018 12:40:00,27.062,23.625,off
