TIME,INSIDE_TEMPERATURE,OUTSIDE_TEMPERATURE,LIGHTS_STATE

01/29/2018 12:05:25,19.312,15.437,off
01/29/2018 12:05:37,19.312,15.437,off
01/29/2018 12:05:48,19.312,15.375,off
01/29/2018 12:06:00,19.312,15.375,off
