TIME,INSIDE_TEMPERATURE,OUTSIDE_TEMPERATURE,LIGHTS_STATE

03/08/2018 12:22:25,26.937,24.25,off
03/08/2018 12:22:37,26.937,24.062,off
03/08/2018 12:22:50,27.0,23.937,off
03/08/2018 12:23:01,26.937,23.875,off
