TIME,INSIDE_TEMPERATURE,OUTSIDE_TEMPERATURE,LIGHTS_STATE

06/22/2017 12:57:25,40.937,35.312,off
06/22/2017 12:57:37,41.0,35.312,off
06/22/2017 12:57:49,41.0,35.312,off
06/22/2017 12:58:00,41.0,35.312,off
