TIME,INSIDE_TEMPERATURE,OUTSIDE_TEMPERATURE,LIGHTS_STATE

06/24/2016 12:22:25,25.812,26.0,off
06/24/2016 12:22:36,25.875,26.062,off
06/24/2016 12:22:49,25.875,26.062,off
06/24/2016 12:23:01,25.875,26.125,off
