TIME,INSIDE_TEMPERATURE,OUTSIDE_TEMPERATURE,LIGHTS_STATE

05/19/2017 12:53:25,28.687,27.375,off
05/19/2017 12:53:37,28.687,27.437,off
05/19/2017 12:53:49,28.687,27.437,off
05/19/2017 12:54:00,28.687,27.5,off
