TIME,INSIDE_TEMPERATURE,OUTSIDE_TEMPERATURE,LIGHTS_STATE

03/12/2018 12:40:25,27.312,30.5,off
03/12/2018 12:40:37,27.312,30.375,off
03/12/2018 12:40:48,27.312,30.312,off
03/12/2018 12:41:00,27.312,30.25,off
