TIME,INSIDE_TEMPERATURE,OUTSIDE_TEMPERATURE,LIGHTS_STATE

04/30/2017 12:11:25,25.375,24.125,off
04/30/2017 12:11:37,25.375,24.125,off
04/30/2017 12:11:48,25.437,24.125,off
04/30/2017 12:12:00,25.375,24.125,off
