TIME,INSIDE_TEMPERATURE,OUTSIDE_TEMPERATURE,LIGHTS_STATE

06/09/2017 12:41:25,27.125,22.375,off
06/09/2017 12:41:37,27.125,22.437,off
06/09/2017 12:41:49,27.125,22.5,off
06/09/2017 12:42:01,27.125,22.562,off
