TIME,INSIDE_TEMPERATURE,OUTSIDE_TEMPERATURE,LIGHTS_STATE

03/05/2018 12:10:25,19.812,28.375,off
03/05/2018 12:10:37,19.812,28.562,off
03/05/2018 12:10:48,19.812,28.5,off
03/05/2018 12:11:00,19.812,28.687,off
