TIME,INSIDE_TEMPERATURE,OUTSIDE_TEMPERATURE,LIGHTS_STATE

08/03/2017 12:38:25,38.5,38.437,off
08/03/2017 12:38:37,38.5,38.437,off
08/03/2017 12:38:49,38.5,38.375,off
08/03/2017 12:39:00,38.5,38.437,off
