TIME,INSIDE_TEMPERATURE,OUTSIDE_TEMPERATURE,LIGHTS_STATE

07/16/2017 12:13:25,37.625,33.375,off
07/16/2017 12:13:37,37.625,33.375,off
07/16/2017 12:13:49,37.625,33.375,off
07/16/2017 12:14:00,37.625,33.375,off
