TIME,INSIDE_TEMPERATURE,OUTSIDE_TEMPERATURE,LIGHTS_STATE

07/22/2017 12:25:25,32.875,28.75,off
07/22/2017 12:25:37,32.875,28.75,off
07/22/2017 12:25:49,32.875,28.75,off
07/22/2017 12:26:01,32.875,28.812,off
