TIME,INSIDE_TEMPERATURE,OUTSIDE_TEMPERATURE,LIGHTS_STATE

07/24/2016 12:02:26,32.687,33.75,off
07/24/2016 12:02:37,32.75,33.75,off
07/24/2016 12:02:49,32.75,33.75,off
07/24/2016 12:03:01,32.812,33.75,off
