TIME,INSIDE_TEMPERATURE,OUTSIDE_TEMPERATURE,LIGHTS_STATE

09/15/2017 12:10:26,26.75,23.687,off
09/15/2017 12:10:37,26.75,23.687,off
09/15/2017 12:10:49,26.625,23.75,off
09/15/2017 12:11:01,26.625,23.812,off
