TIME,INSIDE_TEMPERATURE,OUTSIDE_TEMPERATURE,LIGHTS_STATE

02/16/2018 12:06:25,25.25,38.5,off
02/16/2018 12:06:37,25.25,38.937,off
02/16/2018 12:06:49,25.312,38.812,off
02/16/2018 12:07:01,25.25,38.75,off
