TIME,INSIDE_TEMPERATURE,OUTSIDE_TEMPERATURE,LIGHTS_STATE

03/21/2018 12:51:26,23.625,19.5,off
03/21/2018 12:51:37,23.687,19.5,off
03/21/2018 12:51:49,23.687,19.562,off
03/21/2018 12:52:01,23.687,19.5,off
