TIME,INSIDE_TEMPERATURE,OUTSIDE_TEMPERATURE,LIGHTS_STATE

07/15/2017 12:05:26,34.375,30.562,off
07/15/2017 12:05:37,34.375,30.562,off
07/15/2017 12:05:49,34.375,30.562,off
07/15/2017 12:06:01,34.375,30.562,off
