TIME,INSIDE_TEMPERATURE,OUTSIDE_TEMPERATURE,LIGHTS_STATE

04/02/2017 12:21:25,24.687,22.437,off
04/02/2017 12:21:37,24.687,22.437,off
04/02/2017 12:21:49,24.562,22.375,off
04/02/2017 12:22:00,24.5,22.375,off
