TIME,INSIDE_TEMPERATURE,OUTSIDE_TEMPERATURE,LIGHTS_STATE

03/30/2018 12:16:26,27.5,26.25,off
03/30/2018 12:16:37,27.5,26.25,off
03/30/2018 12:16:49,27.562,26.312,off
03/30/2018 12:17:01,27.562,26.312,off
