TIME,INSIDE_TEMPERATURE,OUTSIDE_TEMPERATURE,LIGHTS_STATE

02/21/2017 12:01:25,25.625,19.562,off
02/21/2017 12:01:37,25.687,19.5,off
02/21/2017 12:01:48,25.75,19.5,off
02/21/2017 12:02:00,25.812,19.5,off
