TIME,INSIDE_TEMPERATURE,OUTSIDE_TEMPERATURE,LIGHTS_STATE

01/10/2017 12:48:25,16.375,12.5,off
01/10/2017 12:48:36,16.312,12.5,off
01/10/2017 12:48:48,16.312,12.437,off
01/10/2017 12:49:00,16.312,12.5,off
