TIME,INSIDE_TEMPERATURE,OUTSIDE_TEMPERATURE,LIGHTS_STATE

02/04/2018 12:19:26,26.187,32.75,off
02/04/2018 12:19:37,26.25,32.687,off
02/04/2018 12:19:49,26.187,32.687,off
02/04/2018 12:20:01,26.25,32.687,off
