TIME,INSIDE_TEMPERATURE,OUTSIDE_TEMPERATURE,LIGHTS_STATE

02/22/2018 12:00:25,22.25,21.062,off
02/22/2018 12:00:37,22.25,21.062,off
02/22/2018 12:00:49,22.25,21.0,off
02/22/2018 12:01:00,22.25,21.0,off
