TIME,INSIDE_TEMPERATURE,OUTSIDE_TEMPERATURE,LIGHTS_STATE

07/14/2016 12:50:26,34.375,34.062,off
07/14/2016 12:50:38,34.375,34.062,off
07/14/2016 12:50:50,34.437,34.125,off
07/14/2016 12:51:02,34.437,34.125,off
