TIME,INSIDE_TEMPERATURE,OUTSIDE_TEMPERATURE,LIGHTS_STATE

10/28/2016 12:44:25,24.562,21.437,off
10/28/2016 12:44:36,24.562,21.437,off
10/28/2016 12:44:48,24.562,21.437,off
10/28/2016 12:45:00,24.562,21.5,off
