TIME,INSIDE_TEMPERATURE,OUTSIDE_TEMPERATURE,LIGHTS_STATE

06/30/2016 12:02:25,28.5,28.312,off
06/30/2016 12:02:37,28.562,28.312,off
06/30/2016 12:02:49,28.562,28.312,off
06/30/2016 12:03:00,28.562,28.312,off
