TIME,INSIDE_TEMPERATURE,OUTSIDE_TEMPERATURE,LIGHTS_STATE

06/09/2017 12:42:25,27.187,22.437,off
06/09/2017 12:42:36,27.187,22.5,off
06/09/2017 12:42:48,27.125,22.5,off
06/09/2017 12:43:00,27.187,22.312,off
