TIME,INSIDE_TEMPERATURE,OUTSIDE_TEMPERATURE,LIGHTS_STATE

09/23/2017 12:32:25,27.125,24.5,off
09/23/2017 12:32:37,27.187,24.437,off
09/23/2017 12:32:49,27.25,24.437,off
09/23/2017 12:33:01,27.25,24.437,off
