TIME,INSIDE_TEMPERATURE,OUTSIDE_TEMPERATURE,LIGHTS_STATE

01/15/2017 12:48:25,11.812,7.937,off
01/15/2017 12:48:36,11.812,8.062,off
01/15/2017 12:48:48,11.812,8.062,off
01/15/2017 12:49:00,11.812,8.125,off
