TIME,INSIDE_TEMPERATURE,OUTSIDE_TEMPERATURE,LIGHTS_STATE

01/24/2018 12:38:26,19.687,15.312,off
01/24/2018 12:38:38,19.625,15.312,off
01/24/2018 12:38:49,19.687,15.312,off
01/24/2018 12:39:01,19.687,15.25,off
