TIME,INSIDE_TEMPERATURE,OUTSIDE_TEMPERATURE,LIGHTS_STATE

11/02/2017 12:04:25,27.75,27.75,off
11/02/2017 12:04:37,27.687,28.0,off
11/02/2017 12:04:49,27.75,28.0,off
11/02/2017 12:05:01,27.75,28.0,off
