TIME,INSIDE_TEMPERATURE,OUTSIDE_TEMPERATURE,LIGHTS_STATE

12/15/2016 12:56:25,20.812,16.812,off
12/15/2016 12:56:37,20.812,16.812,off
12/15/2016 12:56:49,20.812,16.75,off
12/15/2016 12:57:00,20.812,16.812,off
