TIME,INSIDE_TEMPERATURE,OUTSIDE_TEMPERATURE,LIGHTS_STATE

12/14/2016 12:05:25,21.25,18.125,off
12/14/2016 12:05:37,21.25,18.062,off
12/14/2016 12:05:49,21.25,18.0,off
12/14/2016 12:06:00,21.25,18.0,off
