TIME,INSIDE_TEMPERATURE,OUTSIDE_TEMPERATURE,LIGHTS_STATE

10/26/2016 12:52:25,31.875,34.75,off
10/26/2016 12:52:37,31.875,34.5,off
10/26/2016 12:52:49,31.875,33.937,off
10/26/2016 12:53:00,31.875,33.5,off
