TIME,INSIDE_TEMPERATURE,OUTSIDE_TEMPERATURE,LIGHTS_STATE

01/03/2017 12:03:24,15.0,11.937,off
01/03/2017 12:03:36,15.062,11.937,off
01/03/2017 12:03:48,15.062,11.875,off
01/03/2017 12:03:59,15.0,11.875,off
