TIME,INSIDE_TEMPERATURE,OUTSIDE_TEMPERATURE,LIGHTS_STATE

08/03/2016 12:39:26,29.812,30.125,off
08/03/2016 12:39:37,29.812,30.125,off
08/03/2016 12:39:49,29.812,30.062,off
08/03/2016 12:40:01,29.812,30.062,off
