TIME,INSIDE_TEMPERATURE,OUTSIDE_TEMPERATURE,LIGHTS_STATE

01/20/2017 12:28:24,15.875,9.437,off
01/20/2017 12:28:36,15.937,9.437,off
01/20/2017 12:28:48,15.875,9.5,off
01/20/2017 12:28:59,15.875,9.5,off
