TIME,INSIDE_TEMPERATURE,OUTSIDE_TEMPERATURE,LIGHTS_STATE

09/12/2016 12:53:25,25.562,24.187,off
09/12/2016 12:53:37,25.562,24.062,off
09/12/2016 12:53:49,25.625,24.0,off
09/12/2016 12:54:00,25.625,24.0,off
