TIME,INSIDE_TEMPERATURE,OUTSIDE_TEMPERATURE,LIGHTS_STATE

03/11/2018 12:27:25,22.687,34.25,off
03/11/2018 12:27:37,22.687,34.25,off
03/11/2018 12:27:48,22.687,34.312,off
03/11/2018 12:28:00,22.687,34.312,off
