TIME,INSIDE_TEMPERATURE,OUTSIDE_TEMPERATURE,LIGHTS_STATE

08/04/2017 12:19:26,31.937,28.0,off
08/04/2017 12:19:37,31.875,28.062,off
08/04/2017 12:19:49,31.937,28.062,off
08/04/2017 12:20:01,31.937,28.062,off
