TIME,INSIDE_TEMPERATURE,OUTSIDE_TEMPERATURE,LIGHTS_STATE

08/17/2017 12:29:25,30.875,28.562,off
08/17/2017 12:29:37,30.875,28.625,off
08/17/2017 12:29:49,30.875,28.625,off
08/17/2017 12:30:01,30.875,28.562,off
