TIME,INSIDE_TEMPERATURE,OUTSIDE_TEMPERATURE,LIGHTS_STATE

07/03/2017 12:57:25,31.937,29.375,off
07/03/2017 12:57:38,31.937,29.312,off
07/03/2017 12:57:51,31.937,29.312,off
07/03/2017 12:58:02,31.937,29.25,off
