TIME,INSIDE_TEMPERATURE,OUTSIDE_TEMPERATURE,LIGHTS_STATE

01/16/2017 12:39:24,19.0,14.187,off
01/16/2017 12:39:37,19.0,14.187,off
01/16/2017 12:39:48,19.062,14.187,off
01/16/2017 12:40:00,19.0,14.125,off
