TIME,INSIDE_TEMPERATURE,OUTSIDE_TEMPERATURE,LIGHTS_STATE

10/20/2017 12:24:25,24.875,17.312,off
10/20/2017 12:24:37,24.875,17.25,off
10/20/2017 12:24:49,24.875,17.25,off
10/20/2017 12:25:00,24.875,17.25,off
