TIME,INSIDE_TEMPERATURE,OUTSIDE_TEMPERATURE,LIGHTS_STATE

11/22/2016 12:12:25,23.625,21.25,off
11/22/2016 12:12:37,23.625,21.187,off
11/22/2016 12:12:49,23.562,21.0,off
11/22/2016 12:13:00,23.625,20.937,off
