TIME,INSIDE_TEMPERATURE,OUTSIDE_TEMPERATURE,LIGHTS_STATE

02/22/2017 12:14:25,22.875,18.875,off
02/22/2017 12:14:37,22.812,19.0,off
02/22/2017 12:14:48,22.812,19.062,off
02/22/2017 12:15:00,22.812,19.0,off
