TIME,INSIDE_TEMPERATURE,OUTSIDE_TEMPERATURE,LIGHTS_STATE

06/26/2017 12:13:25,27.5,23.812,off
06/26/2017 12:13:37,27.437,23.75,off
06/26/2017 12:13:49,27.5,23.75,off
06/26/2017 12:14:00,27.5,23.75,off
