TIME,INSIDE_TEMPERATURE,OUTSIDE_TEMPERATURE,LIGHTS_STATE

08/04/2016 12:48:26,25.937,25.625,off
08/04/2016 12:48:37,26.0,25.625,off
08/04/2016 12:48:50,25.937,25.625,off
08/04/2016 12:49:01,26.0,25.625,off
