TIME,INSIDE_TEMPERATURE,OUTSIDE_TEMPERATURE,LIGHTS_STATE

01/12/2018 12:42:25,21.062,20.875,off
01/12/2018 12:42:37,21.062,20.75,off
01/12/2018 12:42:48,21.062,20.562,off
01/12/2018 12:43:00,21.062,20.562,off
