TIME,INSIDE_TEMPERATURE,OUTSIDE_TEMPERATURE,LIGHTS_STATE

04/22/2017 12:25:25,25.875,23.562,off
04/22/2017 12:25:37,25.937,23.375,off
04/22/2017 12:25:49,25.875,23.312,off
04/22/2017 12:26:00,25.875,23.312,off
