TIME,INSIDE_TEMPERATURE,OUTSIDE_TEMPERATURE,LIGHTS_STATE

02/08/2018 12:02:25,29.062,28.75,off
02/08/2018 12:02:37,29.062,28.75,off
02/08/2018 12:02:48,29.062,28.75,off
02/08/2018 12:03:00,29.062,28.812,off
