TIME,INSIDE_TEMPERATURE,OUTSIDE_TEMPERATURE,LIGHTS_STATE

07/07/2016 12:45:26,23.312,22.875,off
07/07/2016 12:45:37,23.25,22.937,off
07/07/2016 12:45:49,23.312,22.875,off
07/07/2016 12:46:01,23.312,22.875,off
