TIME,INSIDE_TEMPERATURE,OUTSIDE_TEMPERATURE,LIGHTS_STATE

09/05/2017 12:46:25,34.875,32.0,off
09/05/2017 12:46:37,34.875,32.062,off
09/05/2017 12:46:49,34.875,32.0,off
09/05/2017 12:47:00,34.875,31.937,off
