TIME,INSIDE_TEMPERATURE,OUTSIDE_TEMPERATURE,LIGHTS_STATE

08/02/2017 12:25:25,36.75,34.937,off
08/02/2017 12:25:37,36.75,34.937,off
08/02/2017 12:25:49,36.75,34.875,off
08/02/2017 12:26:00,36.812,34.875,off
