TIME,INSIDE_TEMPERATURE,OUTSIDE_TEMPERATURE,LIGHTS_STATE

12/07/2016 12:11:25,13.375,10.437,off
12/07/2016 12:11:37,13.437,10.5,off
12/07/2016 12:11:48,13.437,10.562,off
12/07/2016 12:12:00,13.437,10.562,off
