TIME,INSIDE_TEMPERATURE,OUTSIDE_TEMPERATURE,LIGHTS_STATE

02/19/2018 12:55:25,20.0,24.75,off
02/19/2018 12:55:37,20.062,24.125,off
02/19/2018 12:55:49,20.062,23.5,off
02/19/2018 12:56:00,20.062,23.125,off
