TIME,INSIDE_TEMPERATURE,OUTSIDE_TEMPERATURE,LIGHTS_STATE

10/31/2017 12:33:25,29.812,26.0,off
10/31/2017 12:33:37,29.812,25.875,off
10/31/2017 12:33:48,29.812,25.875,off
10/31/2017 12:34:00,29.812,25.937,off
