TIME,INSIDE_TEMPERATURE,OUTSIDE_TEMPERATURE,LIGHTS_STATE

07/26/2017 12:19:25,28.812,26.062,off
07/26/2017 12:19:37,28.812,26.062,off
07/26/2017 12:19:48,28.75,26.062,off
07/26/2017 12:20:00,28.812,26.062,off
