TIME,INSIDE_TEMPERATURE,OUTSIDE_TEMPERATURE,LIGHTS_STATE

02/09/2017 12:48:26,19.437,14.5,off
02/09/2017 12:48:37,19.437,14.5,off
02/09/2017 12:48:49,19.5,14.5,off
02/09/2017 12:49:01,19.5,14.562,off
