TIME,INSIDE_TEMPERATURE,OUTSIDE_TEMPERATURE,LIGHTS_STATE

04/11/2017 12:07:25,25.312,21.0,off
04/11/2017 12:07:37,25.312,20.937,off
04/11/2017 12:07:48,25.312,21.0,off
04/11/2017 12:08:00,25.312,21.0,off
