TIME,INSIDE_TEMPERATURE,OUTSIDE_TEMPERATURE,LIGHTS_STATE

07/04/2017 12:55:25,30.625,27.0,off
07/04/2017 12:55:37,30.625,27.062,off
07/04/2017 12:55:49,30.625,27.062,off
07/04/2017 12:56:01,30.687,27.062,off
