TIME,INSIDE_TEMPERATURE,OUTSIDE_TEMPERATURE,LIGHTS_STATE

07/11/2016 12:19:25,28.75,28.812,off
07/11/2016 12:19:37,28.75,28.875,off
07/11/2016 12:19:49,28.812,28.812,off
07/11/2016 12:20:00,28.875,28.812,off
