TIME,INSIDE_TEMPERATURE,OUTSIDE_TEMPERATURE,LIGHTS_STATE

03/25/2017 12:51:25,22.75,17.562,off
03/25/2017 12:51:36,22.687,17.625,off
03/25/2017 12:51:48,22.75,17.625,off
03/25/2017 12:52:01,22.75,17.625,off
