TIME,INSIDE_TEMPERATURE,OUTSIDE_TEMPERATURE,LIGHTS_STATE

09/22/2017 12:45:25,27.125,22.875,off
09/22/2017 12:45:37,27.125,22.875,off
09/22/2017 12:45:49,27.125,22.937,off
09/22/2017 12:46:00,27.125,22.937,off
