TIME,INSIDE_TEMPERATURE,OUTSIDE_TEMPERATURE,LIGHTS_STATE

11/17/2016 12:10:25,24.0,24.875,off
11/17/2016 12:10:37,24.0,25.062,off
11/17/2016 12:10:48,24.0,25.312,off
11/17/2016 12:11:00,24.0,25.25,off
