TIME,INSIDE_TEMPERATURE,OUTSIDE_TEMPERATURE,LIGHTS_STATE

01/10/2018 12:27:26,16.812,13.687,off
01/10/2018 12:27:37,16.812,14.0,off
01/10/2018 12:27:49,16.875,14.312,off
01/10/2018 12:28:01,16.562,14.437,off
