TIME,INSIDE_TEMPERATURE,OUTSIDE_TEMPERATURE,LIGHTS_STATE

03/18/2017 12:39:25,20.875,17.437,off
03/18/2017 12:39:37,20.875,17.437,off
03/18/2017 12:39:48,20.937,17.437,off
03/18/2017 12:40:00,20.875,17.437,off
