TIME,INSIDE_TEMPERATURE,OUTSIDE_TEMPERATURE,LIGHTS_STATE

09/23/2017 12:41:25,27.75,24.812,off
09/23/2017 12:41:37,27.812,24.875,off
09/23/2017 12:41:49,27.812,24.875,off
09/23/2017 12:42:00,27.812,24.875,off
