TIME,INSIDE_TEMPERATURE,OUTSIDE_TEMPERATURE,LIGHTS_STATE

02/22/2017 12:07:26,23.75,17.687,off
02/22/2017 12:07:37,23.75,17.812,off
02/22/2017 12:07:49,23.75,17.812,off
02/22/2017 12:08:01,23.687,17.812,off
