TIME,INSIDE_TEMPERATURE,OUTSIDE_TEMPERATURE,LIGHTS_STATE

01/03/2017 12:31:25,14.875,11.625,off
01/03/2017 12:31:36,14.875,11.625,off
01/03/2017 12:31:48,14.875,11.625,off
01/03/2017 12:32:00,14.875,11.625,off
