TIME,INSIDE_TEMPERATURE,OUTSIDE_TEMPERATURE,LIGHTS_STATE

04/24/2017 12:28:25,20.812,16.625,off
04/24/2017 12:28:37,20.812,16.5,off
04/24/2017 12:28:49,20.875,16.5,off
04/24/2017 12:29:00,20.812,16.5,off
