TIME,INSIDE_TEMPERATURE,OUTSIDE_TEMPERATURE,LIGHTS_STATE

08/26/2017 12:32:25,36.062,34.562,off
08/26/2017 12:32:37,36.062,34.562,off
08/26/2017 12:32:49,36.062,34.562,off
08/26/2017 12:33:00,36.062,34.625,off
