TIME,INSIDE_TEMPERATURE,OUTSIDE_TEMPERATURE,LIGHTS_STATE

04/20/2017 12:23:25,23.437,19.625,off
04/20/2017 12:23:37,23.437,19.625,off
04/20/2017 12:23:48,23.437,19.625,off
04/20/2017 12:24:00,23.5,19.625,off
