TIME,INSIDE_TEMPERATURE,OUTSIDE_TEMPERATURE,LIGHTS_STATE

05/17/2017 12:02:25,22.187,19.812,off
05/17/2017 12:02:37,22.187,19.812,off
05/17/2017 12:02:48,22.187,19.875,off
05/17/2017 12:03:00,22.25,19.875,off
