TIME,INSIDE_TEMPERATURE,OUTSIDE_TEMPERATURE,LIGHTS_STATE

05/11/2017 12:40:25,23.5,19.875,off
05/11/2017 12:40:36,23.5,19.875,off
05/11/2017 12:40:48,23.5,19.875,off
05/11/2017 12:41:00,23.5,19.875,off
