TIME,INSIDE_TEMPERATURE,OUTSIDE_TEMPERATURE,LIGHTS_STATE

03/26/2017 12:08:25,23.812,20.125,off
03/26/2017 12:08:37,23.812,20.25,off
03/26/2017 12:08:49,23.812,20.375,off
03/26/2017 12:09:00,23.812,20.437,off
