TIME,INSIDE_TEMPERATURE,OUTSIDE_TEMPERATURE,LIGHTS_STATE

10/26/2016 12:27:24,33.875,37.25,off
10/26/2016 12:27:36,33.875,37.062,off
10/26/2016 12:27:48,33.812,36.437,off
10/26/2016 12:27:59,33.812,36.062,off
