TIME,INSIDE_TEMPERATURE,OUTSIDE_TEMPERATURE,LIGHTS_STATE

10/23/2016 12:55:24,24.937,22.25,off
10/23/2016 12:55:35,25.0,22.312,off
10/23/2016 12:55:47,25.0,22.375,off
10/23/2016 12:55:59,25.0,22.375,off
