TIME,INSIDE_TEMPERATURE,OUTSIDE_TEMPERATURE,LIGHTS_STATE

09/23/2016 12:57:26,27.625,26.562,off
09/23/2016 12:57:37,27.625,26.562,off
09/23/2016 12:57:49,27.625,26.562,off
09/23/2016 12:58:01,27.625,26.687,off
