TIME,INSIDE_TEMPERATURE,OUTSIDE_TEMPERATURE,LIGHTS_STATE

04/20/2017 12:06:25,23.437,19.625,off
04/20/2017 12:06:36,23.437,19.562,off
04/20/2017 12:06:48,23.437,19.562,off
04/20/2017 12:07:00,23.437,19.562,off
