TIME,INSIDE_TEMPERATURE,OUTSIDE_TEMPERATURE,LIGHTS_STATE

05/06/2017 12:27:25,21.75,18.312,off
05/06/2017 12:27:37,21.75,18.312,off
05/06/2017 12:27:49,21.75,18.25,off
05/06/2017 12:28:00,21.75,18.25,off
