TIME,INSIDE_TEMPERATURE,OUTSIDE_TEMPERATURE,LIGHTS_STATE

05/21/2017 12:16:25,32.0,29.875,off
05/21/2017 12:16:36,32.0,29.875,off
05/21/2017 12:16:48,32.062,29.937,off
05/21/2017 12:17:00,32.062,29.937,off
