TIME,INSIDE_TEMPERATURE,OUTSIDE_TEMPERATURE,LIGHTS_STATE

04/23/2017 12:48:25,22.187,19.062,off
04/23/2017 12:48:37,22.25,19.062,off
04/23/2017 12:48:48,22.25,19.062,off
04/23/2017 12:49:00,22.312,19.062,off
