TIME,INSIDE_TEMPERATURE,OUTSIDE_TEMPERATURE,LIGHTS_STATE

02/13/2018 12:26:26,23.375,26.5,off
02/13/2018 12:26:37,23.375,26.562,off
02/13/2018 12:26:49,23.375,26.375,off
02/13/2018 12:27:01,23.375,26.375,off
