TIME,INSIDE_TEMPERATURE,OUTSIDE_TEMPERATURE,LIGHTS_STATE

02/26/2018 12:51:25,20.062,18.187,off
02/26/2018 12:51:37,20.062,18.062,off
02/26/2018 12:51:49,20.062,18.0,off
02/26/2018 12:52:01,20.125,17.937,off
