TIME,INSIDE_TEMPERATURE,OUTSIDE_TEMPERATURE,LIGHTS_STATE

02/09/2017 12:41:26,19.562,14.625,off
02/09/2017 12:41:37,19.562,14.625,off
02/09/2017 12:41:49,19.562,14.562,off
02/09/2017 12:42:01,19.562,14.562,off
