TIME,INSIDE_TEMPERATURE,OUTSIDE_TEMPERATURE,LIGHTS_STATE

12/02/2016 12:39:24,22.125,19.062,off
12/02/2016 12:39:36,22.187,19.125,off
12/02/2016 12:39:48,22.187,19.062,off
12/02/2016 12:39:59,22.187,19.0,off
