TIME,INSIDE_TEMPERATURE,OUTSIDE_TEMPERATURE,LIGHTS_STATE

03/31/2018 12:06:25,26.687,24.937,off
03/31/2018 12:06:37,26.687,24.875,off
03/31/2018 12:06:49,26.687,24.937,off
03/31/2018 12:07:01,26.687,24.875,off
