TIME,INSIDE_TEMPERATURE,OUTSIDE_TEMPERATURE,LIGHTS_STATE

09/28/2017 12:53:25,35.437,33.125,off
09/28/2017 12:53:37,35.437,33.125,off
09/28/2017 12:53:49,35.437,33.062,off
09/28/2017 12:54:00,35.437,33.062,off
