TIME,INSIDE_TEMPERATURE,OUTSIDE_TEMPERATURE,LIGHTS_STATE

07/27/2017 12:15:25,32.687,30.125,off
07/27/2017 12:15:37,32.687,30.125,off
07/27/2017 12:15:49,32.687,30.125,off
07/27/2017 12:16:01,32.687,30.125,off
