TIME,INSIDE_TEMPERATURE,OUTSIDE_TEMPERATURE,LIGHTS_STATE

06/17/2017 12:36:26,34.562,29.562,off
06/17/2017 12:36:37,34.625,29.562,off
06/17/2017 12:36:49,34.625,29.5,off
06/17/2017 12:37:01,34.625,29.562,off
