TIME,INSIDE_TEMPERATURE,OUTSIDE_TEMPERATURE,LIGHTS_STATE

06/11/2017 12:45:25,22.875,18.625,off
06/11/2017 12:45:37,22.937,18.687,off
06/11/2017 12:45:49,22.937,18.687,off
06/11/2017 12:46:00,22.937,18.75,off
