TIME,INSIDE_TEMPERATURE,OUTSIDE_TEMPERATURE,LIGHTS_STATE

01/19/2018 12:24:25,25.062,23.75,off
01/19/2018 12:24:37,25.0,23.75,off
01/19/2018 12:24:49,25.0,23.812,off
01/19/2018 12:25:01,25.0,23.937,off
