TIME,INSIDE_TEMPERATURE,OUTSIDE_TEMPERATURE,LIGHTS_STATE

03/24/2017 12:58:25,16.375,10.875,off
03/24/2017 12:58:37,16.437,10.875,off
03/24/2017 12:58:49,16.437,10.875,off
03/24/2017 12:59:01,16.375,10.875,off
