TIME,INSIDE_TEMPERATURE,OUTSIDE_TEMPERATURE,LIGHTS_STATE

08/29/2017 12:58:25,31.625,29.562,off
08/29/2017 12:58:37,31.687,29.562,off
08/29/2017 12:58:49,31.75,29.5,off
08/29/2017 12:59:01,31.812,29.437,off
