TIME,INSIDE_TEMPERATURE,OUTSIDE_TEMPERATURE,LIGHTS_STATE

01/25/2018 12:55:26,17.937,12.937,off
01/25/2018 12:55:37,17.937,13.062,off
01/25/2018 12:55:49,17.875,13.062,off
01/25/2018 12:56:01,17.875,13.125,off
