TIME,INSIDE_TEMPERATURE,OUTSIDE_TEMPERATURE,LIGHTS_STATE

09/29/2017 12:51:26,31.25,29.5,off
09/29/2017 12:51:37,31.25,29.437,off
09/29/2017 12:51:49,31.25,29.437,off
09/29/2017 12:52:01,31.312,29.437,off
