TIME,INSIDE_TEMPERATURE,OUTSIDE_TEMPERATURE,LIGHTS_STATE

08/24/2017 12:08:26,28.062,25.0,off
08/24/2017 12:08:37,28.062,25.062,off
08/24/2017 12:08:49,28.062,25.125,off
08/24/2017 12:09:01,28.062,25.125,off
