TIME,INSIDE_TEMPERATURE,OUTSIDE_TEMPERATURE,LIGHTS_STATE

04/01/2017 12:03:25,25.25,22.687,off
04/01/2017 12:03:37,25.312,22.625,off
04/01/2017 12:03:49,25.312,22.562,off
04/01/2017 12:04:00,25.312,22.562,off
