TIME,INSIDE_TEMPERATURE,OUTSIDE_TEMPERATURE,LIGHTS_STATE

07/09/2017 12:20:25,33.625,31.187,off
07/09/2017 12:20:37,33.625,31.187,off
07/09/2017 12:20:48,33.625,31.187,off
07/09/2017 12:21:00,33.625,31.25,off
