TIME,INSIDE_TEMPERATURE,OUTSIDE_TEMPERATURE,LIGHTS_STATE

04/05/2017 12:49:25,28.25,25.875,off
04/05/2017 12:49:36,28.312,25.875,off
04/05/2017 12:49:48,28.312,25.812,off
04/05/2017 12:50:00,28.312,25.812,off
