TIME,INSIDE_TEMPERATURE,OUTSIDE_TEMPERATURE,LIGHTS_STATE

11/04/2016 12:28:26,32.125,34.625,off
11/04/2016 12:28:38,32.125,34.5,off
11/04/2016 12:28:49,32.125,34.25,off
11/04/2016 12:29:02,32.125,34.062,off
