TIME,INSIDE_TEMPERATURE,OUTSIDE_TEMPERATURE,LIGHTS_STATE

03/14/2017 12:09:25,26.437,23.687,off
03/14/2017 12:09:37,26.437,23.75,off
03/14/2017 12:09:48,26.437,23.75,off
03/14/2017 12:10:00,26.5,23.75,off
