TIME,INSIDE_TEMPERATURE,OUTSIDE_TEMPERATURE,LIGHTS_STATE

03/29/2018 12:06:25,25.125,24.312,off
03/29/2018 12:06:36,25.125,24.312,off
03/29/2018 12:06:48,25.187,24.187,off
03/29/2018 12:07:00,25.187,24.187,off
