TIME,INSIDE_TEMPERATURE,OUTSIDE_TEMPERATURE,LIGHTS_STATE

07/16/2017 12:03:25,37.437,32.937,off
07/16/2017 12:03:37,37.437,32.937,off
07/16/2017 12:03:49,37.437,33.0,off
07/16/2017 12:04:00,37.437,33.0,off
