TIME,INSIDE_TEMPERATURE,OUTSIDE_TEMPERATURE,LIGHTS_STATE

03/17/2017 12:42:26,24.937,22.937,off
03/17/2017 12:42:37,24.937,22.937,off
03/17/2017 12:42:49,24.937,22.937,off
03/17/2017 12:43:01,24.937,22.875,off
