TIME,INSIDE_TEMPERATURE,OUTSIDE_TEMPERATURE,LIGHTS_STATE

02/16/2018 12:34:26,25.625,41.125,off
02/16/2018 12:34:38,25.625,41.062,off
02/16/2018 12:34:50,25.625,41.187,off
02/16/2018 12:35:02,25.625,41.25,off
