TIME,INSIDE_TEMPERATURE,OUTSIDE_TEMPERATURE,LIGHTS_STATE

08/13/2017 12:13:25,29.375,27.0,off
08/13/2017 12:13:37,29.375,27.0,off
08/13/2017 12:13:49,29.375,27.0,off
08/13/2017 12:14:01,29.375,27.0,off
