TIME,INSIDE_TEMPERATURE,OUTSIDE_TEMPERATURE,LIGHTS_STATE

02/25/2018 12:47:25,23.187,24.625,off
02/25/2018 12:47:37,23.187,24.437,off
02/25/2018 12:47:48,23.187,24.312,off
02/25/2018 12:48:00,23.187,24.312,off
