TIME,INSIDE_TEMPERATURE,OUTSIDE_TEMPERATURE,LIGHTS_STATE

05/23/2017 12:21:25,29.312,27.5,off
05/23/2017 12:21:36,29.312,27.562,off
05/23/2017 12:21:48,29.312,27.687,off
05/23/2017 12:22:00,29.312,27.687,off
