TIME,INSIDE_TEMPERATURE,OUTSIDE_TEMPERATURE,LIGHTS_STATE

10/31/2017 12:07:25,29.937,28.75,off
10/31/2017 12:07:37,30.0,28.625,off
10/31/2017 12:07:49,30.0,28.437,off
10/31/2017 12:08:01,30.0,28.312,off
