TIME,INSIDE_TEMPERATURE,OUTSIDE_TEMPERATURE,LIGHTS_STATE

03/10/2018 12:44:26,21.437,16.625,off
03/10/2018 12:44:37,21.437,16.625,off
03/10/2018 12:44:49,21.437,16.625,off
03/10/2018 12:45:01,21.437,16.625,off
