TIME,INSIDE_TEMPERATURE,OUTSIDE_TEMPERATURE,LIGHTS_STATE

01/24/2018 12:05:25,19.437,16.062,off
01/24/2018 12:05:37,19.437,16.062,off
01/24/2018 12:05:49,19.5,16.062,off
01/24/2018 12:06:00,19.5,16.125,off
