TIME,INSIDE_TEMPERATURE,OUTSIDE_TEMPERATURE,LIGHTS_STATE

06/21/2017 12:54:26,35.875,32.437,off
06/21/2017 12:54:37,35.937,32.437,off
06/21/2017 12:54:49,35.937,32.437,off
06/21/2017 12:55:01,35.937,32.437,off
