TIME,INSIDE_TEMPERATURE,OUTSIDE_TEMPERATURE,LIGHTS_STATE

12/01/2016 12:02:24,22.375,18.375,off
12/01/2016 12:02:36,22.375,18.25,off
12/01/2016 12:02:48,22.375,18.25,off
12/01/2016 12:03:00,22.375,18.25,off
