TIME,INSIDE_TEMPERATURE,OUTSIDE_TEMPERATURE,LIGHTS_STATE

06/24/2016 12:23:25,25.875,26.187,off
06/24/2016 12:23:37,25.875,26.187,off
06/24/2016 12:23:48,25.875,26.187,off
06/24/2016 12:24:00,25.937,26.312,off
