TIME,INSIDE_TEMPERATURE,OUTSIDE_TEMPERATURE,LIGHTS_STATE

02/09/2018 12:36:25,31.25,31.687,off
02/09/2018 12:36:37,31.25,31.625,off
02/09/2018 12:36:49,31.25,31.437,off
02/09/2018 12:37:01,31.25,31.375,off
