TIME,INSIDE_TEMPERATURE,OUTSIDE_TEMPERATURE,LIGHTS_STATE

11/18/2016 12:45:25,24.625,21.625,off
11/18/2016 12:45:37,24.625,21.625,off
11/18/2016 12:45:48,24.625,21.562,off
11/18/2016 12:46:00,24.625,21.625,off
