TIME,INSIDE_TEMPERATURE,OUTSIDE_TEMPERATURE,LIGHTS_STATE

10/28/2016 12:25:25,23.937,20.75,off
10/28/2016 12:25:37,23.937,20.812,off
10/28/2016 12:25:49,23.937,20.937,off
10/28/2016 12:26:00,24.0,20.937,off
