TIME,INSIDE_TEMPERATURE,OUTSIDE_TEMPERATURE,LIGHTS_STATE

11/18/2016 12:55:25,24.625,22.187,off
11/18/2016 12:55:37,24.625,22.125,off
11/18/2016 12:55:49,24.625,22.062,off
11/18/2016 12:56:00,24.625,22.0,off
