TIME,INSIDE_TEMPERATURE,OUTSIDE_TEMPERATURE,LIGHTS_STATE

07/27/2017 12:08:25,32.5,29.937,off
07/27/2017 12:08:37,32.5,30.0,off
07/27/2017 12:08:49,32.562,30.0,off
07/27/2017 12:09:00,32.437,30.0,off
