TIME,INSIDE_TEMPERATURE,OUTSIDE_TEMPERATURE,LIGHTS_STATE

07/11/2016 12:33:25,29.0,28.937,off
07/11/2016 12:33:37,29.0,28.937,off
07/11/2016 12:33:48,29.0,28.937,off
07/11/2016 12:34:00,29.0,28.875,off
