TIME,INSIDE_TEMPERATURE,OUTSIDE_TEMPERATURE,LIGHTS_STATE

12/23/2016 12:44:25,14.437,10.437,off
12/23/2016 12:44:37,14.437,10.437,off
12/23/2016 12:44:48,14.437,10.437,off
12/23/2016 12:45:00,14.437,10.375,off
