TIME,INSIDE_TEMPERATURE,OUTSIDE_TEMPERATURE,LIGHTS_STATE

04/08/2017 12:34:25,17.062,12.187,off
04/08/2017 12:34:37,17.062,12.187,off
04/08/2017 12:34:49,17.062,12.187,off
04/08/2017 12:35:00,17.062,12.25,off
