TIME,INSIDE_TEMPERATURE,OUTSIDE_TEMPERATURE,LIGHTS_STATE

10/03/2017 12:30:25,27.187,26.062,off
10/03/2017 12:30:37,27.187,25.937,off
10/03/2017 12:30:49,27.187,25.812,off
10/03/2017 12:31:00,27.187,25.625,off
