TIME,INSIDE_TEMPERATURE,OUTSIDE_TEMPERATURE,LIGHTS_STATE

06/16/2017 12:07:25,32.812,29.562,off
06/16/2017 12:07:36,32.812,29.5,off
06/16/2017 12:07:48,32.875,29.562,off
06/16/2017 12:08:00,32.875,29.562,off
