TIME,INSIDE_TEMPERATURE,OUTSIDE_TEMPERATURE,LIGHTS_STATE

04/14/2017 12:09:25,19.0,16.375,off
04/14/2017 12:09:37,19.0,16.375,off
04/14/2017 12:09:48,19.0,16.375,off
04/14/2017 12:10:00,19.0,16.312,off
