TIME,INSIDE_TEMPERATURE,OUTSIDE_TEMPERATURE,LIGHTS_STATE

07/18/2017 12:40:25,28.625,26.437,off
07/18/2017 12:40:37,28.687,26.562,off
07/18/2017 12:40:49,28.687,26.562,off
07/18/2017 12:41:01,28.75,26.562,off
