TIME,INSIDE_TEMPERATURE,OUTSIDE_TEMPERATURE,LIGHTS_STATE

05/17/2017 12:22:25,22.375,20.187,off
05/17/2017 12:22:37,22.437,20.25,off
05/17/2017 12:22:49,22.437,20.187,off
05/17/2017 12:23:00,22.437,20.187,off
