TIME,INSIDE_TEMPERATURE,OUTSIDE_TEMPERATURE,LIGHTS_STATE

12/29/2017 12:44:25,23.125,20.625,off
12/29/2017 12:44:37,23.125,20.687,off
12/29/2017 12:44:48,23.125,20.937,off
12/29/2017 12:45:00,23.125,20.875,off
