TIME,INSIDE_TEMPERATURE,OUTSIDE_TEMPERATURE,LIGHTS_STATE

12/27/2016 12:52:25,19.812,18.5,off
12/27/2016 12:52:37,19.812,18.75,off
12/27/2016 12:52:48,19.812,19.0,off
12/27/2016 12:53:00,19.75,19.312,off
