TIME,INSIDE_TEMPERATURE,OUTSIDE_TEMPERATURE,LIGHTS_STATE

06/29/2016 12:19:25,27.187,26.562,off
06/29/2016 12:19:37,27.187,26.562,off
06/29/2016 12:19:48,27.125,26.562,off
06/29/2016 12:20:00,27.125,26.562,off
