TIME,INSIDE_TEMPERATURE,OUTSIDE_TEMPERATURE,LIGHTS_STATE

03/06/2018 12:37:25,22.625,33.937,off
03/06/2018 12:37:37,22.625,33.812,off
03/06/2018 12:37:49,22.625,33.875,off
03/06/2018 12:38:01,22.625,33.875,off
