TIME,INSIDE_TEMPERATURE,OUTSIDE_TEMPERATURE,LIGHTS_STATE

10/31/2016 12:46:25,24.625,24.5,off
10/31/2016 12:46:37,24.687,24.812,off
10/31/2016 12:46:48,24.687,24.937,off
10/31/2016 12:47:00,24.687,24.937,off
