TIME,INSIDE_TEMPERATURE,OUTSIDE_TEMPERATURE,LIGHTS_STATE

12/02/2016 12:04:25,22.625,18.437,off
12/02/2016 12:04:37,22.625,18.5,off
12/02/2016 12:04:48,22.625,18.562,off
12/02/2016 12:05:00,22.625,18.562,off
