TIME,INSIDE_TEMPERATURE,OUTSIDE_TEMPERATURE,LIGHTS_STATE

02/14/2017 12:45:25,25.937,23.875,off
02/14/2017 12:45:37,25.937,24.0,off
02/14/2017 12:45:49,25.937,24.0,off
02/14/2017 12:46:00,25.937,24.062,off
