TIME,INSIDE_TEMPERATURE,OUTSIDE_TEMPERATURE,LIGHTS_STATE

09/18/2017 12:48:26,30.75,26.25,off
09/18/2017 12:48:37,30.75,26.25,off
09/18/2017 12:48:49,30.75,26.187,off
09/18/2017 12:49:01,30.75,26.25,off
