TIME,INSIDE_TEMPERATURE,OUTSIDE_TEMPERATURE,LIGHTS_STATE

09/01/2017 12:21:25,39.937,38.875,off
09/01/2017 12:21:37,39.937,38.875,off
09/01/2017 12:21:48,39.937,38.875,off
09/01/2017 12:22:00,39.937,38.875,off
