TIME,INSIDE_TEMPERATURE,OUTSIDE_TEMPERATURE,LIGHTS_STATE

07/25/2016 12:52:26,31.875,31.25,off
07/25/2016 12:52:38,31.812,31.25,off
07/25/2016 12:52:50,31.937,31.25,off
07/25/2016 12:53:02,31.937,31.312,off
