TIME,INSIDE_TEMPERATURE,OUTSIDE_TEMPERATURE,LIGHTS_STATE

03/27/2018 12:36:25,22.562,17.312,off
03/27/2018 12:36:36,22.562,17.312,off
03/27/2018 12:36:48,22.562,17.312,off
03/27/2018 12:37:00,22.625,17.312,off
