TIME,INSIDE_TEMPERATURE,OUTSIDE_TEMPERATURE,LIGHTS_STATE

01/15/2018 12:12:25,22.875,20.062,off
01/15/2018 12:12:37,22.875,20.0,off
01/15/2018 12:12:48,22.875,20.0,off
01/15/2018 12:13:00,22.937,20.125,off
