TIME,INSIDE_TEMPERATURE,OUTSIDE_TEMPERATURE,LIGHTS_STATE

04/12/2017 12:00:25,20.312,15.812,off
04/12/2017 12:00:37,20.312,15.812,off
04/12/2017 12:00:49,20.312,15.875,off
04/12/2017 12:01:00,20.312,15.875,off
