TIME,INSIDE_TEMPERATURE,OUTSIDE_TEMPERATURE,LIGHTS_STATE

12/12/2016 12:06:25,20.312,16.187,off
12/12/2016 12:06:36,20.312,16.25,off
12/12/2016 12:06:48,20.312,16.375,off
12/12/2016 12:07:00,20.312,16.5,off
