TIME,INSIDE_TEMPERATURE,OUTSIDE_TEMPERATURE,LIGHTS_STATE

04/19/2017 12:44:26,23.687,20.937,off
04/19/2017 12:44:37,23.687,20.875,off
04/19/2017 12:44:49,23.687,20.875,off
04/19/2017 12:45:01,23.687,20.75,off
