TIME,INSIDE_TEMPERATURE,OUTSIDE_TEMPERATURE,LIGHTS_STATE

03/26/2018 12:02:25,17.625,14.125,off
03/26/2018 12:02:37,17.625,14.125,off
03/26/2018 12:02:48,17.625,14.062,off
03/26/2018 12:03:00,17.625,14.125,off
