TIME,INSIDE_TEMPERATURE,OUTSIDE_TEMPERATURE,LIGHTS_STATE

07/04/2016 12:00:25,27.437,27.375,off
07/04/2016 12:00:37,27.437,27.437,off
07/04/2016 12:00:49,27.437,27.375,off
07/04/2016 12:01:00,27.437,27.375,off
