TIME,INSIDE_TEMPERATURE,OUTSIDE_TEMPERATURE,LIGHTS_STATE

07/14/2016 12:02:26,33.0,33.187,off
07/14/2016 12:02:37,33.0,33.187,off
07/14/2016 12:02:49,33.0,33.187,off
07/14/2016 12:03:01,33.0,33.187,off
