TIME,INSIDE_TEMPERATURE,OUTSIDE_TEMPERATURE,LIGHTS_STATE

05/09/2017 12:23:25,27.25,25.687,off
05/09/2017 12:23:37,27.25,25.687,off
05/09/2017 12:23:48,27.25,25.687,off
05/09/2017 12:24:00,27.25,25.75,off
