TIME,INSIDE_TEMPERATURE,OUTSIDE_TEMPERATURE,LIGHTS_STATE

03/11/2017 12:36:25,29.937,27.437,off
03/11/2017 12:36:37,29.937,27.562,off
03/11/2017 12:36:49,29.937,27.562,off
03/11/2017 12:37:00,29.937,27.625,off
