TIME,INSIDE_TEMPERATURE,OUTSIDE_TEMPERATURE,LIGHTS_STATE

11/20/2016 12:14:25,21.5,17.187,off
11/20/2016 12:14:37,21.562,17.187,off
11/20/2016 12:14:48,21.562,17.25,off
11/20/2016 12:15:00,21.562,17.25,off
