TIME,INSIDE_TEMPERATURE,OUTSIDE_TEMPERATURE,LIGHTS_STATE

11/20/2016 12:37:25,21.937,18.437,off
11/20/2016 12:37:37,21.937,18.375,off
11/20/2016 12:37:48,21.937,18.25,off
11/20/2016 12:38:00,22.0,18.25,off
