TIME,INSIDE_TEMPERATURE,OUTSIDE_TEMPERATURE,LIGHTS_STATE

08/07/2016 12:00:25,24.312,24.0,off
08/07/2016 12:00:37,24.312,24.062,off
08/07/2016 12:00:49,24.375,24.062,off
08/07/2016 12:01:00,24.375,24.062,off
