TIME,INSIDE_TEMPERATURE,OUTSIDE_TEMPERATURE,LIGHTS_STATE

09/14/2017 12:38:25,27.687,24.437,off
09/14/2017 12:38:37,27.687,24.437,off
09/14/2017 12:38:48,27.687,24.5,off
09/14/2017 12:39:00,27.687,24.5,off
