TIME,INSIDE_TEMPERATURE,OUTSIDE_TEMPERATURE,LIGHTS_STATE

08/21/2017 12:24:26,28.375,26.125,off
08/21/2017 12:24:37,28.375,26.125,off
08/21/2017 12:24:49,28.375,26.125,off
08/21/2017 12:25:01,28.437,26.125,off
