TIME,INSIDE_TEMPERATURE,OUTSIDE_TEMPERATURE,LIGHTS_STATE

06/17/2017 12:00:25,33.562,29.125,off
06/17/2017 12:00:37,33.562,29.062,off
06/17/2017 12:00:49,33.562,29.062,off
06/17/2017 12:01:01,33.562,29.062,off
