TIME,INSIDE_TEMPERATURE,OUTSIDE_TEMPERATURE,LIGHTS_STATE

10/20/2017 12:51:25,24.5,19.187,off
10/20/2017 12:51:37,24.562,19.312,off
10/20/2017 12:51:49,24.562,19.375,off
10/20/2017 12:52:01,24.562,19.437,off
