TIME,INSIDE_TEMPERATURE,OUTSIDE_TEMPERATURE,LIGHTS_STATE

07/07/2017 12:19:25,36.562,31.812,off
07/07/2017 12:19:37,36.562,31.812,off
07/07/2017 12:19:49,36.562,31.812,off
07/07/2017 12:20:00,36.625,31.875,off
