TIME,INSIDE_TEMPERATURE,OUTSIDE_TEMPERATURE,LIGHTS_STATE

02/15/2018 12:53:26,25.0,28.312,off
02/15/2018 12:53:37,25.0,28.312,off
02/15/2018 12:53:49,25.0,28.375,off
02/15/2018 12:54:01,25.0,28.312,off
