TIME,INSIDE_TEMPERATURE,OUTSIDE_TEMPERATURE,LIGHTS_STATE

10/25/2017 12:04:25,35.312,35.125,off
10/25/2017 12:04:37,35.375,35.062,off
10/25/2017 12:04:48,35.375,34.875,off
10/25/2017 12:05:00,35.375,34.812,off
