TIME,INSIDE_TEMPERATURE,OUTSIDE_TEMPERATURE,LIGHTS_STATE

10/26/2017 12:46:25,36.062,47.0,off
10/26/2017 12:46:37,36.125,46.75,off
10/26/2017 12:46:49,36.125,46.687,off
10/26/2017 12:47:00,36.125,46.562,off
