TIME,INSIDE_TEMPERATURE,OUTSIDE_TEMPERATURE,LIGHTS_STATE

02/10/2017 12:17:25,19.75,15.437,off
02/10/2017 12:17:37,19.75,15.437,off
02/10/2017 12:17:49,19.75,15.437,off
02/10/2017 12:18:00,19.75,15.375,off
