TIME,INSIDE_TEMPERATURE,OUTSIDE_TEMPERATURE,LIGHTS_STATE

06/25/2017 12:05:26,27.375,24.062,off
06/25/2017 12:05:37,27.375,24.125,off
06/25/2017 12:05:49,27.375,24.125,off
06/25/2017 12:06:01,27.375,24.125,off
