TIME,INSIDE_TEMPERATURE,OUTSIDE_TEMPERATURE,LIGHTS_STATE

12/02/2016 12:20:25,22.5,19.125,off
12/02/2016 12:20:37,22.5,19.125,off
12/02/2016 12:20:48,22.5,19.187,off
12/02/2016 12:21:02,22.5,19.187,off
