TIME,INSIDE_TEMPERATURE,OUTSIDE_TEMPERATURE,LIGHTS_STATE

04/19/2017 12:07:25,22.875,20.187,off
04/19/2017 12:07:37,22.875,20.25,off
04/19/2017 12:07:49,22.812,20.25,off
04/19/2017 12:08:00,22.875,20.312,off
