TIME,INSIDE_TEMPERATURE,OUTSIDE_TEMPERATURE,LIGHTS_STATE

12/29/2016 12:17:25,20.5,16.062,off
12/29/2016 12:17:36,20.5,16.062,off
12/29/2016 12:17:48,20.5,16.125,off
12/29/2016 12:18:00,20.5,16.25,off
