TIME,INSIDE_TEMPERATURE,OUTSIDE_TEMPERATURE,LIGHTS_STATE

02/10/2017 12:25:25,19.875,15.625,off
02/10/2017 12:25:37,19.812,15.625,off
02/10/2017 12:25:49,19.875,15.687,off
02/10/2017 12:26:00,19.875,15.687,off
