TIME,INSIDE_TEMPERATURE,OUTSIDE_TEMPERATURE,LIGHTS_STATE

07/18/2017 12:52:25,28.687,26.0,off
07/18/2017 12:52:37,28.687,26.0,off
07/18/2017 12:52:49,28.5,26.0,off
07/18/2017 12:53:00,28.625,26.0,off
