TIME,INSIDE_TEMPERATURE,OUTSIDE_TEMPERATURE,LIGHTS_STATE

09/22/2016 12:12:25,24.312,22.5,off
09/22/2016 12:12:37,24.312,22.437,off
09/22/2016 12:12:49,24.312,22.437,off
09/22/2016 12:13:00,24.312,22.375,off
