TIME,INSIDE_TEMPERATURE,OUTSIDE_TEMPERATURE,LIGHTS_STATE

05/22/2017 12:49:25,32.0,30.125,off
05/22/2017 12:49:37,32.0,30.125,off
05/22/2017 12:49:49,32.0,30.125,off
05/22/2017 12:50:00,32.062,30.187,off
