TIME,INSIDE_TEMPERATURE,OUTSIDE_TEMPERATURE,LIGHTS_STATE

01/20/2017 12:29:25,15.875,9.5,off
01/20/2017 12:29:37,15.875,9.5,off
01/20/2017 12:29:49,15.812,9.5,off
01/20/2017 12:30:00,15.812,9.562,off
