TIME,INSIDE_TEMPERATURE,OUTSIDE_TEMPERATURE,LIGHTS_STATE

09/08/2017 12:52:26,29.625,27.187,off
09/08/2017 12:52:38,29.625,27.187,off
09/08/2017 12:52:49,29.687,27.187,off
09/08/2017 12:53:01,29.625,27.187,off
