TIME,INSIDE_TEMPERATURE,OUTSIDE_TEMPERATURE,LIGHTS_STATE

12/25/2017 12:45:25,20.5,16.875,off
12/25/2017 12:45:37,20.5,16.875,off
12/25/2017 12:45:48,20.5,16.937,off
12/25/2017 12:46:00,20.5,16.937,off
