TIME,INSIDE_TEMPERATURE,OUTSIDE_TEMPERATURE,LIGHTS_STATE

02/25/2018 12:36:26,22.812,26.562,off
02/25/2018 12:36:37,22.875,26.562,off
02/25/2018 12:36:49,22.875,26.5,off
02/25/2018 12:37:01,22.875,26.375,off
