TIME,INSIDE_TEMPERATURE,OUTSIDE_TEMPERATURE,LIGHTS_STATE

03/20/2018 12:53:25,17.0,11.25,off
03/20/2018 12:53:37,17.062,11.187,off
03/20/2018 12:53:49,17.062,11.187,off
03/20/2018 12:54:01,17.062,11.187,off
