TIME,INSIDE_TEMPERATURE,OUTSIDE_TEMPERATURE,LIGHTS_STATE

03/17/2017 12:24:25,24.187,22.312,off
03/17/2017 12:24:37,24.187,22.375,off
03/17/2017 12:24:50,24.187,22.437,off
03/17/2017 12:25:01,24.25,22.5,off
