TIME,INSIDE_TEMPERATURE,OUTSIDE_TEMPERATURE,LIGHTS_STATE

08/09/2017 12:11:25,27.062,23.937,off
08/09/2017 12:11:37,27.062,23.937,off
08/09/2017 12:11:48,27.062,24.0,off
08/09/2017 12:12:00,27.062,24.062,off
