TIME,INSIDE_TEMPERATURE,OUTSIDE_TEMPERATURE,LIGHTS_STATE

04/25/2017 12:27:25,23.312,19.75,off
04/25/2017 12:27:37,23.375,19.875,off
04/25/2017 12:27:49,23.375,19.875,off
04/25/2017 12:28:00,23.312,20.0,off
