TIME,INSIDE_TEMPERATURE,OUTSIDE_TEMPERATURE,LIGHTS_STATE

02/07/2017 12:01:25,20.75,16.125,off
02/07/2017 12:01:37,20.75,16.125,off
02/07/2017 12:01:48,20.75,16.125,off
02/07/2017 12:02:00,20.75,16.125,off
