TIME,INSIDE_TEMPERATURE,OUTSIDE_TEMPERATURE,LIGHTS_STATE

12/30/2017 12:44:25,22.062,19.687,off
12/30/2017 12:44:37,22.125,19.812,off
12/30/2017 12:44:49,22.062,19.875,off
12/30/2017 12:45:01,22.062,19.937,off
