TIME,INSIDE_TEMPERATURE,OUTSIDE_TEMPERATURE,LIGHTS_STATE

06/07/2017 12:15:25,22.625,22.125,off
06/07/2017 12:15:36,22.625,22.125,off
06/07/2017 12:15:48,22.625,22.125,off
06/07/2017 12:16:00,22.687,22.125,off
